{"created_at": "Fri Apr 03 22:08:13 +0000 2015", "favorited": false, "id": 584115213210779648, "lang": "en", "retweeted": false, "source": "<a href=\"http://www.facebook.com/twitter\" rel=\"nofollow\">Facebook</a>", "text": "What a lovely idea. Celebrate Easter and Spring--if you go by the corner of King Street and 12 Orchard Ridge Rd... http://t.co/ywKRPb1H02", "truncated": false, "urls": {"http://t.co/ywKRPb1H02": "http://fb.me/6kB3E6HMF"}, "user": {"created_at": "Tue Jul 10 18:33:10 +0000 2012", "description": "Local news and conversation from Hudson Valley, NY Patches", "favourites_count": 40, "followers_count": 2009, "friends_count": 870, "id": 632210824, "lang": "en", "listed_count": 48, "name": "Hudson Valley Patch", "profile_background_color": "C0DEED", "profile_background_image_url": "http://pbs.twimg.com/profile_background_images/606245602/gqjsav8pc052of5at3t9.jpeg", "profile_background_tile": true, "profile_banner_url": "https://pbs.twimg.com/profile_banners/632210824/1355327806", "profile_image_url": "https://pbs.twimg.com/profile_images/2385768649/j1djb2lnbhqzck58dixb_normal.jpeg", "profile_link_color": "0084B4", "profile_sidebar_fill_color": "DDEEF6", "profile_text_color": "333333", "protected": false, "screen_name": "HVPatch", "statuses_count": 6099, "url": "http://t.co/1Kb58VlEBO"}}
{"created_at": "Sat Apr 04 02:32:26 +0000 2015", "favorite_count": 1, "favorited": false, "id": 584181704845328384, "lang": "en", "retweeted": false, "source": "<a href=\"http://www.facebook.com/twitter\" rel=\"nofollow\">Facebook</a>", "text": "This how they lit New York City back in Easter of 1956. The Crosses of Calvary along the lower Manhattan skyline.... http://t.co/fifLNPEmjk", "truncated": false, "urls": {"http://t.co/fifLNPEmjk": "http://fb.me/7iVxE7QhL"}, "user": {"created_at": "Wed Jul 22 07:48:27 +0000 2009", "description": "A top-ranked speaker and trainer on leadership and management. President & CEO for BreakthroughLeadership\u2122 & @salvievents. Also an @IIP Specialist.", "favourites_count": 936, "followers_count": 3029, "friends_count": 1784, "geo_enabled": true, "id": 59068751, "lang": "en", "listed_count": 39, "location": "Makati City, Philippines", "name": "Boris Joaquin", "profile_background_color": "1A1B1F", "profile_background_image_url": "http://pbs.twimg.com/profile_background_images/542455211/Phoenix_Nebula.jpg", "profile_background_tile": true, "profile_banner_url": "https://pbs.twimg.com/profile_banners/59068751/1427184175", "profile_image_url": "https://pbs.twimg.com/profile_images/511373761631625216/dqKMGxBo_normal.jpeg", "profile_link_color": "2FC2EF", "profile_sidebar_fill_color": "252429", "profile_text_color": "666666", "protected": false, "screen_name": "BorisJoaquin", "statuses_count": 10484, "time_zone": "Singapore", "url": "http://t.co/cQE0IusJuC", "utc_offset": 28800}}
{"created_at": "Sat Apr 04 21:52:02 +0000 2015", "favorited": false, "id": 584473528411430912, "lang": "en", "retweeted": false, "source": "<a href=\"http://twitter.com\" rel=\"nofollow\">Twitter Web Client</a>", "text": "Grace Baptist Invites Community to 'Flower' Living Cross, Offers Free Easter Egg Hunt | Chappaqua-Mount KiscoNY Patch http://t.co/h8875lEXUQ", "truncated": false, "urls": {"http://t.co/h8875lEXUQ": "http://patch.com/new-york/chappaqua/grace-baptist-invites-community-flower-living-cross-offers-free-easter-egg-hunt?utm_source=newsletter-daily&utm_medium=email&utm_term=seasonal+%26+holidays&utm_campaign=newsletter&utm_content=article-mostrecent#.VSBc-I8WyMU.twitter"}, "user": {"created_at": "Sun Jun 07 02:29:32 +0000 2009", "default_profile": true, "description": "Vocalist, Animal lover, Realtor, Environmentalist, golfer. I wait to win Senior American Idol :)", "favourites_count": 1074, "followers_count": 221, "friends_count": 441, "geo_enabled": true, "id": 45266233, "lang": "en", "listed_count": 10, "location": "Westchester County, NY", "name": "Maria Clair-Howard", "profile_background_color": "C0DEED", "profile_background_image_url": "http://abs.twimg.com/images/themes/theme1/bg.png", "profile_background_tile": false, "profile_banner_url": "https://pbs.twimg.com/profile_banners/45266233/1434701014", "profile_image_url": "https://pbs.twimg.com/profile_images/611807012913942528/IT0cwhzo_normal.jpg", "profile_link_color": "0084B4", "profile_sidebar_fill_color": "DDEEF6", "profile_text_color": "333333", "protected": false, "screen_name": "Golfcats", "statuses_count": 11050, "time_zone": "Eastern Time (US & Canada)", "utc_offset": -18000}}
{"coordinates": {"coordinates": [-73.986297, 40.756646], "type": "Point"}, "created_at": "Sat Apr 04 23:13:24 +0000 2015", "favorite_count": 6, "favorited": false, "geo": {"coordinates": [40.756646, -73.986297], "type": "Point"}, "hashtags": ["NYC", "HappyFamily"], "id": 584494003640475648, "lang": "en", "place": {"attributes": {}, "bounding_box": {"coordinates": [[[-74.026675, 40.683935], [-73.910408, 40.683935], [-73.910408, 40.877483], [-74.026675, 40.877483]]], "type": "Polygon"}, "contained_within": [], "country": "United States", "country_code": "US", "full_name": "Manhattan, NY", "id": "01a9a39529b27f36", "name": "Manhattan", "place_type": "city", "url": "https://api.twitter.com/1.1/geo/id/01a9a39529b27f36.json"}, "retweeted": false, "source": "<a href=\"http://instagram.com\" rel=\"nofollow\">Instagram</a>", "text": "A very very very happy Easter to you all! #NYC #HappyFamily @ Times Square, New York City -The Cross\u2026 https://t.co/jJnM3YdRgt", "truncated": false, "urls": {"https://t.co/jJnM3YdRgt": "https://instagram.com/p/1Ei9rbmYby/"}, "user": {"created_at": "Thu Feb 11 13:05:21 +0000 2010", "description": "STUDENT - ACTOR - ENTREPRENEUR No life ever grows great until it is focused, dedicated, disciplined. https://t.co/NKZ16bjgLE", "favourites_count": 1616, "followers_count": 524811, "friends_count": 1011, "geo_enabled": true, "id": 113341451, "lang": "en", "listed_count": 897, "location": "info@futuretainmentinc.com", "name": "IG: @MarvinAgustin", "profile_background_color": "131516", "profile_background_image_url": "http://abs.twimg.com/images/themes/theme14/bg.gif", "profile_background_tile": true, "profile_banner_url": "https://pbs.twimg.com/profile_banners/113341451/1447841882", "profile_image_url": "https://pbs.twimg.com/profile_images/683270780755394560/8vYiFqg4_normal.jpg", "profile_link_color": "009999", "profile_sidebar_fill_color": "EFEFEF", "profile_text_color": "333333", "protected": false, "screen_name": "marvin_agustin", "statuses_count": 17827, "time_zone": "Alaska", "url": "https://t.co/zfQGriHKjq", "utc_offset": -32400}}
{"created_at": "Sun Apr 05 12:00:38 +0000 2015", "favorited": false, "id": 584687083794649088, "lang": "en", "retweeted": false, "source": "<a href=\"http://www.hootsuite.com\" rel=\"nofollow\">Hootsuite</a>", "text": "Happy Easter to you and your family from the American Red Cross of Central New York! http://t.co/GABT30fpE2", "truncated": false, "urls": {"http://t.co/GABT30fpE2": "http://ow.ly/i/adCLU"}, "user": {"created_at": "Fri Dec 06 14:20:55 +0000 2013", "description": "@OneRedCrossCNY serves the Central New York and Southern Tier Chapters.", "favourites_count": 235, "followers_count": 739, "friends_count": 356, "geo_enabled": true, "id": 2233064695, "lang": "en", "listed_count": 13, "location": "Syracuse/Endicott, New York", "name": "AmericanRedCross CNY", "profile_background_color": "FFFFFF", "profile_background_image_url": "http://pbs.twimg.com/profile_background_images/484005774343929856/ajaezjyD.jpeg", "profile_background_tile": false, "profile_banner_url": "https://pbs.twimg.com/profile_banners/2233064695/1407442546", "profile_image_url": "https://pbs.twimg.com/profile_images/613422173651386372/cXp50N3j_normal.jpg", "profile_link_color": "F70000", "profile_sidebar_fill_color": "DDEEF6", "profile_text_color": "333333", "protected": false, "screen_name": "OneRedCrossCNY", "statuses_count": 1769, "time_zone": "Eastern Time (US & Canada)", "url": "http://t.co/lhwLEqheIZ", "utc_offset": -18000}}
{"created_at": "Sun Apr 05 14:54:54 +0000 2015", "favorite_count": 1, "favorited": false, "id": 584730941509210112, "lang": "en", "retweet_count": 2, "retweeted": false, "source": "<a href=\"http://www.facebook.com/twitter\" rel=\"nofollow\">Facebook</a>", "text": "Easter in New York City 1956 ~ The 3 Crosses of Calvary ~ God please return this scene back to every American... http://t.co/ezCsIilJgr", "truncated": false, "urls": {"http://t.co/ezCsIilJgr": "http://fb.me/7ps6BuXcS"}, "user": {"created_at": "Sun Sep 08 21:54:07 +0000 2013", "description": "#God, #Country, #Bikers, #1stResponders, #Military, #Veterans, #2MBTDC,   2MBTDC@gmail.com", "favourites_count": 8737, "followers_count": 5042, "friends_count": 2095, "id": 1835020626, "lang": "en", "listed_count": 94, "location": "United States of America", "name": "2MillionBikerstoDC", "profile_background_color": "ABB8C2", "profile_background_image_url": "http://pbs.twimg.com/profile_background_images/616231021814677504/MuEvpBgs.jpg", "profile_background_tile": true, "profile_banner_url": "https://pbs.twimg.com/profile_banners/1835020626/1448329273", "profile_image_url": "https://pbs.twimg.com/profile_images/668967745451458560/XpYMLpiL_normal.jpg", "profile_link_color": "94D487", "profile_sidebar_fill_color": "DDEEF6", "profile_text_color": "333333", "protected": false, "screen_name": "2MBikers2DC", "statuses_count": 30700, "time_zone": "Eastern Time (US & Canada)", "url": "http://t.co/FnjrcGpTHz", "utc_offset": -18000}}
{"created_at": "Sun Apr 05 15:38:03 +0000 2015", "favorited": false, "hashtags": ["Yelp"], "id": 584741798343417856, "lang": "en", "retweeted": false, "source": "<a href=\"http://www.yelp.com/\" rel=\"nofollow\">Yelp</a>", "text": "Happy Easter \u2764\ufe0f (@ The Church of The Holy Cross) on #Yelp http://t.co/HdMzSSHUle", "truncated": false, "urls": {"http://t.co/HdMzSSHUle": "http://www.yelp.com/biz/the-church-of-the-holy-cross-new-york?pt=check_in&ref=twitter&v=4b"}, "user": {"created_at": "Wed Mar 25 02:30:17 +0000 2009", "favourites_count": 184, "followers_count": 289, "friends_count": 211, "geo_enabled": true, "id": 26404818, "lang": "en", "listed_count": 7, "name": "Erica Pro", "profile_background_color": "000000", "profile_background_image_url": "http://abs.twimg.com/images/themes/theme4/bg.gif", "profile_background_tile": false, "profile_banner_url": "https://pbs.twimg.com/profile_banners/26404818/1402424256", "profile_image_url": "https://pbs.twimg.com/profile_images/500464311375253504/73He6Zo2_normal.jpeg", "profile_link_color": "BD0000", "profile_sidebar_fill_color": "95E8EC", "profile_text_color": "3C3940", "protected": false, "screen_name": "x3ericaPro", "statuses_count": 4339, "time_zone": "Eastern Time (US & Canada)", "utc_offset": -18000}}
{"created_at": "Sun Apr 05 19:07:29 +0000 2015", "favorite_count": 6, "favorited": false, "hashtags": ["Easter", "peeps"], "id": 584794506312097793, "lang": "en", "retweeted": false, "source": "<a href=\"http://instagram.com\" rel=\"nofollow\">Instagram</a>", "text": "Happy #Easter everyone!!!! #peeps #50%offcandytomorrow @ Times Square, New York City -The Cross Road\u2026 https://t.co/AUSGJQ8EDa", "truncated": false, "urls": {"https://t.co/AUSGJQ8EDa": "https://instagram.com/p/1GrnbBhBMG/"}, "user": {"created_at": "Wed Apr 15 19:41:23 +0000 2009", "description": "actor.spokesmodel.former WWE http://t.co/vI97xVAjI0 wrestler.LA dreamer. #LuchaUnderground instagram/snapchat: missangelafong1 angelafongdirect@gmail.com", "favourites_count": 228, "followers_count": 46266, "friends_count": 798, "geo_enabled": true, "id": 31495939, "lang": "en", "listed_count": 959, "location": "Los Angeles, CA", "name": "Angela Fong", "profile_background_color": "FF6699", "profile_background_image_url": "http://pbs.twimg.com/profile_background_images/136783832/Twitter_background_for_Angela_Fong001_b.jpg", "profile_background_tile": false, "profile_banner_url": "https://pbs.twimg.com/profile_banners/31495939/1400620077", "profile_image_url": "https://pbs.twimg.com/profile_images/606650542064992256/GNE6Zg6r_normal.jpg", "profile_link_color": "B40B43", "profile_sidebar_fill_color": "E5507E", "profile_text_color": "362720", "protected": false, "screen_name": "missangelafong1", "statuses_count": 11331, "time_zone": "Pacific Time (US & Canada)", "url": "http://t.co/ROsGXLY4sj", "utc_offset": -28800}}
{"created_at": "Sun Apr 05 22:03:41 +0000 2015", "favorite_count": 2, "favorited": false, "hashtags": ["Easter", "Manhattan"], "id": 584838848301047808, "lang": "en", "media": [{"display_url": "pic.twitter.com/1vy7cNu4nN", "expanded_url": "http://twitter.com/MichiganOnline/status/584838848301047808/photo/1", "id": 584838846682046464, "id_str": "584838846682046464", "indices": [92, 114], "media_url": "http://pbs.twimg.com/media/CB3D1RtVIAAkpZz.jpg", "media_url_https": "https://pbs.twimg.com/media/CB3D1RtVIAAkpZz.jpg", "sizes": {"large": {"h": 532, "resize": "fit", "w": 720}, "medium": {"h": 443, "resize": "fit", "w": 600}, "small": {"h": 251, "resize": "fit", "w": 340}, "thumb": {"h": 150, "resize": "crop", "w": 150}}, "type": "photo", "url": "http://t.co/1vy7cNu4nN"}], "retweet_count": 1, "retweeted": false, "source": "<a href=\"http://www.tweetcaster.com\" rel=\"nofollow\">TweetCaster for Android</a>", "text": "1956 New York \u2013 Huge crosses New York\u2019s skyline as part of an #Easter display in #Manhattan http://t.co/1vy7cNu4nN", "truncated": false, "user": {"created_at": "Tue Nov 10 02:42:21 +0000 2009", "description": "All things Michigan! #Detroit #Lansing #GrandRapids #Flint #AnnArbor #SterlingHeights #Warren #Dearborn...", "favourites_count": 3, "followers_count": 1521, "friends_count": 183, "id": 88832457, "lang": "en", "listed_count": 68, "location": "USA", "name": "Michigan Online", "profile_background_color": "191410", "profile_background_image_url": "http://pbs.twimg.com/profile_background_images/63295241/Detroit_Michigan.jpg", "profile_background_tile": false, "profile_image_url": "https://pbs.twimg.com/profile_images/1749809140/twitter-michigan-online_normal.jpg", "profile_link_color": "0084B4", "profile_sidebar_fill_color": "DDEEF6", "profile_text_color": "333333", "protected": false, "screen_name": "MichiganOnline", "statuses_count": 217721, "time_zone": "Eastern Time (US & Canada)", "url": "http://t.co/O5Bf9IKii2", "utc_offset": -18000}}
{"created_at": "Sun Apr 05 22:03:44 +0000 2015", "favorited": false, "hashtags": ["Easter", "Manhattan"], "id": 584838859906686976, "lang": "en", "media": [{"display_url": "pic.twitter.com/s0PTO9snzs", "expanded_url": "http://twitter.com/NYCityOnline/status/584838859906686976/photo/1", "id": 584838854076575745, "id_str": "584838854076575745", "indices": [92, 114], "media_url": "http://pbs.twimg.com/media/CB3D1tQUsAEp1FT.jpg", "media_url_https": "https://pbs.twimg.com/media/CB3D1tQUsAEp1FT.jpg", "sizes": {"large": {"h": 532, "resize": "fit", "w": 720}, "medium": {"h": 443, "resize": "fit", "w": 600}, "small": {"h": 251, "resize": "fit", "w": 340}, "thumb": {"h": 150, "resize": "crop", "w": 150}}, "type": "photo", "url": "http://t.co/s0PTO9snzs"}], "retweeted": false, "source": "<a href=\"http://www.tweetcaster.com\" rel=\"nofollow\">TweetCaster for Android</a>", "text": "1956 New York \u2013 Huge crosses New York\u2019s skyline as part of an #Easter display in #Manhattan http://t.co/s0PTO9snzs", "truncated": false, "user": {"created_at": "Fri Jul 04 11:44:12 +0000 2014", "default_profile": true, "description": "NY CITY ONLINE", "favourites_count": 2, "followers_count": 104, "friends_count": 163, "id": 2603352631, "lang": "en", "listed_count": 7, "location": "New York City", "name": "NEW YORK CITY ONLINE", "profile_background_color": "C0DEED", "profile_background_image_url": "http://abs.twimg.com/images/themes/theme1/bg.png", "profile_background_tile": false, "profile_banner_url": "https://pbs.twimg.com/profile_banners/2603352631/1407220518", "profile_image_url": "https://pbs.twimg.com/profile_images/496544803073441794/nri1Mlj3_normal.jpeg", "profile_link_color": "0084B4", "profile_sidebar_fill_color": "DDEEF6", "profile_text_color": "333333", "protected": false, "screen_name": "NYCityOnline", "statuses_count": 19397, "time_zone": "Eastern Time (US & Canada)", "url": "http://t.co/OJ9HJlnO0t", "utc_offset": -18000}}
{"created_at": "Sun Apr 05 22:05:38 +0000 2015", "favorite_count": 3, "favorited": false, "id": 584839335544893440, "lang": "en", "media": [{"display_url": "pic.twitter.com/kjZ2Qig2Zc", "expanded_url": "http://twitter.com/alaskaonline/status/584839335544893440/photo/1", "id": 584839333426790400, "id_str": "584839333426790400", "indices": [110, 132], "media_url": "http://pbs.twimg.com/media/CB3ERm-UgAAh_le.jpg", "media_url_https": "https://pbs.twimg.com/media/CB3ERm-UgAAh_le.jpg", "sizes": {"large": {"h": 532, "resize": "fit", "w": 720}, "medium": {"h": 443, "resize": "fit", "w": 600}, "small": {"h": 251, "resize": "fit", "w": 340}, "thumb": {"h": 150, "resize": "crop", "w": 150}}, "type": "photo", "url": "http://t.co/kjZ2Qig2Zc"}], "retweet_count": 1, "retweeted": false, "source": "<a href=\"http://www.tweetcaster.com\" rel=\"nofollow\">TweetCaster for Android</a>", "text": "3/29/1956 New York \u2013 Huge crosses, formed by lighted windows Easter display in Manhattan\u2019s financial district http://t.co/kjZ2Qig2Zc", "truncated": false, "user": {"created_at": "Wed Oct 28 02:12:51 +0000 2009", "description": "Alaska Online! News And Events From Around The 49th State! Anchorage Alaska, Fairbanks Alaska, Wassilla, Homer, Juneau, Barrow, Nome, Ketchikan, Kodiak..", "favourites_count": 6, "followers_count": 2018, "friends_count": 241, "id": 85722464, "lang": "en", "listed_count": 91, "location": "The Great State Of Alaska!", "name": "Alaska Online", "profile_background_color": "FAFCEF", "profile_background_image_url": "http://pbs.twimg.com/profile_background_images/76188362/AnchAlaska_Twitter_Background.jpg", "profile_background_tile": false, "profile_image_url": "https://pbs.twimg.com/profile_images/668620445/AnchAlaska_Twitter_Icon_normal.jpg", "profile_link_color": "0084B4", "profile_sidebar_fill_color": "DDEEF6", "profile_text_color": "333333", "protected": false, "screen_name": "alaskaonline", "statuses_count": 66404, "time_zone": "Alaska", "url": "http://t.co/7nDT43zpAj", "utc_offset": -32400}}
{"created_at": "Sun Apr 05 22:10:55 +0000 2015", "favorite_count": 1, "favorited": false, "hashtags": ["Easter"], "id": 584840667735654401, "lang": "en", "retweeted": false, "source": "<a href=\"http://twitter.com/download/android\" rel=\"nofollow\">Twitter for Android</a>", "text": "3 crosses NYC #Easter 1956. What a sight. Will we ever see this again?  http://t.co/64HiX5IHMh", "truncated": false, "urls": {"http://t.co/64HiX5IHMh": "http://stuffnobodycaresabout.com/2014/03/25/lit-new-york-easter-1956/"}, "user": {"created_at": "Sat Jun 02 20:31:41 +0000 2012", "description": "Certifiably Jesusfied to live in Christ, blog about Christ, and teach all that is Christ. Biblical Studies, Bethel U; Minister for Discipleship, Hope Church", "favourites_count": 164, "followers_count": 619, "friends_count": 465, "id": 597724996, "lang": "en", "listed_count": 12, "location": "Richfield, MN", "name": "gloria wiese", "profile_background_color": "022330", "profile_background_image_url": "http://abs.twimg.com/images/themes/theme15/bg.png", "profile_background_tile": false, "profile_banner_url": "https://pbs.twimg.com/profile_banners/597724996/1400014560", "profile_image_url": "https://pbs.twimg.com/profile_images/500996590224826370/oR3lvNCr_normal.jpeg", "profile_link_color": "2463E0", "profile_sidebar_fill_color": "C0DFEC", "profile_text_color": "333333", "protected": false, "screen_name": "askdrglow", "statuses_count": 593, "url": "http://t.co/xNhbmjPvGG"}}
{"coordinates": {"coordinates": [-73.986297, 40.756646], "type": "Point"}, "created_at": "Sun Apr 05 23:22:46 +0000 2015", "favorited": false, "geo": {"coordinates": [40.756646, -73.986297], "type": "Point"}, "id": 584858747278876672, "lang": "en", "place": {"attributes": {}, "bounding_box": {"coordinates": [[[-74.026675, 40.683935], [-73.910408, 40.683935], [-73.910408, 40.877483], [-74.026675, 40.877483]]], "type": "Polygon"}, "contained_within": [], "country": "United States", "country_code": "US", "full_name": "Manhattan, NY", "id": "01a9a39529b27f36", "name": "Manhattan", "place_type": "city", "url": "https://api.twitter.com/1.1/geo/id/01a9a39529b27f36.json"}, "retweeted": false, "source": "<a href=\"http://instagram.com\" rel=\"nofollow\">Instagram</a>", "text": "Easter Sunday in TimeSquare! BBQs Next Stop @ Times Square, New York City -The Cross Road of The World. https://t.co/vTTwlYfyvS", "truncated": false, "urls": {"https://t.co/vTTwlYfyvS": "https://instagram.com/p/1HI1IKio9n/"}, "user": {"created_at": "Sun Mar 06 05:46:22 +0000 2011", "description": "African nigga Liberia made and raised me! Va fucked my life now currently residing in NYC! Trying this promoting thing dreadhead_e87 or easy_e87", "favourites_count": 398, "followers_count": 2182, "friends_count": 1672, "geo_enabled": true, "id": 261558003, "lang": "en", "listed_count": 14, "location": "NYC!! #Bronx", "name": "Prince Akeem", "profile_background_color": "C0DEED", "profile_background_image_url": "http://pbs.twimg.com/profile_background_images/420420238/408080_2923835347729_1616227194_2450720_87416726_n.jpg", "profile_background_tile": true, "profile_banner_url": "https://pbs.twimg.com/profile_banners/261558003/1395652476", "profile_image_url": "https://pbs.twimg.com/profile_images/519464882761388032/U7SgPcOZ_normal.jpeg", "profile_link_color": "0084B4", "profile_sidebar_fill_color": "DDEEF6", "profile_text_color": "333333", "protected": false, "screen_name": "EASY_E87", "statuses_count": 175114, "time_zone": "Pacific Time (US & Canada)", "url": "https://t.co/xQfUTSV2ay", "utc_offset": -28800}}
{"created_at": "Sun Apr 05 23:23:23 +0000 2015", "favorited": false, "hashtags": ["NYC"], "id": 584858905156653056, "lang": "en", "retweeted": false, "source": "<a href=\"http://instagram.com\" rel=\"nofollow\">Instagram</a>", "text": "Easter Easter #NYC \ud83d\udc30\u2728 @ Times Square, New York City -The Cross Road of The World. https://t.co/jEl9lgVpa5", "truncated": false, "urls": {"https://t.co/jEl9lgVpa5": "https://instagram.com/p/1HI5uqvCBE/"}, "user": {"created_at": "Sat Apr 27 06:11:19 +0000 2013", "default_profile": true, "description": "uh huh honey", "favourites_count": 8880, "followers_count": 514, "friends_count": 489, "id": 1383673818, "lang": "en", "location": "New York, NY", "name": "Josie Guadagnano", "profile_background_color": "C0DEED", "profile_background_image_url": "http://abs.twimg.com/images/themes/theme1/bg.png", "profile_background_tile": false, "profile_banner_url": "https://pbs.twimg.com/profile_banners/1383673818/1452446628", "profile_image_url": "https://pbs.twimg.com/profile_images/687114345189261312/q2B5BesP_normal.jpg", "profile_link_color": "0084B4", "profile_sidebar_fill_color": "DDEEF6", "profile_text_color": "333333", "protected": false, "screen_name": "josieguadagnano", "statuses_count": 2824, "time_zone": "Central Time (US & Canada)", "url": "https://t.co/BkoC7aBlqf", "utc_offset": -21600}}
{"created_at": "Mon Apr 06 00:40:07 +0000 2015", "favorited": false, "id": 584878213756805120, "lang": "en", "retweeted": false, "source": "<a href=\"http://www.facebook.com/twitter\" rel=\"nofollow\">Facebook</a>", "text": "3/29/1956 New York \u2013 Huge crosses, formed by lighted windows blaze above New York\u2019s skyline as part of an Easter... http://t.co/5loJXDHBH5", "truncated": false, "urls": {"http://t.co/5loJXDHBH5": "http://fb.me/1WOb6HjMr"}, "user": {"created_at": "Thu Sep 09 17:52:32 +0000 2010", "favourites_count": 1, "followers_count": 91, "friends_count": 151, "geo_enabled": true, "id": 188828184, "lang": "en", "listed_count": 2, "location": "Blairsville, GA", "name": "Ernest W Kamber Jr", "profile_background_color": "C0DEED", "profile_background_image_url": "http://pbs.twimg.com/profile_background_images/676506975/6bfdccee9ed1498e87e5666f53c3eee4.jpeg", "profile_background_tile": false, "profile_banner_url": "https://pbs.twimg.com/profile_banners/188828184/1349368690", "profile_image_url": "https://pbs.twimg.com/profile_images/1130412602/Me_normal.jpg", "profile_link_color": "0084B4", "profile_sidebar_fill_color": "DDEEF6", "profile_text_color": "333333", "protected": false, "screen_name": "ernestkamber", "statuses_count": 8312, "url": "http://t.co/mvnWyDtZNk"}}
{"coordinates": {"coordinates": [-73.986297, 40.756646], "type": "Point"}, "created_at": "Mon Apr 06 01:43:13 +0000 2015", "favorite_count": 1, "favorited": false, "geo": {"coordinates": [40.756646, -73.986297], "type": "Point"}, "hashtags": ["LGBT", "LoveNOTHate", "NYC"], "id": 584894095014961152, "lang": "en", "place": {"attributes": {}, "bounding_box": {"coordinates": [[[-74.026675, 40.683935], [-73.910408, 40.683935], [-73.910408, 40.877483], [-74.026675, 40.877483]]], "type": "Polygon"}, "contained_within": [], "country": "United States", "country_code": "US", "full_name": "Manhattan, NY", "id": "01a9a39529b27f36", "name": "Manhattan", "place_type": "city", "url": "https://api.twitter.com/1.1/geo/id/01a9a39529b27f36.json"}, "retweeted": false, "source": "<a href=\"http://instagram.com\" rel=\"nofollow\">Instagram</a>", "text": "Happy Easter Sungay #LGBT #LoveNOTHate #NYC @ Times Square, New York City -The Cross Road of The World. https://t.co/kAhkOpK5o3", "truncated": false, "urls": {"https://t.co/kAhkOpK5o3": "https://instagram.com/p/1HY52KqXaW/"}, "user": {"created_at": "Sun Nov 13 01:58:18 +0000 2011", "description": "My mission in life is not merely to survive, but to thrive; and to do so with some passion, some compassion, some humor, and some style.", "favourites_count": 12069, "followers_count": 217, "friends_count": 911, "geo_enabled": true, "id": 411148619, "lang": "en", "listed_count": 11, "location": "Lost where I belong ", "name": "Kelz", "profile_background_color": "D8000E", "profile_background_image_url": "http://pbs.twimg.com/profile_background_images/559320155/x138909ba1da4236e10240fba10f2128.png", "profile_background_tile": true, "profile_banner_url": "https://pbs.twimg.com/profile_banners/411148619/1397224745", "profile_image_url": "https://pbs.twimg.com/profile_images/672483757564104705/oe-Joox8_normal.jpg", "profile_link_color": "FF4B14", "profile_sidebar_fill_color": "BFE500", "profile_text_color": "EFE704", "protected": false, "screen_name": "AnalogGrrrL", "statuses_count": 14243, "time_zone": "Central Time (US & Canada)", "utc_offset": -21600}}
{"created_at": "Mon Apr 06 14:33:40 +0000 2015", "favorite_count": 1, "favorited": false, "hashtags": ["timessquare", "love", "manhattanliving", "easter", "manhattan", "nyc"], "id": 585087982534791168, "lang": "en", "retweeted": false, "source": "<a href=\"http://instagram.com\" rel=\"nofollow\">Instagram</a>", "text": "#timessquare #love #manhattanliving #easter #manhattan #nyc @ Times Square, New York City -The Cross\u2026 https://t.co/NmUgSb4Cbl", "truncated": false, "urls": {"https://t.co/NmUgSb4Cbl": "https://instagram.com/p/1IxEvlBY3r/"}, "user": {"created_at": "Thu Oct 17 17:20:09 +0000 2013", "default_profile": true, "favourites_count": 12, "followers_count": 40, "friends_count": 72, "id": 1967255690, "lang": "en", "listed_count": 4, "name": "David", "profile_background_color": "C0DEED", "profile_background_image_url": "http://abs.twimg.com/images/themes/theme1/bg.png", "profile_background_tile": false, "profile_image_url": "https://pbs.twimg.com/profile_images/378800000610062111/67570d0c32b951c69ddd5ac071c9d32c_normal.jpeg", "profile_link_color": "0084B4", "profile_sidebar_fill_color": "DDEEF6", "profile_text_color": "333333", "protected": false, "screen_name": "dabagnera1", "statuses_count": 685}}
{"created_at": "Tue Apr 07 03:33:05 +0000 2015", "favorited": false, "id": 585284132571320320, "lang": "en", "retweeted": false, "source": "<a href=\"http://www.facebook.com/twitter\" rel=\"nofollow\">Facebook</a>", "text": "3/29/1956 New York \u2013 Huge crosses, formed by lighted windows blaze above New York\u2019s skyline as part of an Easter... http://t.co/CiMLdL7xho", "truncated": false, "urls": {"http://t.co/CiMLdL7xho": "http://fb.me/6zuyC6Vux"}, "user": {"created_at": "Mon Jul 25 18:05:19 +0000 2011", "description": "The Photo Above is of my Great Great Grandparents standing in front of the Church they Built by Hand in the 1890's and Pastored in Florida..", "favourites_count": 1949, "followers_count": 439, "friends_count": 628, "id": 342240226, "lang": "en", "listed_count": 15, "location": "California, USA", "name": "Art Ald", "profile_background_color": "000000", "profile_background_image_url": "http://abs.twimg.com/images/themes/theme4/bg.gif", "profile_background_tile": false, "profile_banner_url": "https://pbs.twimg.com/profile_banners/342240226/1448522380", "profile_image_url": "https://pbs.twimg.com/profile_images/1556518736/Church_A_normal.jpg", "profile_link_color": "9266CC", "profile_sidebar_fill_color": "000000", "profile_text_color": "000000", "protected": false, "screen_name": "almost2good2b", "statuses_count": 4056, "time_zone": "America/Los_Angeles", "utc_offset": -28800}}
{"created_at": "Wed Apr 29 18:30:14 +0000 2015", "favorited": false, "id": 593482438761910272, "lang": "en", "media": [{"display_url": "pic.twitter.com/MUi4OkGmfY", "expanded_url": "http://twitter.com/SUITCASEmag/status/593482438761910272/photo/1", "id": 593482438636077056, "id_str": "593482438636077056", "indices": [65, 87], "media_url": "http://pbs.twimg.com/media/CDx5Ii9WAAAjj3U.jpg", "media_url_https": "https://pbs.twimg.com/media/CDx5Ii9WAAAjj3U.jpg", "sizes": {"large": {"h": 649, "resize": "fit", "w": 445}, "medium": {"h": 649, "resize": "fit", "w": 445}, "small": {"h": 495, "resize": "fit", "w": 340}, "thumb": {"h": 150, "resize": "crop", "w": 150}}, "type": "photo", "url": "http://t.co/MUi4OkGmfY"}], "retweeted": false, "source": "<a href=\"http://bufferapp.com\" rel=\"nofollow\">Buffer</a>", "text": "The best hot cross buns in New York City: http://t.co/0on1oMWIwx http://t.co/MUi4OkGmfY", "truncated": false, "urls": {"http://t.co/0on1oMWIwx": "http://bit.ly/1InteQi"}, "user": {"created_at": "Mon Dec 19 22:55:20 +0000 2011", "description": "City guides, trends and hotspots from the world's first experiential Travel + Fashion magazine. Print, online and an app. Vol.11: http://t.co/XtU56g3mqU", "favourites_count": 2877, "followers_count": 29836, "friends_count": 334, "geo_enabled": true, "id": 441280684, "lang": "en", "listed_count": 477, "location": "London", "name": "SUITCASE", "profile_background_color": "CAE3EB", "profile_background_image_url": "http://abs.twimg.com/images/themes/theme1/bg.png", "profile_background_tile": true, "profile_banner_url": "https://pbs.twimg.com/profile_banners/441280684/1449060869", "profile_image_url": "https://pbs.twimg.com/profile_images/672036021933121536/oEhDQPGT_normal.jpg", "profile_link_color": "5EB3EB", "profile_sidebar_fill_color": "DDEEF6", "profile_text_color": "333333", "protected": false, "screen_name": "SUITCASEmag", "statuses_count": 11856, "time_zone": "London", "url": "http://t.co/RQNpC1pBS6"}}
{"created_at": "Mon Jun 08 11:22:13 +0000 2015", "favorite_count": 3, "favorited": false, "id": 607870240282812417, "lang": "en", "media": [{"display_url": "pic.twitter.com/o1hKw5lElN", "expanded_url": "http://twitter.com/AndyTho10107697/status/607870240282812417/photo/1", "id": 607870232879767554, "id_str": "607870232879767554", "indices": [106, 128], "media_url": "http://pbs.twimg.com/media/CG-WwZRVIAIEFmv.jpg", "media_url_https": "https://pbs.twimg.com/media/CG-WwZRVIAIEFmv.jpg", "sizes": {"large": {"h": 758, "resize": "fit", "w": 1024}, "medium": {"h": 444, "resize": "fit", "w": 600}, "small": {"h": 251, "resize": "fit", "w": 340}, "thumb": {"h": 150, "resize": "crop", "w": 150}}, "type": "photo", "url": "http://t.co/o1hKw5lElN"}], "retweet_count": 4, "retweeted": false, "source": "<a href=\"http://twitter.com/download/iphone\" rel=\"nofollow\">Twitter for iPhone</a>", "text": "Crosses on New York Buildings?  NOT TODAY !!!  But they DID IN 1956 for EASTER !!!  What Have We Become ? http://t.co/o1hKw5lElN", "truncated": false, "user": {"created_at": "Mon Mar 19 17:19:30 +0000 2012", "description": "Conservative, U.S. Naval Academy, Former USMC Officer, KY Native, MBA Univ. of S. FL, Constitution, NRA Life Member,Pro-Life,Baptist-KJV ONLY, AMERICAN PATRIOT!", "favourites_count": 9200, "followers_count": 23606, "friends_count": 25756, "geo_enabled": true, "id": 529548712, "lang": "en", "listed_count": 383, "location": "Land O Lakes, Florida", "name": "Andy Thompson", "profile_background_color": "000000", "profile_background_image_url": "http://abs.twimg.com/images/themes/theme1/bg.png", "profile_background_tile": false, "profile_banner_url": "https://pbs.twimg.com/profile_banners/529548712/1404215437", "profile_image_url": "https://pbs.twimg.com/profile_images/2304344715/lgbub13sn8s7vg337gj7_normal.jpeg", "profile_link_color": "3B94D9", "profile_sidebar_fill_color": "000000", "profile_text_color": "000000", "protected": false, "screen_name": "AndyTho10107697", "statuses_count": 62889, "time_zone": "Atlantic Time (Canada)", "url": "https://t.co/nb7eNiEl1D", "utc_offset": -14400}}
{"created_at": "Wed Jul 01 17:23:40 +0000 2015", "favorite_count": 45, "favorited": false, "id": 616296123389456385, "lang": "en", "media": [{"display_url": "pic.twitter.com/CANK6aovXr", "expanded_url": "http://twitter.com/JewhadiTM/status/616296123389456385/photo/1", "id": 616296115671994368, "id_str": "616296115671994368", "indices": [97, 119], "media_url": "http://pbs.twimg.com/media/CI2GDUsVEAAHDdz.jpg", "media_url_https": "https://pbs.twimg.com/media/CI2GDUsVEAAHDdz.jpg", "sizes": {"large": {"h": 665, "resize": "fit", "w": 900}, "medium": {"h": 443, "resize": "fit", "w": 600}, "small": {"h": 251, "resize": "fit", "w": 340}, "thumb": {"h": 150, "resize": "crop", "w": 150}}, "type": "photo", "url": "http://t.co/CANK6aovXr"}], "retweet_count": 52, "retweeted": false, "source": "<a href=\"http://twitter.com/download/iphone\" rel=\"nofollow\">Twitter for iPhone</a>", "text": "Many would now call these crosses a symbol of \"oppression.\" \n\nNew York City skyline, Easter 1956 http://t.co/CANK6aovXr", "truncated": false, "user": {"created_at": "Wed Apr 23 00:33:48 +0000 2014", "default_profile": true, "description": "#Politics #Sports #USMilitary #LoveOurLEOs #TruthMatters #MiddleEast #2A #ISRAEL #Kurds #Yazidi #WeAreN \u2721 #100PercentReal (RTs/Tweets Don't Always = Agreement)", "favourites_count": 85625, "followers_count": 27756, "friends_count": 18486, "id": 2502895924, "lang": "en", "listed_count": 434, "location": "I Dont Follow The Crowd, USA", "name": "Jewhadi\u2122", "profile_background_color": "C0DEED", "profile_background_image_url": "http://abs.twimg.com/images/themes/theme1/bg.png", "profile_background_tile": false, "profile_banner_url": "https://pbs.twimg.com/profile_banners/2502895924/1451747817", "profile_image_url": "https://pbs.twimg.com/profile_images/675902480220225537/JBmQReQH_normal.jpg", "profile_link_color": "0084B4", "profile_sidebar_fill_color": "DDEEF6", "profile_text_color": "333333", "protected": false, "screen_name": "JewhadiTM", "statuses_count": 117509, "time_zone": "Pacific Time (US & Canada)", "utc_offset": -28800}}
{"created_at": "Tue Jul 14 03:46:55 +0000 2015", "favorited": false, "id": 620801622499831808, "lang": "en", "retweeted": false, "source": "<a href=\"http://www.facebook.com/twitter\" rel=\"nofollow\">Facebook</a>", "text": "New York city skyline from Easter 1956! We were a nation unashamed of the cross of Christ! 60 years later and we... http://t.co/ziUuOlWUic", "truncated": false, "urls": {"http://t.co/ziUuOlWUic": "http://fb.me/7xJMsnUXB"}, "user": {"created_at": "Mon Dec 15 22:16:54 +0000 2014", "description": "Lover of His Presence! Husband to Mariel. Father to Nadir, Levi, Micah, & Josiah. Founder of God Carriers International.", "favourites_count": 191, "followers_count": 86, "friends_count": 131, "geo_enabled": true, "id": 2931633673, "lang": "en", "listed_count": 2, "location": "Orlando, FL", "name": "Ronell Tate", "profile_background_color": "000000", "profile_background_image_url": "http://abs.twimg.com/images/themes/theme1/bg.png", "profile_background_tile": false, "profile_banner_url": "https://pbs.twimg.com/profile_banners/2931633673/1436246107", "profile_image_url": "https://pbs.twimg.com/profile_images/544618635013013505/Jrp9-Jrf_normal.jpeg", "profile_link_color": "3B94D9", "profile_sidebar_fill_color": "000000", "profile_text_color": "000000", "protected": false, "screen_name": "pastorRTate", "statuses_count": 1082}}
{"created_at": "Tue Jul 14 10:46:02 +0000 2015", "favorited": false, "id": 620907099170713600, "lang": "en", "retweeted": false, "source": "<a href=\"http://instagram.com\" rel=\"nofollow\">Instagram</a>", "text": "The New York skyline on Easter in 1956.  A time when this nation wasn't ashamed of the cross of\u2026 https://t.co/Jg8wHsgwhE", "truncated": false, "urls": {"https://t.co/Jg8wHsgwhE": "https://instagram.com/p/5HRuQuL3jp/"}, "user": {"created_at": "Thu Mar 26 22:42:57 +0000 2009", "description": "Just livin' life trying to make Jesus Christ the most popular person on this earth.", "favourites_count": 753, "followers_count": 276, "friends_count": 470, "id": 26875228, "lang": "en", "listed_count": 4, "location": "Cleveland, Tennessee", "name": "Scott 'String' Kress", "profile_background_color": "C0DEED", "profile_background_image_url": "http://pbs.twimg.com/profile_background_images/282355849/nail-scarred-hands.jpg", "profile_background_tile": true, "profile_image_url": "https://pbs.twimg.com/profile_images/1423646261/nail-scarred-hands_normal.jpg", "profile_link_color": "0084B4", "profile_sidebar_fill_color": "DDEEF6", "profile_text_color": "333333", "protected": false, "screen_name": "NailSkardHanz", "statuses_count": 10300, "time_zone": "Quito", "utc_offset": -18000}}
{"created_at": "Tue Oct 27 15:51:01 +0000 2015", "favorited": false, "id": 659034576329703425, "in_reply_to_screen_name": "realDonaldTrump", "in_reply_to_user_id": 25073877, "lang": "en", "retweeted": false, "source": "<a href=\"http://twitter.com\" rel=\"nofollow\">Twitter Web Client</a>", "text": "@realDonaldTrump In Easter 1956, the Trump Building at 40 Wall St was one of 3 skyscrapers lit up with crosses.  https://t.co/u2yWENnzsp", "truncated": false, "urls": {"https://t.co/u2yWENnzsp": "http://stuffnobodycaresabout.com/2014/03/25/lit-new-york-easter-1956/"}, "user": {"created_at": "Fri Jul 02 02:48:56 +0000 2010", "description": "Tax Director https://t.co/fcn2Kp7gp2", "favourites_count": 15, "followers_count": 177, "friends_count": 168, "id": 161904881, "lang": "en", "listed_count": 11, "location": "Millbrae, CA", "name": "Dale Holmgren", "profile_background_color": "D9042F", "profile_background_image_url": "http://pbs.twimg.com/profile_background_images/129084008/Proof-Like-Ultra-High-Relief_American_Eagle.jpg", "profile_background_tile": false, "profile_banner_url": "https://pbs.twimg.com/profile_banners/161904881/1357079423", "profile_image_url": "https://pbs.twimg.com/profile_images/378800000740401342/004acae699250bfc97276d15505480c8_normal.jpeg", "profile_link_color": "E7233F", "profile_sidebar_fill_color": "F8E443", "profile_text_color": "333333", "protected": false, "screen_name": "daleholmgren", "statuses_count": 2068, "time_zone": "Pacific Time (US & Canada)", "url": "https://t.co/ipWsiQbq", "utc_offset": -28800}, "user_mentions": [{"id": 25073877, "name": "Donald J. Trump", "screen_name": "realDonaldTrump"}]}
{"created_at": "Tue Nov 24 18:58:44 +0000 2015", "favorited": false, "id": 669228674403581953, "lang": "en", "media": [{"display_url": "pic.twitter.com/an88miceSd", "expanded_url": "http://twitter.com/vinnysgreen/status/669228674403581953/photo/1", "id": 669228674269351936, "id_str": "669228674269351936", "indices": [44, 67], "media_url": "http://pbs.twimg.com/media/CUmT7vtUkAAcLS7.jpg", "media_url_https": "https://pbs.twimg.com/media/CUmT7vtUkAAcLS7.jpg", "sizes": {"large": {"h": 518, "resize": "fit", "w": 700}, "medium": {"h": 444, "resize": "fit", "w": 600}, "small": {"h": 251, "resize": "fit", "w": 340}, "thumb": {"h": 150, "resize": "crop", "w": 150}}, "type": "photo", "url": "https://t.co/an88miceSd"}], "retweeted": false, "source": "<a href=\"http://dlvr.it\" rel=\"nofollow\">dlvr.it</a>", "text": "Crosses on New York https://t.co/HGB7zW2WuX https://t.co/an88miceSd", "truncated": false, "urls": {"https://t.co/HGB7zW2WuX": "http://www.snopes.com/new-york-easter-cross-light-display/?utm_source=dlvr.it&utm_medium=twitter&utm_campaign=vinnysgreen"}, "user": {"created_at": "Tue Nov 11 20:09:34 +0000 2014", "description": "| https://t.co/Xt6XDiqOGc | https://t.co/SEI0Yy3IRo | https://t.co/Q7uZwoes2v | Marine Veteran, Ally, Political Junkie. Retweets are just retweets...", "favourites_count": 446, "followers_count": 415, "friends_count": 1740, "id": 2896866728, "lang": "en", "listed_count": 9, "location": "San Diego, CA", "name": "Vinny Green", "profile_background_color": "000000", "profile_background_image_url": "http://abs.twimg.com/images/themes/theme1/bg.png", "profile_background_tile": false, "profile_image_url": "https://pbs.twimg.com/profile_images/646510682989400064/53u-SeYI_normal.jpg", "profile_link_color": "3B94D9", "profile_sidebar_fill_color": "000000", "profile_text_color": "000000", "protected": false, "screen_name": "vinnysgreen", "statuses_count": 1712, "time_zone": "Pacific Time (US & Canada)", "url": "http://t.co/2ZoIAPUdGu", "utc_offset": -28800}}
{"created_at": "Tue Nov 24 19:01:55 +0000 2015", "favorite_count": 27, "favorited": false, "id": 669229477172523008, "lang": "en", "media": [{"display_url": "pic.twitter.com/PBvppnwtfX", "expanded_url": "http://twitter.com/snopes/status/669229477172523008/photo/1", "id": 669229471791091712, "id_str": "669229471791091712", "indices": [75, 98], "media_url": "http://pbs.twimg.com/media/CUmUqKtUkAAVAKo.jpg", "media_url_https": "https://pbs.twimg.com/media/CUmUqKtUkAAVAKo.jpg", "sizes": {"large": {"h": 518, "resize": "fit", "w": 700}, "medium": {"h": 444, "resize": "fit", "w": 600}, "small": {"h": 251, "resize": "fit", "w": 340}, "thumb": {"h": 150, "resize": "crop", "w": 150}}, "type": "photo", "url": "https://t.co/PBvppnwtfX"}], "retweet_count": 17, "retweeted": false, "source": "<a href=\"http://twitter.com\" rel=\"nofollow\">Twitter Web Client</a>", "text": "Authentic image of window crosses in NYC in 1956:\n\nhttps://t.co/ApktGDJ1qB https://t.co/PBvppnwtfX", "truncated": false, "urls": {"https://t.co/ApktGDJ1qB": "http://www.snopes.com/new-york-easter-cross-light-display/"}, "user": {"created_at": "Thu Apr 03 17:00:11 +0000 2008", "description": "The definitive Internet reference source for urban legends, folklore, myths, rumors, and misinformation.", "favourites_count": 12, "followers_count": 118731, "id": 14294848, "lang": "en", "listed_count": 3241, "name": "snopes.com", "profile_background_color": "C7F2B1", "profile_background_image_url": "http://pbs.twimg.com/profile_background_images/840081271/d90db0daf7c81f75aea62d88c084e755.png", "profile_background_tile": false, "profile_banner_url": "https://pbs.twimg.com/profile_banners/14294848/1365714336", "profile_image_url": "https://pbs.twimg.com/profile_images/3507964197/be9d1840411bca2d8101382340f58957_normal.png", "profile_link_color": "81D159", "profile_sidebar_fill_color": "DDEEF6", "profile_text_color": "333333", "protected": false, "screen_name": "snopes", "statuses_count": 4870, "time_zone": "Pacific Time (US & Canada)", "url": "http://t.co/10Or8rl3ff", "utc_offset": -28800, "verified": true}}
{"created_at": "Tue Nov 24 19:13:12 +0000 2015", "favorited": false, "hashtags": ["NewYork", "Easter"], "id": 669232315206381568, "lang": "en", "media": [{"display_url": "pic.twitter.com/RjjQB9Gb48", "expanded_url": "http://twitter.com/newyorkolizer/status/669232315206381568/photo/1", "id": 669232315139276800, "id_str": "669232315139276800", "indices": [52, 75], "media_url": "http://pbs.twimg.com/media/CUmXPrAWwAArOn3.jpg", "media_url_https": "https://pbs.twimg.com/media/CUmXPrAWwAArOn3.jpg", "sizes": {"large": {"h": 480, "resize": "fit", "w": 640}, "medium": {"h": 450, "resize": "fit", "w": 600}, "small": {"h": 255, "resize": "fit", "w": 340}, "thumb": {"h": 150, "resize": "crop", "w": 150}}, "type": "photo", "url": "https://t.co/RjjQB9Gb48"}], "retweeted": false, "source": "<a href=\"http://leadstories.com\" rel=\"nofollow\">Lead Stories Feed Publisher</a>", "text": "Crosses on #NewYork #Easter https://t.co/kaLkuznWXq https://t.co/RjjQB9Gb48", "truncated": false, "urls": {"https://t.co/kaLkuznWXq": "http://newyork.trendolizer.com/2015/11/crosses-on-new-york.html"}, "user": {"created_at": "Mon Sep 29 11:11:29 +0000 2014", "default_profile": true, "description": "The most trending New York news, as collected by Trendolizer", "followers_count": 821, "friends_count": 491, "id": 2791249311, "lang": "en", "listed_count": 94, "name": "New York Trending", "profile_background_color": "C0DEED", "profile_background_image_url": "http://abs.twimg.com/images/themes/theme1/bg.png", "profile_background_tile": false, "profile_banner_url": "https://pbs.twimg.com/profile_banners/2791249311/1411989386", "profile_image_url": "https://pbs.twimg.com/profile_images/516546984551792641/HD5tLbmQ_normal.jpeg", "profile_link_color": "0084B4", "profile_sidebar_fill_color": "DDEEF6", "profile_text_color": "333333", "protected": false, "screen_name": "newyorkolizer", "statuses_count": 23914, "url": "http://t.co/8yaBVVneVo"}}
{"created_at": "Tue Nov 24 19:16:54 +0000 2015", "favorited": false, "hashtags": ["NewYork", "Easter"], "id": 669233245184225281, "lang": "en", "media": [{"display_url": "pic.twitter.com/sGpFnQZEiN", "expanded_url": "http://twitter.com/Hoaxolizer/status/669233245184225281/photo/1", "id": 669233245075152896, "id_str": "669233245075152896", "indices": [52, 75], "media_url": "http://pbs.twimg.com/media/CUmYFzSWIAAZtrS.jpg", "media_url_https": "https://pbs.twimg.com/media/CUmYFzSWIAAZtrS.jpg", "sizes": {"large": {"h": 480, "resize": "fit", "w": 640}, "medium": {"h": 450, "resize": "fit", "w": 600}, "small": {"h": 255, "resize": "fit", "w": 340}, "thumb": {"h": 150, "resize": "crop", "w": 150}}, "type": "photo", "url": "https://t.co/sGpFnQZEiN"}], "retweeted": false, "source": "<a href=\"http://leadstories.com\" rel=\"nofollow\">Lead Stories Feed Publisher</a>", "text": "Crosses on #NewYork #Easter https://t.co/krb6b7p1K4 https://t.co/sGpFnQZEiN", "truncated": false, "urls": {"https://t.co/krb6b7p1K4": "http://hoax.trendolizer.com/2015/11/crosses-on-new-york.html"}, "user": {"created_at": "Tue Oct 21 09:02:21 +0000 2014", "default_profile": true, "description": "The most trending news about hoaxes as collected by Trendolizer", "followers_count": 659, "friends_count": 429, "id": 2839486181, "lang": "en", "listed_count": 65, "name": "Trending Hoax News", "profile_background_color": "C0DEED", "profile_background_image_url": "http://abs.twimg.com/images/themes/theme1/bg.png", "profile_background_tile": false, "profile_banner_url": "https://pbs.twimg.com/profile_banners/2839486181/1413882440", "profile_image_url": "https://pbs.twimg.com/profile_images/524486681945067520/woFPZPVc_normal.jpeg", "profile_link_color": "0084B4", "profile_sidebar_fill_color": "DDEEF6", "profile_text_color": "333333", "protected": false, "screen_name": "Hoaxolizer", "statuses_count": 13024, "url": "http://t.co/7pRPb4ABpu"}}
{"created_at": "Tue Nov 24 19:46:42 +0000 2015", "favorited": false, "id": 669240747992875008, "lang": "en", "retweeted": false, "source": "<a href=\"http://twitterfeed.com\" rel=\"nofollow\">twitterfeed</a>", "text": "Snopes: Crosses on New York: A photograph shows three buildings in New York decorated with window crosses for ... https://t.co/bVuRnPWz32", "truncated": false, "urls": {"https://t.co/bVuRnPWz32": "http://bit.ly/1R4XFz0"}, "user": {"created_at": "Thu Oct 09 17:37:27 +0000 2008", "description": "Let's make critical thinking easy (and fun).", "favourites_count": 4, "followers_count": 3838, "friends_count": 677, "id": 16669742, "lang": "en", "listed_count": 272, "location": "Everywhere", "name": "Skeptic Network", "profile_background_color": "000000", "profile_background_image_url": "http://pbs.twimg.com/profile_background_images/4759267/fractile_dk.jpg", "profile_background_tile": true, "profile_banner_url": "https://pbs.twimg.com/profile_banners/16669742/1360552274", "profile_image_url": "https://pbs.twimg.com/profile_images/90185083/fractile_sing_SN3_normal.jpg", "profile_link_color": "B00B07", "profile_sidebar_fill_color": "EBECEF", "profile_text_color": "15377E", "protected": false, "screen_name": "SkepNet", "statuses_count": 18331, "time_zone": "Eastern Time (US & Canada)", "utc_offset": -18000}}
{"created_at": "Tue Nov 24 19:46:43 +0000 2015", "favorited": false, "id": 669240750241026048, "lang": "en", "retweeted": false, "source": "<a href=\"http://twitterfeed.com\" rel=\"nofollow\">twitterfeed</a>", "text": "urban legend: A photograph shows three buildings in New York decorated with window crosses for Easter in 1956. https://t.co/fa9cuXCZFe", "truncated": false, "urls": {"https://t.co/fa9cuXCZFe": "http://bit.ly/1R4XEuQ"}, "user": {"created_at": "Fri Feb 06 02:21:17 +0000 2009", "default_profile": true, "followers_count": 316, "friends_count": 33, "id": 20211460, "lang": "en", "listed_count": 12, "name": "Urban Legends", "profile_background_color": "C0DEED", "profile_background_image_url": "http://abs.twimg.com/images/themes/theme1/bg.png", "profile_background_tile": false, "profile_image_url": "https://pbs.twimg.com/profile_images/607710950532083713/MvenxG0Z_normal.jpg", "profile_link_color": "0084B4", "profile_sidebar_fill_color": "DDEEF6", "profile_text_color": "333333", "protected": false, "screen_name": "UrbanLegends", "statuses_count": 2217, "time_zone": "Eastern Time (US & Canada)", "utc_offset": -18000}}
{"created_at": "Tue Nov 24 19:46:44 +0000 2015", "favorited": false, "id": 669240753214783488, "lang": "en", "retweeted": false, "source": "<a href=\"http://twitterfeed.com\" rel=\"nofollow\">twitterfeed</a>", "text": "Snopes- Crosses on New York https://t.co/1FIynCqX2O", "truncated": false, "urls": {"https://t.co/1FIynCqX2O": "http://bit.ly/1R4XEuQ"}, "user": {"created_at": "Wed Oct 29 14:35:02 +0000 2008", "default_profile": true, "description": "Random Headlines", "followers_count": 122, "friends_count": 13, "id": 17042353, "lang": "en", "listed_count": 3, "location": "Random", "name": "Headline Post", "profile_background_color": "C0DEED", "profile_background_image_url": "http://abs.twimg.com/images/themes/theme1/bg.png", "profile_background_tile": false, "profile_image_url": "https://pbs.twimg.com/profile_images/63101611/headline_normal.jpg", "profile_link_color": "0084B4", "profile_sidebar_fill_color": "DDEEF6", "profile_text_color": "333333", "protected": false, "screen_name": "headlinepost", "statuses_count": 15927, "time_zone": "Central Time (US & Canada)", "utc_offset": -21600}}
{"created_at": "Tue Nov 24 19:46:44 +0000 2015", "favorited": false, "hashtags": ["factorfiction"], "id": 669240756691824640, "lang": "en", "retweeted": false, "source": "<a href=\"http://twitterfeed.com\" rel=\"nofollow\">twitterfeed</a>", "text": "Crosses on New York: A photograph shows three buildings in New York decorated with window cross... https://t.co/DjFNYoN71B #factorfiction", "truncated": false, "urls": {"https://t.co/DjFNYoN71B": "http://bit.ly/1R4XFz0"}, "user": {"created_at": "Tue Jun 17 15:05:55 +0000 2008", "description": "Professional photographer for many years, graduate of Brooks Institute, but now working in healthcare!  The advertising game got to be a drag...", "favourites_count": 209, "followers_count": 962, "friends_count": 1902, "id": 15146527, "lang": "en", "listed_count": 21, "location": "Tampa Bay, FL", "name": "Ted Wade", "profile_background_color": "B2DFDA", "profile_background_image_url": "http://pbs.twimg.com/profile_background_images/321056501/Inside_the_Melk_Abbey_-_can_you_spot_me_in_the_pho.jpg", "profile_background_tile": true, "profile_image_url": "https://pbs.twimg.com/profile_images/82775180/080124_Me_0005_normal.jpg", "profile_link_color": "93A644", "profile_sidebar_fill_color": "FFFFFF", "profile_text_color": "333333", "protected": false, "screen_name": "tedlw", "statuses_count": 47150, "time_zone": "Quito", "utc_offset": -18000}}
{"created_at": "Tue Nov 24 19:46:48 +0000 2015", "favorited": false, "hashtags": ["nsfw", "nsfk"], "id": 669240771048960000, "lang": "en", "possibly_sensitive": true, "retweeted": false, "source": "<a href=\"http://twitterfeed.com\" rel=\"nofollow\">twitterfeed</a>", "text": "Crosses on New York: A photograph shows three buildings in New York decorated with window crosses ... https://t.co/TCh1R8jQA9 #nsfw #nsfk", "truncated": false, "urls": {"https://t.co/TCh1R8jQA9": "http://bit.ly/1T0WhMf"}, "user": {"created_at": "Sat Sep 25 23:34:23 +0000 2010", "description": "\u2605 we are born naked, wet and hungry. then things get worse; but life is the art of drawing without an eraser. make a difference.\u2605", "favourites_count": 373, "followers_count": 107265, "friends_count": 8878, "id": 195153921, "lang": "en", "listed_count": 246, "location": "USA ", "name": "jordan", "profile_background_color": "1A1B1F", "profile_background_image_url": "http://abs.twimg.com/images/themes/theme9/bg.gif", "profile_background_tile": false, "profile_banner_url": "https://pbs.twimg.com/profile_banners/195153921/1413749866", "profile_image_url": "https://pbs.twimg.com/profile_images/642807001161072642/aqILBe-G_normal.jpg", "profile_link_color": "2FC2EF", "profile_sidebar_fill_color": "252429", "profile_text_color": "666666", "protected": false, "screen_name": "jordanvalliere", "statuses_count": 53047, "time_zone": "Eastern Time (US & Canada)", "url": "https://t.co/5rFd4wchx5", "utc_offset": -18000}}
{"created_at": "Tue Nov 24 21:15:34 +0000 2015", "favorited": false, "hashtags": ["Snopes"], "id": 669263109937307648, "lang": "en", "retweeted": false, "source": "<a href=\"http://momknowsshopping.com/UFOParanormal\" rel=\"nofollow\">UFOParanormalNews</a>", "text": "#Snopes  A photograph shows three buildings in New York decorated with window crosses https://t.co/XdTr8KGArt", "truncated": false, "urls": {"https://t.co/XdTr8KGArt": "http://goo.gl/DcA6nI"}, "user": {"created_at": "Wed Oct 01 13:34:46 +0000 2014", "description": "We provide the latest news on #UFO's, #Paranormal, #Ghosts and everything that is strange or weird. Plus #Software, #Camera's and #Computer items.", "favourites_count": 3, "followers_count": 12388, "friends_count": 11583, "geo_enabled": true, "id": 2797963749, "lang": "en", "listed_count": 415, "name": "UFO Paranormal", "profile_background_color": "000000", "profile_background_image_url": "http://abs.twimg.com/images/themes/theme1/bg.png", "profile_background_tile": false, "profile_banner_url": "https://pbs.twimg.com/profile_banners/2797963749/1419626990", "profile_image_url": "https://pbs.twimg.com/profile_images/517311356198858753/OkOTy-q6_normal.jpeg", "profile_link_color": "FA743E", "profile_sidebar_fill_color": "000000", "profile_text_color": "000000", "protected": false, "screen_name": "UFOParanormNews", "statuses_count": 77241, "url": "https://t.co/I4rmVNErYQ"}}
{"created_at": "Wed Nov 25 00:12:38 +0000 2015", "favorited": false, "id": 669307670642339841, "lang": "en", "retweeted": false, "source": "<a href=\"http://twitter.com\" rel=\"nofollow\">Twitter Web Client</a>", "text": "Massive Crosses use to be on display in New York City.\n\nhttps://t.co/fPHrd8v2yn", "truncated": false, "urls": {"https://t.co/fPHrd8v2yn": "http://www.snopes.com/new-york-easter-cross-light-display/"}, "user": {"created_at": "Sat Sep 01 21:46:42 +0000 2012", "description": "#unemployment #poverty #infrastructure bringing back #FDRs #CCC a/o #WPA \n\nFollow me if these matter to you.   \n\nRetweets & favs aren't always endorsements.", "favourites_count": 43684, "followers_count": 1410, "friends_count": 438, "id": 796941355, "lang": "en", "listed_count": 115, "location": "America", "name": "Bring back FDR's CCC", "profile_background_color": "000000", "profile_background_image_url": "http://abs.twimg.com/images/themes/theme1/bg.png", "profile_background_tile": false, "profile_banner_url": "https://pbs.twimg.com/profile_banners/796941355/1427153693", "profile_image_url": "https://pbs.twimg.com/profile_images/572967154589245440/EWtXdGDW_normal.jpeg", "profile_link_color": "3B94D9", "profile_sidebar_fill_color": "000000", "profile_text_color": "000000", "protected": false, "screen_name": "rarey4", "statuses_count": 48138, "time_zone": "Arizona", "url": "https://t.co/uYdmXLH5Yv", "utc_offset": -25200}}
{"created_at": "Thu Nov 26 11:27:42 +0000 2015", "favorited": false, "id": 669839943422881796, "lang": "en", "retweeted": false, "source": "<a href=\"http://www.facebook.com/twitter\" rel=\"nofollow\">Facebook</a>", "text": "Easter Crosses in the Skyline of New York City https://t.co/OwUMfJKhdJ", "truncated": false, "urls": {"https://t.co/OwUMfJKhdJ": "http://fb.me/SAvdz4z6"}, "user": {"created_at": "Mon Dec 31 10:29:57 +0000 2012", "default_profile": true, "favourites_count": 2, "followers_count": 75, "friends_count": 259, "id": 1050050023, "lang": "en", "listed_count": 2, "name": "Sarah Michel", "profile_background_color": "C0DEED", "profile_background_image_url": "http://abs.twimg.com/images/themes/theme1/bg.png", "profile_background_tile": false, "profile_banner_url": "https://pbs.twimg.com/profile_banners/1050050023/1356950360", "profile_image_url": "https://pbs.twimg.com/profile_images/3045552444/6ece88287b7b8c03a751fa31a49d4190_normal.jpeg", "profile_link_color": "0084B4", "profile_sidebar_fill_color": "DDEEF6", "profile_text_color": "333333", "protected": false, "screen_name": "SarahMichel16", "statuses_count": 9773, "url": "http://t.co/mUXqiGDc"}}
{"created_at": "Thu Nov 26 11:46:10 +0000 2015", "favorited": false, "id": 669844592586579969, "lang": "en", "retweeted": false, "source": "<a href=\"http://twitter.com\" rel=\"nofollow\">Twitter Web Client</a>", "text": "Easter Crosses in the Skyline of New York City: https://t.co/56PQ0ESpcT", "truncated": false, "urls": {"https://t.co/56PQ0ESpcT": "http://www.coolrocketry.com/easter-crosses-skyline-new-york-city/"}, "user": {"created_at": "Tue Oct 23 05:58:46 +0000 2012", "default_profile": true, "description": "With the Top-Rated Internet Marketing Strategy rise your business and increase profit. Online internet marketing services offering for any type of business.", "favourites_count": 217, "followers_count": 138, "friends_count": 693, "id": 899317669, "lang": "en", "location": "USA", "name": "Tony Black", "profile_background_color": "C0DEED", "profile_background_image_url": "http://abs.twimg.com/images/themes/theme1/bg.png", "profile_background_tile": false, "profile_banner_url": "https://pbs.twimg.com/profile_banners/899317669/1370342117", "profile_image_url": "https://pbs.twimg.com/profile_images/3754001391/ada0d24537c2219115b897051b1ddd5b_normal.jpeg", "profile_link_color": "0084B4", "profile_sidebar_fill_color": "DDEEF6", "profile_text_color": "333333", "protected": false, "screen_name": "TonyBlack2244", "statuses_count": 601, "time_zone": "Islamabad", "url": "http://t.co/YJuS7fJFqW", "utc_offset": 18000}}
{"created_at": "Sat Nov 28 21:30:35 +0000 2015", "favorited": false, "id": 670716440786427906, "lang": "en", "retweeted": false, "source": "<a href=\"http://twitter.com\" rel=\"nofollow\">Twitter Web Client</a>", "text": "Crosses on New York https://t.co/x7EXBRyO6x", "truncated": false, "urls": {"https://t.co/x7EXBRyO6x": "http://www.snopes.com/new-york-easter-cross-light-display/"}, "user": {"created_at": "Sun Oct 28 23:54:10 +0000 2012", "favourites_count": 829, "followers_count": 83, "friends_count": 363, "id": 911357186, "lang": "en", "listed_count": 1, "location": "Alabama, USA", "name": "Frederick B. Hetrick", "profile_background_color": "000000", "profile_background_image_url": "http://abs.twimg.com/images/themes/theme1/bg.png", "profile_background_tile": false, "profile_image_url": "https://pbs.twimg.com/profile_images/587739955641724928/CoU5dOlc_normal.jpg", "profile_link_color": "3B94D9", "profile_sidebar_fill_color": "000000", "profile_text_color": "000000", "protected": false, "screen_name": "FHetrick", "statuses_count": 3045, "time_zone": "Central Time (US & Canada)", "utc_offset": -21600}}
{"created_at": "Sun Nov 29 03:38:10 +0000 2015", "favorited": false, "id": 670808947901734913, "lang": "en", "retweeted": false, "source": "<a href=\"http://twitter.com\" rel=\"nofollow\">Twitter Web Client</a>", "text": "Crosses on New York https://t.co/dnPBZPhjzv", "truncated": false, "urls": {"https://t.co/dnPBZPhjzv": "http://www.snopes.com/new-york-easter-cross-light-display/"}, "user": {"created_at": "Wed Nov 06 05:19:24 +0000 2013", "default_profile": true, "default_profile_image": true, "followers_count": 55, "friends_count": 370, "id": 2177404080, "lang": "en", "listed_count": 9, "name": "Jeffrey Segal", "profile_background_color": "C0DEED", "profile_background_image_url": "http://abs.twimg.com/images/themes/theme1/bg.png", "profile_background_tile": false, "profile_image_url": "https://abs.twimg.com/sticky/default_profile_images/default_profile_5_normal.png", "profile_link_color": "0084B4", "profile_sidebar_fill_color": "DDEEF6", "profile_text_color": "333333", "protected": false, "screen_name": "jeffreysegal2", "statuses_count": 3810}}
{"created_at": "Sun Nov 29 12:57:16 +0000 2015", "favorited": false, "id": 670949647612051456, "lang": "en", "retweeted": false, "source": "<a href=\"http://www.facebook.com/twitter\" rel=\"nofollow\">Facebook</a>", "text": "The unamericans of the right wing never get it. These are PRIVATELY OWNED BUILDINGS. They can display whatever... https://t.co/F9ipLzxNWr", "truncated": false, "urls": {"https://t.co/F9ipLzxNWr": "http://fb.me/2fPKcoIMN"}, "user": {"created_at": "Sat Dec 20 10:15:05 +0000 2008", "description": "I'm old but I think young", "favourites_count": 22, "followers_count": 50, "friends_count": 126, "id": 18264469, "lang": "en", "listed_count": 7, "location": "near Chicago, Il", "name": "Grumpa", "profile_background_color": "352726", "profile_background_image_url": "http://abs.twimg.com/images/themes/theme5/bg.gif", "profile_background_tile": false, "profile_image_url": "https://pbs.twimg.com/profile_images/68076581/oldfart_normal.jpg", "profile_link_color": "D02B55", "profile_sidebar_fill_color": "99CC33", "profile_text_color": "3E4415", "protected": false, "screen_name": "Grumpa", "statuses_count": 5302, "time_zone": "Central Time (US & Canada)", "utc_offset": -21600}}
