{"created_at": "Mon Oct 12 20:52:19 +0000 2015", "favorited": false, "id": 653674581966880768, "lang": "en", "retweeted": false, "source": "<a href=\"http://twitter.com\" rel=\"nofollow\">Twitter Web Client</a>", "text": "Syrian &amp;#8220;Refugees&amp;#8221; Complain About Slow Internet, No Cigarettes, And Food Only Fit For A Dog Or A Woman http://t.co/WrzB9Nl3Z5", "truncated": false, "urls": {"http://t.co/WrzB9Nl3Z5": "http://pamelageller.com/2015/10/syrian-refugees-complain-about-slow-internet-no-cigarettes-and-food-only-fit-for-a-dog-or-a-woman.html/"}, "user": {"created_at": "Fri Oct 19 19:43:39 +0000 2012", "description": "British Nationalists Unite", "favourites_count": 44, "followers_count": 558, "friends_count": 731, "id": 891685188, "lang": "en", "listed_count": 14, "name": "ian mcdonald", "profile_background_color": "C0DEED", "profile_background_image_url": "http://pbs.twimg.com/profile_background_images/456454192689709056/H7WW5LRG.jpeg", "profile_background_tile": true, "profile_image_url": "https://pbs.twimg.com/profile_images/456454411179405312/PFId6QuM_normal.jpeg", "profile_link_color": "0084B4", "profile_sidebar_fill_color": "DDEEF6", "profile_text_color": "333333", "protected": false, "screen_name": "ianmcdo03120397", "statuses_count": 15885}}
{"created_at": "Mon Oct 12 22:45:36 +0000 2015", "favorite_count": 1, "favorited": false, "id": 653703089753583616, "lang": "en", "retweeted": false, "source": "<a href=\"http://sharethis.com\" rel=\"nofollow\">ShareThis.com</a>", "text": "Syrian \u201cRefugees\u201d Complain About Slow Internet, No Cigarettes, And Food Only Fi\nhttps://t.co/WDdqQPs0GB via @sharethis", "truncated": false, "urls": {"https://t.co/WDdqQPs0GB": "https://shar.es/1uqH5T"}, "user": {"created_at": "Sat Jun 21 20:03:06 +0000 2014", "description": "Battling anti-Semites, Muslim jihadis, and blonde haters alike. Walk softly and carry a big hairbrush. #StandWithIsrael #tcot #1A #2A", "favourites_count": 175, "followers_count": 2342, "friends_count": 2218, "id": 2580953076, "lang": "en", "listed_count": 41, "location": "the BlondeMobile", "name": "Zionist Blonde", "profile_background_color": "FFF04D", "profile_background_image_url": "http://abs.twimg.com/images/themes/theme19/bg.gif", "profile_background_tile": false, "profile_banner_url": "https://pbs.twimg.com/profile_banners/2580953076/1405137312", "profile_image_url": "https://pbs.twimg.com/profile_images/483789744719933440/-urEuCbu_normal.png", "profile_link_color": "FA743E", "profile_sidebar_fill_color": "F6FFD1", "profile_text_color": "333333", "protected": false, "screen_name": "zionistblonde", "statuses_count": 15327, "time_zone": "Jerusalem", "url": "http://t.co/Qv4AlBlC4P", "utc_offset": 7200}, "user_mentions": [{"id": 14116807, "name": "ShareThis", "screen_name": "ShareThis"}]}
{"created_at": "Tue Oct 13 02:09:25 +0000 2015", "favorited": false, "id": 653754381582647296, "lang": "en", "retweeted": false, "source": "<a href=\"http://twitter.com\" rel=\"nofollow\">Twitter Web Client</a>", "text": "Syrian &amp;#8220;Refugees&amp;#8221; Complain About Slow Internet, No Cigarettes, And Food Only Fit For A Dog Or A Woman http://t.co/UtHcfDXRFI", "truncated": false, "urls": {"http://t.co/UtHcfDXRFI": "http://pamelageller.com/2015/10/syrian-refugees-complain-about-slow-internet-no-cigarettes-and-food-only-fit-for-a-dog-or-a-woman.html/"}, "user": {"created_at": "Mon Jun 11 02:59:57 +0000 2012", "description": "Human Rights Activist", "favourites_count": 395, "followers_count": 400, "friends_count": 864, "geo_enabled": true, "id": 605055752, "lang": "en", "listed_count": 10, "location": "USA", "name": "Bushra Qader", "profile_background_color": "C0DEED", "profile_background_image_url": "http://abs.twimg.com/images/themes/theme1/bg.png", "profile_background_tile": false, "profile_image_url": "https://pbs.twimg.com/profile_images/3412768985/7f383bf8053ddb1716909e9e245d580d_normal.jpeg", "profile_link_color": "3B94D9", "profile_sidebar_fill_color": "DDEEF6", "profile_text_color": "333333", "protected": false, "screen_name": "BushraQader", "statuses_count": 17302, "time_zone": "Eastern Time (US & Canada)", "url": "http://t.co/kSSftKUYRu", "utc_offset": -18000}}
{"created_at": "Tue Oct 13 03:03:29 +0000 2015", "favorited": false, "id": 653767988101926912, "lang": "en", "retweeted": false, "source": "<a href=\"http://www.facebook.com/twitter\" rel=\"nofollow\">Facebook</a>", "text": "Syrian \u201cRefugees\u201d Complain About Slow Internet, No Cigarettes, And Food Only Fit For A Dog Or A... http://t.co/Lc93OrtAnI", "truncated": false, "urls": {"http://t.co/Lc93OrtAnI": "http://fb.me/7uq8JbbwE"}, "user": {"created_at": "Sat Sep 07 00:24:46 +0000 2013", "description": "Lightning News 1 & Pacifica News.  Pacific Lectures: Ancient Cuture ~ aelbertart@gmail.com", "favourites_count": 12999, "followers_count": 1230, "friends_count": 1978, "geo_enabled": true, "id": 1738679586, "lang": "en", "listed_count": 65, "name": "Lightning News 1", "profile_background_color": "C0DEED", "profile_background_image_url": "http://pbs.twimg.com/profile_background_images/378800000076096810/054aac8247f70351c07dc970c3fede2c.png", "profile_background_tile": true, "profile_banner_url": "https://pbs.twimg.com/profile_banners/1738679586/1379389448", "profile_image_url": "https://pbs.twimg.com/profile_images/378800000486224952/9c39b6cf676c9daec51bf1e25df7b9d1_normal.jpeg", "profile_link_color": "333333", "profile_sidebar_fill_color": "DDEEF6", "profile_text_color": "0084B4", "protected": false, "screen_name": "LightningNews1", "statuses_count": 75356, "url": "http://t.co/oL9iUC9DVR"}}
{"created_at": "Tue Oct 13 03:06:32 +0000 2015", "favorite_count": 2, "favorited": false, "hashtags": ["tcot"], "id": 653768755697192960, "lang": "en", "retweet_count": 1, "retweeted": false, "source": "<a href=\"http://twitter.com\" rel=\"nofollow\">Twitter Web Client</a>", "text": "Blog: Watch: Syrian refugees in Germany complain about slow internet speeds http://t.co/8Fitwu1W4D #tcot", "truncated": false, "urls": {"http://t.co/8Fitwu1W4D": "http://www.americanthinker.com/blog/2015/10/watch_syrian_refugees_in_germany_complain_about_slow_internet_speeds.html#.Vhq3oa59U70.twitter"}, "user": {"created_at": "Sun Jul 12 00:51:44 +0000 2009", "favourites_count": 513, "followers_count": 15966, "friends_count": 14318, "id": 55976150, "lang": "en", "listed_count": 385, "location": "RT does not related to Like ", "name": "John Galt", "profile_background_color": "C0DEED", "profile_background_image_url": "http://pbs.twimg.com/profile_background_images/45959846/Olympics_1.JPG", "profile_background_tile": true, "profile_banner_url": "https://pbs.twimg.com/profile_banners/55976150/1355953529", "profile_image_url": "https://pbs.twimg.com/profile_images/3021873811/f06b51926328ff30614f14bb77a4ac92_normal.jpeg", "profile_link_color": "0084B4", "profile_sidebar_fill_color": "DDEEF6", "profile_text_color": "333333", "protected": false, "screen_name": "dhrxsol1234", "statuses_count": 213637, "time_zone": "Pacific Time (US & Canada)", "utc_offset": -28800}}
{"created_at": "Tue Oct 13 05:53:28 +0000 2015", "favorited": false, "id": 653810767205171202, "lang": "en", "retweeted": false, "source": "<a href=\"http://twitter.com/download/android\" rel=\"nofollow\">Twitter for Android</a>", "text": "Syrian &amp;#8220;Refugees&amp;#8221; Complain About Slow Internet, No Cigarettes, And Food Only Fit For A Dog Or A Woman http://t.co/P1HKDQw2lg", "truncated": false, "urls": {"http://t.co/P1HKDQw2lg": "http://pamelageller.com/2015/10/syrian-refugees-complain-about-slow-internet-no-cigarettes-and-food-only-fit-for-a-dog-or-a-woman.html/"}, "user": {"created_at": "Thu Aug 21 15:43:24 +0000 2014", "default_profile": true, "description": "Happily married husband ,father,step-father,grandfather.Ex military reservist,Ex police officer.Protestant Christian,Ulster-Scot.", "favourites_count": 176, "followers_count": 2012, "friends_count": 4108, "geo_enabled": true, "id": 2749192625, "lang": "en", "listed_count": 13, "location": "Belfast, Northern Ireland", "name": "alan mccammon", "profile_background_color": "C0DEED", "profile_background_image_url": "http://abs.twimg.com/images/themes/theme1/bg.png", "profile_background_tile": false, "profile_image_url": "https://pbs.twimg.com/profile_images/503552654497570816/Eu7HrVho_normal.jpeg", "profile_link_color": "0084B4", "profile_sidebar_fill_color": "DDEEF6", "profile_text_color": "333333", "protected": false, "screen_name": "AlanMccammon", "statuses_count": 11202}}
{"created_at": "Tue Oct 13 06:05:51 +0000 2015", "favorite_count": 1, "favorited": false, "id": 653813884302819328, "lang": "en", "retweet_count": 1, "retweeted": false, "source": "<a href=\"http://twitter.com/download/android\" rel=\"nofollow\">Twitter for Android</a>", "text": "Syrian \u201cRefugees\u201d Complain About Slow Internet, No Cigarettes, And Food Only Fit For A Dog Or A Woman https://t.co/gkO9ZMRKIX via @sharethis", "truncated": false, "urls": {"https://t.co/gkO9ZMRKIX": "https://shar.es/1uqUsK"}, "user": {"created_at": "Sun Jun 30 09:45:54 +0000 2013", "default_profile": true, "description": "not much to say/niet veel te zeggen", "favourites_count": 37518, "followers_count": 1877, "friends_count": 2005, "id": 1557706741, "lang": "en", "listed_count": 42, "name": "Leopard Boas", "profile_background_color": "C0DEED", "profile_background_image_url": "http://abs.twimg.com/images/themes/theme1/bg.png", "profile_background_tile": false, "profile_banner_url": "https://pbs.twimg.com/profile_banners/1557706741/1429924879", "profile_image_url": "https://pbs.twimg.com/profile_images/378800000820913576/914720cd9391091f0218858e63de8dc9_normal.jpeg", "profile_link_color": "0084B4", "profile_sidebar_fill_color": "DDEEF6", "profile_text_color": "333333", "protected": false, "screen_name": "leopard_2A4", "statuses_count": 20099}, "user_mentions": [{"id": 14116807, "name": "ShareThis", "screen_name": "ShareThis"}]}
{"created_at": "Tue Oct 13 06:15:24 +0000 2015", "favorited": false, "id": 653816285243904001, "lang": "en", "retweeted": false, "source": "<a href=\"http://twitter.com\" rel=\"nofollow\">Twitter Web Client</a>", "text": "Syrian &amp;#8220;Refugees&amp;#8221; Complain About Slow Internet, No Cigarettes, And Food Only Fit For A Dog Or A Woman http://t.co/KDpkLcH2De", "truncated": false, "urls": {"http://t.co/KDpkLcH2De": "http://pamelageller.com/2015/10/syrian-refugees-complain-about-slow-internet-no-cigarettes-and-food-only-fit-for-a-dog-or-a-woman.html/"}, "user": {"created_at": "Tue Aug 12 19:40:44 +0000 2014", "description": "Conservative and retired, history buff, animal lover.", "favourites_count": 78, "followers_count": 190, "friends_count": 434, "id": 2727124580, "lang": "en", "listed_count": 2, "location": "Winnipeg, Manitoba", "name": "Orlin Olsen", "profile_background_color": "000000", "profile_background_image_url": "http://abs.twimg.com/images/themes/theme1/bg.png", "profile_background_tile": false, "profile_banner_url": "https://pbs.twimg.com/profile_banners/2727124580/1444684378", "profile_image_url": "https://pbs.twimg.com/profile_images/646803651164434432/nd9TDcc2_normal.jpg", "profile_link_color": "0084B4", "profile_sidebar_fill_color": "000000", "profile_text_color": "000000", "protected": false, "screen_name": "Ordenol", "statuses_count": 143}}
{"created_at": "Wed Oct 14 04:17:08 +0000 2015", "favorited": false, "id": 654148911834120192, "lang": "en", "retweeted": false, "source": "<a href=\"http://twitter.com\" rel=\"nofollow\">Twitter Web Client</a>", "text": "Syrian &amp;#8220;Refugees&amp;#8221; Complain About Slow Internet, No Cigarettes, And Food Only Fit For A Dog Or A Woman http://t.co/LedenMPLX0", "truncated": false, "urls": {"http://t.co/LedenMPLX0": "http://pamelageller.com/2015/10/syrian-refugees-complain-about-slow-internet-no-cigarettes-and-food-only-fit-for-a-dog-or-a-woman.html/"}, "user": {"created_at": "Sun Mar 31 07:01:30 +0000 2013", "description": "Infowarrior, environmentalist, \r\nblack triangle starship contactee !", "favourites_count": 8, "followers_count": 807, "friends_count": 1019, "id": 1317877808, "lang": "en", "listed_count": 117, "name": "Susan King", "profile_background_color": "ABB8C2", "profile_background_image_url": "http://abs.twimg.com/images/themes/theme18/bg.gif", "profile_background_tile": false, "profile_image_url": "https://pbs.twimg.com/profile_images/3455278584/30077681da2d90ae66d050eec76aa89f_normal.jpeg", "profile_link_color": "9266CC", "profile_sidebar_fill_color": "7AC3EE", "profile_text_color": "3D1957", "protected": false, "screen_name": "starshiptigers", "statuses_count": 78839, "time_zone": "Central Time (US & Canada)", "utc_offset": -21600}}
{"created_at": "Wed Oct 14 15:06:11 +0000 2015", "favorited": false, "id": 654312251113865217, "lang": "en", "retweeted": false, "source": "<a href=\"http://www.facebook.com/twitter\" rel=\"nofollow\">Facebook</a>", "text": "Syrian \u201cRefugees\u201d Complain About Slow Internet, No Cigarettes, And Food Only Fit For A Dog Or A... http://t.co/OxH3jardTI", "truncated": false, "urls": {"http://t.co/OxH3jardTI": "http://fb.me/2iXkczSym"}, "user": {"created_at": "Tue Jan 25 15:14:37 +0000 2011", "default_profile": true, "description": "Successful Online Marketer", "followers_count": 249, "friends_count": 279, "id": 242769046, "lang": "en", "listed_count": 5, "location": "Texas", "name": "Lois Guthrie", "profile_background_color": "C0DEED", "profile_background_image_url": "http://abs.twimg.com/images/themes/theme1/bg.png", "profile_background_tile": false, "profile_image_url": "https://pbs.twimg.com/profile_images/2733011080/18ff8a8bc7af3633d29a5d5bd5085336_normal.jpeg", "profile_link_color": "0084B4", "profile_sidebar_fill_color": "DDEEF6", "profile_text_color": "333333", "protected": false, "screen_name": "guthla", "statuses_count": 9419, "url": "http://t.co/t3JBdfOfAm"}}
{"created_at": "Wed Oct 14 15:39:44 +0000 2015", "favorite_count": 1, "favorited": false, "id": 654320691190349824, "lang": "en", "retweet_count": 1, "retweeted": false, "source": "<a href=\"http://mobile.twitter.com\" rel=\"nofollow\">Mobile Web</a>", "text": "Syrian \u201cRefugees\u201d Complain About Slow Internet, No Cigarettes, And Food http://t.co/lN36J2uThI", "truncated": false, "urls": {"http://t.co/lN36J2uThI": "http://woundedamericanwarrior.com/?p=129156"}, "user": {"created_at": "Tue Feb 24 17:20:53 +0000 2015", "description": "Ron Wittle #Conservative #Hunting #Fishing #Outdoors #Photography #Prepping #Survival #America #Patriot #Politics #2A #OpenCarry #ConstitutionalCarry #NRA #18B", "favourites_count": 12, "followers_count": 1444, "friends_count": 1217, "geo_enabled": true, "id": 3039998275, "lang": "en", "listed_count": 21, "location": "Florida, USA", "name": "Retired Prepper", "profile_background_color": "000000", "profile_background_image_url": "http://abs.twimg.com/images/themes/theme1/bg.png", "profile_background_tile": false, "profile_image_url": "https://pbs.twimg.com/profile_images/570709427180965891/bCK4byLj_normal.jpeg", "profile_link_color": "4A913C", "profile_sidebar_fill_color": "000000", "profile_text_color": "000000", "protected": false, "screen_name": "RetiredPrepper", "statuses_count": 5221}}
{"created_at": "Wed Oct 14 16:02:17 +0000 2015", "favorited": false, "id": 654326366670721024, "lang": "en", "retweeted": false, "source": "<a href=\"http://mobile.twitter.com\" rel=\"nofollow\">Mobile Web</a>", "text": "Syrian \u201cRefugees\u201d Complain About Slow Internet, No Cigarettes, And Food http://t.co/XonrFrE8Zw", "truncated": false, "urls": {"http://t.co/XonrFrE8Zw": "http://woundedamericanwarrior.com/?p=129156"}, "user": {"created_at": "Sat Sep 10 10:46:38 +0000 2011", "default_profile": true, "description": "Native Texan, Working mother, God-fearing conservative. Scared for our country! #tcot #Benghazi #WakeUpAmerica #Advocare Independent Distributor", "favourites_count": 332, "followers_count": 3101, "friends_count": 3410, "id": 371184537, "lang": "en", "listed_count": 67, "name": "Nanner63", "profile_background_color": "C0DEED", "profile_background_image_url": "http://abs.twimg.com/images/themes/theme1/bg.png", "profile_background_tile": false, "profile_banner_url": "https://pbs.twimg.com/profile_banners/371184537/1423344047", "profile_image_url": "https://pbs.twimg.com/profile_images/564171836338880513/jDNQ_LIV_normal.jpeg", "profile_link_color": "0084B4", "profile_sidebar_fill_color": "DDEEF6", "profile_text_color": "333333", "protected": false, "screen_name": "nanner63", "statuses_count": 17235, "time_zone": "Central Time (US & Canada)", "url": "http://t.co/mBME1El3jf", "utc_offset": -21600}}
{"created_at": "Wed Oct 14 16:02:52 +0000 2015", "favorited": false, "id": 654326514461216768, "lang": "en", "retweeted": false, "source": "<a href=\"http://www.facebook.com/twitter\" rel=\"nofollow\">Facebook</a>", "text": "Syrian \u201cRefugees\u201d Complain About Slow Internet, No Cigarettes, And Food Only Fit For A Dog Or A... http://t.co/AoLfDtI98E", "truncated": false, "urls": {"http://t.co/AoLfDtI98E": "http://fb.me/2RBL6s1hX"}, "user": {"created_at": "Thu Sep 11 19:53:39 +0000 2008", "description": "Free & Clear Real Estate - Retweets May Be Endorsements.", "favourites_count": 2456, "followers_count": 664, "friends_count": 2028, "geo_enabled": true, "id": 16246600, "lang": "en", "listed_count": 11, "location": "Worldwide", "name": "Timothy Nelson", "profile_background_color": "FBFF00", "profile_background_image_url": "http://pbs.twimg.com/profile_background_images/383271867/t_Dec16_layout_final.jpg", "profile_background_tile": false, "profile_banner_url": "https://pbs.twimg.com/profile_banners/16246600/1413081682", "profile_image_url": "https://pbs.twimg.com/profile_images/651415851556450304/mZ47YMUU_normal.jpg", "profile_link_color": "FFCC4D", "profile_sidebar_fill_color": "FBFF00", "profile_text_color": "00B8F0", "protected": false, "screen_name": "TimothyNelson", "statuses_count": 33667, "time_zone": "Central Time (US & Canada)", "utc_offset": -21600}}
{"created_at": "Wed Oct 14 18:10:03 +0000 2015", "favorited": false, "id": 654358519269888000, "lang": "en", "media": [{"display_url": "pic.twitter.com/WAUyoCzlG0", "expanded_url": "http://twitter.com/DCClothesline/status/654358519269888000/photo/1", "id": 654358518221307904, "id_str": "654358518221307904", "indices": [115, 137], "media_url": "http://pbs.twimg.com/media/CRS_mvpVAAA55w0.png", "media_url_https": "https://pbs.twimg.com/media/CRS_mvpVAAA55w0.png", "sizes": {"large": {"h": 425, "resize": "fit", "w": 749}, "medium": {"h": 340, "resize": "fit", "w": 600}, "small": {"h": 192, "resize": "fit", "w": 340}, "thumb": {"h": 150, "resize": "crop", "w": 150}}, "type": "photo", "url": "http://t.co/WAUyoCzlG0"}], "retweet_count": 2, "retweeted": false, "source": "<a href=\"http://publicize.wp.com/\" rel=\"nofollow\">WordPress.com</a>", "text": "Syrian \u201cRefugees\u201d Complain About Slow Internet, No Cigarettes, And Food Only Fit For A Dog\u2026 http://t.co/vj1lnQOPb8 http://t.co/WAUyoCzlG0", "truncated": false, "urls": {"http://t.co/vj1lnQOPb8": "http://www.dcclothesline.com/2015/10/14/syrian-refugees-complain-about-slow-internet-no-cigarettes-and-food-only-fit-for-a-dog-or-a-woman/"}, "user": {"created_at": "Tue Sep 22 02:34:29 +0000 2009", "description": "Airing Out America's Dirty Laundry. #tcot", "favourites_count": 32, "followers_count": 11391, "friends_count": 1993, "id": 76227785, "lang": "en", "listed_count": 279, "location": "Everywhere", "name": "The D.C. Clothesline", "profile_background_color": "022330", "profile_background_image_url": "http://abs.twimg.com/images/themes/theme15/bg.png", "profile_background_tile": false, "profile_banner_url": "https://pbs.twimg.com/profile_banners/76227785/1406414778", "profile_image_url": "https://pbs.twimg.com/profile_images/493165757488828416/FqJK4NwY_normal.jpeg", "profile_link_color": "0084B4", "profile_sidebar_fill_color": "C0DFEC", "profile_text_color": "333333", "protected": false, "screen_name": "DCClothesline", "statuses_count": 72306, "time_zone": "Eastern Time (US & Canada)", "url": "http://t.co/MI09Qxq8QW", "utc_offset": -18000}}
{"created_at": "Wed Oct 14 18:13:49 +0000 2015", "favorited": false, "id": 654359469078372352, "lang": "en", "retweeted": false, "source": "<a href=\"http://twitter.com\" rel=\"nofollow\">Twitter Web Client</a>", "text": "Syrian \u201cRefugees\u201d Complain About Slow Internet, No Cigarettes, And Food Only Fit For A Dog..... http://t.co/QudJ6b3x0X via @DCClothesline", "truncated": false, "urls": {"http://t.co/QudJ6b3x0X": "http://www.dcclothesline.com/2015/10/14/syrian-refugees-complain-about-slow-internet-no-cigarettes-and-food-only-fit-for-a-dog-or-a-woman/"}, "user": {"created_at": "Thu Oct 10 14:11:03 +0000 2013", "description": "Catholic Great grandmother, proud American, Golfer, Liberty, Proud of our Military. #2A #1A #10A Love our Father who gave us our land!", "favourites_count": 2676, "followers_count": 4391, "friends_count": 3767, "id": 1951788738, "lang": "en", "listed_count": 210, "location": "U.S.A. ", "name": "Neva", "profile_background_color": "0099B9", "profile_background_image_url": "http://abs.twimg.com/images/themes/theme4/bg.gif", "profile_background_tile": false, "profile_banner_url": "https://pbs.twimg.com/profile_banners/1951788738/1420126440", "profile_image_url": "https://pbs.twimg.com/profile_images/688166338980753408/tpl1jaQ5_normal.png", "profile_link_color": "3B94D9", "profile_sidebar_fill_color": "000000", "profile_text_color": "000000", "protected": false, "screen_name": "nevagphx1", "statuses_count": 106974, "time_zone": "Arizona", "utc_offset": -25200}, "user_mentions": [{"id": 76227785, "name": "The D.C. Clothesline", "screen_name": "DCClothesline"}]}
{"created_at": "Wed Oct 14 18:24:58 +0000 2015", "favorited": false, "id": 654362276594589696, "lang": "en", "retweeted": false, "source": "<a href=\"http://www.apple.com\" rel=\"nofollow\">iOS</a>", "text": "Syrian \u201cRefugees\u201d Complain About Slow Internet, No Cigarettes, And Food Only Fit For A Dog Or A Woman - http://t.co/ZRTP4y2jgv", "truncated": false, "urls": {"http://t.co/ZRTP4y2jgv": "http://www.dcclothesline.com/2015/10/14/syrian-refugees-complain-about-slow-internet-no-cigarettes-and-food-only-fit-for-a-dog-or-a-woman/"}, "user": {"created_at": "Sun Aug 26 15:50:18 +0000 2012", "default_profile": true, "description": "From Mills Home Baptist Orphanage to Florida business owner; Married to '60s Green Beret; #TeaParty 15APR09; Living with Stage IV lung cancer; Glad to be Alive!", "favourites_count": 28918, "followers_count": 4118, "friends_count": 4499, "geo_enabled": true, "id": 782688668, "lang": "en", "listed_count": 98, "location": "America The Beautiful USA", "name": "\u2665 Bettye \u2665", "profile_background_color": "C0DEED", "profile_background_image_url": "http://abs.twimg.com/images/themes/theme1/bg.png", "profile_background_tile": false, "profile_banner_url": "https://pbs.twimg.com/profile_banners/782688668/1448247667", "profile_image_url": "https://pbs.twimg.com/profile_images/2899712114/65da7f6d0594bb07f236b6b86a35476f_normal.jpeg", "profile_link_color": "0084B4", "profile_sidebar_fill_color": "DDEEF6", "profile_text_color": "333333", "protected": false, "screen_name": "BettyeBear", "statuses_count": 85933, "url": "https://t.co/OIyMBoQ10X"}}
{"created_at": "Wed Oct 14 18:29:25 +0000 2015", "favorited": false, "id": 654363393302724608, "lang": "en", "retweeted": false, "source": "<a href=\"http://publicize.wp.com/\" rel=\"nofollow\">WordPress.com</a>", "text": "Syrian \u201cRefugees\u201d Complain About Slow Internet, No Cigarettes, And Food Only Fit For A Dog Or A\u00a0Woman https://t.co/ZbmpBaC0N0", "truncated": false, "urls": {"https://t.co/ZbmpBaC0N0": "https://ftsnnews.wordpress.com/2015/10/14/syrian-refugees-complain-about-slow-internet-no-cigarettes-and-food-only-fit-for-a-dog-or-a-woman"}, "user": {"created_at": "Tue Nov 11 22:25:55 +0000 2008", "description": "Also check out our newsroom pages @ftsnnewsdesk, and @ftsnnewsdeskm", "favourites_count": 2, "followers_count": 996, "friends_count": 455, "id": 17324110, "lang": "en", "listed_count": 166, "location": "Bronx, New York", "name": "FTSN Network", "profile_background_color": "131516", "profile_background_image_url": "http://pbs.twimg.com/profile_background_images/86648042/overlay_2.png", "profile_background_tile": true, "profile_banner_url": "https://pbs.twimg.com/profile_banners/17324110/1398738380", "profile_image_url": "https://pbs.twimg.com/profile_images/460966364631408640/OEiFAJwa_normal.jpeg", "profile_link_color": "0A000A", "profile_sidebar_fill_color": "EFEFEF", "profile_text_color": "333333", "protected": false, "screen_name": "fightingtyranny", "statuses_count": 359428, "time_zone": "Eastern Time (US & Canada)", "url": "https://t.co/EN3LdmtHk2", "utc_offset": -18000}}
{"created_at": "Wed Oct 14 18:32:12 +0000 2015", "favorited": false, "id": 654364097472012288, "lang": "en", "retweet_count": 1, "retweeted": false, "source": "<a href=\"http://mobile.twitter.com\" rel=\"nofollow\">Mobile Web</a>", "text": "Syrian Refugees Complain About Slow Internet, No Cigarettes, &amp; Food Only Fit For A Dog Or A Woman: http://t.co/CMIrIsV5ZU via @DCClothesline", "truncated": false, "urls": {"http://t.co/CMIrIsV5ZU": "http://www.dcclothesline.com/2015/10/14/syrian-refugees-complain-about-slow-internet-no-cigarettes-and-food-only-fit-for-a-dog-or-a-woman/"}, "user": {"created_at": "Fri Apr 10 01:11:52 +0000 2009", "description": "Anything BUT Politically Correct! Catholic, Pro-Israel, Pro-Life, Pro-2nd A., Never Back Down From What's Right. Trying to Wake Up Americans One Tweet At A Time", "favourites_count": 8447, "followers_count": 6086, "friends_count": 5988, "id": 30117361, "lang": "en", "listed_count": 92, "location": "North Carolina, USA", "name": "Thomas Halsey", "profile_background_color": "9AE4E8", "profile_background_image_url": "http://pbs.twimg.com/profile_background_images/8556996/thayerwalk1.jpg", "profile_background_tile": false, "profile_image_url": "https://pbs.twimg.com/profile_images/3701198814/ce5b24b9548119c1f0be9a096d6f4f3e_normal.jpeg", "profile_link_color": "89C9FA", "profile_sidebar_fill_color": "DDFFCC", "profile_text_color": "333333", "protected": false, "screen_name": "thalsey51", "statuses_count": 34902, "time_zone": "Eastern Time (US & Canada)", "utc_offset": -18000}, "user_mentions": [{"id": 76227785, "name": "The D.C. Clothesline", "screen_name": "DCClothesline"}]}
{"created_at": "Wed Oct 14 18:36:17 +0000 2015", "favorite_count": 8, "favorited": false, "id": 654365124799496193, "lang": "en", "retweet_count": 12, "retweeted": false, "source": "<a href=\"http://twitter.com\" rel=\"nofollow\">Twitter Web Client</a>", "text": "Syrian \u201cRefugees\u201d Complain About Slow Internet, No Cigarettes, And Food Only Fit For A Dog Or A Woman: http://t.co/YNC8ETKgBC", "truncated": false, "urls": {"http://t.co/YNC8ETKgBC": "http://www.dcclothesline.com/2015/10/14/syrian-refugees-complain-about-slow-internet-no-cigarettes-and-food-only-fit-for-a-dog-or-a-woman/"}, "user": {"created_at": "Mon Sep 05 20:21:34 +0000 2011", "default_profile": true, "description": "Conservative NRA   \u039c\u03bf\u03bb\u1f7c\u03bd \u03bb\u03ac\u03b2\u03b5 Followed by Sen Ted Cruz Darrell Issa Wash Times James Woods. Victoria Jackson", "favourites_count": 75597, "followers_count": 16515, "friends_count": 15533, "id": 368544047, "lang": "en", "listed_count": 322, "location": "Texas", "name": "Bill Periman", "profile_background_color": "C0DEED", "profile_background_image_url": "http://abs.twimg.com/images/themes/theme1/bg.png", "profile_background_tile": false, "profile_banner_url": "https://pbs.twimg.com/profile_banners/368544047/1390088863", "profile_image_url": "https://pbs.twimg.com/profile_images/615960008040144896/5lj33KTi_normal.jpg", "profile_link_color": "0084B4", "profile_sidebar_fill_color": "DDEEF6", "profile_text_color": "333333", "protected": false, "screen_name": "BillPeriman", "statuses_count": 206772}}
{"created_at": "Wed Oct 14 18:48:33 +0000 2015", "favorited": false, "id": 654368208326107136, "lang": "en", "retweeted": false, "source": "<a href=\"http://twitter.com\" rel=\"nofollow\">Twitter Web Client</a>", "text": "Syrian \u201cRefugees\u201d Complain About Slow Internet, No Cigarettes, And Food Only Fit For A Dog Or A Woman - http://t.co/TdbYRTkDB7", "truncated": false, "urls": {"http://t.co/TdbYRTkDB7": "http://www.dcclothesline.com/2015/10/14/syrian-refugees-complain-about-slow-internet-no-cigarettes-and-food-only-fit-for-a-dog-or-a-woman/"}, "user": {"created_at": "Sat Jul 21 20:10:58 +0000 2012", "default_profile": true, "description": "Bible Based Conservative, Independent, Watchman on the Wall, Aware of The Times. Follow 3 in 1 God.", "favourites_count": 840, "followers_count": 6022, "friends_count": 6546, "id": 709505904, "lang": "en", "listed_count": 85, "location": "US", "name": "SonofRekhav", "profile_background_color": "C0DEED", "profile_background_image_url": "http://abs.twimg.com/images/themes/theme1/bg.png", "profile_background_tile": false, "profile_image_url": "https://pbs.twimg.com/profile_images/3756531478/ad55b99e35c20895d24f1f910f321010_normal.png", "profile_link_color": "0084B4", "profile_sidebar_fill_color": "DDEEF6", "profile_text_color": "333333", "protected": false, "screen_name": "Yonadav7", "statuses_count": 173465, "time_zone": "Central Time (US & Canada)", "url": "http://t.co/FCvLDS7qtf", "utc_offset": -21600}}
{"created_at": "Wed Oct 14 18:50:17 +0000 2015", "favorite_count": 1, "favorited": false, "id": 654368648228958208, "lang": "en", "retweeted": false, "source": "<a href=\"http://twitter.com\" rel=\"nofollow\">Twitter Web Client</a>", "text": "Syrian \u201cRefugees\u201d Complain About Slow Internet, No Cigarettes, And Food Only Fit For A Dog Or A Woman: http://t.co/Z02ylpANIU @DCClothesline", "truncated": false, "urls": {"http://t.co/Z02ylpANIU": "http://www.dcclothesline.com/2015/10/14/syrian-refugees-complain-about-slow-internet-no-cigarettes-and-food-only-fit-for-a-dog-or-a-woman/"}, "user": {"created_at": "Mon Nov 02 03:14:04 +0000 2009", "description": "Immigration Matters, Politics, Human Interest. https://t.co/pCqxnnQ0pX", "favourites_count": 11827, "followers_count": 5248, "friends_count": 5670, "id": 86861687, "lang": "en", "listed_count": 95, "location": "Indiana, USA", "name": "Don England", "profile_background_color": "0099B9", "profile_background_image_url": "http://abs.twimg.com/images/themes/theme4/bg.gif", "profile_background_tile": false, "profile_banner_url": "https://pbs.twimg.com/profile_banners/86861687/1359767659", "profile_image_url": "https://pbs.twimg.com/profile_images/378800000385110614/b2cf966cc289a2c444f64d245a75922b_normal.png", "profile_link_color": "0099B9", "profile_sidebar_fill_color": "95E8EC", "profile_text_color": "3C3940", "protected": false, "screen_name": "dontspeakforme", "statuses_count": 124210, "time_zone": "Central Time (US & Canada)", "utc_offset": -21600}, "user_mentions": [{"id": 76227785, "name": "The D.C. Clothesline", "screen_name": "DCClothesline"}]}
{"created_at": "Wed Oct 14 18:56:24 +0000 2015", "favorited": false, "id": 654370184938016769, "lang": "en", "retweet_count": 1, "retweeted": false, "source": "<a href=\"http://twitter.com\" rel=\"nofollow\">Twitter Web Client</a>", "text": "Syrian \u201cRefugees\u201d Complain, Slow Internet, No Cigarettes, And Food Only Fit For A Dog Or A Woman: http://t.co/8RPg7MY2yY via @DCClothesline", "truncated": false, "urls": {"http://t.co/8RPg7MY2yY": "http://www.dcclothesline.com/2015/10/14/syrian-refugees-complain-about-slow-internet-no-cigarettes-and-food-only-fit-for-a-dog-or-a-woman/"}, "user": {"created_at": "Mon Apr 20 03:40:22 +0000 2009", "default_profile": true, "description": "Texan in NC, Mom, Nana, Dallas Cowboys, ProLife, ProGod, ProGuns, Tea Party, Pro Israel", "favourites_count": 12724, "followers_count": 7325, "friends_count": 6833, "geo_enabled": true, "id": 33409429, "lang": "en", "listed_count": 168, "location": "DON'T MESS WITH TEXAS WOMEN", "name": "Jan Pleasants", "profile_background_color": "C0DEED", "profile_background_image_url": "http://abs.twimg.com/images/themes/theme1/bg.png", "profile_background_tile": false, "profile_banner_url": "https://pbs.twimg.com/profile_banners/33409429/1358962337", "profile_image_url": "https://pbs.twimg.com/profile_images/378800000754924969/649dc6c2383466f3d992a9d2d48e4b48_normal.png", "profile_link_color": "0084B4", "profile_sidebar_fill_color": "DDEEF6", "profile_text_color": "333333", "protected": false, "screen_name": "Jantxnc", "statuses_count": 158029, "time_zone": "Eastern Time (US & Canada)", "utc_offset": -18000}, "user_mentions": [{"id": 76227785, "name": "The D.C. Clothesline", "screen_name": "DCClothesline"}]}
{"created_at": "Wed Oct 14 18:57:00 +0000 2015", "favorited": false, "id": 654370335161106432, "lang": "en", "retweeted": false, "source": "<a href=\"http://twitter.com\" rel=\"nofollow\">Twitter Web Client</a>", "text": "Syrian \u201cRefugees\u201d Complain About Slow Internet, No Cigarettes, And Food Only Fit For A Dog Or A Woman http://t.co/N6sBWW3pXs", "truncated": false, "urls": {"http://t.co/N6sBWW3pXs": "http://www.dcclothesline.com/2015/10/14/syrian-refugees-complain-about-slow-internet-no-cigarettes-and-food-only-fit-for-a-dog-or-a-woman/"}, "user": {"created_at": "Sat Oct 13 03:09:41 +0000 2012", "default_profile": true, "description": "Conservative+Libertarian-", "favourites_count": 175, "followers_count": 1693, "friends_count": 1838, "id": 876941538, "lang": "en", "listed_count": 30, "location": "USA", "name": "Ann Duval", "profile_background_color": "C0DEED", "profile_background_image_url": "http://abs.twimg.com/images/themes/theme1/bg.png", "profile_background_tile": false, "profile_image_url": "https://pbs.twimg.com/profile_images/378800000060421562/f1c8156566ffa9617dee9e5d07ca5c33_normal.jpeg", "profile_link_color": "0084B4", "profile_sidebar_fill_color": "DDEEF6", "profile_text_color": "333333", "protected": false, "screen_name": "AnnDuval1", "statuses_count": 28009}}
{"created_at": "Wed Oct 14 18:57:06 +0000 2015", "favorite_count": 2, "favorited": false, "id": 654370363355193344, "lang": "en", "retweeted": false, "source": "<a href=\"http://twitter.com\" rel=\"nofollow\">Twitter Web Client</a>", "text": "Syrian \u201cRefugees\u201d Complain About Slow Internet, No Cigarettes, Food Only Fit For A Dog Or A Woman: http://t.co/XfAx8cAnkM via @DCClothesline", "truncated": false, "urls": {"http://t.co/XfAx8cAnkM": "http://www.dcclothesline.com/2015/10/14/syrian-refugees-complain-about-slow-internet-no-cigarettes-and-food-only-fit-for-a-dog-or-a-woman/"}, "user": {"created_at": "Thu Apr 17 12:30:52 +0000 2014", "description": "I believe in this country and its greatness! #tcot #2A #CruzCrew #ConstitutionalConservative #TeaPartyPatriots Married to @GenGSPatton", "favourites_count": 43313, "followers_count": 23532, "friends_count": 23746, "id": 2449650492, "lang": "en", "listed_count": 295, "location": "Liberal WA State, Sadly ", "name": "Liberty Bell 100", "profile_background_color": "000000", "profile_background_image_url": "http://abs.twimg.com/images/themes/theme17/bg.gif", "profile_background_tile": false, "profile_banner_url": "https://pbs.twimg.com/profile_banners/2449650492/1452226278", "profile_image_url": "https://pbs.twimg.com/profile_images/682598941028909057/koz2it6m_normal.jpg", "profile_link_color": "94D487", "profile_sidebar_fill_color": "000000", "profile_text_color": "000000", "protected": false, "screen_name": "LibertyBell1000", "statuses_count": 121743, "time_zone": "Pacific Time (US & Canada)", "url": "https://t.co/JCcw1PRQ8L", "utc_offset": -28800}, "user_mentions": [{"id": 76227785, "name": "The D.C. Clothesline", "screen_name": "DCClothesline"}]}
{"created_at": "Wed Oct 14 18:59:58 +0000 2015", "favorited": false, "id": 654371082313551872, "lang": "en", "retweeted": false, "source": "<a href=\"http://linkis.com\" rel=\"nofollow\">Linkis.com</a>", "text": "Syrian \u201cRefugees\u201d Complain About Slow Internet, No Cigarettes, &amp; Food Only Fit For A Dog Or Woman: http://t.co/v45yrWOboj via @DCClothesline", "truncated": false, "urls": {"http://t.co/v45yrWOboj": "http://ln.is/dcclothesline.com/6uKKK"}, "user": {"created_at": "Mon Apr 13 02:26:23 +0000 2009", "description": "Senior Editor Vista Republic, Staunch Christian -support Israel's right to thrive. Pro Bill of Rights, Pro-life, Pro-USA, Liberty loving, anti progressive.", "favourites_count": 2647, "followers_count": 3378, "friends_count": 3671, "geo_enabled": true, "id": 30785261, "lang": "en", "listed_count": 107, "location": "Mississippi", "name": "Robert Smith", "profile_background_color": "C6E2EE", "profile_background_image_url": "http://abs.twimg.com/images/themes/theme2/bg.gif", "profile_background_tile": false, "profile_banner_url": "https://pbs.twimg.com/profile_banners/30785261/1353774784", "profile_image_url": "https://pbs.twimg.com/profile_images/378800000815749110/9c402fee2e196551d87b7a7ca5130245_normal.png", "profile_link_color": "89C9FA", "profile_sidebar_fill_color": "DAECF4", "profile_text_color": "663B12", "protected": false, "screen_name": "res416", "statuses_count": 84134, "url": "http://t.co/r1tgNLToHQ"}, "user_mentions": [{"id": 76227785, "name": "The D.C. Clothesline", "screen_name": "DCClothesline"}]}
{"created_at": "Wed Oct 14 19:20:58 +0000 2015", "favorited": false, "id": 654376369594482689, "lang": "en", "retweeted": false, "source": "<a href=\"http://twitter.com\" rel=\"nofollow\">Twitter Web Client</a>", "text": "Syrian \u201cRefugees\u201d Complain About Slow Internet, No Cigarettes, And Food Only Fit For Dog Or Woman: http://t.co/MkPUPP5c9J via @DCClothesline", "truncated": false, "urls": {"http://t.co/MkPUPP5c9J": "http://www.dcclothesline.com/2015/10/14/syrian-refugees-complain-about-slow-internet-no-cigarettes-and-food-only-fit-for-a-dog-or-a-woman/"}, "user": {"created_at": "Fri Jul 03 11:28:52 +0000 2015", "default_profile": true, "description": "#Conservative, #Christian, #ProLife, #ProGun, #ProIsrael, Bookworm, Professor, Cat Lover, Traveler, Braves Fan", "favourites_count": 2901, "followers_count": 1967, "friends_count": 1830, "id": 3266978148, "lang": "en", "listed_count": 47, "location": "Marietta, Georgia", "name": "Annie Londen", "profile_background_color": "C0DEED", "profile_background_image_url": "http://abs.twimg.com/images/themes/theme1/bg.png", "profile_background_tile": false, "profile_banner_url": "https://pbs.twimg.com/profile_banners/3266978148/1437480735", "profile_image_url": "https://pbs.twimg.com/profile_images/662321453606375424/TGuqYcJj_normal.jpg", "profile_link_color": "0084B4", "profile_sidebar_fill_color": "DDEEF6", "profile_text_color": "333333", "protected": false, "screen_name": "GAAnnieLonden", "statuses_count": 24726, "time_zone": "Pacific Time (US & Canada)", "utc_offset": -28800}, "user_mentions": [{"id": 76227785, "name": "The D.C. Clothesline", "screen_name": "DCClothesline"}]}
{"created_at": "Wed Oct 14 19:28:34 +0000 2015", "favorited": false, "id": 654378278774538240, "lang": "en", "retweeted": false, "source": "<a href=\"http://twitter.com\" rel=\"nofollow\">Twitter Web Client</a>", "text": "Syrian \u201cRefugees\u201d Complain About Slow Internet, No Cigarettes, And Food Only Fit For A Dog Or A Woman - http://t.co/LN1aKOC6yx", "truncated": false, "urls": {"http://t.co/LN1aKOC6yx": "http://www.dcclothesline.com/2015/10/14/syrian-refugees-complain-about-slow-internet-no-cigarettes-and-food-only-fit-for-a-dog-or-a-woman/"}, "user": {"created_at": "Thu Jun 04 11:05:35 +0000 2009", "description": "Retired Network Engineer, Tea Party member, Conservative and Christian.", "favourites_count": 1, "followers_count": 1278, "friends_count": 1790, "id": 44592655, "lang": "en", "listed_count": 19, "location": "North Carolina", "name": "Gary Oriani", "profile_background_color": "1A1B1F", "profile_background_image_url": "http://pbs.twimg.com/profile_background_images/593757203275718656/g6Y02qYm.jpg", "profile_background_tile": true, "profile_image_url": "https://pbs.twimg.com/profile_images/614812482192814081/EQ9PrEXd_normal.jpg", "profile_link_color": "2FC2EF", "profile_sidebar_fill_color": "252429", "profile_text_color": "666666", "protected": false, "screen_name": "commandtech", "statuses_count": 29577, "time_zone": "Eastern Time (US & Canada)", "utc_offset": -18000}}
{"created_at": "Wed Oct 14 19:42:32 +0000 2015", "favorited": false, "id": 654381796839280640, "lang": "en", "retweet_count": 1, "retweeted": false, "source": "<a href=\"http://twitter.com\" rel=\"nofollow\">Twitter Web Client</a>", "text": "Syrian \u201cRefugees\u201d Complain About Slow Internet, No Cigarettes, And Food Only Fit For A Dog Or A Woman    http://t.co/c4SYrUgn1Y", "truncated": false, "urls": {"http://t.co/c4SYrUgn1Y": "http://www.dcclothesline.com/2015/10/14/syrian-refugees-complain-about-slow-internet-no-cigarettes-and-food-only-fit-for-a-dog-or-a-woman/"}, "user": {"created_at": "Mon Mar 30 23:15:08 +0000 2009", "description": "Not anti-Government--Just Pro Constitution.", "favourites_count": 53, "followers_count": 1202, "friends_count": 358, "id": 27757215, "lang": "en", "listed_count": 65, "location": "West Virginia, USA", "name": "StarDust Dolittle", "profile_background_color": "D88D94", "profile_background_image_url": "http://pbs.twimg.com/profile_background_images/92112842/rosefairypinkangel_1.jpg", "profile_background_tile": true, "profile_banner_url": "https://pbs.twimg.com/profile_banners/27757215/1366069902", "profile_image_url": "https://pbs.twimg.com/profile_images/378800000341231625/dfcf97f0f5fb3e2627f58b458063de11_normal.jpeg", "profile_link_color": "9E3640", "profile_sidebar_fill_color": "E1A8AC", "profile_text_color": "000000", "protected": false, "screen_name": "DustyFae", "statuses_count": 100414, "time_zone": "Eastern Time (US & Canada)", "url": "http://t.co/xwaWWeWjFR", "utc_offset": -18000}}
{"created_at": "Wed Oct 14 19:49:58 +0000 2015", "favorited": false, "id": 654383667570188290, "lang": "en", "retweeted": false, "source": "<a href=\"http://twitter.com\" rel=\"nofollow\">Twitter Web Client</a>", "text": "Syrian\u201cRefugees\u201dComplain About Slow Internet, No Cigarettes,And Food Only Fit For A Dog Or A Woman http://t.co/qWKLZeJZbk via @DCClothesline", "truncated": false, "urls": {"http://t.co/qWKLZeJZbk": "http://www.dcclothesline.com/2015/10/14/syrian-refugees-complain-about-slow-internet-no-cigarettes-and-food-only-fit-for-a-dog-or-a-woman/"}, "user": {"created_at": "Tue Aug 24 12:32:25 +0000 2010", "description": "Unapologetic Southern Conservative Libs welcome if you have thick skin. I'm not PC. Followed by the best of the Best #Pro2ndamendment #Prolife #IStandwithIsrael", "favourites_count": 2582, "followers_count": 6267, "friends_count": 5968, "geo_enabled": true, "id": 182362719, "lang": "en", "listed_count": 57, "location": "South Carolina, USA", "name": "Michael Coker", "profile_background_color": "0099B9", "profile_background_image_url": "http://abs.twimg.com/images/themes/theme4/bg.gif", "profile_background_tile": false, "profile_banner_url": "https://pbs.twimg.com/profile_banners/182362719/1429012604", "profile_image_url": "https://pbs.twimg.com/profile_images/615529851085287424/RImhhwiS_normal.jpg", "profile_link_color": "0099B9", "profile_sidebar_fill_color": "95E8EC", "profile_text_color": "3C3940", "protected": false, "screen_name": "ccokermn", "statuses_count": 12685, "time_zone": "Eastern Time (US & Canada)", "utc_offset": -18000}, "user_mentions": [{"id": 76227785, "name": "The D.C. Clothesline", "screen_name": "DCClothesline"}]}
{"created_at": "Wed Oct 14 20:39:49 +0000 2015", "favorited": false, "id": 654396210812334080, "lang": "en", "retweeted": false, "source": "<a href=\"http://www.facebook.com/twitter\" rel=\"nofollow\">Facebook</a>", "text": "Syrian \u201cRefugees\u201d Complain About Slow Internet, No Cigarettes, And Food Only Fit For A Dog Or A... http://t.co/Luf3KUcc8w", "truncated": false, "urls": {"http://t.co/Luf3KUcc8w": "http://fb.me/6n6oOXX0c"}, "user": {"created_at": "Mon Dec 30 20:07:24 +0000 2013", "default_profile": true, "favourites_count": 4, "followers_count": 77, "friends_count": 236, "geo_enabled": true, "id": 2252726559, "lang": "en", "name": "Mike Lewis", "profile_background_color": "C0DEED", "profile_background_image_url": "http://abs.twimg.com/images/themes/theme1/bg.png", "profile_background_tile": false, "profile_image_url": "https://pbs.twimg.com/profile_images/656372225008889856/oytXCYBh_normal.jpg", "profile_link_color": "0084B4", "profile_sidebar_fill_color": "DDEEF6", "profile_text_color": "333333", "protected": false, "screen_name": "MIKELEWIS11674", "statuses_count": 3331}}
{"created_at": "Wed Oct 14 20:47:46 +0000 2015", "favorited": false, "id": 654398213848338432, "lang": "en", "retweeted": false, "source": "<a href=\"http://www.facebook.com/twitter\" rel=\"nofollow\">Facebook</a>", "text": "Syrian \u201cRefugees\u201d Complain About Slow Internet, No Cigarettes, And Food Only Fit For A Dog Or A... http://t.co/Fynddvruf9", "truncated": false, "urls": {"http://t.co/Fynddvruf9": "http://fb.me/2uV9KZc8w"}, "user": {"created_at": "Mon Jul 14 19:32:24 +0000 2014", "description": "A retired teacher of theater, a dreamer, an actor, and now a writer of Jesus and Me a fictional account of Jesus' early life", "favourites_count": 2366, "followers_count": 4258, "friends_count": 3862, "geo_enabled": true, "id": 2646227492, "lang": "en", "listed_count": 106, "location": "New Jersey", "name": "Ted Sugges", "profile_background_color": "000000", "profile_background_image_url": "http://abs.twimg.com/images/themes/theme1/bg.png", "profile_background_tile": false, "profile_banner_url": "https://pbs.twimg.com/profile_banners/2646227492/1419009385", "profile_image_url": "https://pbs.twimg.com/profile_images/557991565306503169/koslYtSl_normal.jpeg", "profile_link_color": "3B94D9", "profile_sidebar_fill_color": "000000", "profile_text_color": "000000", "protected": false, "screen_name": "dqtds46", "statuses_count": 13495, "time_zone": "Eastern Time (US & Canada)", "url": "http://t.co/l6TFSZtgoP", "utc_offset": -18000}}
{"created_at": "Wed Oct 14 21:19:35 +0000 2015", "favorited": false, "id": 654406217817833472, "lang": "en", "retweeted": false, "source": "<a href=\"http://www.twitter.com\" rel=\"nofollow\">Twitter for Windows</a>", "text": "Syrian \u201cRefugees\u201d Complain About Slow Internet, No Cigarettes, And Food Only Fit For A Dog Or A Woman http://t.co/8JQ4Jd004N", "truncated": false, "urls": {"http://t.co/8JQ4Jd004N": "http://www.dcclothesline.com/2015/10/14/syrian-refugees-complain-about-slow-internet-no-cigarettes-and-food-only-fit-for-a-dog-or-a-woman/"}, "user": {"created_at": "Sun Oct 06 07:36:56 +0000 2013", "description": "Proud patriot  born in Romania Stand with the american people  #Truth #2A #freespeech #liberty #Coanda, blood related to Henri Coanda", "favourites_count": 1067, "followers_count": 1003, "friends_count": 853, "id": 702718979, "lang": "da", "listed_count": 14, "location": "somewhere ", "name": "Luiza Coanda", "profile_background_color": "000000", "profile_background_image_url": "http://abs.twimg.com/images/themes/theme1/bg.png", "profile_background_tile": false, "profile_banner_url": "https://pbs.twimg.com/profile_banners/702718979/1445727653", "profile_image_url": "https://pbs.twimg.com/profile_images/665173184220667904/qmR2tqeA_normal.jpg", "profile_link_color": "94D487", "profile_sidebar_fill_color": "000000", "profile_text_color": "000000", "protected": false, "screen_name": "vercettidk88", "statuses_count": 13085, "time_zone": "London", "url": "https://t.co/F03CEEUg8P"}}
{"created_at": "Wed Oct 14 21:36:26 +0000 2015", "favorited": false, "id": 654410458892517376, "lang": "en", "retweeted": false, "source": "<a href=\"http://twitter.com/download/android\" rel=\"nofollow\">Twitter for Android</a>", "text": "Syrian \u201cRefugees\u201d Complain About Slow Internet, No Cigarettes, And Food http://t.co/ne4zhueZUH", "truncated": false, "urls": {"http://t.co/ne4zhueZUH": "http://woundedamericanwarrior.com/?p=129156"}, "user": {"created_at": "Mon Jun 01 23:29:37 +0000 2009", "default_profile": true, "description": "Bitter n Clinger, Christian ,Independent, Conservative.", "favourites_count": 476, "followers_count": 2923, "friends_count": 2889, "geo_enabled": true, "id": 44002861, "lang": "en", "listed_count": 118, "location": "Suffolk , Lake Ronkonkoma , NY", "name": "Jeff", "profile_background_color": "C0DEED", "profile_background_image_url": "http://abs.twimg.com/images/themes/theme1/bg.png", "profile_background_tile": false, "profile_banner_url": "https://pbs.twimg.com/profile_banners/44002861/1448569295", "profile_image_url": "https://pbs.twimg.com/profile_images/548649253007290368/DyWfum9s_normal.jpeg", "profile_link_color": "0084B4", "profile_sidebar_fill_color": "DDEEF6", "profile_text_color": "333333", "protected": false, "screen_name": "shad39", "statuses_count": 123842, "time_zone": "Central Time (US & Canada)", "utc_offset": -21600}}
{"created_at": "Wed Oct 14 21:57:25 +0000 2015", "favorited": false, "id": 654415739013734400, "lang": "en", "retweeted": false, "source": "<a href=\"http://linkis.com\" rel=\"nofollow\">Linkis.com</a>", "text": "Syrian \u201cRefugees\u201d Complain About Slow Internet, No Cigarettes, And Food Only Fit For A Dog Or A Woman - - http://t.co/a5DXiPoeBg", "truncated": false, "urls": {"http://t.co/a5DXiPoeBg": "http://ln.is/dcclothesline.com/aJUE8"}, "user": {"created_at": "Thu Jan 08 03:37:13 +0000 2015", "description": "Conservative, pro Israel, Christian, animal lover.  Never met a democrat I liked!", "favourites_count": 66, "followers_count": 520, "friends_count": 660, "geo_enabled": true, "id": 2967191519, "lang": "en", "listed_count": 16, "location": "God's Country - New Hampshire ", "name": "NH Yank", "profile_background_color": "89C9FA", "profile_background_image_url": "http://abs.twimg.com/images/themes/theme18/bg.gif", "profile_background_tile": false, "profile_banner_url": "https://pbs.twimg.com/profile_banners/2967191519/1421106897", "profile_image_url": "https://pbs.twimg.com/profile_images/554788659619434497/1MBNRx84_normal.jpeg", "profile_link_color": "038543", "profile_sidebar_fill_color": "DDEEF6", "profile_text_color": "333333", "protected": false, "screen_name": "YankNh", "statuses_count": 16202, "url": "http://t.co/RiL7zSqXNa"}}
{"created_at": "Wed Oct 14 22:52:15 +0000 2015", "favorited": false, "id": 654429537825001472, "lang": "en", "retweeted": false, "source": "<a href=\"http://www.facebook.com/twitter\" rel=\"nofollow\">Facebook</a>", "text": "Syrian \u201cRefugees\u201d Complain About Slow Internet, No Cigarettes, And Food Only Fit For A Dog Or A... http://t.co/xEj82mstKR", "truncated": false, "urls": {"http://t.co/xEj82mstKR": "http://fb.me/7XntBnAYm"}, "user": {"created_at": "Thu Sep 20 20:57:24 +0000 2012", "description": "Distributor for saba ace  ,mom , fitness, health food nut, I am a Christian who believes that your victory and all you need is in the cross", "favourites_count": 2151, "followers_count": 600, "friends_count": 1154, "geo_enabled": true, "id": 836346872, "lang": "en", "listed_count": 33, "location": "kentucky", "name": "tamara johnson", "profile_background_color": "8B542B", "profile_background_image_url": "http://abs.twimg.com/images/themes/theme8/bg.gif", "profile_background_tile": false, "profile_banner_url": "https://pbs.twimg.com/profile_banners/836346872/1421089749", "profile_image_url": "https://pbs.twimg.com/profile_images/494345047337611264/eeZBLbqI_normal.jpeg", "profile_link_color": "9D582E", "profile_sidebar_fill_color": "EADEAA", "profile_text_color": "333333", "protected": false, "screen_name": "tamaraj86611162", "statuses_count": 39405, "time_zone": "Eastern Time (US & Canada)", "url": "http://t.co/CnossNlJnL", "utc_offset": -18000}}
{"created_at": "Thu Oct 15 00:32:49 +0000 2015", "favorited": false, "id": 654454848461471748, "lang": "en", "retweet_count": 3, "retweeted": false, "source": "<a href=\"http://winthecustomer.com/\" rel=\"nofollow\">Win the Customer</a>", "text": "Syrian \u201cRefugees\u201d Complain About Slow Internet, No Cigarettes, And Food Only Fit For... http://t.co/zX0w2LglYl", "truncated": false, "urls": {"http://t.co/zX0w2LglYl": "http://tinyurl.com/p5foumg"}, "user": {"created_at": "Tue Sep 22 02:34:29 +0000 2009", "description": "Airing Out America's Dirty Laundry. #tcot", "favourites_count": 32, "followers_count": 11369, "friends_count": 1990, "id": 76227785, "lang": "en", "listed_count": 279, "location": "Everywhere", "name": "The D.C. Clothesline", "profile_background_color": "022330", "profile_background_image_url": "http://abs.twimg.com/images/themes/theme15/bg.png", "profile_background_tile": false, "profile_banner_url": "https://pbs.twimg.com/profile_banners/76227785/1406414778", "profile_image_url": "https://pbs.twimg.com/profile_images/493165757488828416/FqJK4NwY_normal.jpeg", "profile_link_color": "0084B4", "profile_sidebar_fill_color": "C0DFEC", "profile_text_color": "333333", "protected": false, "screen_name": "DCClothesline", "statuses_count": 72147, "time_zone": "Eastern Time (US & Canada)", "url": "http://t.co/MI09Qxq8QW", "utc_offset": -18000}}
{"created_at": "Thu Oct 15 01:09:29 +0000 2015", "favorited": false, "id": 654464074390990848, "lang": "en", "retweeted": false, "source": "<a href=\"http://mobile.twitter.com\" rel=\"nofollow\">Mobile Web</a>", "text": "Syrian \u201cRefugees\u201d Complain About Slow Internet, No Cigarettes, And Food http://t.co/RtDzEqvONn", "truncated": false, "urls": {"http://t.co/RtDzEqvONn": "http://woundedamericanwarrior.com/?p=129156"}, "user": {"created_at": "Mon Mar 23 23:37:40 +0000 2009", "default_profile": true, "description": "Life is short... and it's NOT about us. Eternity is long... and it's all about God. Redeeming the time and choose wisely. Truth matter most. No PC or BLM!", "favourites_count": 1216, "followers_count": 2178, "friends_count": 2381, "id": 26121933, "lang": "en", "listed_count": 72, "location": "Pilgrimage", "name": "Norman", "profile_background_color": "C0DEED", "profile_background_image_url": "http://abs.twimg.com/images/themes/theme1/bg.png", "profile_background_tile": false, "profile_banner_url": "https://pbs.twimg.com/profile_banners/26121933/1418276140", "profile_image_url": "https://pbs.twimg.com/profile_images/628149284811083776/aJc5mi4x_normal.jpg", "profile_link_color": "0084B4", "profile_sidebar_fill_color": "DDEEF6", "profile_text_color": "333333", "protected": false, "screen_name": "NormanSie", "statuses_count": 34522}}
{"created_at": "Thu Oct 15 02:17:00 +0000 2015", "favorite_count": 2, "favorited": false, "id": 654481067253059584, "lang": "en", "retweet_count": 5, "retweeted": false, "source": "<a href=\"http://linkis.com\" rel=\"nofollow\">Linkis.com</a>", "text": "Syrian \u201cRefugees\u201d Complain About Slow Internet, No Cigarettes &amp; Food Only Fit For Dog Or A Woman: http://t.co/jPeBIr3est via @DCClothesline", "truncated": false, "urls": {"http://t.co/jPeBIr3est": "http://ln.is/dcclothesline.com/snOIc"}, "user": {"created_at": "Fri Apr 27 19:11:51 +0000 2012", "default_profile": true, "description": "God/family/country. #1A #2A SB owner.NativeOregonian #GoDucks #BlueLives family F/B SenCruz,D'Souza, JudgeFerrer,Dollard,Pemmaraju,DuPree,Gabriel #Honor", "favourites_count": 6789, "followers_count": 8176, "friends_count": 8373, "geo_enabled": true, "id": 564927741, "lang": "en", "listed_count": 116, "location": "LAS VEGAS", "name": "Lori", "profile_background_color": "C0DEED", "profile_background_image_url": "http://abs.twimg.com/images/themes/theme1/bg.png", "profile_background_tile": false, "profile_banner_url": "https://pbs.twimg.com/profile_banners/564927741/1447524982", "profile_image_url": "https://pbs.twimg.com/profile_images/672979349843218432/XjJvbRrj_normal.jpg", "profile_link_color": "0084B4", "profile_sidebar_fill_color": "DDEEF6", "profile_text_color": "333333", "protected": false, "screen_name": "lori89144", "statuses_count": 27856, "time_zone": "Pacific Time (US & Canada)", "url": "https://t.co/mW3OPPniPs", "utc_offset": -28800}, "user_mentions": [{"id": 76227785, "name": "The D.C. Clothesline", "screen_name": "DCClothesline"}]}
{"created_at": "Thu Oct 15 06:32:18 +0000 2015", "favorited": false, "id": 654545314016178176, "lang": "en", "retweeted": false, "source": "<a href=\"http://twitter.com\" rel=\"nofollow\">Twitter Web Client</a>", "text": "Syrian \u201cRefugees\u201d Complain About Slow Internet, No Cigarettes, And Food Fit For A Dog Or A Woman: http://t.co/QhEG79VMpu via @DCClothesline", "truncated": false, "urls": {"http://t.co/QhEG79VMpu": "http://www.dcclothesline.com/2015/10/14/syrian-refugees-complain-about-slow-internet-no-cigarettes-and-food-only-fit-for-a-dog-or-a-woman/"}, "user": {"created_at": "Tue Feb 24 09:14:41 +0000 2009", "description": "Quiet conservative. Retired law enforcement and former military.", "favourites_count": 37, "followers_count": 829, "friends_count": 801, "id": 21740591, "lang": "en", "listed_count": 22, "location": "Jefferson County, Mo.", "name": "Tom Hauck", "profile_background_color": "07090B", "profile_background_image_url": "http://pbs.twimg.com/profile_background_images/440672098/forgotten.jpg", "profile_background_tile": true, "profile_banner_url": "https://pbs.twimg.com/profile_banners/21740591/1373267900", "profile_image_url": "https://pbs.twimg.com/profile_images/378800000103793229/596ca8096b21b9deff26b788788f6b52_normal.jpeg", "profile_link_color": "42A8C3", "profile_sidebar_fill_color": "25154D", "profile_text_color": "0A0A09", "protected": false, "screen_name": "hawkmo99", "statuses_count": 19581, "time_zone": "Central Time (US & Canada)", "utc_offset": -21600}, "user_mentions": [{"id": 76227785, "name": "The D.C. Clothesline", "screen_name": "DCClothesline"}]}
{"created_at": "Thu Oct 15 08:32:54 +0000 2015", "favorited": false, "id": 654575665304444928, "lang": "en", "retweet_count": 1, "retweeted": false, "source": "<a href=\"http://winthecustomer.com/\" rel=\"nofollow\">Win the Customer</a>", "text": "Syrian \u201cRefugees\u201d Complain About Slow Internet, No Cigarettes, And Food Only Fit For... http://t.co/zX0w2LxXmV", "truncated": false, "urls": {"http://t.co/zX0w2LxXmV": "http://tinyurl.com/p5foumg"}, "user": {"created_at": "Tue Sep 22 02:34:29 +0000 2009", "description": "Airing Out America's Dirty Laundry. #tcot", "favourites_count": 32, "followers_count": 11369, "friends_count": 1990, "id": 76227785, "lang": "en", "listed_count": 279, "location": "Everywhere", "name": "The D.C. Clothesline", "profile_background_color": "022330", "profile_background_image_url": "http://abs.twimg.com/images/themes/theme15/bg.png", "profile_background_tile": false, "profile_banner_url": "https://pbs.twimg.com/profile_banners/76227785/1406414778", "profile_image_url": "https://pbs.twimg.com/profile_images/493165757488828416/FqJK4NwY_normal.jpeg", "profile_link_color": "0084B4", "profile_sidebar_fill_color": "C0DFEC", "profile_text_color": "333333", "protected": false, "screen_name": "DCClothesline", "statuses_count": 72147, "time_zone": "Eastern Time (US & Canada)", "url": "http://t.co/MI09Qxq8QW", "utc_offset": -18000}}
{"created_at": "Sat Oct 17 20:39:14 +0000 2015", "favorited": false, "id": 655483226421612548, "lang": "en", "retweeted": false, "source": "<a href=\"http://twitter.com\" rel=\"nofollow\">Twitter Web Client</a>", "text": "Syrian \u201cRefugees\u201d Complain About Slow Internet, No Cigarettes, And Food Only Fit For A Dog Or A Woman http://t.co/g1EChtdYsm", "truncated": false, "urls": {"http://t.co/g1EChtdYsm": "http://redicecreations.com/article.php?id=34537&utm_source=Twitterfeed&utm_medium=Twitter"}, "user": {"created_at": "Thu Apr 29 21:22:33 +0000 2010", "description": "Painting, Design, Illustration & Art Apparel (samples)", "favourites_count": 1950, "followers_count": 499, "friends_count": 702, "geo_enabled": true, "id": 138544431, "lang": "en", "listed_count": 22, "location": "London", "name": "Zuhatz", "profile_background_color": "FFFFFF", "profile_background_image_url": "http://pbs.twimg.com/profile_background_images/458980323632496641/PrlQMZSg.jpeg", "profile_background_tile": true, "profile_banner_url": "https://pbs.twimg.com/profile_banners/138544431/1444997249", "profile_image_url": "https://pbs.twimg.com/profile_images/640187528121872384/YfJS4EiS_normal.jpg", "profile_link_color": "ABB8C2", "profile_sidebar_fill_color": "EFEFEF", "profile_text_color": "333333", "protected": false, "screen_name": "zuhatz", "statuses_count": 3682, "time_zone": "London", "url": "http://t.co/dCanWqCoel"}}
{"created_at": "Sat Oct 17 23:08:25 +0000 2015", "favorited": false, "id": 655520770270040064, "lang": "en", "retweet_count": 1, "retweeted": false, "source": "<a href=\"http://twitter.com\" rel=\"nofollow\">Twitter Web Client</a>", "text": "Syrian \u201cRefugees\u201d Complain About Slow Internet, No Cigarettes, And Food Only Fit For A Dog Or A Woman http://t.co/IeoWhlTHCl", "truncated": false, "urls": {"http://t.co/IeoWhlTHCl": "http://redicecreations.com/article.php?id=34537#.ViLU5sya-GQ.twitter"}, "user": {"created_at": "Wed Jan 05 13:44:02 +0000 2011", "default_profile": true, "description": "A Zanesville Democrat!", "favourites_count": 863, "followers_count": 824, "friends_count": 1131, "geo_enabled": true, "id": 234365083, "lang": "en", "listed_count": 85, "location": "Zanesville Ohio", "name": "Zanesville Democrat", "profile_background_color": "C0DEED", "profile_background_image_url": "http://abs.twimg.com/images/themes/theme1/bg.png", "profile_background_tile": false, "profile_image_url": "https://pbs.twimg.com/profile_images/618226685352222720/Qumb07tr_normal.jpg", "profile_link_color": "0084B4", "profile_sidebar_fill_color": "DDEEF6", "profile_text_color": "333333", "protected": false, "screen_name": "ZANVDEM", "statuses_count": 54690, "time_zone": "Central Time (US & Canada)", "utc_offset": -21600}}
{"created_at": "Wed Oct 28 23:09:47 +0000 2015", "favorite_count": 1, "favorited": false, "id": 659507383538987010, "lang": "en", "retweet_count": 2, "retweeted": false, "source": "<a href=\"http://twitter.com\" rel=\"nofollow\">Twitter Web Client</a>", "text": "Syrian \u201cRefugees\u201d Complain About Slow Internet, No Cigarettes, And Food https://t.co/C4oo2O625Y", "truncated": false, "urls": {"https://t.co/C4oo2O625Y": "http://woundedamericanwarrior.com/?p=129156"}, "user": {"created_at": "Mon Sep 17 02:10:28 +0000 2012", "description": "Christian who wants USA back with opportunities for the honest, diligent, and educated.", "favourites_count": 4074, "followers_count": 7972, "friends_count": 8136, "geo_enabled": true, "id": 828151412, "lang": "en", "listed_count": 73, "location": "Trump/Cruz for President ", "name": "Irish Emerald", "profile_background_color": "FF6699", "profile_background_image_url": "http://abs.twimg.com/images/themes/theme11/bg.gif", "profile_background_tile": true, "profile_banner_url": "https://pbs.twimg.com/profile_banners/828151412/1351114559", "profile_image_url": "https://pbs.twimg.com/profile_images/615952511636115456/0MWnWhIT_normal.png", "profile_link_color": "B40B43", "profile_sidebar_fill_color": "E5507E", "profile_text_color": "362720", "protected": false, "screen_name": "PatriciaEggett2", "statuses_count": 22551}}
{"created_at": "Sun Nov 22 23:59:42 +0000 2015", "favorited": false, "id": 668579639787438081, "lang": "en", "retweeted": false, "source": "<a href=\"http://www.tweetcaster.com\" rel=\"nofollow\">TweetCaster for Android</a>", "text": "Blog: Watch: Syrian refugees in Germany complain about slow internet speeds \n\nhttps://t.co/bsny0xGEke", "truncated": false, "urls": {"https://t.co/bsny0xGEke": "http://www.americanthinker.com/blog/2015/10/watch_syrian_refugees_in_germany_complain_about_slow_internet_speeds.html"}, "user": {"created_at": "Mon Jan 19 15:11:48 +0000 2015", "default_profile": true, "description": "Constitutionalist. YOU WANT TO SAVE YOUR ASS? READ MY TIMELINE.  DON'T BELIEVE THEN GO OFF AND DIE BY YOUR BELOVED SOCIALISM.", "favourites_count": 9900, "followers_count": 467, "friends_count": 267, "id": 2985934030, "lang": "en", "listed_count": 40, "location": "Oathkeepers.org", "name": "Tom", "profile_background_color": "C0DEED", "profile_background_image_url": "http://abs.twimg.com/images/themes/theme1/bg.png", "profile_background_tile": false, "profile_banner_url": "https://pbs.twimg.com/profile_banners/2985934030/1451616502", "profile_image_url": "https://pbs.twimg.com/profile_images/687139848931639297/aoY3wtf9_normal.jpg", "profile_link_color": "0084B4", "profile_sidebar_fill_color": "DDEEF6", "profile_text_color": "333333", "protected": false, "screen_name": "III_Means_Free", "statuses_count": 64594, "time_zone": "Eastern Time (US & Canada)", "url": "https://t.co/kJWfdLtLp8", "utc_offset": -18000}}
{"created_at": "Mon Nov 23 03:31:48 +0000 2015", "favorited": false, "id": 668633015975833603, "lang": "en", "retweeted": false, "source": "<a href=\"http://www.tweetcaster.com\" rel=\"nofollow\">TweetCaster for Android</a>", "text": "Blog: Watch: Syrian refugees in Germany complain about slow internet speeds \n.\nhttps://t.co/bsny0xGEke", "truncated": false, "urls": {"https://t.co/bsny0xGEke": "http://www.americanthinker.com/blog/2015/10/watch_syrian_refugees_in_germany_complain_about_slow_internet_speeds.html"}, "user": {"created_at": "Mon Jan 19 15:11:48 +0000 2015", "default_profile": true, "description": "Constitutionalist. YOU WANT TO SAVE YOUR ASS? READ MY TIMELINE.  DON'T BELIEVE THEN GO OFF AND DIE BY YOUR BELOVED SOCIALISM.", "favourites_count": 9900, "followers_count": 467, "friends_count": 267, "id": 2985934030, "lang": "en", "listed_count": 40, "location": "Oathkeepers.org", "name": "Tom", "profile_background_color": "C0DEED", "profile_background_image_url": "http://abs.twimg.com/images/themes/theme1/bg.png", "profile_background_tile": false, "profile_banner_url": "https://pbs.twimg.com/profile_banners/2985934030/1451616502", "profile_image_url": "https://pbs.twimg.com/profile_images/687139848931639297/aoY3wtf9_normal.jpg", "profile_link_color": "0084B4", "profile_sidebar_fill_color": "DDEEF6", "profile_text_color": "333333", "protected": false, "screen_name": "III_Means_Free", "statuses_count": 64594, "time_zone": "Eastern Time (US & Canada)", "url": "https://t.co/kJWfdLtLp8", "utc_offset": -18000}}
{"created_at": "Mon Nov 23 14:25:35 +0000 2015", "favorited": false, "id": 668797544923697153, "lang": "en", "retweeted": false, "source": "<a href=\"http://www.tweetcaster.com\" rel=\"nofollow\">TweetCaster for Android</a>", "text": "Blog: Watch: Syrian refugees in Germany complain about slow internet speeds \n.\nhttps://t.co/bsny0xYfbM", "truncated": false, "urls": {"https://t.co/bsny0xYfbM": "http://www.americanthinker.com/blog/2015/10/watch_syrian_refugees_in_germany_complain_about_slow_internet_speeds.html"}, "user": {"created_at": "Mon Jan 19 15:11:48 +0000 2015", "default_profile": true, "description": "Constitutionalist. YOU WANT TO SAVE YOUR ASS? READ MY TIMELINE.  DON'T BELIEVE THEN GO OFF AND DIE BY YOUR BELOVED SOCIALISM.", "favourites_count": 9900, "followers_count": 467, "friends_count": 267, "id": 2985934030, "lang": "en", "listed_count": 40, "location": "Oathkeepers.org", "name": "Tom", "profile_background_color": "C0DEED", "profile_background_image_url": "http://abs.twimg.com/images/themes/theme1/bg.png", "profile_background_tile": false, "profile_banner_url": "https://pbs.twimg.com/profile_banners/2985934030/1451616502", "profile_image_url": "https://pbs.twimg.com/profile_images/687139848931639297/aoY3wtf9_normal.jpg", "profile_link_color": "0084B4", "profile_sidebar_fill_color": "DDEEF6", "profile_text_color": "333333", "protected": false, "screen_name": "III_Means_Free", "statuses_count": 64594, "time_zone": "Eastern Time (US & Canada)", "url": "https://t.co/kJWfdLtLp8", "utc_offset": -18000}}
{"created_at": "Tue Nov 24 02:24:04 +0000 2015", "favorited": false, "id": 668978358408110080, "lang": "en", "retweeted": false, "source": "<a href=\"http://www.tweetcaster.com\" rel=\"nofollow\">TweetCaster for Android</a>", "text": "Blog: Watch: Syrian refugees in Germany complain about slow internet speeds \n.\nhttps://t.co/bsny0xGEke", "truncated": false, "urls": {"https://t.co/bsny0xGEke": "http://www.americanthinker.com/blog/2015/10/watch_syrian_refugees_in_germany_complain_about_slow_internet_speeds.html"}, "user": {"created_at": "Mon Jan 19 15:11:48 +0000 2015", "default_profile": true, "description": "Constitutionalist. YOU WANT TO SAVE YOUR ASS? READ MY TIMELINE.  DON'T BELIEVE THEN GO OFF AND DIE BY YOUR BELOVED SOCIALISM.", "favourites_count": 9900, "followers_count": 467, "friends_count": 267, "id": 2985934030, "lang": "en", "listed_count": 40, "location": "Oathkeepers.org", "name": "Tom", "profile_background_color": "C0DEED", "profile_background_image_url": "http://abs.twimg.com/images/themes/theme1/bg.png", "profile_background_tile": false, "profile_banner_url": "https://pbs.twimg.com/profile_banners/2985934030/1451616502", "profile_image_url": "https://pbs.twimg.com/profile_images/687139848931639297/aoY3wtf9_normal.jpg", "profile_link_color": "0084B4", "profile_sidebar_fill_color": "DDEEF6", "profile_text_color": "333333", "protected": false, "screen_name": "III_Means_Free", "statuses_count": 64594, "time_zone": "Eastern Time (US & Canada)", "url": "https://t.co/kJWfdLtLp8", "utc_offset": -18000}}
{"created_at": "Wed Nov 25 03:33:36 +0000 2015", "favorited": false, "id": 669358244578619392, "lang": "en", "retweeted": false, "source": "<a href=\"http://www.tweetcaster.com\" rel=\"nofollow\">TweetCaster for Android</a>", "text": "Blog: Watch: Syrian refugees in Germany complain about slow internet speeds \n.\nhttps://t.co/bsny0xGEke", "truncated": false, "urls": {"https://t.co/bsny0xGEke": "http://www.americanthinker.com/blog/2015/10/watch_syrian_refugees_in_germany_complain_about_slow_internet_speeds.html"}, "user": {"created_at": "Mon Jan 19 15:11:48 +0000 2015", "default_profile": true, "description": "Constitutionalist. YOU WANT TO SAVE YOUR ASS? READ MY TIMELINE.  DON'T BELIEVE THEN GO OFF AND DIE BY YOUR BELOVED SOCIALISM.", "favourites_count": 9900, "followers_count": 467, "friends_count": 267, "id": 2985934030, "lang": "en", "listed_count": 40, "location": "Oathkeepers.org", "name": "Tom", "profile_background_color": "C0DEED", "profile_background_image_url": "http://abs.twimg.com/images/themes/theme1/bg.png", "profile_background_tile": false, "profile_banner_url": "https://pbs.twimg.com/profile_banners/2985934030/1451616502", "profile_image_url": "https://pbs.twimg.com/profile_images/687139848931639297/aoY3wtf9_normal.jpg", "profile_link_color": "0084B4", "profile_sidebar_fill_color": "DDEEF6", "profile_text_color": "333333", "protected": false, "screen_name": "III_Means_Free", "statuses_count": 64594, "time_zone": "Eastern Time (US & Canada)", "url": "https://t.co/kJWfdLtLp8", "utc_offset": -18000}}
{"created_at": "Fri Nov 27 01:13:16 +0000 2015", "favorited": false, "id": 670047704752386048, "lang": "en", "retweeted": false, "source": "<a href=\"http://www.tweetcaster.com\" rel=\"nofollow\">TweetCaster for Android</a>", "text": "Blog: Watch: Syrian refugees in Germany complain about slow internet speeds \n.\nhttps://t.co/bsny0xYfbM", "truncated": false, "urls": {"https://t.co/bsny0xYfbM": "http://www.americanthinker.com/blog/2015/10/watch_syrian_refugees_in_germany_complain_about_slow_internet_speeds.html"}, "user": {"created_at": "Mon Jan 19 15:11:48 +0000 2015", "default_profile": true, "description": "Constitutionalist. YOU WANT TO SAVE YOUR ASS? READ MY TIMELINE.  DON'T BELIEVE THEN GO OFF AND DIE BY YOUR BELOVED SOCIALISM.", "favourites_count": 9900, "followers_count": 467, "friends_count": 267, "id": 2985934030, "lang": "en", "listed_count": 40, "location": "Oathkeepers.org", "name": "Tom", "profile_background_color": "C0DEED", "profile_background_image_url": "http://abs.twimg.com/images/themes/theme1/bg.png", "profile_background_tile": false, "profile_banner_url": "https://pbs.twimg.com/profile_banners/2985934030/1451616502", "profile_image_url": "https://pbs.twimg.com/profile_images/687139848931639297/aoY3wtf9_normal.jpg", "profile_link_color": "0084B4", "profile_sidebar_fill_color": "DDEEF6", "profile_text_color": "333333", "protected": false, "screen_name": "III_Means_Free", "statuses_count": 64594, "time_zone": "Eastern Time (US & Canada)", "url": "https://t.co/kJWfdLtLp8", "utc_offset": -18000}}
{"created_at": "Thu Dec 03 16:50:11 +0000 2015", "favorited": false, "id": 672457814305034240, "lang": "en", "retweeted": false, "source": "<a href=\"http://www.tweetcaster.com\" rel=\"nofollow\">TweetCaster for Android</a>", "text": "Blog: Watch: Syrian refugees in Germany complain about slow internet speeds \n.\nhttps://t.co/bsny0xGEke", "truncated": false, "urls": {"https://t.co/bsny0xGEke": "http://www.americanthinker.com/blog/2015/10/watch_syrian_refugees_in_germany_complain_about_slow_internet_speeds.html"}, "user": {"created_at": "Mon Jan 19 15:11:48 +0000 2015", "default_profile": true, "description": "Constitutionalist. YOU WANT TO SAVE YOUR ASS? READ MY TIMELINE.  DON'T BELIEVE THEN GO OFF AND DIE BY YOUR BELOVED SOCIALISM.", "favourites_count": 9900, "followers_count": 467, "friends_count": 267, "id": 2985934030, "lang": "en", "listed_count": 40, "location": "Oathkeepers.org", "name": "Tom", "profile_background_color": "C0DEED", "profile_background_image_url": "http://abs.twimg.com/images/themes/theme1/bg.png", "profile_background_tile": false, "profile_banner_url": "https://pbs.twimg.com/profile_banners/2985934030/1451616502", "profile_image_url": "https://pbs.twimg.com/profile_images/687139848931639297/aoY3wtf9_normal.jpg", "profile_link_color": "0084B4", "profile_sidebar_fill_color": "DDEEF6", "profile_text_color": "333333", "protected": false, "screen_name": "III_Means_Free", "statuses_count": 64594, "time_zone": "Eastern Time (US & Canada)", "url": "https://t.co/kJWfdLtLp8", "utc_offset": -18000}}
{"created_at": "Fri Dec 04 18:56:46 +0000 2015", "favorited": false, "id": 672852060178653185, "lang": "en", "retweeted": false, "source": "<a href=\"http://www.tweetcaster.com\" rel=\"nofollow\">TweetCaster for Android</a>", "text": "Blog: Watch: Syrian refugees in Germany complain about slow internet speeds \n.\nhttps://t.co/bsny0xGEke", "truncated": false, "urls": {"https://t.co/bsny0xGEke": "http://www.americanthinker.com/blog/2015/10/watch_syrian_refugees_in_germany_complain_about_slow_internet_speeds.html"}, "user": {"created_at": "Mon Jan 19 15:11:48 +0000 2015", "default_profile": true, "description": "Constitutionalist. YOU WANT TO SAVE YOUR ASS? READ MY TIMELINE.  DON'T BELIEVE THEN GO OFF AND DIE BY YOUR BELOVED SOCIALISM.", "favourites_count": 9900, "followers_count": 467, "friends_count": 267, "id": 2985934030, "lang": "en", "listed_count": 40, "location": "Oathkeepers.org", "name": "Tom", "profile_background_color": "C0DEED", "profile_background_image_url": "http://abs.twimg.com/images/themes/theme1/bg.png", "profile_background_tile": false, "profile_banner_url": "https://pbs.twimg.com/profile_banners/2985934030/1451616502", "profile_image_url": "https://pbs.twimg.com/profile_images/687139848931639297/aoY3wtf9_normal.jpg", "profile_link_color": "0084B4", "profile_sidebar_fill_color": "DDEEF6", "profile_text_color": "333333", "protected": false, "screen_name": "III_Means_Free", "statuses_count": 64594, "time_zone": "Eastern Time (US & Canada)", "url": "https://t.co/kJWfdLtLp8", "utc_offset": -18000}}
{"created_at": "Sun Dec 13 20:29:15 +0000 2015", "favorited": false, "id": 676136823425507328, "lang": "en", "retweeted": false, "source": "<a href=\"http://www.tweetcaster.com\" rel=\"nofollow\">TweetCaster for Android</a>", "text": "Blog: Watch: Syrian refugees in Germany complain about slow internet speeds \n.\nhttps://t.co/bsny0xGEke", "truncated": false, "urls": {"https://t.co/bsny0xGEke": "http://www.americanthinker.com/blog/2015/10/watch_syrian_refugees_in_germany_complain_about_slow_internet_speeds.html"}, "user": {"created_at": "Mon Jan 19 15:11:48 +0000 2015", "default_profile": true, "description": "Constitutionalist. YOU WANT TO SAVE YOUR ASS? READ MY TIMELINE.  DON'T BELIEVE THEN GO OFF AND DIE BY YOUR BELOVED SOCIALISM.", "favourites_count": 9900, "followers_count": 467, "friends_count": 267, "id": 2985934030, "lang": "en", "listed_count": 40, "location": "Oathkeepers.org", "name": "Tom", "profile_background_color": "C0DEED", "profile_background_image_url": "http://abs.twimg.com/images/themes/theme1/bg.png", "profile_background_tile": false, "profile_banner_url": "https://pbs.twimg.com/profile_banners/2985934030/1451616502", "profile_image_url": "https://pbs.twimg.com/profile_images/687139848931639297/aoY3wtf9_normal.jpg", "profile_link_color": "0084B4", "profile_sidebar_fill_color": "DDEEF6", "profile_text_color": "333333", "protected": false, "screen_name": "III_Means_Free", "statuses_count": 64594, "time_zone": "Eastern Time (US & Canada)", "url": "https://t.co/kJWfdLtLp8", "utc_offset": -18000}}
{"created_at": "Tue Dec 15 03:32:27 +0000 2015", "favorited": false, "id": 676605714979291137, "lang": "en", "retweeted": false, "source": "<a href=\"http://www.tweetcaster.com\" rel=\"nofollow\">TweetCaster for Android</a>", "text": "Blog: Watch: Syrian refugees in Germany complain about slow internet speeds \n.\nhttps://t.co/bsny0xGEke", "truncated": false, "urls": {"https://t.co/bsny0xGEke": "http://www.americanthinker.com/blog/2015/10/watch_syrian_refugees_in_germany_complain_about_slow_internet_speeds.html"}, "user": {"created_at": "Mon Jan 19 15:11:48 +0000 2015", "default_profile": true, "description": "Constitutionalist. YOU WANT TO SAVE YOUR ASS? READ MY TIMELINE.  DON'T BELIEVE THEN GO OFF AND DIE BY YOUR BELOVED SOCIALISM.", "favourites_count": 9900, "followers_count": 467, "friends_count": 267, "id": 2985934030, "lang": "en", "listed_count": 40, "location": "Oathkeepers.org", "name": "Tom", "profile_background_color": "C0DEED", "profile_background_image_url": "http://abs.twimg.com/images/themes/theme1/bg.png", "profile_background_tile": false, "profile_banner_url": "https://pbs.twimg.com/profile_banners/2985934030/1451616502", "profile_image_url": "https://pbs.twimg.com/profile_images/687139848931639297/aoY3wtf9_normal.jpg", "profile_link_color": "0084B4", "profile_sidebar_fill_color": "DDEEF6", "profile_text_color": "333333", "protected": false, "screen_name": "III_Means_Free", "statuses_count": 64594, "time_zone": "Eastern Time (US & Canada)", "url": "https://t.co/kJWfdLtLp8", "utc_offset": -18000}}
