{"created_at": "Tue Nov 17 03:59:52 +0000 2015", "favorite_count": 1, "favorited": false, "hashtags": ["blackfriday", "amazon"], "id": 666465754439544832, "lang": "en", "retweeted": false, "source": "<a href=\"http://twitterfeed.com\" rel=\"nofollow\">twitterfeed</a>", "text": "#blackfriday #amazon TBI: Facebook posts on Black Friday terrorist attack in Tennessee ... https://t.co/FiAf9v5nN8 https://t.co/wMLNnGplOr", "truncated": false, "urls": {"https://t.co/FiAf9v5nN8": "http://binged.it/1X3BU27", "https://t.co/wMLNnGplOr": "http://bit.ly/1b51a0N"}, "user": {"created_at": "Wed Aug 22 03:30:49 +0000 2012", "default_profile": true, "description": "Searching the web to give you the best, most current information to help you to find discounts and save money with your apparel buying needs.", "followers_count": 520, "friends_count": 580, "id": 772793874, "lang": "en", "listed_count": 38, "name": "Discount Apparel", "profile_background_color": "C0DEED", "profile_background_image_url": "http://abs.twimg.com/images/themes/theme1/bg.png", "profile_background_tile": false, "profile_image_url": "https://pbs.twimg.com/profile_images/2545339161/zft3lpqptr2klm2a08sh_normal.jpeg", "profile_link_color": "0084B4", "profile_sidebar_fill_color": "DDEEF6", "profile_text_color": "333333", "protected": false, "screen_name": "ApparelDiscount", "statuses_count": 31399, "time_zone": "Eastern Time (US & Canada)", "utc_offset": -18000}}
{"created_at": "Tue Nov 17 04:00:17 +0000 2015", "favorited": false, "id": 666465856658870272, "lang": "en", "retweeted": false, "source": "<a href=\"http://www.facebook.com/twitter\" rel=\"nofollow\">Facebook</a>", "text": "TBI: Facebook posts on Black Friday terrorist attack in Tennessee is a hoax https://t.co/ceY8NJKMP4", "truncated": false, "urls": {"https://t.co/ceY8NJKMP4": "http://fb.me/4YvRIGCza"}, "user": {"created_at": "Tue Aug 02 02:08:10 +0000 2011", "description": "Official Page", "favourites_count": 83, "followers_count": 64, "friends_count": 368, "geo_enabled": true, "id": 346940734, "lang": "en", "location": "Blytheville, AR", "name": "JamesHunterMarshall", "profile_background_color": "FF0000", "profile_background_image_url": "http://abs.twimg.com/images/themes/theme1/bg.png", "profile_background_tile": false, "profile_image_url": "https://pbs.twimg.com/profile_images/667142428223143936/P188cWe4_normal.jpg", "profile_link_color": "0000FF", "profile_sidebar_fill_color": "C0DFEC", "profile_text_color": "333333", "protected": false, "screen_name": "jameshmarshall1", "statuses_count": 1676, "time_zone": "Central Time (US & Canada)", "url": "http://t.co/sI02v1SG6A", "utc_offset": -21600}}
{"created_at": "Tue Nov 17 04:03:48 +0000 2015", "favorited": false, "id": 666466743598972928, "lang": "en", "retweeted": false, "source": "<a href=\"http://www.facebook.com/twitter\" rel=\"nofollow\">Facebook</a>", "text": "TBI: Facebook posts on Black Friday terrorist attack in Tennessee is a hoax https://t.co/Q4Eiloof7s", "truncated": false, "urls": {"https://t.co/Q4Eiloof7s": "http://fb.me/7BtWLijNg"}, "user": {"created_at": "Fri Feb 26 17:37:43 +0000 2010", "favourites_count": 1, "followers_count": 44, "friends_count": 44, "id": 117805960, "lang": "en", "listed_count": 3, "name": "Josie Zimmerman", "profile_background_color": "BADFCD", "profile_background_image_url": "http://pbs.twimg.com/profile_background_images/78708862/TwitterBG12.gif", "profile_background_tile": false, "profile_image_url": "https://pbs.twimg.com/profile_images/1357551074/fb_profile_normal.jpg", "profile_link_color": "0000FF", "profile_sidebar_fill_color": "E0FF92", "profile_text_color": "000000", "protected": false, "screen_name": "josiezimm", "statuses_count": 9513}}
{"created_at": "Tue Nov 17 04:13:03 +0000 2015", "favorited": false, "id": 666469070645035008, "lang": "en", "retweeted": false, "source": "<a href=\"http://dlvr.it\" rel=\"nofollow\">dlvr.it</a>", "text": "TBI debunks Facebook posts about Black Friday terrorist attack in Tennessee https://t.co/k0tBLM2GDB", "truncated": false, "urls": {"https://t.co/k0tBLM2GDB": "http://dlvr.it/Cm6B7v"}, "user": {"created_at": "Sat Feb 23 02:26:54 +0000 2013", "default_profile": true, "description": "Your source of daily--Positive Thinking, Devotions for Women, Motivational Stories, and much more!", "followers_count": 278, "friends_count": 8, "id": 1210373094, "lang": "en", "listed_count": 12, "location": "USA", "name": "My Daily Inspiration", "profile_background_color": "C0DEED", "profile_background_image_url": "http://abs.twimg.com/images/themes/theme1/bg.png", "profile_background_tile": false, "profile_banner_url": "https://pbs.twimg.com/profile_banners/1210373094/1405120344", "profile_image_url": "https://pbs.twimg.com/profile_images/487734029408428032/Nn455b6q_normal.jpeg", "profile_link_color": "0084B4", "profile_sidebar_fill_color": "DDEEF6", "profile_text_color": "333333", "protected": false, "screen_name": "UniversePrayers", "statuses_count": 61634, "time_zone": "Central Time (US & Canada)", "utc_offset": -21600}}
{"created_at": "Tue Nov 17 04:13:54 +0000 2015", "favorited": false, "id": 666469283589980160, "lang": "en", "retweeted": false, "source": "<a href=\"http://www.facebook.com/twitter\" rel=\"nofollow\">Facebook</a>", "text": "TBI: Facebook posts on Black Friday terrorist attack in Tennessee is a hoax https://t.co/M1kvpETEF2", "truncated": false, "urls": {"https://t.co/M1kvpETEF2": "http://fb.me/27eQIknba"}, "user": {"created_at": "Wed Aug 26 23:26:14 +0000 2009", "description": "The Official Page Of On Air With Chris Williams ,And Automatic Weather Posted Alerts (AWPA) For Wynne Arkansas For C-ROCK Radio Leader not a follower", "favourites_count": 146, "followers_count": 1024, "friends_count": 462, "geo_enabled": true, "id": 69131349, "lang": "en", "location": "Arkansas", "name": "chris williams", "profile_background_color": "CCCCCC", "profile_background_image_url": "http://pbs.twimg.com/profile_background_images/447975163934433280/LZGlRf_H.jpeg", "profile_background_tile": true, "profile_banner_url": "https://pbs.twimg.com/profile_banners/69131349/1446768195", "profile_image_url": "https://pbs.twimg.com/profile_images/670917424238104578/XSY8s_jo_normal.jpg", "profile_link_color": "F58F11", "profile_sidebar_fill_color": "333333", "profile_text_color": "666666", "protected": false, "screen_name": "Chrisonvezrfm", "statuses_count": 3054, "time_zone": "Central Time (US & Canada)", "url": "https://t.co/akczGa7h0k", "utc_offset": -21600}}
{"created_at": "Tue Nov 17 04:21:10 +0000 2015", "favorited": false, "id": 666471112360923136, "lang": "en", "retweeted": false, "source": "<a href=\"http://publicize.wp.com/\" rel=\"nofollow\">WordPress.com</a>", "text": "TBI debunks Facebook posts about Black Friday terrorist attack in\u00a0Tennessee https://t.co/gG8dvXa3Mb", "truncated": false, "urls": {"https://t.co/gG8dvXa3Mb": "http://memphis.ysktoday.com/tbi-debunks-facebook-posts-about-black-friday-terrorist-attack-in-tennessee/"}, "user": {"created_at": "Mon Aug 31 00:06:51 +0000 2015", "description": "Follow YSK Memphis for the latest news in the #Memphis, #Tennessee area.\nhttp://t.co/dOIXKN43Pf", "favourites_count": 7, "followers_count": 96, "friends_count": 71, "geo_enabled": true, "id": 3397980613, "lang": "en", "listed_count": 7, "location": "Memphis, TN", "name": "Memphis", "profile_background_color": "000000", "profile_background_image_url": "http://abs.twimg.com/images/themes/theme1/bg.png", "profile_background_tile": false, "profile_banner_url": "https://pbs.twimg.com/profile_banners/3397980613/1442790832", "profile_image_url": "https://pbs.twimg.com/profile_images/645737714331967488/s5D7wY1b_normal.png", "profile_link_color": "F69F14", "profile_sidebar_fill_color": "000000", "profile_text_color": "000000", "protected": false, "screen_name": "yskMemphis", "statuses_count": 9151, "url": "http://t.co/5t39aHuHhH"}}
{"created_at": "Tue Nov 17 04:25:22 +0000 2015", "favorite_count": 1, "favorited": false, "id": 666472172173455360, "lang": "en", "retweet_count": 2, "retweeted": false, "source": "<a href=\"http://www.facebook.com/twitter\" rel=\"nofollow\">Facebook</a>", "text": "TBI debunks Facebook posts about Black Friday terrorist attack in Tennessee https://t.co/4zK1QjFybv", "truncated": false, "urls": {"https://t.co/4zK1QjFybv": "http://fb.me/7BybtIYfT"}, "user": {"created_at": "Fri Jul 23 19:21:23 +0000 2010", "description": "Hi , Im Jas. Happily Married To Money. Its 109 & Dead heart lines. Bring That Shit To The Table Kuus Its 50 50 Wit Me P !#TeamTrapNasty #Team(DTL)So Phallow Meh", "favourites_count": 267, "followers_count": 151, "friends_count": 97, "geo_enabled": true, "id": 170024920, "lang": "en", "listed_count": 1, "location": "In A Kush Plunt Near Yhu ", "name": "RedRu", "profile_background_color": "1A1B1F", "profile_background_image_url": "http://pbs.twimg.com/profile_background_images/378800000081889144/5dda83925793aa3b807eee8f1eec3b5f.jpeg", "profile_background_tile": true, "profile_banner_url": "https://pbs.twimg.com/profile_banners/170024920/1380081630", "profile_image_url": "https://pbs.twimg.com/profile_images/378800000504623306/5b024d7f0b6351a38b0b065a5b18d347_normal.jpeg", "profile_link_color": "2FC2EF", "profile_sidebar_fill_color": "252429", "profile_text_color": "666666", "protected": false, "screen_name": "PhadediMA_G", "statuses_count": 6038, "time_zone": "Mountain Time (US & Canada)", "utc_offset": -25200}}
{"created_at": "Tue Nov 17 04:25:44 +0000 2015", "favorite_count": 1, "favorited": false, "id": 666472262791507968, "lang": "en", "retweeted": false, "source": "<a href=\"http://www.socialflow.com\" rel=\"nofollow\">SocialFlow</a>", "text": "TBI debunks Facebook posts about Black Friday terrorist attack in Tennessee https://t.co/KcItAXo4yr", "truncated": false, "urls": {"https://t.co/KcItAXo4yr": "http://bit.ly/1SyzY0h"}, "user": {"created_at": "Thu Nov 29 22:38:02 +0000 2007", "description": "https://t.co/nykaXJh9yd is the website for FOX13 News WHBQ-TV in Memphis, Tennessee.", "favourites_count": 255, "followers_count": 57819, "friends_count": 4283, "geo_enabled": true, "id": 10722372, "lang": "en", "listed_count": 650, "location": "Memphis, TN", "name": "FOX13 Memphis", "profile_background_color": "010243", "profile_background_image_url": "http://pbs.twimg.com/profile_background_images/529370426095312897/nDG5jvXS.jpeg", "profile_background_tile": false, "profile_banner_url": "https://pbs.twimg.com/profile_banners/10722372/1450288146", "profile_image_url": "https://pbs.twimg.com/profile_images/674697907652685824/rScsQd0I_normal.jpg", "profile_link_color": "2FC2EF", "profile_sidebar_fill_color": "252429", "profile_text_color": "666666", "protected": false, "screen_name": "FOX13Memphis", "statuses_count": 81233, "time_zone": "Central Time (US & Canada)", "url": "https://t.co/6FYJ9BG5oz", "utc_offset": -21600, "verified": true}}
{"created_at": "Tue Nov 17 05:05:45 +0000 2015", "favorited": false, "id": 666482332984057856, "lang": "en", "retweeted": false, "source": "<a href=\"http://twitter.com/download/iphone\" rel=\"nofollow\">Twitter for iPhone</a>", "text": "TBI debunks Facebook posts about Black Friday terrorist attack in Tennessee https://t.co/Nj1zzIKnDf", "truncated": false, "urls": {"https://t.co/Nj1zzIKnDf": "http://www.myfoxmemphis.com/story/30533816/tbi-debunks-facebook-posts-about-black-friday-terrorist-attack-in-tennessee"}, "user": {"created_at": "Tue Aug 24 18:00:13 +0000 2010", "default_profile": true, "description": "Emmy award winning and nominated Anchor/Reporter on FOX 13.", "favourites_count": 78, "followers_count": 4362, "friends_count": 1404, "geo_enabled": true, "id": 182479082, "lang": "en", "listed_count": 84, "location": "Memphis, TN", "name": "Greg Coy", "profile_background_color": "C0DEED", "profile_background_image_url": "http://abs.twimg.com/images/themes/theme1/bg.png", "profile_background_tile": false, "profile_image_url": "https://pbs.twimg.com/profile_images/526518174649708544/Sc-Hacbc_normal.jpeg", "profile_link_color": "0084B4", "profile_sidebar_fill_color": "DDEEF6", "profile_text_color": "333333", "protected": false, "screen_name": "GCoyFOX13", "statuses_count": 12197, "time_zone": "Central Time (US & Canada)", "url": "https://t.co/VQSfLJ5ofT", "utc_offset": -21600, "verified": true}}
{"created_at": "Tue Nov 17 05:52:31 +0000 2015", "favorited": false, "hashtags": ["hashtag"], "id": 666494103643947008, "lang": "en", "retweeted": false, "source": "<a href=\"http://ifttt.com\" rel=\"nofollow\">IFTTT</a>", "text": "TBI: Facebook posts on Black Friday terrorist attack in Tennessee is a hoax - https://t.co/mIGluIpvj2 https://t.co/OZobnehQfX #hashtag", "truncated": false, "urls": {"https://t.co/OZobnehQfX": "http://hashtagkey.tumblr.com/post/133386622942", "https://t.co/mIGluIpvj2": "http://wreg.com"}, "user": {"created_at": "Fri Apr 04 07:43:47 +0000 2014", "default_profile": true, "description": "Real Time Keyword News Search. Monitoring & Publishing Autobot Service.\nhashtagkeyword@gmail.com", "followers_count": 212, "id": 2426877392, "lang": "en", "listed_count": 834, "location": "Cyberspace", "name": "#Hashtag", "profile_background_color": "C0DEED", "profile_background_image_url": "http://abs.twimg.com/images/themes/theme1/bg.png", "profile_background_tile": false, "profile_banner_url": "https://pbs.twimg.com/profile_banners/2426877392/1446281389", "profile_image_url": "https://pbs.twimg.com/profile_images/451988730694225920/Ihc6GYw__normal.jpeg", "profile_link_color": "0084B4", "profile_sidebar_fill_color": "DDEEF6", "profile_text_color": "333333", "protected": false, "screen_name": "hashtag_keyword", "statuses_count": 115637, "time_zone": "Vilnius", "url": "http://t.co/WCH2sdQuP9", "utc_offset": 7200}}
{"created_at": "Tue Nov 17 07:09:12 +0000 2015", "favorited": false, "id": 666513398813884416, "lang": "en", "media": [{"display_url": "pic.twitter.com/fAMzM7sPQq", "expanded_url": "http://twitter.com/SocialinMemphis/status/666513398813884416/photo/1", "id": 666513398344060928, "id_str": "666513398344060928", "indices": [100, 123], "media_url": "http://pbs.twimg.com/media/CT_uZ4pWEAAQc8d.jpg", "media_url_https": "https://pbs.twimg.com/media/CT_uZ4pWEAAQc8d.jpg", "sizes": {"large": {"h": 220, "resize": "fit", "w": 571}, "medium": {"h": 220, "resize": "fit", "w": 571}, "small": {"h": 130, "resize": "fit", "w": 340}, "thumb": {"h": 150, "resize": "crop", "w": 150}}, "type": "photo", "url": "https://t.co/fAMzM7sPQq"}], "retweeted": false, "source": "<a href=\"https://www.socialoomph.com\" rel=\"nofollow\">SocialOomph</a>", "text": "TBI debunks Facebook posts about Black Friday terrorist attack in Tennessee https://t.co/pmgZCAwlO2 https://t.co/fAMzM7sPQq", "truncated": false, "urls": {"https://t.co/pmgZCAwlO2": "http://dld.bz/eaMnf"}, "user": {"created_at": "Tue Oct 02 18:10:14 +0000 2012", "default_profile": true, "description": "News, Entertainments, Events, Announcements  here in Memphis, TN. Join The FUN !!!!  (Interns, Want to Learn from the Best? Contact: info@SocialIn.Biz )", "followers_count": 35231, "friends_count": 31478, "id": 858475921, "lang": "en", "listed_count": 376, "location": "Memphis", "name": "Social In Memphis", "profile_background_color": "C0DEED", "profile_background_image_url": "http://abs.twimg.com/images/themes/theme1/bg.png", "profile_background_tile": false, "profile_image_url": "https://pbs.twimg.com/profile_images/414132536244072448/gZEQP7J7_normal.jpeg", "profile_link_color": "0084B4", "profile_sidebar_fill_color": "DDEEF6", "profile_text_color": "333333", "protected": false, "screen_name": "SocialinMemphis", "statuses_count": 87463, "time_zone": "Chennai", "url": "http://t.co/kFvO4qpQhz", "utc_offset": 19800}}
{"created_at": "Tue Nov 17 11:16:35 +0000 2015", "favorite_count": 2, "favorited": false, "id": 666575655174144001, "lang": "en", "retweet_count": 1, "retweeted": false, "source": "<a href=\"http://twitter.com/download/iphone\" rel=\"nofollow\">Twitter for iPhone</a>", "text": ".@TBInvestigation Facebook posts on Black Friday terrorist attack in Tennessee is a hoax https://t.co/9UusFq3iUi", "truncated": false, "urls": {"https://t.co/9UusFq3iUi": "http://bit.ly/1j4qZaV"}, "user": {"created_at": "Tue Feb 10 22:26:21 +0000 2009", "description": "TV journo, news nerd, travel junkie, animal lover, harpist. Tweets are my own! Have a story idea? Tweet me! ''Life is either a daring adventure, or nothing!''", "favourites_count": 125, "followers_count": 10655, "friends_count": 935, "geo_enabled": true, "id": 20552696, "lang": "en", "listed_count": 283, "location": "Memphis, TN", "name": "melissa moon", "profile_background_color": "131516", "profile_background_image_url": "http://pbs.twimg.com/profile_background_images/641024944/j71ifgst7fcxjxxpzow1.jpeg", "profile_background_tile": false, "profile_banner_url": "https://pbs.twimg.com/profile_banners/20552696/1434634670", "profile_image_url": "https://pbs.twimg.com/profile_images/659117463087374336/a3LIXWxT_normal.jpg", "profile_link_color": "009999", "profile_sidebar_fill_color": "562F44", "profile_text_color": "6A7214", "protected": false, "screen_name": "MMoon_WREG3", "statuses_count": 67626, "time_zone": "Central Time (US & Canada)", "url": "https://t.co/TUsiRmBauB", "utc_offset": -21600, "verified": true}, "user_mentions": [{"id": 288395542, "name": "TBI", "screen_name": "TBInvestigation"}]}
{"created_at": "Tue Nov 17 11:26:35 +0000 2015", "favorite_count": 1, "favorited": false, "hashtags": ["FOX13"], "id": 666578174717747200, "lang": "en", "retweeted": false, "source": "<a href=\"http://twitter.com/download/iphone\" rel=\"nofollow\">Twitter for iPhone</a>", "text": "TBI debunks Facebook posts about Black Friday terrorist attack in Tennessee #FOX13 https://t.co/5frSvf6UJH", "truncated": false, "urls": {"https://t.co/5frSvf6UJH": "http://www.myfoxmemphis.com/story/30533816/tbi-debunks-facebook-posts-about-black-friday-terrorist-attack-in-tennessee"}, "user": {"created_at": "Wed Mar 18 19:04:30 +0000 2009", "description": "Reporter/Backpack Journalist for WHBQ FOX 13 News in Memphis, Tennessee. http://t.co/hOx8D8SqIO", "favourites_count": 1363, "followers_count": 3460, "friends_count": 1877, "geo_enabled": true, "id": 25129750, "lang": "en", "listed_count": 122, "location": "Memphis, TN", "name": "Sarah Bleau", "profile_background_color": "022330", "profile_background_image_url": "http://abs.twimg.com/images/themes/theme15/bg.png", "profile_background_tile": false, "profile_banner_url": "https://pbs.twimg.com/profile_banners/25129750/1443806071", "profile_image_url": "https://pbs.twimg.com/profile_images/441298974612275200/vgvK0DYK_normal.jpeg", "profile_link_color": "0084B4", "profile_sidebar_fill_color": "C0DFEC", "profile_text_color": "333333", "protected": false, "screen_name": "sarahbleauFOX13", "statuses_count": 14228, "time_zone": "Eastern Time (US & Canada)", "url": "https://t.co/VQSfLJ5ofT", "utc_offset": -18000, "verified": true}}
{"created_at": "Tue Nov 17 12:01:36 +0000 2015", "favorited": false, "hashtags": ["tn"], "id": 666586986975662080, "lang": "en", "retweeted": false, "source": "<a href=\"http://twitterfeed.com\" rel=\"nofollow\">twitterfeed</a>", "text": "TBI says terrorist threat planned for Black Friday \u2018unfounded\u2019 https://t.co/eJw6Br2zK7 #tn", "truncated": false, "urls": {"https://t.co/eJw6Br2zK7": "http://bit.ly/1Szxpep"}, "user": {"created_at": "Fri Jul 18 13:30:12 +0000 2008", "description": "Jim Carr - VP, Digital Media, Media General, Inc.", "favourites_count": 1, "followers_count": 1630, "friends_count": 977, "geo_enabled": true, "id": 15480737, "lang": "en", "listed_count": 103, "location": "New York / Richmond", "name": "Jim Carr", "profile_background_color": "022330", "profile_background_image_url": "http://abs.twimg.com/images/themes/theme15/bg.png", "profile_background_tile": false, "profile_banner_url": "https://pbs.twimg.com/profile_banners/15480737/1358133022", "profile_image_url": "https://pbs.twimg.com/profile_images/1211269397/jc-beach_normal.jpg", "profile_link_color": "0084B4", "profile_sidebar_fill_color": "C0DFEC", "profile_text_color": "333333", "protected": false, "screen_name": "JimmCarr", "statuses_count": 75270, "time_zone": "Eastern Time (US & Canada)", "url": "http://t.co/XK0LN09CcH", "utc_offset": -18000}}
{"created_at": "Tue Nov 17 12:03:03 +0000 2015", "favorited": false, "id": 666587348910473216, "lang": "en", "media": [{"display_url": "pic.twitter.com/kd8SEHRsGO", "expanded_url": "http://twitter.com/WKRN/status/666587348910473216/photo/1", "id": 666587348608544768, "id_str": "666587348608544768", "indices": [89, 112], "media_url": "http://pbs.twimg.com/media/CUAxqW2U8AAPW-5.png", "media_url_https": "https://pbs.twimg.com/media/CUAxqW2U8AAPW-5.png", "sizes": {"large": {"h": 360, "resize": "fit", "w": 640}, "medium": {"h": 337, "resize": "fit", "w": 600}, "small": {"h": 191, "resize": "fit", "w": 340}, "thumb": {"h": 150, "resize": "crop", "w": 150}}, "type": "photo", "url": "https://t.co/kd8SEHRsGO"}], "retweet_count": 2, "retweeted": false, "source": "<a href=\"http://www.socialnewsdesk.com\" rel=\"nofollow\">SocialNewsDesk</a>", "text": "TBI says terrorist threat planned for Black Friday \u2018unfounded\u2019 | https://t.co/Lcmylk3etJ https://t.co/kd8SEHRsGO", "truncated": false, "urls": {"https://t.co/Lcmylk3etJ": "http://bit.ly/1OOlH1E"}, "user": {"created_at": "Tue Sep 23 22:10:55 +0000 2008", "description": "WKRN-TV News 2 is the ABC affiliate in Nashville, Tennessee.", "favourites_count": 1626, "followers_count": 84541, "friends_count": 968, "id": 16426346, "lang": "en", "listed_count": 1114, "location": "Nashville", "name": "WKRN", "profile_background_color": "9AE4E8", "profile_background_image_url": "http://pbs.twimg.com/profile_background_images/458943821422673920/fbHUwcj2.jpeg", "profile_background_tile": true, "profile_banner_url": "https://pbs.twimg.com/profile_banners/16426346/1400683525", "profile_image_url": "https://pbs.twimg.com/profile_images/469126962942709760/fTTctBG2_normal.jpeg", "profile_link_color": "0084B4", "profile_sidebar_fill_color": "DDFFCC", "profile_text_color": "333333", "protected": false, "screen_name": "WKRN", "statuses_count": 60263, "time_zone": "Central Time (US & Canada)", "url": "http://t.co/WW9iovMwXV", "utc_offset": -21600, "verified": true}}
{"created_at": "Tue Nov 17 12:05:16 +0000 2015", "favorited": false, "id": 666587905910026240, "lang": "en", "retweeted": false, "source": "<a href=\"http://www.facebook.com/twitter\" rel=\"nofollow\">Facebook</a>", "text": "TBI says terrorist threat planned for Black Friday \u2018unfounded\u2019 https://t.co/FKSVn0V8jF", "truncated": false, "urls": {"https://t.co/FKSVn0V8jF": "http://fb.me/23YhY7FFZ"}, "user": {"created_at": "Tue Nov 09 15:35:43 +0000 2010", "description": "Nashville news,sports,\r\nweather,entertainment,politics\r\nand business information.", "followers_count": 458, "friends_count": 982, "id": 213698286, "lang": "en", "listed_count": 19, "location": "Nashville, TN", "name": "NashvilleNewsChannel", "profile_background_color": "FFFFFF", "profile_background_image_url": "http://abs.twimg.com/images/themes/theme1/bg.png", "profile_background_tile": false, "profile_banner_url": "https://pbs.twimg.com/profile_banners/213698286/1447272323", "profile_image_url": "https://pbs.twimg.com/profile_images/664534345416224768/zQwZKrHd_normal.jpg", "profile_link_color": "185389", "profile_sidebar_fill_color": "DDEEF6", "profile_text_color": "333333", "protected": false, "screen_name": "Nashville_NC", "statuses_count": 26138, "time_zone": "Central Time (US & Canada)", "url": "http://t.co/uE6FMriwT6", "utc_offset": -21600}}
{"created_at": "Tue Nov 17 15:05:03 +0000 2015", "favorited": false, "id": 666633150664212480, "lang": "en", "retweeted": false, "source": "<a href=\"http://www.facebook.com/twitter\" rel=\"nofollow\">Facebook</a>", "text": "TBI says terrorist threat planned for Black Friday unfounded' https://t.co/DCmovcOSL0", "truncated": false, "urls": {"https://t.co/DCmovcOSL0": "http://fb.me/5FURp71vC"}, "user": {"created_at": "Thu Jul 02 19:35:01 +0000 2009", "description": "Mm, I love scotch. I love scotch. Scotchy, scotch, scotch. Here it goes down. Down into my belly. Mm-Mm-Mm.", "favourites_count": 4149, "followers_count": 255, "friends_count": 846, "geo_enabled": true, "id": 53163214, "lang": "en", "listed_count": 6, "location": "East Jesus, past Timbuktu", "name": "Toothy-cats", "profile_background_color": "9AE4E8", "profile_background_image_url": "http://pbs.twimg.com/profile_background_images/208869488/132.gif", "profile_background_tile": true, "profile_banner_url": "https://pbs.twimg.com/profile_banners/53163214/1404240571", "profile_image_url": "https://pbs.twimg.com/profile_images/687811828316041218/vZxIXSzk_normal.jpg", "profile_link_color": "0084B4", "profile_sidebar_fill_color": "DDFFCC", "profile_text_color": "333333", "protected": false, "screen_name": "Savage_steve", "statuses_count": 12509}}
{"created_at": "Tue Nov 17 17:36:23 +0000 2015", "favorited": false, "id": 666671234076254208, "lang": "en", "retweeted": false, "source": "<a href=\"http://24-7newz.com\" rel=\"nofollow\">247newz</a>", "text": "TBI says terrorist threat planned for Black Friday unfounded\u2019 - https://t.co/WaxNo6bZJC", "truncated": false, "urls": {"https://t.co/WaxNo6bZJC": "http://bit.ly/1lt0Fcf"}, "user": {"created_at": "Mon Oct 04 18:10:17 +0000 2010", "description": "All your Newz", "followers_count": 3712, "friends_count": 3202, "id": 198586013, "lang": "en", "listed_count": 384, "location": "USA", "name": "24-7 Newz", "profile_background_color": "131516", "profile_background_image_url": "http://abs.twimg.com/images/themes/theme14/bg.gif", "profile_background_tile": true, "profile_banner_url": "https://pbs.twimg.com/profile_banners/198586013/1421429492", "profile_image_url": "https://pbs.twimg.com/profile_images/556139979445792768/AKBmtzWx_normal.jpeg", "profile_link_color": "009999", "profile_sidebar_fill_color": "EFEFEF", "profile_text_color": "333333", "protected": false, "screen_name": "247_newz", "statuses_count": 768967, "time_zone": "Eastern Time (US & Canada)", "url": "https://t.co/yuXSVCL3IF", "utc_offset": -18000}}
{"created_at": "Tue Nov 17 18:12:19 +0000 2015", "favorite_count": 1, "favorited": false, "id": 666680278623125504, "lang": "en", "retweeted": false, "source": "<a href=\"http://ifttt.com\" rel=\"nofollow\">IFTTT</a>", "text": "TBI says terrorist threat planned for Black Friday \u2018unfounded\u2019 https://t.co/9iizv3U6ku", "truncated": false, "urls": {"https://t.co/9iizv3U6ku": "http://ift.tt/1Yfbltg"}, "user": {"created_at": "Mon Aug 17 12:38:29 +0000 2009", "description": "News Channel 11, in your corner. Send your investigative story ideas to: inyourcorner@wjhl.com", "favourites_count": 1003, "followers_count": 14215, "friends_count": 4861, "id": 66344113, "lang": "en", "listed_count": 214, "location": "Johnson City", "name": "WJHL", "profile_background_color": "FFFFFF", "profile_background_image_url": "http://pbs.twimg.com/profile_background_images/693432790/3a9ffe1f7125d4d25d0915e345b84858.jpeg", "profile_background_tile": true, "profile_banner_url": "https://pbs.twimg.com/profile_banners/66344113/1398872676", "profile_image_url": "https://pbs.twimg.com/profile_images/418764533075689472/u-9WmSqk_normal.jpeg", "profile_link_color": "CC3366", "profile_sidebar_fill_color": "DDFFCC", "profile_text_color": "333333", "protected": false, "screen_name": "WJHL11", "statuses_count": 55816, "time_zone": "Atlantic Time (Canada)", "url": "http://t.co/Z04QLtYyLy", "utc_offset": -14400, "verified": true}}
{"created_at": "Wed Nov 18 07:05:36 +0000 2015", "favorited": false, "id": 666874880130990080, "lang": "en", "retweeted": false, "source": "<a href=\"http://www.facebook.com/twitter\" rel=\"nofollow\">Facebook</a>", "text": "TBI debunks Facebook posts about Black Friday terrorist attack in Tennessee https://t.co/cR7D7Ckw1y", "truncated": false, "urls": {"https://t.co/cR7D7Ckw1y": "http://fb.me/47JbI2cBN"}, "user": {"created_at": "Sun Mar 31 10:20:46 +0000 2013", "default_profile": true, "description": "a mom a sister a teacher a student a misunderestemates organized disaster", "favourites_count": 1, "followers_count": 8, "friends_count": 17, "id": 1318120430, "lang": "en", "listed_count": 1, "name": "tiffany m edwards", "profile_background_color": "C0DEED", "profile_background_image_url": "http://abs.twimg.com/images/themes/theme1/bg.png", "profile_background_tile": false, "profile_image_url": "https://pbs.twimg.com/profile_images/3455695640/d99976a932a30f6f50303e10acd610ed_normal.jpeg", "profile_link_color": "0084B4", "profile_sidebar_fill_color": "DDEEF6", "profile_text_color": "333333", "protected": false, "screen_name": "tiffanymedward1", "statuses_count": 2439}}
{"created_at": "Wed Nov 18 08:45:47 +0000 2015", "favorited": false, "id": 666900094390697984, "lang": "en", "retweeted": false, "source": "<a href=\"http://twitterfeed.com\" rel=\"nofollow\">twitterfeed</a>", "text": "TBI discredits Black Friday attack rumors on social media: Officials with the Tennessee Bureau of Investigatio... https://t.co/E60FuqhaDn", "truncated": false, "urls": {"https://t.co/E60FuqhaDn": "http://bit.ly/1QLVVuj"}, "user": {"created_at": "Wed Oct 12 13:36:04 +0000 2011", "description": "We social. We go go.", "favourites_count": 1, "followers_count": 47, "friends_count": 25, "id": 389466933, "lang": "en", "listed_count": 23, "location": "The Digital Divide", "name": "Social GoGo", "profile_background_color": "000000", "profile_background_image_url": "http://abs.twimg.com/images/themes/theme1/bg.png", "profile_background_tile": false, "profile_image_url": "https://pbs.twimg.com/profile_images/559863111042101250/ycCJ0NID_normal.jpeg", "profile_link_color": "FFCC4D", "profile_sidebar_fill_color": "000000", "profile_text_color": "000000", "protected": false, "screen_name": "socialgogo", "statuses_count": 4341, "time_zone": "Quito", "utc_offset": -18000}}
{"created_at": "Wed Nov 18 08:48:27 +0000 2015", "favorited": false, "hashtags": ["socialmedia", "news"], "id": 666900763210199040, "lang": "en", "retweeted": false, "source": "<a href=\"http://twitterfeed.com\" rel=\"nofollow\">twitterfeed</a>", "text": "TBI discredits Black Friday attack rumors on social media https://t.co/bO0UkZTd4N #socialmedia #news", "truncated": false, "urls": {"https://t.co/bO0UkZTd4N": "http://bit.ly/1SCHtTL"}, "user": {"created_at": "Sun Mar 13 21:20:15 +0000 2011", "description": "Too many #socialmedia gurus, ninjas, whatevers & not enough substance. We're here to fix that.", "favourites_count": 9, "followers_count": 134, "friends_count": 15, "id": 265606996, "lang": "en", "listed_count": 324, "name": "Social Media Fixers", "profile_background_color": "D40303", "profile_background_image_url": "http://abs.twimg.com/images/themes/theme1/bg.png", "profile_background_tile": false, "profile_banner_url": "https://pbs.twimg.com/profile_banners/265606996/1403468988", "profile_image_url": "https://pbs.twimg.com/profile_images/1271485238/social-medics_normal.png", "profile_link_color": "D40303", "profile_sidebar_fill_color": "FFFFFF", "profile_text_color": "333333", "protected": false, "screen_name": "socialmedics", "statuses_count": 15716}}
{"created_at": "Wed Nov 18 08:53:40 +0000 2015", "favorited": false, "id": 666902078808174592, "lang": "en", "retweeted": false, "source": "<a href=\"http://twitterfeed.com\" rel=\"nofollow\">twitterfeed</a>", "text": "TBI discredits Black Friday attack rumors on social media: Officials with the Tennessee Bureau of Investigatio... https://t.co/PSwJtBFK04", "truncated": false, "urls": {"https://t.co/PSwJtBFK04": "http://bit.ly/1QLWK6l"}, "user": {"created_at": "Tue May 05 19:16:35 +0000 2009", "description": "Webmaster 2.0. Expert en Joomla [CMS]. Community Manager. Blogger. WebPreneur.Call/Text us : USA (347)735-8155 -Ha\u00efti : (509) 38398155/webmasterhws2.0@gmail.com", "favourites_count": 5, "followers_count": 1877, "friends_count": 1953, "id": 37995138, "lang": "en", "listed_count": 168, "location": "HAITI - Port-Au-Prince", "name": "Haiti Web Services", "profile_background_color": "1A1B1F", "profile_background_image_url": "http://pbs.twimg.com/profile_background_images/395678247/hws_logo.JPG", "profile_background_tile": true, "profile_banner_url": "https://pbs.twimg.com/profile_banners/37995138/1444115862", "profile_image_url": "https://pbs.twimg.com/profile_images/651292805000630272/JFhVgrqB_normal.jpg", "profile_link_color": "2FC2EF", "profile_sidebar_fill_color": "252429", "profile_text_color": "666666", "protected": false, "screen_name": "hawebservices", "statuses_count": 31606, "time_zone": "Eastern Time (US & Canada)", "url": "http://t.co/1Smp9v577X", "utc_offset": -18000}}
{"created_at": "Wed Nov 18 08:58:43 +0000 2015", "favorited": false, "id": 666903350554705921, "lang": "en", "retweeted": false, "source": "<a href=\"http://twitterfeed.com\" rel=\"nofollow\">twitterfeed</a>", "text": "TBI discredits Black Friday attack rumors on social media https://t.co/1yVkBQA5ww", "truncated": false, "urls": {"https://t.co/1yVkBQA5ww": "http://bit.ly/1HW0Uqe"}, "user": {"created_at": "Wed May 07 13:16:01 +0000 2014", "default_profile": true, "description": "Social Media and Startup promoter. PR News release.  Technology and Bitcoin enthusiast.", "favourites_count": 2571, "followers_count": 1045, "friends_count": 665, "id": 2482090896, "lang": "en", "listed_count": 117, "location": "USA", "name": "Max Media Promotions", "profile_background_color": "C0DEED", "profile_background_image_url": "http://abs.twimg.com/images/themes/theme1/bg.png", "profile_background_tile": false, "profile_banner_url": "https://pbs.twimg.com/profile_banners/2482090896/1399483517", "profile_image_url": "https://pbs.twimg.com/profile_images/468653453145698304/TaXlYd9f_normal.png", "profile_link_color": "0084B4", "profile_sidebar_fill_color": "DDEEF6", "profile_text_color": "333333", "protected": false, "screen_name": "MaxPromote", "statuses_count": 16517, "time_zone": "Beijing", "utc_offset": 28800}}
{"created_at": "Wed Nov 18 09:01:50 +0000 2015", "favorited": false, "hashtags": ["socialmedia"], "id": 666904132909854720, "lang": "en", "retweeted": false, "source": "<a href=\"http://twitterfeed.com\" rel=\"nofollow\">twitterfeed</a>", "text": "TBI discredits Black Friday attack rumors on social media: Officials with the Tennessee Bureau of... https://t.co/snQaC8iSTO #socialmedia", "truncated": false, "urls": {"https://t.co/snQaC8iSTO": "http://bit.ly/1l4Ymf2"}, "user": {"created_at": "Mon Dec 07 19:16:06 +0000 2009", "description": "A positive future is out there. I teach steps to arrive. Be the person people hire and do business with. Hiker Photographer Writer EHS Engager-love to connect!", "favourites_count": 9, "followers_count": 3620, "friends_count": 1536, "id": 95260968, "lang": "en", "listed_count": 463, "location": "Syracuse, NY", "name": "Brenda Griffin", "profile_background_color": "CCCC99", "profile_background_image_url": "http://pbs.twimg.com/profile_background_images/82121334/brendagriffintwitterpageh.jpg", "profile_background_tile": false, "profile_image_url": "https://pbs.twimg.com/profile_images/3029057176/a2bd7a35918c65142b68a088c757e0e0_normal.jpeg", "profile_link_color": "080001", "profile_sidebar_fill_color": "CCCC99", "profile_text_color": "990033", "protected": false, "screen_name": "Brenda_Griffin", "statuses_count": 104680, "time_zone": "Eastern Time (US & Canada)", "url": "http://t.co/A7zOCES9DD", "utc_offset": -18000}}
{"created_at": "Wed Nov 18 09:07:55 +0000 2015", "favorited": false, "id": 666905664732594176, "lang": "en", "retweeted": false, "source": "<a href=\"http://twitterfeed.com\" rel=\"nofollow\">twitterfeed</a>", "text": "TBI discredits Black Friday attack rumors on social media: Officials with the Tennessee Bureau of Investigatio... https://t.co/mxpqI5hui6", "truncated": false, "urls": {"https://t.co/mxpqI5hui6": "http://bit.ly/1O1FitM"}, "user": {"created_at": "Wed Apr 11 14:47:46 +0000 2007", "favourites_count": 18, "followers_count": 18655, "friends_count": 20121, "geo_enabled": true, "id": 4190421, "lang": "en", "listed_count": 166, "location": "Texas", "name": "Norma Dennis", "profile_background_color": "9AE4E8", "profile_background_image_url": "http://pbs.twimg.com/profile_background_images/16683183/twitter-template2.jpg", "profile_background_tile": false, "profile_image_url": "https://pbs.twimg.com/profile_images/233504477/me1_normal.jpg", "profile_link_color": "0000FF", "profile_sidebar_fill_color": "E0FF92", "profile_text_color": "000000", "protected": false, "screen_name": "infoimp", "statuses_count": 44161, "time_zone": "Central Time (US & Canada)", "utc_offset": -21600}}
{"created_at": "Wed Nov 18 09:16:54 +0000 2015", "favorited": false, "id": 666907925865107456, "lang": "en", "retweeted": false, "source": "<a href=\"http://twitterfeed.com\" rel=\"nofollow\">twitterfeed</a>", "text": "TBI discredits Black Friday attack rumors on social media: Officials with the Tennessee Bureau of Investigatio... https://t.co/ouigAz1op8", "truncated": false, "urls": {"https://t.co/ouigAz1op8": "http://ywzr.a.boysofts.com/8Aof"}, "user": {"created_at": "Sun Aug 25 21:42:50 +0000 2013", "default_profile": true, "description": "Looking For #Tech ? your in the right place", "followers_count": 482, "friends_count": 181, "id": 1700244398, "lang": "en", "listed_count": 162, "name": "Technology news", "profile_background_color": "C0DEED", "profile_background_image_url": "http://abs.twimg.com/images/themes/theme1/bg.png", "profile_background_tile": false, "profile_image_url": "https://pbs.twimg.com/profile_images/378800000360236821/59ca7290a94b36b862aa6c3e5446d7e3_normal.jpeg", "profile_link_color": "0084B4", "profile_sidebar_fill_color": "DDEEF6", "profile_text_color": "333333", "protected": false, "screen_name": "Technol_news", "statuses_count": 167954, "time_zone": "Baghdad", "utc_offset": 10800}}
{"created_at": "Wed Nov 18 09:31:19 +0000 2015", "favorited": false, "id": 666911552860086273, "lang": "en", "retweeted": false, "source": "<a href=\"http://twitterfeed.com\" rel=\"nofollow\">twitterfeed</a>", "text": "TBI discredits Black Friday attack rumors on social media: Officials with the Tennessee Bureau of Investigatio... https://t.co/rjTCN28QIe", "truncated": false, "urls": {"https://t.co/rjTCN28QIe": "http://bit.ly/1X71tzc"}, "user": {"created_at": "Fri Nov 23 15:53:00 +0000 2012", "description": "\u201cBe yourself; everyone else is already taken.\u201d \r\n~ Oscar Wilde", "favourites_count": 1, "followers_count": 69, "friends_count": 114, "id": 966347214, "lang": "en", "listed_count": 18, "name": "Inga Bronson", "profile_background_color": "0000FF", "profile_background_image_url": "http://pbs.twimg.com/profile_background_images/727503259/8a04d29eaea7faaab8333604697bdc3c.jpeg", "profile_background_tile": true, "profile_image_url": "https://pbs.twimg.com/profile_images/2924173978/919f903b8da2b04f4731ea95681abd32_normal.jpeg", "profile_link_color": "0000FF", "profile_sidebar_fill_color": "DDEEF6", "profile_text_color": "333333", "protected": false, "screen_name": "IngaBronson", "statuses_count": 3374, "time_zone": "Central Time (US & Canada)", "utc_offset": -21600}}
{"created_at": "Wed Nov 18 09:31:19 +0000 2015", "favorited": false, "id": 666911554722402304, "lang": "en", "retweeted": false, "source": "<a href=\"http://twitterfeed.com\" rel=\"nofollow\">twitterfeed</a>", "text": "TBI discredits Black Friday attack rumors on social media: Officials with the Tennessee Bureau of Investigatio... https://t.co/EpvNGjk4DD", "truncated": false, "urls": {"https://t.co/EpvNGjk4DD": "http://bit.ly/1X71tzc"}, "user": {"created_at": "Fri Nov 23 16:00:48 +0000 2012", "description": "Blogger Mom", "followers_count": 196, "friends_count": 279, "id": 966369200, "lang": "en", "listed_count": 28, "location": "New York", "name": "Tamisha Riddell", "profile_background_color": "0000FF", "profile_background_image_url": "http://pbs.twimg.com/profile_background_images/727503255/00a65a2dd27654fc69fecf2e79370207.jpeg", "profile_background_tile": true, "profile_image_url": "https://pbs.twimg.com/profile_images/2924173942/9a3f18d6dd36be7a01b1672587c4dd4d_normal.jpeg", "profile_link_color": "0000FF", "profile_sidebar_fill_color": "DDEEF6", "profile_text_color": "333333", "protected": false, "screen_name": "TamishaRiddell", "statuses_count": 5128, "time_zone": "Arizona", "utc_offset": -25200}}
{"created_at": "Wed Nov 18 09:31:20 +0000 2015", "favorited": false, "id": 666911556542664704, "lang": "en", "retweeted": false, "source": "<a href=\"http://twitterfeed.com\" rel=\"nofollow\">twitterfeed</a>", "text": "TBI discredits Black Friday attack rumors on social media: Officials with the Tennessee Bureau of Investigatio... https://t.co/vOzxLZ5IDR", "truncated": false, "urls": {"https://t.co/vOzxLZ5IDR": "http://bit.ly/1X71tzc"}, "user": {"created_at": "Fri Nov 23 16:07:36 +0000 2012", "description": "I like cooking, sports and also making friends.", "favourites_count": 1, "followers_count": 50, "friends_count": 70, "id": 966380648, "lang": "en", "listed_count": 19, "name": "Hailey", "profile_background_color": "0000FF", "profile_background_image_url": "http://pbs.twimg.com/profile_background_images/727503713/53365402a55d7cf78c147c678ac7f823.jpeg", "profile_background_tile": true, "profile_image_url": "https://pbs.twimg.com/profile_images/2924175598/9a3f18d6dd36be7a01b1672587c4dd4d_normal.jpeg", "profile_link_color": "0000FF", "profile_sidebar_fill_color": "DDEEF6", "profile_text_color": "333333", "protected": false, "screen_name": "HayleyIngwersen", "statuses_count": 5228, "time_zone": "Arizona", "utc_offset": -25200}}
{"created_at": "Wed Nov 18 09:39:28 +0000 2015", "favorited": false, "id": 666913605091110916, "lang": "en", "retweeted": false, "source": "<a href=\"http://twitterfeed.com\" rel=\"nofollow\">twitterfeed</a>", "text": "TBI discredits Black Friday attack rumors on social media: Officials with the Tennessee Bureau of Investigatio... https://t.co/RzIzjpAjj9", "truncated": false, "urls": {"https://t.co/RzIzjpAjj9": "http://bit.ly/1l4Ymf2"}, "user": {"created_at": "Thu Jul 14 17:53:45 +0000 2011", "description": "Inspiring others to reach their full potential", "favourites_count": 225, "followers_count": 1576, "friends_count": 2041, "id": 335440334, "lang": "en", "listed_count": 152, "location": "TX", "name": "TeamSanchez44", "profile_background_color": "3B94D9", "profile_background_image_url": "http://pbs.twimg.com/profile_background_images/415334051/team_sanchez_tweet.jpg", "profile_background_tile": false, "profile_image_url": "https://pbs.twimg.com/profile_images/574405415934394368/S3GT2CA6_normal.jpeg", "profile_link_color": "0084B4", "profile_sidebar_fill_color": "DDEEF6", "profile_text_color": "333333", "protected": false, "screen_name": "TeamSanchez44", "statuses_count": 38545, "time_zone": "Central Time (US & Canada)", "utc_offset": -21600}}
{"created_at": "Wed Nov 18 09:39:53 +0000 2015", "favorited": false, "hashtags": ["SosialMedia"], "id": 666913710238101504, "lang": "en", "retweeted": false, "source": "<a href=\"http://twitterfeed.com\" rel=\"nofollow\">twitterfeed</a>", "text": "#SosialMedia TBI discredits Black Friday attack rumors on social media: Officials with the Tennessee Bureau of... https://t.co/Ki9V25aJDu", "truncated": false, "urls": {"https://t.co/Ki9V25aJDu": "http://bit.ly/1HW8l0F"}, "user": {"created_at": "Fri Sep 04 08:44:15 +0000 2015", "default_profile": true, "description": "Social media enthusiast. Unapologetic pop culture evangelist. Travel geek. Coffee lover.", "followers_count": 95, "friends_count": 213, "id": 3446188092, "lang": "en", "listed_count": 6, "location": "Jakarta Capital Region", "name": "Adina Dhina", "profile_background_color": "C0DEED", "profile_background_image_url": "http://abs.twimg.com/images/themes/theme1/bg.png", "profile_background_tile": false, "profile_banner_url": "https://pbs.twimg.com/profile_banners/3446188092/1441952771", "profile_image_url": "https://pbs.twimg.com/profile_images/642222491767693312/7PJFdatk_normal.jpg", "profile_link_color": "0084B4", "profile_sidebar_fill_color": "DDEEF6", "profile_text_color": "333333", "protected": false, "screen_name": "adina_dhina", "statuses_count": 1224}}
{"created_at": "Wed Nov 18 09:52:10 +0000 2015", "favorite_count": 1, "favorited": false, "id": 666916799582093312, "lang": "en", "retweeted": false, "source": "<a href=\"http://twitterfeed.com\" rel=\"nofollow\">twitterfeed</a>", "text": "TBI discredits Black Friday attack rumors on social media https://t.co/J2fDLu65Hp", "truncated": false, "urls": {"https://t.co/J2fDLu65Hp": "http://bit.ly/1X73FXv"}, "user": {"created_at": "Tue Jun 02 23:27:11 +0000 2009", "description": "#internetmarketer, #businessman, #entrepreneur, #Christian, #husband, #doglover.  Get to know me.  Read my latest Kindle book", "favourites_count": 358, "followers_count": 15374, "friends_count": 16255, "id": 44237247, "lang": "en", "listed_count": 135, "location": "Oldbury, England", "name": "DavidVerney", "profile_background_color": "447467", "profile_background_image_url": "http://pbs.twimg.com/profile_background_images/378800000013742098/a5906803f0c164f4d9f0ebad8e44d67e.jpeg", "profile_background_tile": false, "profile_banner_url": "https://pbs.twimg.com/profile_banners/44237247/1412527739", "profile_image_url": "https://pbs.twimg.com/profile_images/520615833131708419/z2nQ9i33_normal.jpeg", "profile_link_color": "447467", "profile_sidebar_fill_color": "274602", "profile_text_color": "3681E1", "protected": false, "screen_name": "DaveVerney", "statuses_count": 25959, "time_zone": "London", "url": "http://t.co/SWfidlo4M1"}}
{"created_at": "Wed Nov 18 09:57:13 +0000 2015", "favorited": false, "id": 666918071831916544, "lang": "en", "retweeted": false, "source": "<a href=\"http://twitterfeed.com\" rel=\"nofollow\">twitterfeed</a>", "text": "TBI discredits Black Friday attack rumors on social media: Officials with the Tennessee Bureau of Investigatio... https://t.co/4opManjp52", "truncated": false, "urls": {"https://t.co/4opManjp52": "http://bit.ly/1l55Oa5"}, "user": {"created_at": "Wed Jul 15 03:22:40 +0000 2009", "description": "I work at home, addicted to twitter  and  interest in social community.", "followers_count": 2498, "friends_count": 3208, "id": 56910267, "lang": "en", "listed_count": 31, "location": "New York", "name": "Monalisa", "profile_background_color": "0099B9", "profile_background_image_url": "http://abs.twimg.com/images/themes/theme4/bg.gif", "profile_background_tile": false, "profile_image_url": "https://pbs.twimg.com/profile_images/1152075941/Monalisa_normal.jpg", "profile_link_color": "0099B9", "profile_sidebar_fill_color": "95E8EC", "profile_text_color": "3C3940", "protected": false, "screen_name": "monatwt", "statuses_count": 16715, "time_zone": "Mountain Time (US & Canada)", "url": "http://t.co/mGWuLheHgB", "utc_offset": -25200}}
{"created_at": "Wed Nov 18 10:17:43 +0000 2015", "favorited": false, "id": 666923228456062976, "lang": "en", "retweeted": false, "source": "<a href=\"http://twitterfeed.com\" rel=\"nofollow\">twitterfeed</a>", "text": "TBI discredits Black Friday attack rumors on social media https://t.co/AtJXteQDw2", "truncated": false, "urls": {"https://t.co/AtJXteQDw2": "http://tinyurl.com/ne8pzna"}, "user": {"created_at": "Mon Oct 07 21:45:04 +0000 2013", "default_profile": true, "description": "Married Internet Marketer, Social Media Marketer, Entrepreneur, loves searching for information to help others.", "followers_count": 339, "friends_count": 387, "id": 1945251697, "lang": "en-gb", "listed_count": 34, "location": "London, UK", "name": "Jean Wilkinson", "profile_background_color": "C0DEED", "profile_background_image_url": "http://abs.twimg.com/images/themes/theme1/bg.png", "profile_background_tile": false, "profile_image_url": "https://pbs.twimg.com/profile_images/378800000564234017/b8f2eb4643b6568468ba386e070658fb_normal.jpeg", "profile_link_color": "0084B4", "profile_sidebar_fill_color": "DDEEF6", "profile_text_color": "333333", "protected": false, "screen_name": "BusSocMed", "statuses_count": 8443, "url": "http://t.co/3wFhjNGEw8"}}
{"created_at": "Wed Nov 18 10:26:56 +0000 2015", "favorited": false, "id": 666925550108184576, "lang": "en", "retweeted": false, "source": "<a href=\"http://twitterfeed.com\" rel=\"nofollow\">twitterfeed</a>", "text": "News: TBI discredits Black Friday attack rumors on social media https://t.co/6Kj5ZVWxbl", "truncated": false, "urls": {"https://t.co/6Kj5ZVWxbl": "http://bit.ly/211yv8K"}, "user": {"created_at": "Tue Oct 19 10:35:35 +0000 2010", "description": "Leading IT Trainer, currently working on a new Internet Marketing course in URDU for brothers in Pakistan to help them become Entrepreneur! Follow for updates..", "followers_count": 252, "friends_count": 8, "geo_enabled": true, "id": 204730081, "lang": "en", "listed_count": 24, "location": "Karachi, Pakistan", "name": "S A Rahman", "profile_background_color": "000000", "profile_background_image_url": "http://pbs.twimg.com/profile_background_images/378800000009718137/8d18f3a89453cb609de0d0b6117e4527.jpeg", "profile_background_tile": true, "profile_banner_url": "https://pbs.twimg.com/profile_banners/204730081/1398402971", "profile_image_url": "https://pbs.twimg.com/profile_images/3757390089/88e18e6c0bfe735efd25a2b1dac77d80_normal.jpeg", "profile_link_color": "000000", "profile_sidebar_fill_color": "000000", "profile_text_color": "000000", "protected": false, "screen_name": "SARahmanB", "statuses_count": 4888, "time_zone": "Central Time (US & Canada)", "url": "http://t.co/cZgqImjrWw", "utc_offset": -21600}}
{"created_at": "Wed Nov 18 10:30:09 +0000 2015", "favorited": false, "id": 666926360317685760, "lang": "en", "retweet_count": 1, "retweeted": false, "source": "<a href=\"https://about.twitter.com/products/tweetdeck\" rel=\"nofollow\">TweetDeck</a>", "text": "TBI discredits Black Friday attack rumors on social media: https://t.co/gF4Ul7ZtcJ", "truncated": false, "urls": {"https://t.co/gF4Ul7ZtcJ": "http://bit.ly/1Yg0lvw"}, "user": {"created_at": "Thu Aug 28 15:16:27 +0000 2008", "description": "Breaking news in Chattanooga, the Tennessee Valley and North Georgia.", "favourites_count": 36, "followers_count": 45076, "friends_count": 9008, "geo_enabled": true, "id": 16028049, "lang": "en", "listed_count": 734, "location": "Chattanooga, TN", "name": "Times Free Press", "profile_background_color": "FFFFFF", "profile_background_image_url": "http://pbs.twimg.com/profile_background_images/364157067/Screen_Shot_2011-11-14_at_7.01.16_PM.jpg", "profile_background_tile": false, "profile_banner_url": "https://pbs.twimg.com/profile_banners/16028049/1398272281", "profile_image_url": "https://pbs.twimg.com/profile_images/498915107468894208/wwnRgOB9_normal.png", "profile_link_color": "151519", "profile_sidebar_fill_color": "E9F0E5", "profile_text_color": "161313", "protected": false, "screen_name": "TimesFreePress", "statuses_count": 53084, "time_zone": "Eastern Time (US & Canada)", "url": "http://t.co/DsjTNu5N", "utc_offset": -18000}}
{"created_at": "Wed Nov 18 10:48:54 +0000 2015", "favorited": false, "hashtags": ["socialmedia"], "id": 666931078699970560, "lang": "en", "retweeted": false, "source": "<a href=\"http://twitterfeed.com\" rel=\"nofollow\">twitterfeed</a>", "text": "TBI discredits Black Friday attack rumors on social media: Officials with the Tennessee Bureau of... https://t.co/vYwc72sdXI #socialmedia", "truncated": false, "urls": {"https://t.co/vYwc72sdXI": "http://bit.ly/1SCHtTL"}, "user": {"created_at": "Mon Oct 07 15:44:02 +0000 2013", "default_profile": true, "description": "Branding, SEM, SEO, and Social Media information. Creative Entrepreneur.  Former Publisher and Promoter.", "followers_count": 728, "friends_count": 363, "id": 1944453096, "lang": "en", "listed_count": 578, "name": "Roger Baker II", "profile_background_color": "C0DEED", "profile_background_image_url": "http://abs.twimg.com/images/themes/theme1/bg.png", "profile_background_tile": false, "profile_banner_url": "https://pbs.twimg.com/profile_banners/1944453096/1407464495", "profile_image_url": "https://pbs.twimg.com/profile_images/497568264621285376/AQ51Jmd7_normal.jpeg", "profile_link_color": "0084B4", "profile_sidebar_fill_color": "DDEEF6", "profile_text_color": "333333", "protected": false, "screen_name": "rb2pro", "statuses_count": 21432, "time_zone": "Eastern Time (US & Canada)", "url": "https://t.co/UegmwXTNUR", "utc_offset": -18000}}
{"created_at": "Wed Nov 18 11:34:35 +0000 2015", "favorited": false, "id": 666942575404851202, "lang": "en", "retweeted": false, "source": "<a href=\"http://twitterfeed.com\" rel=\"nofollow\">twitterfeed</a>", "text": "TBI discredits Black Friday attack rumors on social media https://t.co/Bm0j1I3Vnn", "truncated": false, "urls": {"https://t.co/Bm0j1I3Vnn": "http://tinyurl.com/ne8pzna"}, "user": {"created_at": "Thu Oct 17 23:10:29 +0000 2013", "description": "Social Media, Google Adwords, Facebook, LinkedIn, Twitter, Content Marketing & lots more. It's all here and at my blog; http://t.co/NXeDDa1rWF", "followers_count": 372, "friends_count": 671, "id": 1967708100, "lang": "en", "listed_count": 83, "location": "United Kingdom", "name": "Kevin Vickers", "profile_background_color": "C0DEED", "profile_background_image_url": "http://pbs.twimg.com/profile_background_images/378800000152018163/6aQPrQs3.jpeg", "profile_background_tile": true, "profile_banner_url": "https://pbs.twimg.com/profile_banners/1967708100/1387234462", "profile_image_url": "https://pbs.twimg.com/profile_images/627645755612889088/NHp-oTeT_normal.jpg", "profile_link_color": "0084B4", "profile_sidebar_fill_color": "DDEEF6", "profile_text_color": "333333", "protected": false, "screen_name": "internetguru55", "statuses_count": 12874, "url": "http://t.co/KrprQNH9ne"}}
{"created_at": "Wed Nov 18 12:51:39 +0000 2015", "favorited": false, "id": 666961968524353537, "lang": "en", "retweeted": false, "source": "<a href=\"http://www.hootsuite.com\" rel=\"nofollow\">Hootsuite</a>", "text": "TBI discredits Black Friday attack rumors on social media - Officials with the Tennessee Bureau of Investigatio... https://t.co/TFpZk2etka", "truncated": false, "urls": {"https://t.co/TFpZk2etka": "http://ow.ly/3831N4"}, "user": {"created_at": "Thu Jul 31 21:42:20 +0000 2008", "description": "a creative-minded person...strange, crazy and a little weird. I have a passion for knowledge and an affinity for alliteration! Learning to be a blogger", "favourites_count": 10, "followers_count": 1401, "friends_count": 1769, "geo_enabled": true, "id": 15681119, "lang": "en", "listed_count": 29, "location": "Jacksonville, Fl DUVAL", "name": "daniellesteph", "profile_background_color": "709397", "profile_background_image_url": "http://pbs.twimg.com/profile_background_images/156503333/steph-tweet.jpg", "profile_background_tile": false, "profile_image_url": "https://pbs.twimg.com/profile_images/396790387/zoe_and_me_normal.jpg", "profile_link_color": "FF3300", "profile_sidebar_fill_color": "A0C5C7", "profile_text_color": "333333", "protected": false, "screen_name": "daniellesteph", "statuses_count": 13136, "time_zone": "Eastern Time (US & Canada)", "url": "http://t.co/IohpzwJTKR", "utc_offset": -18000}}
{"created_at": "Wed Nov 18 13:55:41 +0000 2015", "favorited": false, "id": 666978082520215552, "lang": "en", "retweeted": false, "source": "<a href=\"http://twitterfeed.com\" rel=\"nofollow\">twitterfeed</a>", "text": "TBI discredits Black Friday attack rumors on social media: Officials with the Tennessee Bureau of Investigatio... https://t.co/1qUolG7c12", "truncated": false, "urls": {"https://t.co/1qUolG7c12": "http://bit.ly/1l4Ymf2"}, "user": {"created_at": "Fri May 21 00:49:10 +0000 2010", "description": "I create pillow beds for pets. Love animals and support organizations that protect animals. Love to read, watch movies, and spending time with family.", "followers_count": 2697, "friends_count": 3066, "id": 146262793, "lang": "en", "listed_count": 55, "location": "Houston, TX", "name": "Jennifer M. Lopez", "profile_background_color": "B2DFDA", "profile_background_image_url": "http://abs.twimg.com/images/themes/theme13/bg.gif", "profile_background_tile": false, "profile_image_url": "https://pbs.twimg.com/profile_images/960154380/logo_for_twitter_normal.jpg", "profile_link_color": "93A644", "profile_sidebar_fill_color": "FFFFFF", "profile_text_color": "333333", "protected": false, "screen_name": "petpillowcreati", "statuses_count": 15851, "time_zone": "Central Time (US & Canada)", "url": "http://t.co/UOBrdSTXRW", "utc_offset": -21600}}
{"created_at": "Wed Nov 18 18:08:58 +0000 2015", "favorited": false, "hashtags": ["Social", "Media"], "id": 667041823718662144, "lang": "en", "retweeted": false, "source": "<a href=\"http://twitterfeed.com\" rel=\"nofollow\">twitterfeed</a>", "text": "TBI discredits Black Friday attack rumors on social media: Officials with the Tennessee Bureau ... https://t.co/G31Iak1Nui #Social #Media", "truncated": false, "urls": {"https://t.co/G31Iak1Nui": "http://bit.ly/1l4Ymf2"}, "user": {"created_at": "Tue Feb 17 05:02:49 +0000 2009", "description": "Maverick Public Relations & Media Maven - Loves Marketing, Writing, Social Networking, Buddhism, Psychology, his kids, and is a proud Massachusetts driver.", "favourites_count": 5, "followers_count": 2694, "friends_count": 2347, "id": 21065799, "lang": "en", "listed_count": 79, "location": "Methuen, MA", "name": "Dan Brunelle", "profile_background_color": "DE6F08", "profile_background_image_url": "http://pbs.twimg.com/profile_background_images/83855111/xd9e7e366fc7d41814ac83fcba6d4b76.png", "profile_background_tile": false, "profile_image_url": "https://pbs.twimg.com/profile_images/1661494010/dansmallimage_normal.jpg", "profile_link_color": "9E5105", "profile_sidebar_fill_color": "F5E49E", "profile_text_color": "1A1111", "protected": false, "screen_name": "nhseacoaster", "statuses_count": 7313, "time_zone": "Eastern Time (US & Canada)", "utc_offset": -18000}}
{"created_at": "Wed Nov 18 18:08:59 +0000 2015", "favorited": false, "hashtags": ["Social", "Media"], "id": 667041826012991489, "lang": "en", "retweeted": false, "source": "<a href=\"http://twitterfeed.com\" rel=\"nofollow\">twitterfeed</a>", "text": "TBI discredits Black Friday attack rumors on social media: Officials with the Tennessee Bureau ... https://t.co/cxSONAmEtg #Social #Media", "truncated": false, "urls": {"https://t.co/cxSONAmEtg": "http://bit.ly/1l4Ymf2"}, "user": {"created_at": "Sat Nov 12 08:17:45 +0000 2011", "description": "VP of Media Relations, Author, Columnist.", "favourites_count": 1, "followers_count": 811, "friends_count": 1993, "id": 410570192, "lang": "en", "listed_count": 34, "location": "New York, New York", "name": "Jason Savage", "profile_background_color": "1A1B1F", "profile_background_image_url": "http://abs.twimg.com/images/themes/theme9/bg.gif", "profile_background_tile": false, "profile_image_url": "https://pbs.twimg.com/profile_images/1637803023/zxid321780_exhausted_normal.jpg", "profile_link_color": "2FC2EF", "profile_sidebar_fill_color": "252429", "profile_text_color": "666666", "protected": false, "screen_name": "MadisonAvePR", "statuses_count": 2568}}
{"created_at": "Thu Nov 19 00:09:44 +0000 2015", "favorited": false, "hashtags": ["SMM"], "id": 667132612411064320, "lang": "en", "retweeted": false, "source": "<a href=\"http://www.hootsuite.com\" rel=\"nofollow\">Hootsuite</a>", "text": "#SMM: TBI discredits Black Friday attack rumors on social media https://t.co/dmnjgASkKT", "truncated": false, "urls": {"https://t.co/dmnjgASkKT": "http://ow.ly/384ADS"}, "user": {"created_at": "Sat Sep 13 20:12:59 +0000 2008", "description": "I'm a wireless woman helping clients market online.  I also coach people 2 transform their lives to live more successful, healthy, happier lives!", "favourites_count": 67, "followers_count": 48028, "friends_count": 44004, "id": 16275559, "lang": "en-gb", "listed_count": 1057, "location": "Toronto, Ontario, Canada", "name": "Zahida A. Khan", "profile_background_color": "ACDED6", "profile_background_image_url": "http://pbs.twimg.com/profile_background_images/93849689/TwitterBG-Nov09.jpg", "profile_background_tile": false, "profile_banner_url": "https://pbs.twimg.com/profile_banners/16275559/1449180777", "profile_image_url": "https://pbs.twimg.com/profile_images/1487411416/Zda_normal.JPG", "profile_link_color": "038543", "profile_sidebar_fill_color": "F6F6F6", "profile_text_color": "333333", "protected": false, "screen_name": "ZahidaKhan", "statuses_count": 60447, "time_zone": "Eastern Time (US & Canada)", "url": "http://t.co/WbecgSVoU2", "utc_offset": -18000}}
{"created_at": "Thu Nov 19 06:32:19 +0000 2015", "favorited": false, "id": 667228893812649984, "lang": "en", "retweeted": false, "source": "<a href=\"http://www.snsanalytics.com\" rel=\"nofollow\">SNS Analytics</a>", "text": "TBI: Facebook posts on Black Friday terrorist attack in Tennessee is a hoax https://t.co/DB3lhfIpNn", "truncated": false, "urls": {"https://t.co/DB3lhfIpNn": "http://www.snsanalytics.com/2FCIy8"}, "user": {"created_at": "Tue Feb 23 09:37:18 +0000 2010", "description": "Breaking news about Tennessee.", "followers_count": 4633, "friends_count": 780, "id": 116697898, "lang": "en", "listed_count": 41, "location": "Tennessee", "name": "Tennessee Guide", "profile_background_color": "C0DEED", "profile_background_image_url": "http://pbs.twimg.com/profile_background_images/350228861/Tennessee_w.png", "profile_background_tile": true, "profile_image_url": "https://pbs.twimg.com/profile_images/1599061383/Tennessee_normal.png", "profile_link_color": "0084B4", "profile_sidebar_fill_color": "DDEEF6", "profile_text_color": "333333", "protected": false, "screen_name": "TennesseeGuide", "statuses_count": 29265, "time_zone": "Pacific Time (US & Canada)", "utc_offset": -28800}}
