{"created_at": "Thu Nov 05 20:00:01 +0000 2015", "favorited": false, "id": 662358727845089281, "lang": "en", "retweet_count": 1, "retweeted": false, "source": "<a href=\"http://www.facebook.com/twitter\" rel=\"nofollow\">Facebook</a>", "text": "Obama to ban Christmas Cards on Military Bases | US Message Board - Political Discussion Forum https://t.co/ph0GHF9x0M", "truncated": false, "urls": {"https://t.co/ph0GHF9x0M": "http://fb.me/3vh0nGOwN"}, "user": {"created_at": "Tue Jul 07 10:35:01 +0000 2009", "favourites_count": 2, "followers_count": 18, "friends_count": 24, "id": 54509455, "lang": "en", "name": "Becky Eassey", "profile_background_color": "000000", "profile_background_image_url": "http://abs.twimg.com/images/themes/theme1/bg.png", "profile_background_tile": false, "profile_banner_url": "https://pbs.twimg.com/profile_banners/54509455/1436892131", "profile_image_url": "https://pbs.twimg.com/profile_images/620996582998040576/XozeSnZg_normal.jpg", "profile_link_color": "94D487", "profile_sidebar_fill_color": "000000", "profile_text_color": "000000", "protected": false, "screen_name": "BlessedShelties", "statuses_count": 384, "time_zone": "Eastern Time (US & Canada)", "utc_offset": -18000}}
{"created_at": "Thu Nov 05 21:49:44 +0000 2015", "favorited": false, "id": 662386338725957632, "lang": "en", "retweeted": false, "source": "<a href=\"http://www.facebook.com/twitter\" rel=\"nofollow\">Facebook</a>", "text": "FALSE: Obama Launches First Salvo in War on Christmas https://t.co/U4R2c0MfE8", "truncated": false, "urls": {"https://t.co/U4R2c0MfE8": "http://fb.me/1YLjopBl6"}, "user": {"created_at": "Thu Feb 21 02:15:41 +0000 2013", "description": "USNavy Veteran, Chemical&Electro-Mechanical Engineer &Tutor f/Detroit (MI) I'm a DRUNK but as Honest &Real, FUNNY &Brilliant as it gets in the World of 2day!", "favourites_count": 332, "followers_count": 349, "friends_count": 1783, "geo_enabled": true, "id": 1202723942, "lang": "en", "listed_count": 11, "location": "Houston, Texas", "name": "Rich LaMarr Gilmer", "profile_background_color": "0099B9", "profile_background_image_url": "http://abs.twimg.com/images/themes/theme4/bg.gif", "profile_background_tile": false, "profile_image_url": "https://pbs.twimg.com/profile_images/3285290291/dd56c08eb906b1d7c1067b25a1b3f9b4_normal.jpeg", "profile_link_color": "0099B9", "profile_sidebar_fill_color": "95E8EC", "profile_text_color": "3C3940", "protected": false, "screen_name": "RichGilmer", "statuses_count": 23081}}
{"created_at": "Thu Nov 05 21:55:08 +0000 2015", "favorited": false, "id": 662387697667981312, "lang": "en", "retweeted": false, "source": "<a href=\"http://twitter.com/download/android\" rel=\"nofollow\">Twitter for Android</a>", "text": "Obama to ban Christmas Cards on Military Bases https://t.co/AqASo55DQ4", "truncated": false, "urls": {"https://t.co/AqASo55DQ4": "http://bit.ly/1Nvlr6a"}, "user": {"created_at": "Mon Jan 19 15:46:29 +0000 2015", "default_profile": true, "description": "Formally Greenswamp Patriot, Conservative, Christian, 2A, Despise socialism, bluegrass musician 43 years. heavy equip. operator. Hunter & fisherman.", "favourites_count": 113, "followers_count": 209, "friends_count": 204, "id": 2985906429, "lang": "en", "listed_count": 15, "location": "Florida", "name": "Biglake Patriot", "profile_background_color": "C0DEED", "profile_background_image_url": "http://abs.twimg.com/images/themes/theme1/bg.png", "profile_background_tile": false, "profile_banner_url": "https://pbs.twimg.com/profile_banners/2985906429/1431515335", "profile_image_url": "https://pbs.twimg.com/profile_images/606950574010081280/O4-jY1t2_normal.jpg", "profile_link_color": "0084B4", "profile_sidebar_fill_color": "DDEEF6", "profile_text_color": "333333", "protected": false, "screen_name": "maternose2", "statuses_count": 6659}}
{"created_at": "Thu Nov 05 23:01:16 +0000 2015", "favorited": false, "id": 662404341446352896, "lang": "en", "retweet_count": 1, "retweeted": false, "source": "<a href=\"http://www.facebook.com/twitter\" rel=\"nofollow\">Facebook</a>", "text": "Obama to ban Christmas Cards on Military Bases | US Message Board - Political Discussion Forum https://t.co/M5SJPVDrjN", "truncated": false, "urls": {"https://t.co/M5SJPVDrjN": "http://fb.me/1RVHYCSRZ"}, "user": {"created_at": "Mon Mar 09 05:34:41 +0000 2015", "description": "Supporter of MG Vallely, The Founder of http://t.co/I2sV1rUlwa, CCB, LNSAG, Nemo Arms,Inc -Restoration of the Republic TEAMUSA#1", "favourites_count": 1047, "followers_count": 2678, "friends_count": 3356, "id": 3069173600, "lang": "en", "listed_count": 13, "name": "Lisa Kallister", "profile_background_color": "131516", "profile_background_image_url": "http://abs.twimg.com/images/themes/theme14/bg.gif", "profile_background_tile": true, "profile_banner_url": "https://pbs.twimg.com/profile_banners/3069173600/1430465225", "profile_image_url": "https://pbs.twimg.com/profile_images/662160171204919296/NuzLfT7k_normal.jpg", "profile_link_color": "009999", "profile_sidebar_fill_color": "EFEFEF", "profile_text_color": "333333", "protected": false, "screen_name": "MilitiaWitch", "statuses_count": 4147, "time_zone": "Central Time (US & Canada)", "url": "http://t.co/616uTkjqpq", "utc_offset": -21600}}
{"created_at": "Fri Nov 06 00:49:18 +0000 2015", "favorited": false, "id": 662431528023117825, "lang": "en", "retweeted": false, "source": "<a href=\"http://twitter.com\" rel=\"nofollow\">Twitter Web Client</a>", "text": "Obama to ban Christmas Cards on Military Bases https://t.co/cI5vkXeVNl", "truncated": false, "urls": {"https://t.co/cI5vkXeVNl": "http://www.usmessageboard.com/threads/obama-to-ban-christmas-cards-on-military-bases.454376/"}, "user": {"created_at": "Sun Jul 26 13:30:04 +0000 2009", "description": "conservative/loveroffreedom/believer in constitution/all lives matter/wtgnra/wethepeople/lets take our country back/sick of politicians/politically correct this", "favourites_count": 1055, "followers_count": 461, "friends_count": 459, "id": 60304547, "lang": "en", "listed_count": 8, "location": "ohio", "name": "Dale Doughty", "profile_background_color": "1A1B1F", "profile_background_image_url": "http://pbs.twimg.com/profile_background_images/657892895459033088/NtT6-hvj.jpg", "profile_background_tile": false, "profile_banner_url": "https://pbs.twimg.com/profile_banners/60304547/1444276421", "profile_image_url": "https://pbs.twimg.com/profile_images/659973437448818688/sWAyfIxU_normal.jpg", "profile_link_color": "2FC2EF", "profile_sidebar_fill_color": "000000", "profile_text_color": "000000", "protected": false, "screen_name": "DalezDuhMan36", "statuses_count": 1118, "time_zone": "Eastern Time (US & Canada)", "utc_offset": -18000}}
{"created_at": "Fri Nov 06 01:12:15 +0000 2015", "favorited": false, "id": 662437302996717568, "lang": "en", "retweeted": false, "source": "<a href=\"http://twitter.com\" rel=\"nofollow\">Twitter Web Client</a>", "text": "FALSE: Obama Launches First Salvo in War on Christmas : https://t.co/WUnAGR0mUL https://t.co/UZIBMgOSQk", "truncated": false, "urls": {"https://t.co/UZIBMgOSQk": "http://www.snopes.com/christmas-card-ban-military/", "https://t.co/WUnAGR0mUL": "http://snopes.com"}, "user": {"created_at": "Mon Mar 02 18:02:46 +0000 2009", "description": "Have mute capability, will use on RWNJ trolls.", "favourites_count": 18296, "followers_count": 4937, "friends_count": 5370, "id": 22512395, "lang": "en", "listed_count": 78, "name": "Chris Sherlock", "profile_background_color": "86967C", "profile_background_image_url": "http://pbs.twimg.com/profile_background_images/790193276/933a24750ef50947dea8f4f5f34bc9ec.png", "profile_background_tile": true, "profile_banner_url": "https://pbs.twimg.com/profile_banners/22512395/1438043900", "profile_image_url": "https://pbs.twimg.com/profile_images/3202465534/62744dd1b4078c4a6a08059d68f01cff_normal.png", "profile_link_color": "AE9E84", "profile_sidebar_fill_color": "9A2248", "profile_text_color": "AB3447", "protected": false, "screen_name": "SquarePeg61", "statuses_count": 20269, "time_zone": "Tehran", "url": "http://t.co/5bPzYY8WOq", "utc_offset": 12600}}
{"created_at": "Fri Nov 06 04:26:23 +0000 2015", "favorited": false, "id": 662486161462456322, "lang": "en", "retweeted": false, "source": "<a href=\"http://www.facebook.com/twitter\" rel=\"nofollow\">Facebook</a>", "text": "Obama to ban Christmas Cards on Military Bases | US Message Board - Political Discussion Forum https://t.co/doGPZ2wJT2", "truncated": false, "urls": {"https://t.co/doGPZ2wJT2": "http://fb.me/6RTEYKWnY"}, "user": {"created_at": "Wed Apr 01 04:44:05 +0000 2009", "description": "1Co 6:17  But he that is joined unto the Lord is one spirit.", "favourites_count": 11, "followers_count": 371, "friends_count": 67, "id": 28052578, "lang": "en", "listed_count": 23, "location": "Irvine CA", "name": "daryl lawson", "profile_background_color": "5399D6", "profile_background_image_url": "http://pbs.twimg.com/profile_background_images/378800000001295545/e8eaaba87753b63ae35035a130ba1cfa.jpeg", "profile_background_tile": false, "profile_banner_url": "https://pbs.twimg.com/profile_banners/28052578/1432960274", "profile_image_url": "https://pbs.twimg.com/profile_images/378800000280718982/e029a08ec7a6379dfe15b51a0c6456da_normal.jpeg", "profile_link_color": "D02B55", "profile_sidebar_fill_color": "CCD5FF", "profile_text_color": "1920A8", "protected": false, "screen_name": "daryllawson", "statuses_count": 94017, "time_zone": "Pacific Time (US & Canada)", "url": "http://t.co/i22CCp4wg4", "utc_offset": -28800}}
{"created_at": "Fri Nov 06 04:26:34 +0000 2015", "favorited": false, "id": 662486207167750144, "lang": "en", "retweeted": false, "source": "<a href=\"http://www.facebook.com/twitter\" rel=\"nofollow\">Facebook</a>", "text": "Obama to ban Christmas Cards on Military Bases | US Message Board - Political Discussion Forum https://t.co/LMaUk6rbNJ", "truncated": false, "urls": {"https://t.co/LMaUk6rbNJ": "http://fb.me/7wa6uu1yo"}, "user": {"created_at": "Wed Apr 01 04:44:05 +0000 2009", "description": "1Co 6:17  But he that is joined unto the Lord is one spirit.", "favourites_count": 11, "followers_count": 371, "friends_count": 67, "id": 28052578, "lang": "en", "listed_count": 23, "location": "Irvine CA", "name": "daryl lawson", "profile_background_color": "5399D6", "profile_background_image_url": "http://pbs.twimg.com/profile_background_images/378800000001295545/e8eaaba87753b63ae35035a130ba1cfa.jpeg", "profile_background_tile": false, "profile_banner_url": "https://pbs.twimg.com/profile_banners/28052578/1432960274", "profile_image_url": "https://pbs.twimg.com/profile_images/378800000280718982/e029a08ec7a6379dfe15b51a0c6456da_normal.jpeg", "profile_link_color": "D02B55", "profile_sidebar_fill_color": "CCD5FF", "profile_text_color": "1920A8", "protected": false, "screen_name": "daryllawson", "statuses_count": 94017, "time_zone": "Pacific Time (US & Canada)", "url": "http://t.co/i22CCp4wg4", "utc_offset": -28800}}
{"created_at": "Fri Nov 06 05:45:31 +0000 2015", "favorited": false, "id": 662506074415751168, "lang": "en", "retweeted": false, "source": "<a href=\"http://www.facebook.com/twitter\" rel=\"nofollow\">Facebook</a>", "text": "Obama to ban Christmas Cards on Military Bases | US Message Board - Political Discussion Forum https://t.co/tmQfsKUXNq", "truncated": false, "urls": {"https://t.co/tmQfsKUXNq": "http://fb.me/2T5BzIBHE"}, "user": {"created_at": "Thu May 05 01:47:34 +0000 2011", "description": "#2A #1776 #infidel #oathkeeper #tcot #ccot #CruzCrew #SisterPatriots #pro-Israel Involved with the largest weekly Tea Party in the Country", "favourites_count": 4894, "followers_count": 993, "friends_count": 2115, "geo_enabled": true, "id": 293267782, "lang": "en", "listed_count": 57, "location": "mesa", "name": "mike peek", "profile_background_color": "642D8B", "profile_background_image_url": "http://pbs.twimg.com/profile_background_images/378800000048085266/f9d1af80d3463b98f24ab83e45f18278.gif", "profile_background_tile": true, "profile_banner_url": "https://pbs.twimg.com/profile_banners/293267782/1441151717", "profile_image_url": "https://pbs.twimg.com/profile_images/665399069435633664/y9G8vZHi_normal.png", "profile_link_color": "DD2E44", "profile_sidebar_fill_color": "7AC3EE", "profile_text_color": "FF0000", "protected": false, "screen_name": "azmike2001", "statuses_count": 63006}}
{"created_at": "Fri Nov 06 05:45:48 +0000 2015", "favorited": false, "id": 662506143630172160, "lang": "en", "retweeted": false, "source": "<a href=\"http://www.facebook.com/twitter\" rel=\"nofollow\">Facebook</a>", "text": "Obama to ban Christmas Cards on Military Bases | US Message Board - Political Discussion Forum https://t.co/PX3zTTpCJN", "truncated": false, "urls": {"https://t.co/PX3zTTpCJN": "http://fb.me/52A7oUmpK"}, "user": {"created_at": "Thu May 05 01:47:34 +0000 2011", "description": "#2A #1776 #infidel #oathkeeper #tcot #ccot #CruzCrew #SisterPatriots #pro-Israel Involved with the largest weekly Tea Party in the Country", "favourites_count": 4894, "followers_count": 993, "friends_count": 2115, "geo_enabled": true, "id": 293267782, "lang": "en", "listed_count": 57, "location": "mesa", "name": "mike peek", "profile_background_color": "642D8B", "profile_background_image_url": "http://pbs.twimg.com/profile_background_images/378800000048085266/f9d1af80d3463b98f24ab83e45f18278.gif", "profile_background_tile": true, "profile_banner_url": "https://pbs.twimg.com/profile_banners/293267782/1441151717", "profile_image_url": "https://pbs.twimg.com/profile_images/665399069435633664/y9G8vZHi_normal.png", "profile_link_color": "DD2E44", "profile_sidebar_fill_color": "7AC3EE", "profile_text_color": "FF0000", "protected": false, "screen_name": "azmike2001", "statuses_count": 63006}}
{"created_at": "Fri Nov 06 11:32:25 +0000 2015", "favorited": false, "hashtags": ["news", "feedly"], "id": 662593375552581632, "lang": "en", "retweeted": false, "source": "<a href=\"http://twitter.com/download/android\" rel=\"nofollow\">Twitter for Android</a>", "text": "\"FALSE: Obama Launches First Salvo in War on Christmas\" https://t.co/4RdZzbhR8i #news #feedly", "truncated": false, "urls": {"https://t.co/4RdZzbhR8i": "http://www.snopes.com/christmas-card-ban-military/"}, "user": {"created_at": "Tue Mar 20 11:38:58 +0000 2012", "description": "Skeptic, evolved from single-cell bacteria, I'm a Software Engineer trying to survive in the South (yes, Virginia is in the South).", "favourites_count": 56, "followers_count": 159, "friends_count": 730, "geo_enabled": true, "id": 531233298, "lang": "en", "listed_count": 9, "location": "Alexandria, VA", "name": "Chris Clark", "profile_background_color": "1A1B1F", "profile_background_image_url": "http://abs.twimg.com/images/themes/theme9/bg.gif", "profile_background_tile": false, "profile_banner_url": "https://pbs.twimg.com/profile_banners/531233298/1356614018", "profile_image_url": "https://pbs.twimg.com/profile_images/431084922980159488/J_uyTCgZ_normal.jpeg", "profile_link_color": "2FC2EF", "profile_sidebar_fill_color": "252429", "profile_text_color": "666666", "protected": false, "screen_name": "CompSciGuy31415", "statuses_count": 5567, "time_zone": "Eastern Time (US & Canada)", "url": "https://t.co/atDHsbybHb", "utc_offset": -18000}}
{"created_at": "Fri Nov 06 12:25:33 +0000 2015", "favorited": false, "id": 662606744871374848, "lang": "en", "retweet_count": 1, "retweeted": false, "source": "<a href=\"http://twitter.com\" rel=\"nofollow\">Twitter Web Client</a>", "text": "Obama to ban Christmas Cards on Military Bases | US Message Board - Political Discussion Forum https://t.co/dmshhs9VME", "truncated": false, "urls": {"https://t.co/dmshhs9VME": "http://www.usmessageboard.com/threads/obama-to-ban-christmas-cards-on-military-bases.454376/"}, "user": {"created_at": "Thu Jul 02 13:15:55 +0000 2009", "description": "Outta Shape, Geeky, Android Lovin', Gun Totin', Bible Clingin' Conservative! Stand with GOD! Stand with #Israel! Stand with Ted Cruz!", "favourites_count": 2159, "followers_count": 5227, "friends_count": 3927, "id": 53058728, "lang": "en", "listed_count": 253, "location": "North Georgia", "name": "Deb Williams \u0646", "profile_background_color": "131516", "profile_background_image_url": "http://abs.twimg.com/images/themes/theme14/bg.gif", "profile_background_tile": true, "profile_banner_url": "https://pbs.twimg.com/profile_banners/53058728/1351610577", "profile_image_url": "https://pbs.twimg.com/profile_images/614942375907999744/ymtyB_GP_normal.jpg", "profile_link_color": "009999", "profile_sidebar_fill_color": "EFEFEF", "profile_text_color": "333333", "protected": false, "screen_name": "DebWilliams57", "statuses_count": 92576, "time_zone": "Eastern Time (US & Canada)", "utc_offset": -18000}}
{"created_at": "Fri Nov 06 13:07:53 +0000 2015", "favorited": false, "id": 662617401142476805, "lang": "en", "retweeted": false, "source": "<a href=\"http://www.facebook.com/twitter\" rel=\"nofollow\">Facebook</a>", "text": "FALSE: Obama Launches First Salvo in War on Christmas https://t.co/sL1HHkWaBf", "truncated": false, "urls": {"https://t.co/sL1HHkWaBf": "http://fb.me/4fFqGpj46"}, "user": {"created_at": "Wed Nov 16 15:28:30 +0000 2011", "default_profile": true, "description": "Avatar of someone else. Blues, rags, and country breakdowns, Piedmont style. Hornery. Shiftless.  Charming. Blue eyes. Not officially in the house.", "favourites_count": 1, "followers_count": 27, "friends_count": 42, "id": 414050620, "lang": "en", "location": "Greasy Creek, Virginia", "name": "W. Lightnin Guthrie", "profile_background_color": "C0DEED", "profile_background_image_url": "http://abs.twimg.com/images/themes/theme1/bg.png", "profile_background_tile": false, "profile_image_url": "https://pbs.twimg.com/profile_images/378800000381077105/27382b9fcb9962fc8370bc521677507e_normal.jpeg", "profile_link_color": "0084B4", "profile_sidebar_fill_color": "DDEEF6", "profile_text_color": "333333", "protected": false, "screen_name": "day_douglas", "statuses_count": 3972, "url": "http://t.co/GvgpSaRAq0"}}
{"created_at": "Fri Nov 06 14:13:48 +0000 2015", "favorited": false, "id": 662633986536140800, "lang": "en", "possibly_sensitive": true, "retweet_count": 1, "retweeted": false, "source": "<a href=\"http://www.facebook.com/twitter\" rel=\"nofollow\">Facebook</a>", "text": "Obama to ban Christmas Cards on Military Bases | US Message Board - Political Discussion Forum https://t.co/2BYlctT9HZ", "truncated": false, "urls": {"https://t.co/2BYlctT9HZ": "http://fb.me/7BWTTJFBE"}, "user": {"created_at": "Fri Dec 05 20:32:10 +0000 2008", "description": "Conservative Crusader defending our homeland from the Fascist Left-Wing Lunatics that only want to drag us down to a 3rd world Banana Republic.", "favourites_count": 23, "followers_count": 4397, "friends_count": 4944, "id": 17907072, "lang": "en", "listed_count": 207, "location": "USA", "name": "SirJaxx", "profile_background_color": "EBEBEB", "profile_background_image_url": "http://pbs.twimg.com/profile_background_images/91972123/HY0114.jpg", "profile_background_tile": false, "profile_banner_url": "https://pbs.twimg.com/profile_banners/17907072/1357434725", "profile_image_url": "https://pbs.twimg.com/profile_images/1177808109/89f2db49-d900-4c64-97ce-1651af2e3b62_normal.png", "profile_link_color": "990000", "profile_sidebar_fill_color": "F3F3F3", "profile_text_color": "333333", "protected": false, "screen_name": "SirJaxx", "statuses_count": 9975, "time_zone": "Central Time (US & Canada)", "url": "http://t.co/fnGeIH0mIm", "utc_offset": -21600}}
{"created_at": "Fri Nov 06 20:02:15 +0000 2015", "favorited": false, "id": 662721677713805312, "lang": "en", "retweeted": false, "source": "<a href=\"http://www.facebook.com/twitter\" rel=\"nofollow\">Facebook</a>", "text": "Obama to ban Christmas Cards on Military Bases | US Message Board - Political Discussion Forum https://t.co/NgQCMtzWdD", "truncated": false, "urls": {"https://t.co/NgQCMtzWdD": "http://fb.me/4weEq95RE"}, "user": {"created_at": "Fri Dec 16 03:36:06 +0000 2011", "default_profile": true, "favourites_count": 3, "followers_count": 101, "friends_count": 156, "id": 438038840, "lang": "en", "listed_count": 5, "location": "Conway, SC", "name": "Susan Green", "profile_background_color": "C0DEED", "profile_background_image_url": "http://abs.twimg.com/images/themes/theme1/bg.png", "profile_background_tile": false, "profile_image_url": "https://pbs.twimg.com/profile_images/2553759812/Dt25osIu_normal", "profile_link_color": "0084B4", "profile_sidebar_fill_color": "DDEEF6", "profile_text_color": "333333", "protected": false, "screen_name": "carolinahdr", "statuses_count": 23638, "url": "http://t.co/EoeBABlNmt"}}
{"created_at": "Fri Nov 06 20:33:59 +0000 2015", "favorited": false, "id": 662729664968822784, "lang": "en", "retweeted": false, "source": "<a href=\"http://twitter.com\" rel=\"nofollow\">Twitter Web Client</a>", "text": "FALSE: Obama Launches First Salvo in War on Christmas https://t.co/sL5OSpwcBd", "truncated": false, "urls": {"https://t.co/sL5OSpwcBd": "http://www.snopes.com/christmas-card-ban-military/"}, "user": {"created_at": "Mon Jun 18 01:11:38 +0000 2012", "description": "YOU HAD ME @ KIMCHI! #1A #2A #MolonLabe #COSProject-District Captain #CRUZCREW #PJNET\nFBy:AlvedaCKing,TomBorelli,DineshDSouza Backup @Shooters_Wife2", "favourites_count": 15353, "followers_count": 15396, "friends_count": 13775, "id": 611350965, "lang": "en", "listed_count": 212, "location": "Fly-over State, USA", "name": "Mia", "profile_background_color": "ABB8C2", "profile_background_image_url": "http://pbs.twimg.com/profile_background_images/681902347006554112/Jx59rJm9.jpg", "profile_background_tile": true, "profile_banner_url": "https://pbs.twimg.com/profile_banners/611350965/1449437304", "profile_image_url": "https://pbs.twimg.com/profile_images/679044668697415681/qLpX9JTl_normal.jpg", "profile_link_color": "DD2E44", "profile_sidebar_fill_color": "DDEEF6", "profile_text_color": "333333", "protected": false, "screen_name": "Shooters_Wife", "statuses_count": 39301, "time_zone": "Eastern Time (US & Canada)", "url": "https://t.co/EV836F0jZZ", "utc_offset": -18000}}
{"created_at": "Fri Nov 06 20:37:15 +0000 2015", "favorited": false, "id": 662730484389031937, "lang": "en", "retweeted": false, "source": "<a href=\"http://twitter.com\" rel=\"nofollow\">Twitter Web Client</a>", "text": "FALSE: Obama Launches First Salvo in War on Christmas https://t.co/MCRfg7Ynao", "truncated": false, "urls": {"https://t.co/MCRfg7Ynao": "http://www.snopes.com/christmas-card-ban-military/"}, "user": {"created_at": "Thu Feb 25 18:47:41 +0000 2010", "description": "Give more then you receive,your heart will always be full.(A HAND UP NOT A HAND OUT) God/Family/Constitution,I will defend them all ! T1D #PJNET #WAAR", "favourites_count": 325, "followers_count": 1452, "friends_count": 1761, "geo_enabled": true, "id": 117493008, "lang": "en", "listed_count": 18, "location": "Grovetown Georgia", "name": "Ralph Montigny", "profile_background_color": "C0DEED", "profile_background_image_url": "http://pbs.twimg.com/profile_background_images/578278577789005824/TTaBwH4z.jpeg", "profile_background_tile": true, "profile_banner_url": "https://pbs.twimg.com/profile_banners/117493008/1446211415", "profile_image_url": "https://pbs.twimg.com/profile_images/676438219328720896/Or-RSoUZ_normal.jpg", "profile_link_color": "0084B4", "profile_sidebar_fill_color": "DDEEF6", "profile_text_color": "333333", "protected": false, "screen_name": "Talon141", "statuses_count": 5462, "time_zone": "Eastern Time (US & Canada)", "utc_offset": -18000}}
{"created_at": "Fri Nov 06 23:54:21 +0000 2015", "favorited": false, "id": 662780086974881792, "lang": "en", "retweeted": false, "source": "<a href=\"http://twitter.com\" rel=\"nofollow\">Twitter Web Client</a>", "text": "Obama to ban Christmas Cards on Military Bases https://t.co/fB79p3c40J", "truncated": false, "urls": {"https://t.co/fB79p3c40J": "http://ppr.li/r?trail=contributor%3Dtwitter%3A537249424&url=http%3A%2F%2Fwww.usmessageboard.com%2Fthreads%2Fobama-to-ban-christmas-cards-on-military-bases.454376%2F&urlhash=8cac2325&src=paperli.share"}, "user": {"created_at": "Mon Aug 30 13:35:09 +0000 2010", "description": "Voting 4 @realDonaldTrump & if I have to, I will write him in. No more #GOP  Traitors, let's take them down. Establishment, you get 1 vote like the rest of us", "favourites_count": 4, "followers_count": 2879, "friends_count": 2840, "geo_enabled": true, "id": 184780576, "lang": "en", "listed_count": 87, "location": "Philadelphia, PA", "name": "I Stand With Trump!", "profile_background_color": "272B78", "profile_background_image_url": "http://pbs.twimg.com/profile_background_images/655548657366798336/vrlfPY8C.jpg", "profile_background_tile": false, "profile_banner_url": "https://pbs.twimg.com/profile_banners/184780576/1450485921", "profile_image_url": "https://pbs.twimg.com/profile_images/669165309509537792/nqqxZjPn_normal.jpg", "profile_link_color": "FF3300", "profile_sidebar_fill_color": "A0C5C7", "profile_text_color": "333333", "protected": false, "screen_name": "Barb4TRUMP", "statuses_count": 50254, "time_zone": "Eastern Time (US & Canada)", "utc_offset": -18000}}
{"created_at": "Sat Nov 07 00:00:15 +0000 2015", "favorited": false, "id": 662781572714774528, "lang": "en", "retweeted": false, "source": "<a href=\"http://twitter.com\" rel=\"nofollow\">Twitter Web Client</a>", "text": "ICYMI...\ud83d\ude03\ud83d\ude03\ud83d\ude03\ud83d\ude05\ud83d\ude05\ud83d\ude05FALSE: Obama Launches First Salvo in War on Christmas https://t.co/ntKWrDvxzO", "truncated": false, "urls": {"https://t.co/ntKWrDvxzO": "http://www.snopes.com/christmas-card-ban-military/"}, "user": {"created_at": "Sat Jan 03 00:43:06 +0000 2015", "description": "\u271e\u271e\u271eConservatarian, thoughts are my own; RT\u2260endorsement; love God, Family, and Country...in that order! Limited government; resurrect the Constitution\u271e\u271e\u271e", "favourites_count": 922, "followers_count": 263, "friends_count": 399, "id": 2957593671, "lang": "en", "listed_count": 4, "location": "Ohio, USA", "name": "Sujoy Ghosh", "profile_background_color": "000000", "profile_background_image_url": "http://abs.twimg.com/images/themes/theme1/bg.png", "profile_background_tile": false, "profile_banner_url": "https://pbs.twimg.com/profile_banners/2957593671/1445305824", "profile_image_url": "https://pbs.twimg.com/profile_images/656286313843400705/BT1CQyUB_normal.jpg", "profile_link_color": "3B94D9", "profile_sidebar_fill_color": "000000", "profile_text_color": "000000", "protected": false, "screen_name": "sghosh2grlz", "statuses_count": 1224, "time_zone": "Eastern Time (US & Canada)", "utc_offset": -18000}}
{"created_at": "Sat Nov 07 01:27:36 +0000 2015", "favorited": false, "id": 662803554869125129, "lang": "en", "retweeted": false, "source": "<a href=\"http://twitter.com\" rel=\"nofollow\">Twitter Web Client</a>", "text": "FALSE: Obama Launches First Salvo in War on Christmas https://t.co/0sJktX8kFp", "truncated": false, "urls": {"https://t.co/0sJktX8kFp": "http://www.snopes.com/christmas-card-ban-military/"}, "user": {"created_at": "Mon May 25 21:03:01 +0000 2009", "description": "Handcrafted Invitations and cards for all occasions.", "favourites_count": 3, "followers_count": 638, "friends_count": 754, "id": 42486779, "lang": "en", "listed_count": 12, "location": "Mesa, AZ", "name": "Caroline Ward", "profile_background_color": "E0F0AD", "profile_background_image_url": "http://pbs.twimg.com/profile_background_images/671818221/465aa6da278b16b028e37760344ad3b5.jpeg", "profile_background_tile": false, "profile_image_url": "https://pbs.twimg.com/profile_images/2662315860/4e4ba0408cd4104c32a66c57311c88a9_normal.jpeg", "profile_link_color": "38AD80", "profile_sidebar_fill_color": "BA4535", "profile_text_color": "858C2B", "protected": false, "screen_name": "Handmadeinvite", "statuses_count": 17366, "time_zone": "Arizona", "url": "http://t.co/Is0UONxL3i", "utc_offset": -25200}}
{"created_at": "Sat Nov 07 14:32:11 +0000 2015", "favorited": false, "hashtags": ["BanIslam", "BanObama", "PJNET", "Tcot"], "id": 663001002774274048, "in_reply_to_screen_name": "MFS001", "in_reply_to_user_id": 38422859, "lang": "en", "retweeted": false, "source": "<a href=\"http://bufferapp.com\" rel=\"nofollow\">Buffer</a>", "text": "@MFS001: RT @GaetaSusan: \ud83d\udd0aObama To Ban Christmas Cards On Military Bases\u2714\ud83d\udc4e\ud83d\udc4e#BanIslam #BanObama #PJNET #Tcot \u2026 https://t.co/N4x2OOewN1", "truncated": false, "urls": {"https://t.co/N4x2OOewN1": "http://buff.ly/1WDwcJa"}, "user": {"created_at": "Mon Jan 02 07:37:35 +0000 2012", "default_profile": true, "description": "I have an acute case of Islamonausea (fucking sick of Islams piss poor behaviour)", "favourites_count": 45869, "followers_count": 12827, "friends_count": 8315, "geo_enabled": true, "id": 452794540, "lang": "en", "listed_count": 157, "location": "Crusader Land - Baconistan.", "name": "Anti Jihadi Frog", "profile_background_color": "C0DEED", "profile_background_image_url": "http://abs.twimg.com/images/themes/theme1/bg.png", "profile_background_tile": false, "profile_banner_url": "https://pbs.twimg.com/profile_banners/452794540/1450635102", "profile_image_url": "https://pbs.twimg.com/profile_images/601979420962889728/tNCkf79u_normal.jpg", "profile_link_color": "0084B4", "profile_sidebar_fill_color": "DDEEF6", "profile_text_color": "333333", "protected": false, "screen_name": "Bad_Sweary_Frog", "statuses_count": 46374, "url": "http://t.co/uUzPrlFqdu"}, "user_mentions": [{"id": 38422859, "name": "MFS - The Other News", "screen_name": "MFS001"}, {"id": 1370971824, "name": "Susan Gaeta", "screen_name": "GaetaSusan"}]}
{"created_at": "Sat Nov 07 23:42:06 +0000 2015", "favorited": false, "id": 663139392186286080, "lang": "en", "retweet_count": 1, "retweeted": false, "source": "<a href=\"http://www.facebook.com/twitter\" rel=\"nofollow\">Facebook</a>", "text": "Obama to ban Christmas Cards on Military Bases | US Message Board - Political Discussion Forum https://t.co/NrIoqQE9S7", "truncated": false, "urls": {"https://t.co/NrIoqQE9S7": "http://fb.me/4oWnBcmRF"}, "user": {"created_at": "Sun Oct 25 01:38:35 +0000 2009", "description": "I am passionate about helping people achieve their dreams. #asmarterwaytotravel", "favourites_count": 3, "followers_count": 13351, "friends_count": 14270, "id": 84982640, "lang": "en", "listed_count": 41, "location": "Joplin, MO", "name": "Gail Johnson", "profile_background_color": "642D8B", "profile_background_image_url": "http://pbs.twimg.com/profile_background_images/378800000055896787/f1580fae2125dd740ef3ff4d951c3d10.jpeg", "profile_background_tile": true, "profile_banner_url": "https://pbs.twimg.com/profile_banners/84982640/1425616466", "profile_image_url": "https://pbs.twimg.com/profile_images/2813079264/9e5c16dd9085a9f591175795bfd7f44a_normal.jpeg", "profile_link_color": "FF0000", "profile_sidebar_fill_color": "7AC3EE", "profile_text_color": "3D1957", "protected": false, "screen_name": "XpressLeader", "statuses_count": 4961, "time_zone": "Central Time (US & Canada)", "url": "http://t.co/bnAYdtrpt1", "utc_offset": -21600}}
{"created_at": "Sun Nov 08 12:50:06 +0000 2015", "favorited": false, "id": 663337698413961216, "lang": "en", "retweeted": false, "source": "<a href=\"http://mobile.twitter.com\" rel=\"nofollow\">Mobile Web</a>", "text": "FALSE: Obama Launches First Salvo in War on Christmas https://t.co/MWxVMbyMmw", "truncated": false, "urls": {"https://t.co/MWxVMbyMmw": "http://www.snopes.com/christmas-card-ban-military/"}, "user": {"created_at": "Mon Feb 25 16:24:25 +0000 2008", "description": "Facebook addict.\nJust discovered there's more than\nvideos & video games. \n\nTrying to understand Reality\n(Please pardon my language)\nin perspective of Faith.", "favourites_count": 13, "followers_count": 41, "friends_count": 192, "id": 13946742, "lang": "en", "location": "Jerusalem ISRAEL", "name": "Dov Shmuel Freedman", "profile_background_color": "F3E9D6", "profile_background_image_url": "http://pbs.twimg.com/profile_background_images/2277252/klaf.jpg", "profile_background_tile": true, "profile_image_url": "https://pbs.twimg.com/profile_images/51054992/Dov_Aug-28-2002_normal.jpg", "profile_link_color": "0000FF", "profile_sidebar_fill_color": "E0FF92", "profile_text_color": "EE783F", "protected": false, "screen_name": "JerusalemFriend", "statuses_count": 404, "time_zone": "Jerusalem", "utc_offset": 7200}}
{"created_at": "Mon Nov 09 21:40:51 +0000 2015", "favorite_count": 1, "favorited": false, "id": 663833654775431168, "lang": "en", "retweet_count": 1, "retweeted": false, "source": "<a href=\"http://twitter.com\" rel=\"nofollow\">Twitter Web Client</a>", "text": "FALSE: Obama Launches First Salvo in War on Christmas https://t.co/GolFD9Ycfo", "truncated": false, "urls": {"https://t.co/GolFD9Ycfo": "http://www.snopes.com/christmas-card-ban-military/"}, "user": {"created_at": "Mon Jul 07 22:41:34 +0000 2014", "default_profile": true, "description": "Consulting & Engineering Services. \nCould give a good shit less about your stature, race or religion if you're on America's team first and always!", "favourites_count": 10181, "followers_count": 1385, "friends_count": 1506, "id": 2610573108, "lang": "en", "listed_count": 48, "name": "HWL", "profile_background_color": "C0DEED", "profile_background_image_url": "http://abs.twimg.com/images/themes/theme1/bg.png", "profile_background_tile": false, "profile_banner_url": "https://pbs.twimg.com/profile_banners/2610573108/1432900261", "profile_image_url": "https://pbs.twimg.com/profile_images/486282534498488320/fUdIibfQ_normal.jpeg", "profile_link_color": "0084B4", "profile_sidebar_fill_color": "DDEEF6", "profile_text_color": "333333", "protected": false, "screen_name": "HWL53", "statuses_count": 19225, "time_zone": "Central Time (US & Canada)", "utc_offset": -21600}}
{"created_at": "Tue Nov 10 01:56:05 +0000 2015", "favorited": false, "id": 663897885881298944, "lang": "en", "retweeted": false, "source": "<a href=\"http://twitter.com/download/iphone\" rel=\"nofollow\">Twitter for iPhone</a>", "text": "FALSE: Obama Launches First Salvo in War on Christmas : https://t.co/xEtvwoIDRz\nOBAMA DIDN'T BAN CHRISTMAS CARDS!  https://t.co/pV3ex5LPTq", "truncated": false, "urls": {"https://t.co/pV3ex5LPTq": "http://www.snopes.com/christmas-card-ban-military/", "https://t.co/xEtvwoIDRz": "http://snopes.com"}, "user": {"created_at": "Sun Jun 14 17:01:04 +0000 2009", "description": "Progressive Patriot /Common Sense Commentator & Attorney - AKA John E. Melton -Fighting for Justice and the American way! - Proud Vet of the United States Army", "favourites_count": 548, "followers_count": 3096, "friends_count": 3403, "geo_enabled": true, "id": 47127389, "lang": "en", "listed_count": 64, "location": "Liberal USA", "name": "Truth Teller", "profile_background_color": "BADFCD", "profile_background_image_url": "http://abs.twimg.com/images/themes/theme12/bg.gif", "profile_background_tile": true, "profile_banner_url": "https://pbs.twimg.com/profile_banners/47127389/1451238168", "profile_image_url": "https://pbs.twimg.com/profile_images/575053267995992064/2upnGTts_normal.jpeg", "profile_link_color": "FF0000", "profile_sidebar_fill_color": "FFF7CC", "profile_text_color": "0C3E53", "protected": false, "screen_name": "TheTruth1011", "statuses_count": 11429, "time_zone": "Eastern Time (US & Canada)", "utc_offset": -18000}}
{"created_at": "Thu Nov 12 18:42:58 +0000 2015", "favorited": false, "id": 664876053203128321, "lang": "en", "retweeted": false, "source": "<a href=\"http://www.facebook.com/twitter\" rel=\"nofollow\">Facebook</a>", "text": "Obama to ban Christmas Cards on Military Bases | US Message Board - Political Discussion Forum https://t.co/LerITBfgbG", "truncated": false, "urls": {"https://t.co/LerITBfgbG": "http://fb.me/7ygzSrW7J"}, "user": {"created_at": "Sat Apr 23 01:01:15 +0000 2011", "default_profile": true, "favourites_count": 41, "followers_count": 1250, "friends_count": 1952, "id": 286442000, "lang": "en", "listed_count": 17, "location": "Louisvill ky.", "name": "Norman Rayburn", "profile_background_color": "C0DEED", "profile_background_image_url": "http://abs.twimg.com/images/themes/theme1/bg.png", "profile_background_tile": false, "profile_image_url": "https://pbs.twimg.com/profile_images/3218615068/a44b7793b73108b1485dac70fe85ad5c_normal.jpeg", "profile_link_color": "0084B4", "profile_sidebar_fill_color": "DDEEF6", "profile_text_color": "333333", "protected": false, "screen_name": "normanrayburn", "statuses_count": 40677}}
{"created_at": "Mon Nov 16 04:25:12 +0000 2015", "favorite_count": 1, "favorited": false, "id": 666109741727395840, "lang": "en", "retweet_count": 1, "retweeted": false, "source": "<a href=\"http://www.facebook.com/twitter\" rel=\"nofollow\">Facebook</a>", "text": "FALSE: Obama Launches First Salvo in War on Christmas https://t.co/yQvGCtIFkR", "truncated": false, "urls": {"https://t.co/yQvGCtIFkR": "http://fb.me/49e8uUczn"}, "user": {"created_at": "Mon Apr 28 22:27:22 +0000 2008", "description": "Giving up doesn't always mean you are weak; sometimes it means that you are strong enough to let go.", "favourites_count": 12, "followers_count": 262, "friends_count": 216, "id": 14576663, "lang": "en", "listed_count": 2, "location": "Lincoln, NE. USA", "name": "Richard Wakeman", "profile_background_color": "022330", "profile_background_image_url": "http://abs.twimg.com/images/themes/theme15/bg.png", "profile_background_tile": true, "profile_banner_url": "https://pbs.twimg.com/profile_banners/14576663/1386027317", "profile_image_url": "https://pbs.twimg.com/profile_images/655419602596327424/lFRzEAcL_normal.jpg", "profile_link_color": "0084B4", "profile_sidebar_fill_color": "C0DFEC", "profile_text_color": "333333", "protected": false, "screen_name": "rawake", "statuses_count": 2861, "time_zone": "Central Time (US & Canada)", "utc_offset": -21600}}
{"created_at": "Mon Nov 16 19:15:15 +0000 2015", "favorited": false, "id": 666333730458349568, "lang": "en", "media": [{"display_url": "pic.twitter.com/TrCRFdIbIL", "expanded_url": "http://twitter.com/vinnysgreen/status/666333730458349568/photo/1", "id": 666333730328326144, "id_str": "666333730328326144", "indices": [41, 64], "media_url": "http://pbs.twimg.com/media/CT9K_1IUsAAJQuM.jpg", "media_url_https": "https://pbs.twimg.com/media/CT9K_1IUsAAJQuM.jpg", "sizes": {"large": {"h": 570, "resize": "fit", "w": 800}, "medium": {"h": 427, "resize": "fit", "w": 600}, "small": {"h": 242, "resize": "fit", "w": 340}, "thumb": {"h": 150, "resize": "crop", "w": 150}}, "type": "photo", "url": "https://t.co/TrCRFdIbIL"}], "retweeted": false, "source": "<a href=\"http://dlvr.it\" rel=\"nofollow\">dlvr.it</a>", "text": "Christmas Recuse https://t.co/okf7mBCFG5 https://t.co/TrCRFdIbIL", "truncated": false, "urls": {"https://t.co/okf7mBCFG5": "http://www.snopes.com/obama-military-christmas-ban/"}, "user": {"created_at": "Tue Nov 11 20:09:34 +0000 2014", "description": "| https://t.co/Xt6XDiqOGc | https://t.co/SEI0Yy3IRo | https://t.co/Q7uZwoes2v | Marine Veteran, Ally, Political Junkie. Retweets are just retweets...", "favourites_count": 446, "followers_count": 413, "friends_count": 1735, "id": 2896866728, "lang": "en", "listed_count": 9, "location": "San Diego, CA", "name": "Vinny Green", "profile_background_color": "000000", "profile_background_image_url": "http://abs.twimg.com/images/themes/theme1/bg.png", "profile_background_tile": false, "profile_image_url": "https://pbs.twimg.com/profile_images/646510682989400064/53u-SeYI_normal.jpg", "profile_link_color": "3B94D9", "profile_sidebar_fill_color": "000000", "profile_text_color": "000000", "protected": false, "screen_name": "vinnysgreen", "statuses_count": 1675, "time_zone": "Pacific Time (US & Canada)", "url": "http://t.co/2ZoIAPUdGu", "utc_offset": -28800}}
{"created_at": "Mon Nov 16 19:46:20 +0000 2015", "favorited": false, "id": 666341549500854272, "lang": "en", "retweeted": false, "source": "<a href=\"http://twitterfeed.com\" rel=\"nofollow\">twitterfeed</a>", "text": "Snopes- Christmas Recuse https://t.co/Wf3UPxGDc7", "truncated": false, "urls": {"https://t.co/Wf3UPxGDc7": "http://bit.ly/1HQhRCC"}, "user": {"created_at": "Wed Oct 29 14:35:02 +0000 2008", "default_profile": true, "description": "Random Headlines", "followers_count": 121, "friends_count": 13, "id": 17042353, "lang": "en", "listed_count": 3, "location": "Random", "name": "Headline Post", "profile_background_color": "C0DEED", "profile_background_image_url": "http://abs.twimg.com/images/themes/theme1/bg.png", "profile_background_tile": false, "profile_image_url": "https://pbs.twimg.com/profile_images/63101611/headline_normal.jpg", "profile_link_color": "0084B4", "profile_sidebar_fill_color": "DDEEF6", "profile_text_color": "333333", "protected": false, "screen_name": "headlinepost", "statuses_count": 15866, "time_zone": "Central Time (US & Canada)", "utc_offset": -21600}}
{"created_at": "Mon Nov 16 19:46:25 +0000 2015", "favorited": false, "id": 666341573219586048, "lang": "en", "retweeted": false, "source": "<a href=\"http://twitterfeed.com\" rel=\"nofollow\">twitterfeed</a>", "text": "Christmas Recuse https://t.co/x2LsPSjsJO", "truncated": false, "urls": {"https://t.co/x2LsPSjsJO": "http://bit.ly/1HQhRCC"}, "user": {"created_at": "Thu Apr 30 17:23:18 +0000 2009", "description": "A modern day Don Quixote, the Knight of the Woeful Figure. Come with me through the trials of life and knight-errantry in this nasty world...", "followers_count": 91, "friends_count": 74, "id": 36717689, "lang": "en", "listed_count": 2, "location": "Spain and the World", "name": "Blog Quixote", "profile_background_color": "FFFFFF", "profile_background_image_url": "http://pbs.twimg.com/profile_background_images/10928963/BlogQuixote_Background.jpg", "profile_background_tile": false, "profile_image_url": "https://pbs.twimg.com/profile_images/192637077/QUIXOTE_normal.JPG", "profile_link_color": "9D582E", "profile_sidebar_fill_color": "EADEAA", "profile_text_color": "333333", "protected": false, "screen_name": "BlogQuixote", "statuses_count": 50424, "time_zone": "Madrid", "url": "http://t.co/nVpEhPQ0ft", "utc_offset": 3600}}
{"created_at": "Mon Nov 16 19:55:39 +0000 2015", "favorited": false, "id": 666343896004317185, "lang": "en", "retweeted": false, "source": "<a href=\"http://twitter.com\" rel=\"nofollow\">Twitter Web Client</a>", "text": "Christmas Recuse https://t.co/uaS2s6hlr3", "truncated": false, "urls": {"https://t.co/uaS2s6hlr3": "http://www.snopes.com/obama-military-christmas-ban/"}, "user": {"created_at": "Fri Jul 29 09:31:08 +0000 2011", "description": "Book reviewer, rabid political opinionatrix/blue, failed Buddhist with anger issues, thrift store goddess", "favourites_count": 1453, "followers_count": 1618, "friends_count": 2488, "id": 344607118, "lang": "en", "listed_count": 36, "name": "Anna Mills", "profile_background_color": "642D8B", "profile_background_image_url": "http://abs.twimg.com/images/themes/theme10/bg.gif", "profile_background_tile": true, "profile_image_url": "https://pbs.twimg.com/profile_images/3217275879/a2e3e581468d2e61b4b0211d8318346f_normal.png", "profile_link_color": "FF0000", "profile_sidebar_fill_color": "7AC3EE", "profile_text_color": "3D1957", "protected": false, "screen_name": "AnnaMills1953", "statuses_count": 12569, "time_zone": "Atlantic Time (Canada)", "utc_offset": -14400}}
{"created_at": "Thu Nov 19 05:40:49 +0000 2015", "favorited": false, "id": 667215933501345792, "lang": "en", "retweeted": false, "source": "<a href=\"http://www.facebook.com/twitter\" rel=\"nofollow\">Facebook</a>", "text": "FALSE: Military Can't Say 'Christmas' per Obama Order https://t.co/q9GBehH1BX", "truncated": false, "urls": {"https://t.co/q9GBehH1BX": "http://fb.me/2wvbtTkPB"}, "user": {"created_at": "Mon Aug 25 05:33:55 +0000 2008", "favourites_count": 25, "followers_count": 53, "friends_count": 399, "geo_enabled": true, "id": 15978290, "lang": "en", "location": "here", "name": "Duncan Sinclair", "profile_background_color": "642D8B", "profile_background_image_url": "http://abs.twimg.com/images/themes/theme10/bg.gif", "profile_background_tile": true, "profile_banner_url": "https://pbs.twimg.com/profile_banners/15978290/1354835124", "profile_image_url": "https://pbs.twimg.com/profile_images/1382177947/happy_9th_anniversary_normal.jpg", "profile_link_color": "FF0000", "profile_sidebar_fill_color": "7AC3EE", "profile_text_color": "3D1957", "protected": false, "screen_name": "originalyoyo", "statuses_count": 2668, "time_zone": "Central Time (US & Canada)", "url": "https://t.co/q4GY0wsI0i", "utc_offset": -21600}}
{"created_at": "Sun Nov 22 03:31:39 +0000 2015", "favorited": false, "id": 668270591607242754, "lang": "en", "retweeted": false, "source": "<a href=\"http://ifttt.com\" rel=\"nofollow\">IFTTT</a>", "text": ": FALSE: Military Can't Say 'Christmas' per Obama Order https://t.co/zF86Pn7F5N", "truncated": false, "urls": {"https://t.co/zF86Pn7F5N": "http://ift.tt/1NzVU7h"}, "user": {"created_at": "Mon Aug 06 00:58:36 +0000 2012", "description": "Educator, science fanatic, amateur futurist, bandwagon heretic", "favourites_count": 3802, "followers_count": 536, "friends_count": 1998, "id": 739558897, "lang": "en", "listed_count": 82, "location": "Mid-Hudson Valley, NY", "name": "Duane Sharrock", "profile_background_color": "C0DEED", "profile_background_image_url": "http://abs.twimg.com/images/themes/theme1/bg.png", "profile_background_tile": false, "profile_banner_url": "https://pbs.twimg.com/profile_banners/739558897/1424115195", "profile_image_url": "https://pbs.twimg.com/profile_images/567407292077731841/oMyHxuyw_normal.jpeg", "profile_link_color": "0084B4", "profile_sidebar_fill_color": "DDEEF6", "profile_text_color": "333333", "protected": false, "screen_name": "DuaneSharrock", "statuses_count": 26586, "url": "http://t.co/96KLS5a64M"}}
{"created_at": "Mon Nov 23 02:12:42 +0000 2015", "favorited": false, "id": 668613112338231296, "lang": "en", "retweeted": false, "source": "<a href=\"http://twitter.com\" rel=\"nofollow\">Twitter Web Client</a>", "text": "FALSE: Obama Launches First Salvo in War on Christmas https://t.co/YwCLdMX0G7", "truncated": false, "urls": {"https://t.co/YwCLdMX0G7": "http://www.snopes.com/christmas-card-ban-military/"}, "user": {"created_at": "Wed Oct 15 02:29:15 +0000 2008", "description": "Radio guy, On Air & sales", "favourites_count": 1489, "followers_count": 1211, "friends_count": 1773, "geo_enabled": true, "id": 16752739, "lang": "en", "listed_count": 25, "location": "Rochester, NY", "name": "Dino Kay", "profile_background_color": "DBE9ED", "profile_background_image_url": "http://pbs.twimg.com/profile_background_images/449341929/new_WFKL.png", "profile_background_tile": true, "profile_banner_url": "https://pbs.twimg.com/profile_banners/16752739/1419212634", "profile_image_url": "https://pbs.twimg.com/profile_images/378800000366647044/0a89f9146a874da697b1b8487ffb5154_normal.jpeg", "profile_link_color": "CC3366", "profile_sidebar_fill_color": "DAECF4", "profile_text_color": "663B12", "protected": false, "screen_name": "fickledino", "statuses_count": 10787, "time_zone": "Eastern Time (US & Canada)", "url": "http://t.co/vPNwFQxtHl", "utc_offset": -18000}}
{"created_at": "Sat Nov 28 23:33:47 +0000 2015", "favorited": false, "id": 670747445010300928, "lang": "en", "retweeted": false, "source": "<a href=\"http://www.facebook.com/twitter\" rel=\"nofollow\">Facebook</a>", "text": "Obama to ban Christmas Cards on Military Bases | US Message Board - Political Discussion Forum https://t.co/f3RJXxJeH6", "truncated": false, "urls": {"https://t.co/f3RJXxJeH6": "http://fb.me/2wwXkyCdp"}, "user": {"created_at": "Mon Sep 01 11:38:00 +0000 2008", "description": "Direct Descendant of Richard Stockton Signer of the Declaration.  Pro Constitution right wing conservative provider of news around world", "favourites_count": 13315, "followers_count": 2145, "friends_count": 2087, "geo_enabled": true, "id": 16080891, "lang": "en", "listed_count": 100, "name": "nightingalern", "profile_background_color": "C0DEED", "profile_background_image_url": "http://pbs.twimg.com/profile_background_images/790196243/cf3f1b9665764be678e622051c5caf5f.jpeg", "profile_background_tile": true, "profile_banner_url": "https://pbs.twimg.com/profile_banners/16080891/1398906723", "profile_image_url": "https://pbs.twimg.com/profile_images/586290685382369280/9bmczqUc_normal.jpg", "profile_link_color": "0084B4", "profile_sidebar_fill_color": "DDEEF6", "profile_text_color": "333333", "protected": false, "screen_name": "nightingalern", "statuses_count": 173868, "time_zone": "Quito", "utc_offset": -18000}}
{"created_at": "Sun Nov 29 01:28:24 +0000 2015", "favorited": false, "id": 670776289922445312, "lang": "en", "retweeted": false, "source": "<a href=\"http://www.facebook.com/twitter\" rel=\"nofollow\">Facebook</a>", "text": "Obama to ban Christmas Cards on Military Bases | US Message Board - Political Discussion Forum https://t.co/l10rS1L4Os", "truncated": false, "urls": {"https://t.co/l10rS1L4Os": "http://fb.me/CfeBa6Pe"}, "user": {"created_at": "Tue Aug 19 22:29:11 +0000 2008", "description": "Mom of frat Twin Girls, Bloger,Freelance Writer, AmPhotgr, Sells doTERRA Oils, Loves Jesus & Believes Conspiracies R True(B/C Truth is Strangr than Fiction)", "favourites_count": 427, "followers_count": 2079, "friends_count": 1944, "id": 15910487, "lang": "en", "listed_count": 64, "location": "California", "name": "Mom of Twin Girls", "profile_background_color": "F5ABB5", "profile_background_image_url": "http://pbs.twimg.com/profile_background_images/580092371674607616/bbT8KyUQ.jpg", "profile_background_tile": true, "profile_banner_url": "https://pbs.twimg.com/profile_banners/15910487/1443824562", "profile_image_url": "https://pbs.twimg.com/profile_images/650073027456053249/1KsSmJlg_normal.jpg", "profile_link_color": "F5ABB5", "profile_sidebar_fill_color": "F3DCF5", "profile_text_color": "9C339C", "protected": false, "screen_name": "momoftwingirls", "statuses_count": 22431, "time_zone": "Pacific Time (US & Canada)", "url": "http://t.co/JLpGDGmucB", "utc_offset": -28800}}
{"created_at": "Sun Nov 29 02:13:04 +0000 2015", "favorited": false, "id": 670787528253796352, "lang": "en", "retweeted": false, "source": "<a href=\"http://www.facebook.com/twitter\" rel=\"nofollow\">Facebook</a>", "text": "Obama to ban Christmas Cards on Military Bases | US Message Board - Political Discussion Forum https://t.co/3KQq2NsZI1", "truncated": false, "urls": {"https://t.co/3KQq2NsZI1": "http://fb.me/2k7lbdbzB"}, "user": {"created_at": "Sat Jan 17 19:19:14 +0000 2015", "followers_count": 44, "friends_count": 191, "id": 2987391894, "lang": "en", "name": "Sherilyn Burger", "profile_background_color": "FFF04D", "profile_background_image_url": "http://abs.twimg.com/images/themes/theme19/bg.gif", "profile_background_tile": false, "profile_banner_url": "https://pbs.twimg.com/profile_banners/2987391894/1421972691", "profile_image_url": "https://pbs.twimg.com/profile_images/558420162995429376/qXiCbYny_normal.jpeg", "profile_link_color": "0099CC", "profile_sidebar_fill_color": "F6FFD1", "profile_text_color": "333333", "protected": false, "screen_name": "sdburger59", "statuses_count": 1768}}
{"created_at": "Sun Nov 29 02:28:35 +0000 2015", "favorited": false, "id": 670791435449458689, "lang": "en", "retweeted": false, "source": "<a href=\"http://www.facebook.com/twitter\" rel=\"nofollow\">Facebook</a>", "text": "Obama to ban Christmas Cards on Military Bases | US Message Board - Political Discussion Forum https://t.co/H3qg6TZw1W", "truncated": false, "urls": {"https://t.co/H3qg6TZw1W": "http://fb.me/3LflGzEpw"}, "user": {"created_at": "Wed Jul 16 18:54:42 +0000 2014", "default_profile": true, "favourites_count": 10, "followers_count": 286, "friends_count": 660, "id": 2651725326, "lang": "en", "listed_count": 14, "name": "fred lawhorn", "profile_background_color": "C0DEED", "profile_background_image_url": "http://abs.twimg.com/images/themes/theme1/bg.png", "profile_background_tile": false, "profile_banner_url": "https://pbs.twimg.com/profile_banners/2651725326/1443762590", "profile_image_url": "https://pbs.twimg.com/profile_images/654432920250114049/9n37_23r_normal.jpg", "profile_link_color": "0084B4", "profile_sidebar_fill_color": "DDEEF6", "profile_text_color": "333333", "protected": false, "screen_name": "FredLawhorn", "statuses_count": 8721, "time_zone": "Eastern Time (US & Canada)", "utc_offset": -18000}}
{"created_at": "Sun Nov 29 06:52:41 +0000 2015", "favorited": false, "id": 670857896108933120, "lang": "en", "retweeted": false, "source": "<a href=\"http://www.facebook.com/twitter\" rel=\"nofollow\">Facebook</a>", "text": "Obama to ban Christmas Cards on Military Bases | US Message Board - Political Discussion Forum https://t.co/DBqNanI7Ll", "truncated": false, "urls": {"https://t.co/DBqNanI7Ll": "http://fb.me/1NSXTBsAU"}, "user": {"created_at": "Mon Mar 16 22:58:25 +0000 2009", "description": "Passionate Songwriter looking to push my songwriting career to the next level! Looking for publisher, agent, major recording artist to cut one of my songs", "favourites_count": 619, "followers_count": 410, "friends_count": 1297, "id": 24789569, "lang": "en", "listed_count": 11, "location": "Pensacola, FL", "name": "JEFF", "profile_background_color": "642D8B", "profile_background_image_url": "http://pbs.twimg.com/profile_background_images/5863435/eyeofgodnebula.jpg", "profile_background_tile": true, "profile_banner_url": "https://pbs.twimg.com/profile_banners/24789569/1386219917", "profile_image_url": "https://pbs.twimg.com/profile_images/593991191844229120/pGfijLWP_normal.png", "profile_link_color": "FF0000", "profile_sidebar_fill_color": "7AC3EE", "profile_text_color": "3D1957", "protected": false, "screen_name": "ufocrossing", "statuses_count": 11654, "time_zone": "Central Time (US & Canada)", "utc_offset": -21600}}
{"created_at": "Sun Nov 29 13:08:34 +0000 2015", "favorite_count": 5, "favorited": false, "id": 670952491979317248, "lang": "en", "retweet_count": 10, "retweeted": false, "source": "<a href=\"http://www.facebook.com/twitter\" rel=\"nofollow\">Facebook</a>", "text": "Obama to ban Christmas Cards on Military Bases | US Message Board - Political Discussion Forum https://t.co/qzF2ZkzWRB", "truncated": false, "urls": {"https://t.co/qzF2ZkzWRB": "http://fb.me/7I3r7tDuw"}, "user": {"created_at": "Mon Oct 29 14:56:37 +0000 2012", "description": "#MARRIED #NOFAR #USMC #CHRISTIAN #CCOT #TPOT #NRA #FFOA #TCOT #1A #2A #4A #CONSTITUTION https://t.co/3B6WSSnV3S http://t.co/GVzy1Gkbzo https://t.co/hZI36n7pAP", "favourites_count": 1732, "followers_count": 85465, "friends_count": 78258, "id": 912598626, "lang": "en", "listed_count": 528, "location": "United States of America", "name": "FreedomFOA", "profile_background_color": "0099B9", "profile_background_image_url": "http://pbs.twimg.com/profile_background_images/378800000024430865/d43eefdeeb76415253f7e1502f902a21.jpeg", "profile_background_tile": true, "profile_banner_url": "https://pbs.twimg.com/profile_banners/912598626/1381419012", "profile_image_url": "https://pbs.twimg.com/profile_images/627846341696204800/penCD5SH_normal.jpg", "profile_link_color": "0043B8", "profile_sidebar_fill_color": "171106", "profile_text_color": "8A7302", "protected": false, "screen_name": "FreedomFOA", "statuses_count": 94536, "time_zone": "Atlantic Time (Canada)", "url": "http://t.co/wtA2oVFqC8", "utc_offset": -14400}}
{"created_at": "Mon Nov 30 07:15:55 +0000 2015", "favorited": false, "id": 671226134852423680, "lang": "en", "retweeted": false, "source": "<a href=\"http://twitter.com\" rel=\"nofollow\">Twitter Web Client</a>", "text": "Obama to ban Christmas Cards on Military Bases https://t.co/WU71l4HQtV", "truncated": false, "urls": {"https://t.co/WU71l4HQtV": "http://www.usmessageboard.com/threads/obama-to-ban-christmas-cards-on-military-bases.454376/"}, "user": {"created_at": "Thu Apr 05 14:32:09 +0000 2012", "default_profile": true, "description": "Passionate about the truth of American #history and an informed public. #Author Why I Am an #Independent #Conservative #CivicDuty #Constitution", "favourites_count": 2520, "followers_count": 2801, "friends_count": 3067, "geo_enabled": true, "id": 546101526, "lang": "en", "listed_count": 56, "location": "CO, USA", "name": "Karen Jourden", "profile_background_color": "C0DEED", "profile_background_image_url": "http://abs.twimg.com/images/themes/theme1/bg.png", "profile_background_tile": false, "profile_banner_url": "https://pbs.twimg.com/profile_banners/546101526/1355502649", "profile_image_url": "https://pbs.twimg.com/profile_images/2832667178/f0e3fd37cb716ba8eb8dfab245a5d36f_normal.png", "profile_link_color": "0084B4", "profile_sidebar_fill_color": "DDEEF6", "profile_text_color": "333333", "protected": false, "screen_name": "KarenJourden", "statuses_count": 23422, "time_zone": "Mountain Time (US & Canada)", "url": "http://t.co/b9o31TMYxx", "utc_offset": -25200}}
{"created_at": "Tue Dec 01 02:27:57 +0000 2015", "favorited": false, "id": 671516052908613632, "lang": "en", "retweeted": false, "source": "<a href=\"http://www.facebook.com/twitter\" rel=\"nofollow\">Facebook</a>", "text": "FALSE: Military Can't Say 'Christmas' per Obama Order https://t.co/2ZmdxLBngD", "truncated": false, "urls": {"https://t.co/2ZmdxLBngD": "http://fb.me/2eEZOFYXw"}, "user": {"created_at": "Fri Jul 25 14:45:34 +0000 2014", "description": "Mom, Mastiff momma, USCG Veteran, Presenter Younique, Activist", "favourites_count": 380, "followers_count": 238, "friends_count": 289, "geo_enabled": true, "id": 2679788407, "lang": "en", "listed_count": 17, "location": "Spring Hill, FL", "name": "Dolores Peers", "profile_background_color": "000000", "profile_background_image_url": "http://abs.twimg.com/images/themes/theme1/bg.png", "profile_background_tile": false, "profile_banner_url": "https://pbs.twimg.com/profile_banners/2679788407/1406510585", "profile_image_url": "https://pbs.twimg.com/profile_images/515550612977496064/AdD7ZSOz_normal.jpeg", "profile_link_color": "0084B4", "profile_sidebar_fill_color": "000000", "profile_text_color": "000000", "protected": false, "screen_name": "dee4peace", "statuses_count": 9750, "url": "https://t.co/HSP4JBBVC1"}}
{"created_at": "Tue Dec 01 14:37:33 +0000 2015", "favorited": false, "id": 671699660491198465, "lang": "en", "retweeted": false, "source": "<a href=\"http://www.facebook.com/twitter\" rel=\"nofollow\">Facebook</a>", "text": "FALSE: Military Can't Say 'Christmas' per Obama Order https://t.co/78Mt8heAG5", "truncated": false, "urls": {"https://t.co/78Mt8heAG5": "http://fb.me/7RIeAtIQx"}, "user": {"created_at": "Sat Mar 10 17:34:53 +0000 2012", "default_profile": true, "description": "Over 50 years in music.See RN and Facebook for too many details to list.", "followers_count": 109, "friends_count": 4, "id": 520583631, "lang": "en", "listed_count": 19, "location": "Texas USA", "name": "Jeffry DeVillez", "profile_background_color": "C0DEED", "profile_background_image_url": "http://abs.twimg.com/images/themes/theme1/bg.png", "profile_background_tile": false, "profile_image_url": "https://pbs.twimg.com/profile_images/1923800910/Jeff_DeVillez_1980_normal.gif", "profile_link_color": "0084B4", "profile_sidebar_fill_color": "DDEEF6", "profile_text_color": "333333", "protected": false, "screen_name": "jmdrmd1", "statuses_count": 82252, "url": "http://t.co/2f50jPMKko"}}
{"created_at": "Tue Dec 01 16:24:13 +0000 2015", "favorited": false, "id": 671726504372400128, "lang": "en", "retweeted": false, "source": "<a href=\"http://www.facebook.com/twitter\" rel=\"nofollow\">Facebook</a>", "text": "FALSE: Military Can't Say 'Christmas' per Obama Order https://t.co/1fJ7fobOlk", "truncated": false, "urls": {"https://t.co/1fJ7fobOlk": "http://fb.me/4y6ha73At"}, "user": {"created_at": "Tue Jul 01 02:20:02 +0000 2014", "default_profile": true, "description": "If I can only make a difference in the life of one person, then I will make that difference. Today. No endorsement RT. #Atheist #Humanist #secular #FreeThinker", "favourites_count": 4407, "followers_count": 629, "friends_count": 675, "geo_enabled": true, "id": 2597248730, "lang": "en", "listed_count": 9, "location": "Central Valley, California", "name": "Chixiemary", "profile_background_color": "C0DEED", "profile_background_image_url": "http://abs.twimg.com/images/themes/theme1/bg.png", "profile_background_tile": false, "profile_banner_url": "https://pbs.twimg.com/profile_banners/2597248730/1404685364", "profile_image_url": "https://pbs.twimg.com/profile_images/485832668169261056/lLrSG3J-_normal.jpeg", "profile_link_color": "0084B4", "profile_sidebar_fill_color": "DDEEF6", "profile_text_color": "333333", "protected": false, "screen_name": "chixiemary", "statuses_count": 17279}}
{"created_at": "Tue Dec 01 23:34:46 +0000 2015", "favorited": false, "id": 671834856658231297, "lang": "en", "retweeted": false, "source": "<a href=\"http://www.facebook.com/twitter\" rel=\"nofollow\">Facebook</a>", "text": "Obama to ban Christmas Cards on Military Bases | US Message Board - Political Discussion Forum https://t.co/tSw3cHB172", "truncated": false, "urls": {"https://t.co/tSw3cHB172": "http://fb.me/2pbTNIV5f"}, "user": {"created_at": "Tue Nov 27 17:04:22 +0000 2012", "description": "Non Christian, Conservative, Supports NRA 2nd Amendment, Pro Life but supports the Death Penalty. Firm supporter of Law Enforcement, Love of Country and Family", "favourites_count": 3, "followers_count": 141, "friends_count": 349, "id": 974257908, "lang": "en", "listed_count": 7, "location": "Foley", "name": "Robert", "profile_background_color": "000000", "profile_background_image_url": "http://abs.twimg.com/images/themes/theme13/bg.gif", "profile_background_tile": false, "profile_image_url": "https://pbs.twimg.com/profile_images/682303441205653505/bjfc_M82_normal.png", "profile_link_color": "9266CC", "profile_sidebar_fill_color": "000000", "profile_text_color": "000000", "protected": false, "screen_name": "rjklens", "statuses_count": 12081, "time_zone": "Central Time (US & Canada)", "utc_offset": -21600}}
{"created_at": "Wed Dec 02 04:12:02 +0000 2015", "favorited": false, "id": 671904631794962432, "lang": "en", "retweeted": false, "source": "<a href=\"http://www.facebook.com/twitter\" rel=\"nofollow\">Facebook</a>", "text": "FALSE: Military Can't Say 'Christmas' per Obama Order https://t.co/uKY6zY2csY", "truncated": false, "urls": {"https://t.co/uKY6zY2csY": "http://fb.me/3F40srnP3"}, "user": {"created_at": "Mon Feb 11 01:01:39 +0000 2008", "description": "Be thankful and hold on to those you love, because there is a monster in the corn fields waiting to take them all away from you!!!", "favourites_count": 49, "followers_count": 197, "friends_count": 356, "geo_enabled": true, "id": 13328632, "lang": "en", "listed_count": 16, "location": "Dayton, Ohio", "name": "Hector", "profile_background_color": "94D487", "profile_background_image_url": "http://pbs.twimg.com/profile_background_images/620610561416409089/_XZoSkzS.jpg", "profile_background_tile": true, "profile_banner_url": "https://pbs.twimg.com/profile_banners/13328632/1452210776", "profile_image_url": "https://pbs.twimg.com/profile_images/685247919029534720/S83XEWRq_normal.jpg", "profile_link_color": "89C9FA", "profile_sidebar_fill_color": "78C0A8", "profile_text_color": "5E412F", "protected": false, "screen_name": "iskios", "statuses_count": 17569, "time_zone": "Eastern Time (US & Canada)", "url": "http://t.co/V0aeAJEIk2", "utc_offset": -18000}}
{"created_at": "Wed Dec 02 21:37:06 +0000 2015", "favorited": false, "id": 672167632821346305, "lang": "en", "retweeted": false, "source": "<a href=\"http://twitter.com\" rel=\"nofollow\">Twitter Web Client</a>", "text": "Christmas Recuse https://t.co/G4n1OxPYeZ", "truncated": false, "urls": {"https://t.co/G4n1OxPYeZ": "http://www.snopes.com/obama-military-christmas-ban/"}, "user": {"created_at": "Wed Apr 28 16:52:41 +0000 2010", "description": "Happily married 49 years. Live your best life, help others in need when you can. I don't just talk the talk, I walk the walk.", "favourites_count": 673, "followers_count": 188, "friends_count": 323, "id": 138106699, "lang": "en", "listed_count": 8, "name": "Super Grandma", "profile_background_color": "000000", "profile_background_image_url": "http://abs.twimg.com/images/themes/theme9/bg.gif", "profile_background_tile": false, "profile_banner_url": "https://pbs.twimg.com/profile_banners/138106699/1441324839", "profile_image_url": "https://pbs.twimg.com/profile_images/639842071340122112/mrkydCkj_normal.jpg", "profile_link_color": "DD2E44", "profile_sidebar_fill_color": "000000", "profile_text_color": "000000", "protected": false, "screen_name": "Realityaddict11", "statuses_count": 2885, "time_zone": "Central Time (US & Canada)", "utc_offset": -21600}}
{"created_at": "Thu Dec 03 01:17:36 +0000 2015", "favorited": false, "id": 672223121441734656, "lang": "en", "retweeted": false, "source": "<a href=\"http://www.facebook.com/twitter\" rel=\"nofollow\">Facebook</a>", "text": "FALSE: Military Can't Say 'Christmas' per Obama Order https://t.co/AkeOb71hUo", "truncated": false, "urls": {"https://t.co/AkeOb71hUo": "http://fb.me/1ZRcD4atu"}, "user": {"created_at": "Fri Jun 19 04:03:30 +0000 2009", "favourites_count": 19, "followers_count": 16, "friends_count": 52, "geo_enabled": true, "id": 48603594, "lang": "en", "location": "NY", "name": "Kimberley Decker", "profile_background_color": "000000", "profile_background_image_url": "http://abs.twimg.com/images/themes/theme1/bg.png", "profile_background_tile": false, "profile_banner_url": "https://pbs.twimg.com/profile_banners/48603594/1435266773", "profile_image_url": "https://pbs.twimg.com/profile_images/556877300759687169/0lumSxLQ_normal.jpeg", "profile_link_color": "4A913C", "profile_sidebar_fill_color": "000000", "profile_text_color": "000000", "protected": false, "screen_name": "kimbleydeck", "statuses_count": 11761, "time_zone": "Eastern Time (US & Canada)", "utc_offset": -18000}}
{"created_at": "Thu Dec 03 22:03:07 +0000 2015", "favorited": false, "id": 672536566489681924, "lang": "en", "retweeted": false, "source": "<a href=\"http://www.facebook.com/twitter\" rel=\"nofollow\">Facebook</a>", "text": "Obama to ban Christmas Cards on Military Bases | US Message Board - Political Discussion Forum https://t.co/dt6ZRNe0tc", "truncated": false, "urls": {"https://t.co/dt6ZRNe0tc": "http://fb.me/4wq8rvaQt"}, "user": {"created_at": "Thu Oct 18 05:56:15 +0000 2012", "description": "Timelord - Jedi - WAY EX Porn Star", "favourites_count": 1089, "followers_count": 389, "friends_count": 2045, "id": 888197569, "lang": "en", "listed_count": 22, "location": "Stratford CT USA", "name": "Michael J Kramer", "profile_background_color": "C0DEED", "profile_background_image_url": "http://pbs.twimg.com/profile_background_images/687494042/9a659bd4b6de327adaad24d96659311a.jpeg", "profile_background_tile": true, "profile_image_url": "https://pbs.twimg.com/profile_images/2732114532/51e7224e472333d0197cf7be7a3d7a3e_normal.jpeg", "profile_link_color": "0084B4", "profile_sidebar_fill_color": "DDEEF6", "profile_text_color": "333333", "protected": false, "screen_name": "MJKramer367", "statuses_count": 25108, "url": "http://t.co/GGX8Q8i8CT"}}
{"created_at": "Sun Dec 06 13:44:13 +0000 2015", "favorited": false, "hashtags": ["Christmas", "Obama", "Christmas", "DOD"], "id": 673498177685889024, "in_reply_to_screen_name": "ffweekend", "in_reply_to_user_id": 272395158, "lang": "en", "place": {"attributes": {}, "bounding_box": {"coordinates": [[[-92.889433, 42.491889], [-86.24955, 42.491889], [-86.24955, 47.309715], [-92.889433, 47.309715]]], "type": "Polygon"}, "contained_within": [], "country": "United States", "country_code": "US", "full_name": "Wisconsin, USA", "id": "7dc5c6d3bfb10ccc", "name": "Wisconsin", "place_type": "admin", "url": "https://api.twitter.com/1.1/geo/id/7dc5c6d3bfb10ccc.json"}, "retweeted": false, "source": "<a href=\"http://twitter.com\" rel=\"nofollow\">Twitter Web Client</a>", "text": "@ffweekend @Trees4Troops How able to send #Christmas Trees. #Obama banned the word #Christmas military #DOD https://t.co/T2ElnA2Y7c", "truncated": false, "urls": {"https://t.co/T2ElnA2Y7c": "http://patriotupdate.com/obama-puts-a-ban-on-the-word-christmas/"}, "user": {"created_at": "Wed Jun 17 12:50:48 +0000 2015", "default_profile": true, "favourites_count": 25, "followers_count": 174, "friends_count": 222, "geo_enabled": true, "id": 3331280621, "lang": "en", "listed_count": 21, "name": "sara hall", "profile_background_color": "C0DEED", "profile_background_image_url": "http://abs.twimg.com/images/themes/theme1/bg.png", "profile_background_tile": false, "profile_image_url": "https://pbs.twimg.com/profile_images/619450404531625984/cjVKwGYo_normal.jpg", "profile_link_color": "0084B4", "profile_sidebar_fill_color": "DDEEF6", "profile_text_color": "333333", "protected": false, "screen_name": "sarahal15586515", "statuses_count": 9798, "time_zone": "Pacific Time (US & Canada)", "utc_offset": -28800}, "user_mentions": [{"id": 272395158, "name": "Fox&Friends Weekend", "screen_name": "ffweekend"}, {"id": 20634908, "name": "Trees for Troops", "screen_name": "Trees4Troops"}]}
{"created_at": "Sun Dec 06 13:44:32 +0000 2015", "favorite_count": 1, "favorited": false, "hashtags": ["Christmas", "Christmas", "Obama", "Christmas", "DOD"], "id": 673498260586291200, "lang": "en", "place": {"attributes": {}, "bounding_box": {"coordinates": [[[-92.889433, 42.491889], [-86.24955, 42.491889], [-86.24955, 47.309715], [-92.889433, 47.309715]]], "type": "Polygon"}, "contained_within": [], "country": "United States", "country_code": "US", "full_name": "Wisconsin, USA", "id": "7dc5c6d3bfb10ccc", "name": "Wisconsin", "place_type": "admin", "url": "https://api.twitter.com/1.1/geo/id/7dc5c6d3bfb10ccc.json"}, "retweeted": false, "source": "<a href=\"http://twitter.com\" rel=\"nofollow\">Twitter Web Client</a>", "text": "#Christmas @Trees4Troops How able to send #Christmas Trees. #Obama banned the word #Christmas military #DOD https://t.co/T2ElnA2Y7c", "truncated": false, "urls": {"https://t.co/T2ElnA2Y7c": "http://patriotupdate.com/obama-puts-a-ban-on-the-word-christmas/"}, "user": {"created_at": "Wed Jun 17 12:50:48 +0000 2015", "default_profile": true, "favourites_count": 25, "followers_count": 174, "friends_count": 222, "geo_enabled": true, "id": 3331280621, "lang": "en", "listed_count": 21, "name": "sara hall", "profile_background_color": "C0DEED", "profile_background_image_url": "http://abs.twimg.com/images/themes/theme1/bg.png", "profile_background_tile": false, "profile_image_url": "https://pbs.twimg.com/profile_images/619450404531625984/cjVKwGYo_normal.jpg", "profile_link_color": "0084B4", "profile_sidebar_fill_color": "DDEEF6", "profile_text_color": "333333", "protected": false, "screen_name": "sarahal15586515", "statuses_count": 9798, "time_zone": "Pacific Time (US & Canada)", "utc_offset": -28800}, "user_mentions": [{"id": 20634908, "name": "Trees for Troops", "screen_name": "Trees4Troops"}]}
{"created_at": "Sun Dec 06 13:45:00 +0000 2015", "favorited": false, "hashtags": ["Christmas", "Obama", "Christmas", "DOD"], "id": 673498374721683462, "in_reply_to_screen_name": "drudgereport", "in_reply_to_user_id": 5942922, "lang": "en", "place": {"attributes": {}, "bounding_box": {"coordinates": [[[-92.889433, 42.491889], [-86.24955, 42.491889], [-86.24955, 47.309715], [-92.889433, 47.309715]]], "type": "Polygon"}, "contained_within": [], "country": "United States", "country_code": "US", "full_name": "Wisconsin, USA", "id": "7dc5c6d3bfb10ccc", "name": "Wisconsin", "place_type": "admin", "url": "https://api.twitter.com/1.1/geo/id/7dc5c6d3bfb10ccc.json"}, "retweeted": false, "source": "<a href=\"http://twitter.com\" rel=\"nofollow\">Twitter Web Client</a>", "text": "@drudgereport @Trees4Troops How able to send #Christmas Trees. #Obama banned the word #Christmas military #DOD https://t.co/HgSi4eKtsp", "truncated": false, "urls": {"https://t.co/HgSi4eKtsp": "http://patriotupdate.com/obama-puts-a-ban-on-the-word-"}, "user": {"created_at": "Wed Jun 17 12:50:48 +0000 2015", "default_profile": true, "favourites_count": 25, "followers_count": 174, "friends_count": 222, "geo_enabled": true, "id": 3331280621, "lang": "en", "listed_count": 21, "name": "sara hall", "profile_background_color": "C0DEED", "profile_background_image_url": "http://abs.twimg.com/images/themes/theme1/bg.png", "profile_background_tile": false, "profile_image_url": "https://pbs.twimg.com/profile_images/619450404531625984/cjVKwGYo_normal.jpg", "profile_link_color": "0084B4", "profile_sidebar_fill_color": "DDEEF6", "profile_text_color": "333333", "protected": false, "screen_name": "sarahal15586515", "statuses_count": 9798, "time_zone": "Pacific Time (US & Canada)", "utc_offset": -28800}, "user_mentions": [{"id": 5942922, "name": "Drudge Report", "screen_name": "drudgereport"}, {"id": 20634908, "name": "Trees for Troops", "screen_name": "Trees4Troops"}]}
{"created_at": "Sun Dec 06 13:45:18 +0000 2015", "favorited": false, "hashtags": ["Christmas", "Obama", "Christmas", "DOD", "news"], "id": 673498451938836486, "in_reply_to_screen_name": "Breitbart", "in_reply_to_user_id": 20024639, "lang": "en", "place": {"attributes": {}, "bounding_box": {"coordinates": [[[-92.889433, 42.491889], [-86.24955, 42.491889], [-86.24955, 47.309715], [-92.889433, 47.309715]]], "type": "Polygon"}, "contained_within": [], "country": "United States", "country_code": "US", "full_name": "Wisconsin, USA", "id": "7dc5c6d3bfb10ccc", "name": "Wisconsin", "place_type": "admin", "url": "https://api.twitter.com/1.1/geo/id/7dc5c6d3bfb10ccc.json"}, "retweeted": false, "source": "<a href=\"http://twitter.com\" rel=\"nofollow\">Twitter Web Client</a>", "text": "@breitbart @Trees4Troops How able to send #Christmas Trees. #Obama banned the word #Christmas military #DOD https://t.co/HgSi4eKtsp #news", "truncated": false, "urls": {"https://t.co/HgSi4eKtsp": "http://patriotupdate.com/obama-puts-a-ban-on-the-word-"}, "user": {"created_at": "Wed Jun 17 12:50:48 +0000 2015", "default_profile": true, "favourites_count": 25, "followers_count": 174, "friends_count": 222, "geo_enabled": true, "id": 3331280621, "lang": "en", "listed_count": 21, "name": "sara hall", "profile_background_color": "C0DEED", "profile_background_image_url": "http://abs.twimg.com/images/themes/theme1/bg.png", "profile_background_tile": false, "profile_image_url": "https://pbs.twimg.com/profile_images/619450404531625984/cjVKwGYo_normal.jpg", "profile_link_color": "0084B4", "profile_sidebar_fill_color": "DDEEF6", "profile_text_color": "333333", "protected": false, "screen_name": "sarahal15586515", "statuses_count": 9798, "time_zone": "Pacific Time (US & Canada)", "utc_offset": -28800}, "user_mentions": [{"id": 20024639, "name": "Andrew Breitbart", "screen_name": "Breitbart"}, {"id": 20634908, "name": "Trees for Troops", "screen_name": "Trees4Troops"}]}
{"created_at": "Sun Dec 06 13:45:49 +0000 2015", "favorited": false, "hashtags": ["Hollywood", "Christmas", "Obama", "Christmas", "DOD", "celebrity"], "id": 673498582062923776, "lang": "en", "place": {"attributes": {}, "bounding_box": {"coordinates": [[[-92.889433, 42.491889], [-86.24955, 42.491889], [-86.24955, 47.309715], [-92.889433, 47.309715]]], "type": "Polygon"}, "contained_within": [], "country": "United States", "country_code": "US", "full_name": "Wisconsin, USA", "id": "7dc5c6d3bfb10ccc", "name": "Wisconsin", "place_type": "admin", "url": "https://api.twitter.com/1.1/geo/id/7dc5c6d3bfb10ccc.json"}, "retweeted": false, "source": "<a href=\"http://twitter.com\" rel=\"nofollow\">Twitter Web Client</a>", "text": "#Hollywood @Trees4Troops How able 2send #Christmas Trees. #Obama banned the word #Christmas military #DOD https://t.co/HgSi4eKtsp #celebrity", "truncated": false, "urls": {"https://t.co/HgSi4eKtsp": "http://patriotupdate.com/obama-puts-a-ban-on-the-word-"}, "user": {"created_at": "Wed Jun 17 12:50:48 +0000 2015", "default_profile": true, "favourites_count": 25, "followers_count": 174, "friends_count": 222, "geo_enabled": true, "id": 3331280621, "lang": "en", "listed_count": 21, "name": "sara hall", "profile_background_color": "C0DEED", "profile_background_image_url": "http://abs.twimg.com/images/themes/theme1/bg.png", "profile_background_tile": false, "profile_image_url": "https://pbs.twimg.com/profile_images/619450404531625984/cjVKwGYo_normal.jpg", "profile_link_color": "0084B4", "profile_sidebar_fill_color": "DDEEF6", "profile_text_color": "333333", "protected": false, "screen_name": "sarahal15586515", "statuses_count": 9798, "time_zone": "Pacific Time (US & Canada)", "utc_offset": -28800}, "user_mentions": [{"id": 20634908, "name": "Trees for Troops", "screen_name": "Trees4Troops"}]}
{"created_at": "Sun Dec 06 14:52:00 +0000 2015", "favorited": false, "hashtags": ["BillMaher", "Christmas", "Obama", "Christmas", "DOD", "celebrity"], "id": 673515238545866752, "lang": "en", "place": {"attributes": {}, "bounding_box": {"coordinates": [[[-92.889433, 42.491889], [-86.24955, 42.491889], [-86.24955, 47.309715], [-92.889433, 47.309715]]], "type": "Polygon"}, "contained_within": [], "country": "United States", "country_code": "US", "full_name": "Wisconsin, USA", "id": "7dc5c6d3bfb10ccc", "name": "Wisconsin", "place_type": "admin", "url": "https://api.twitter.com/1.1/geo/id/7dc5c6d3bfb10ccc.json"}, "retweeted": false, "source": "<a href=\"http://twitter.com\" rel=\"nofollow\">Twitter Web Client</a>", "text": "#BillMaher @Trees4Troops How able2send #Christmas Trees. #Obama banned the word #Christmas military #DOD https://t.co/HgSi4eKtsp #celebrity", "truncated": false, "urls": {"https://t.co/HgSi4eKtsp": "http://patriotupdate.com/obama-puts-a-ban-on-the-word-"}, "user": {"created_at": "Wed Jun 17 12:50:48 +0000 2015", "default_profile": true, "favourites_count": 25, "followers_count": 174, "friends_count": 222, "geo_enabled": true, "id": 3331280621, "lang": "en", "listed_count": 21, "name": "sara hall", "profile_background_color": "C0DEED", "profile_background_image_url": "http://abs.twimg.com/images/themes/theme1/bg.png", "profile_background_tile": false, "profile_image_url": "https://pbs.twimg.com/profile_images/619450404531625984/cjVKwGYo_normal.jpg", "profile_link_color": "0084B4", "profile_sidebar_fill_color": "DDEEF6", "profile_text_color": "333333", "protected": false, "screen_name": "sarahal15586515", "statuses_count": 9798, "time_zone": "Pacific Time (US & Canada)", "utc_offset": -28800}, "user_mentions": [{"id": 20634908, "name": "Trees for Troops", "screen_name": "Trees4Troops"}]}
{"created_at": "Sun Dec 06 17:11:00 +0000 2015", "favorited": false, "id": 673550218953138176, "lang": "en", "retweet_count": 1, "retweeted": false, "source": "<a href=\"http://twitter.com\" rel=\"nofollow\">Twitter Web Client</a>", "text": "Obama to ban Christmas Cards on Military Bases!\nhttps://t.co/mXhHYBqty7\nWTF!", "truncated": false, "urls": {"https://t.co/mXhHYBqty7": "http://www.usmessageboard.com/threads/obama-to-ban-christmas-cards-on-military-bases.454376/"}, "user": {"created_at": "Thu Jan 22 01:04:51 +0000 2015", "default_profile": true, "description": "schimmelmijdendliberafilistischhumanist. kritisch t.a.v. \u20aclite, EUssr, religie, wiegenmacht(KH) en andere idioterie.  compleetdenker en bovenal: #kudburger!", "favourites_count": 16, "followers_count": 1139, "friends_count": 1158, "id": 2991021323, "lang": "nl", "listed_count": 12, "name": "TrollCatcher", "profile_background_color": "C0DEED", "profile_background_image_url": "http://abs.twimg.com/images/themes/theme1/bg.png", "profile_background_tile": false, "profile_banner_url": "https://pbs.twimg.com/profile_banners/2991021323/1422198589", "profile_image_url": "https://pbs.twimg.com/profile_images/558077766885584896/-9XuWCfo_normal.jpeg", "profile_link_color": "0084B4", "profile_sidebar_fill_color": "DDEEF6", "profile_text_color": "333333", "protected": false, "screen_name": "TrollCatcher007", "statuses_count": 3579, "time_zone": "Mid-Atlantic", "utc_offset": -7200}}
{"created_at": "Mon Dec 14 23:35:17 +0000 2015", "favorited": false, "id": 676546026807914496, "lang": "en", "retweeted": false, "source": "<a href=\"http://mobile.twitter.com\" rel=\"nofollow\">Mobile Web</a>", "text": "Christmas Recuse https://t.co/3Tp9xRinRi", "truncated": false, "urls": {"https://t.co/3Tp9xRinRi": "http://www.snopes.com/obama-military-christmas-ban/"}, "user": {"created_at": "Thu Aug 21 17:00:51 +0000 2008", "description": "RTing is merely F.Y.I. ing Agree or Disagree that\u2019s up to you", "favourites_count": 189, "followers_count": 2725, "friends_count": 2161, "id": 15933649, "lang": "en", "listed_count": 32, "location": "F.Y.I.", "name": "F.Y.I.", "profile_background_color": "642D8B", "profile_background_image_url": "http://abs.twimg.com/images/themes/theme10/bg.gif", "profile_background_tile": true, "profile_banner_url": "https://pbs.twimg.com/profile_banners/15933649/1414014142", "profile_image_url": "https://pbs.twimg.com/profile_images/378800000070500095/f35bd29c1dbe5ae7667766ac6207a390_normal.jpeg", "profile_link_color": "FF0000", "profile_sidebar_fill_color": "7AC3EE", "profile_text_color": "3D1957", "protected": false, "screen_name": "FrontRowSeat42", "statuses_count": 35179, "time_zone": "Eastern Time (US & Canada)", "utc_offset": -18000}}
{"created_at": "Tue Dec 15 17:56:23 +0000 2015", "favorited": false, "id": 676823129864310784, "lang": "en", "retweeted": false, "source": "<a href=\"http://twitter.com\" rel=\"nofollow\">Twitter Web Client</a>", "text": "FALSE: Obama Launches First Salvo in War on Christmas https://t.co/SfeSHNKcKo", "truncated": false, "urls": {"https://t.co/SfeSHNKcKo": "http://www.snopes.com/christmas-card-ban-military/"}, "user": {"created_at": "Wed Apr 07 22:24:50 +0000 2010", "description": "United States Marine (Semper Fi), retired firefighter, American patriot, believer in the US Constitution, and the aspirations of our founding fathers.", "favourites_count": 514, "followers_count": 5272, "friends_count": 5698, "id": 130644112, "lang": "en", "listed_count": 137, "name": "George Hatt", "profile_background_color": "642D8B", "profile_background_image_url": "http://abs.twimg.com/images/themes/theme10/bg.gif", "profile_background_tile": true, "profile_image_url": "https://pbs.twimg.com/profile_images/1478628140/IMG_1141_normal.JPG", "profile_link_color": "FF0000", "profile_sidebar_fill_color": "7AC3EE", "profile_text_color": "3D1957", "protected": false, "screen_name": "gohatt", "statuses_count": 27439, "time_zone": "Pacific Time (US & Canada)", "utc_offset": -28800}}
