{"created_at": "Mon Sep 21 16:45:44 +0000 2015", "favorited": false, "id": 646002380107071488, "lang": "en", "retweeted": false, "source": "<a href=\"http://twitter.com\" rel=\"nofollow\">Twitter Web Client</a>", "text": "...the way Ali put his hands in the face of Foreman in the Rumble in the Jungle.  Zouma sorry at Costa 'cheat' remark http://t.co/iuOV25HAKR", "truncated": false, "urls": {"http://t.co/iuOV25HAKR": "http://bbc.in/1j2ZFdP"}, "user": {"created_at": "Mon Apr 11 23:59:19 +0000 2011", "description": "Partner in @LeapfrogComms with @e_ocallaghan - journalist; political commentator; Liverpool fan; Libran, contrarian. Motto: 'Whatever it is, I'm against it.'", "favourites_count": 2062, "followers_count": 1571, "friends_count": 699, "geo_enabled": true, "id": 280760209, "lang": "en", "listed_count": 16, "location": "Derry", "name": "Paul McFadden", "profile_background_color": "C0DEED", "profile_background_image_url": "http://pbs.twimg.com/profile_background_images/615967584014499841/WEw1ipxo.jpg", "profile_background_tile": false, "profile_banner_url": "https://pbs.twimg.com/profile_banners/280760209/1435693305", "profile_image_url": "https://pbs.twimg.com/profile_images/2798512925/bf6a86c855c4a1020e28e860747b8428_normal.jpeg", "profile_link_color": "0084B4", "profile_sidebar_fill_color": "000000", "profile_text_color": "000000", "protected": false, "screen_name": "PJMcFaddenDerry", "statuses_count": 8693}}
{"created_at": "Wed Sep 23 13:21:51 +0000 2015", "favorite_count": 1, "favorited": false, "id": 646675847953281024, "lang": "en", "retweeted": false, "source": "<a href=\"http://twitter.com\" rel=\"nofollow\">Twitter Web Client</a>", "text": "remind me to turn the rumble off on my ps4 controller next time i play until dawn im gonna attempt to cheat the dont move segments", "truncated": false, "user": {"created_at": "Tue Sep 08 08:48:35 +0000 2009", "description": "essentially just video game livetweeting currently playing: alien isolation / bloodborne dlc / every dating sim ever (header by @moodybread)", "favourites_count": 6597, "followers_count": 283, "friends_count": 109, "id": 72508243, "lang": "en", "listed_count": 5, "location": "Washington", "name": "\u2606Melanie\u2606", "profile_background_color": "000000", "profile_background_image_url": "http://pbs.twimg.com/profile_background_images/483076593502285825/geHQO3kN.jpeg", "profile_background_tile": false, "profile_banner_url": "https://pbs.twimg.com/profile_banners/72508243/1442455820", "profile_image_url": "https://pbs.twimg.com/profile_images/672846817499832320/ux-GfLjE_normal.jpg", "profile_link_color": "FF8888", "profile_sidebar_fill_color": "764496", "profile_text_color": "2A1038", "protected": false, "screen_name": "potato_crisp", "statuses_count": 72271, "time_zone": "Pacific Time (US & Canada)", "utc_offset": -28800}}
{"created_at": "Wed Sep 23 18:59:17 +0000 2015", "favorited": false, "id": 646760767396675588, "in_reply_to_screen_name": "lars_bakken", "in_reply_to_user_id": 872959782, "lang": "en", "retweeted": false, "source": "<a href=\"http://twitter.com/download/iphone\" rel=\"nofollow\">Twitter for iPhone</a>", "text": "@lars_bakken has there been talk about exotic crucible bounties that can't be cheesed with friends in rumble? Tired of seeing friends cheat.", "truncated": false, "user": {"created_at": "Tue Feb 24 02:25:51 +0000 2015", "default_profile": true, "description": "Artist & Animator", "favourites_count": 281, "followers_count": 4, "friends_count": 29, "id": 3038744833, "lang": "en", "name": "David Burrell", "profile_background_color": "C0DEED", "profile_background_image_url": "http://abs.twimg.com/images/themes/theme1/bg.png", "profile_background_tile": false, "profile_image_url": "https://pbs.twimg.com/profile_images/613774335195529216/-VDU9rS__normal.jpg", "profile_link_color": "0084B4", "profile_sidebar_fill_color": "DDEEF6", "profile_text_color": "333333", "protected": false, "screen_name": "DavidBurrell19", "statuses_count": 52}, "user_mentions": [{"id": 872959782, "name": "Lars Bakken", "screen_name": "lars_bakken"}]}
{"created_at": "Wed Sep 23 20:05:22 +0000 2015", "favorited": false, "id": 646777396876566528, "lang": "en", "retweeted": false, "source": "<a href=\"http://twitter.com/download/android\" rel=\"nofollow\">Twitter for Android</a>", "text": "Ready 2 Rumble Rounds 1 and 2 were like the only games I never beat growing up. I eventually used cheat codes on the first one.", "truncated": false, "user": {"created_at": "Tue Jul 28 13:27:16 +0000 2009", "description": "i wear my slides everywhere", "favourites_count": 775, "followers_count": 654, "friends_count": 258, "geo_enabled": true, "id": 60902552, "lang": "en", "listed_count": 2, "location": "head", "name": "DAME", "profile_background_color": "F2F2F2", "profile_background_image_url": "http://pbs.twimg.com/profile_background_images/378800000052563188/bed7354781b95c73d600a2318950f6af.jpeg", "profile_background_tile": true, "profile_banner_url": "https://pbs.twimg.com/profile_banners/60902552/1433271265", "profile_image_url": "https://pbs.twimg.com/profile_images/670794124610707456/xzW7zE9h_normal.jpg", "profile_link_color": "888877", "profile_sidebar_fill_color": "EFEFEF", "profile_text_color": "333333", "protected": false, "screen_name": "damionrashad", "statuses_count": 12506, "time_zone": "Eastern Time (US & Canada)", "url": "https://t.co/TqlDeRlm9t", "utc_offset": -18000}}
{"created_at": "Fri Sep 25 14:24:14 +0000 2015", "favorite_count": 1, "favorited": false, "id": 647416321861267456, "in_reply_to_screen_name": "tferriss", "in_reply_to_user_id": 11740902, "lang": "en", "place": {"attributes": {}, "bounding_box": {"coordinates": [[[-97.51982, 35.15327], [-97.370527, 35.15327], [-97.370527, 35.291332], [-97.51982, 35.291332]]], "type": "Polygon"}, "contained_within": [], "country": "United States", "country_code": "US", "full_name": "Norman, OK", "id": "27de1a6e27075587", "name": "Norman", "place_type": "city", "url": "https://api.twitter.com/1.1/geo/id/27de1a6e27075587.json"}, "retweeted": false, "source": "<a href=\"http://twitter.com/download/iphone\" rel=\"nofollow\">Twitter for iPhone</a>", "text": "@tferriss If you hear a rumble from the east Sunday morning, don't worry. My cheat day just started.", "truncated": false, "user": {"created_at": "Wed Apr 15 01:29:10 +0000 2009", "description": "A cross between Shields and Yarnell.", "favourites_count": 11374, "followers_count": 949, "friends_count": 657, "geo_enabled": true, "id": 31295634, "lang": "en", "listed_count": 31, "location": "Norman, OK", "name": "your old pal wampus", "profile_background_color": "16022E", "profile_background_image_url": "http://abs.twimg.com/images/themes/theme1/bg.png", "profile_background_tile": false, "profile_banner_url": "https://pbs.twimg.com/profile_banners/31295634/1436687974", "profile_image_url": "https://pbs.twimg.com/profile_images/620140424561164288/gSnMU3eO_normal.jpg", "profile_link_color": "0084B4", "profile_sidebar_fill_color": "EBE8C1", "profile_text_color": "333333", "protected": false, "screen_name": "wampusreynolds", "statuses_count": 10350, "time_zone": "Tehran", "url": "https://t.co/unR0KCyqfi", "utc_offset": 12600}, "user_mentions": [{"id": 11740902, "name": "Tim Ferriss", "screen_name": "tferriss"}]}
{"created_at": "Wed Sep 30 21:30:16 +0000 2015", "favorite_count": 2, "favorited": false, "id": 649335475384094721, "lang": "en", "retweet_count": 1, "retweeted": false, "source": "<a href=\"http://twitter.com/download/iphone\" rel=\"nofollow\">Twitter for iPhone</a>", "text": "Y'all Bitches Be Fake Crazy, All Like If A Nigga Cheat On Me Ima Kill Him \ud83d\ude34 All You Gone Do Is Wanna Rumble The Bitch And Hop Back On Dick \ud83d\ude02", "truncated": false, "user": {"created_at": "Thu Dec 29 08:24:42 +0000 2011", "description": "#ArtistOnTheComeUp Email:// highklassnas@gmail.com Philly To Jersey - - HK GAWDZ", "favourites_count": 5238, "followers_count": 1220, "friends_count": 1136, "geo_enabled": true, "id": 449592166, "lang": "en", "name": "#FreeNeefBuck", "profile_background_color": "C0DEED", "profile_background_image_url": "http://pbs.twimg.com/profile_background_images/644783962/kicq257qagoqbkqovzb4.jpeg", "profile_background_tile": false, "profile_banner_url": "https://pbs.twimg.com/profile_banners/449592166/1446582435", "profile_image_url": "https://pbs.twimg.com/profile_images/659358641703677952/8aykgbj4_normal.jpg", "profile_link_color": "0084B4", "profile_sidebar_fill_color": "DDEEF6", "profile_text_color": "333333", "protected": false, "screen_name": "HighKlass_Nas", "statuses_count": 28932, "time_zone": "Central Time (US & Canada)", "url": "https://soundcloud.com/ray-mugga/popeyes-feat-bill-and-naz", "utc_offset": -21600}}
{"created_at": "Thu Oct 01 03:33:20 +0000 2015", "favorited": false, "id": 649426845423796224, "lang": "en", "media": [{"display_url": "pic.twitter.com/lB9X88mETd", "expanded_url": "http://twitter.com/freehackgames/status/649426845423796224/photo/1", "id": 649426845214093312, "id_str": "649426845214093312", "indices": [87, 109], "media_url": "http://pbs.twimg.com/media/CQM6RmCWsAAzp57.png", "media_url_https": "https://pbs.twimg.com/media/CQM6RmCWsAAzp57.png", "sizes": {"large": {"h": 347, "resize": "fit", "w": 555}, "medium": {"h": 347, "resize": "fit", "w": 555}, "small": {"h": 212, "resize": "fit", "w": 340}, "thumb": {"h": 150, "resize": "crop", "w": 150}}, "type": "photo", "url": "http://t.co/lB9X88mETd"}], "retweeted": false, "source": "<a href=\"http://newbetakey.com/\" rel=\"nofollow\">newbetakey</a>", "text": "Power Rangers Dino Rumble android game free download [Action] - http://t.co/pQgdPKuPb7 http://t.co/lB9X88mETd", "truncated": false, "urls": {"http://t.co/pQgdPKuPb7": "http://cheat-tools.net/power-rangers-dino-rumble-android-game-free-download-action/"}, "user": {"created_at": "Fri Jul 24 22:14:34 +0000 2009", "description": "Hack games, legally cheat at your favourite games, hack games you like. Hacking a game is not easy especially if you want to do it right. http://t.co/z2lTIRYdym", "favourites_count": 1000, "followers_count": 1179, "friends_count": 1092, "id": 59903206, "lang": "en", "listed_count": 5, "location": "usa", "name": "Free Hack Games", "profile_background_color": "0099B9", "profile_background_image_url": "http://abs.twimg.com/images/themes/theme4/bg.gif", "profile_background_tile": false, "profile_banner_url": "https://pbs.twimg.com/profile_banners/59903206/1365947206", "profile_image_url": "https://pbs.twimg.com/profile_images/460320754202996736/GuAPwwFb_normal.png", "profile_link_color": "00BBE0", "profile_sidebar_fill_color": "95E8EC", "profile_text_color": "3C3940", "protected": false, "screen_name": "freehackgames", "statuses_count": 9560, "time_zone": "Arizona", "url": "http://t.co/z2lTIRYdym", "utc_offset": -25200}}
{"created_at": "Fri Oct 09 16:38:55 +0000 2015", "favorited": false, "id": 652523647677009920, "lang": "en", "retweeted": false, "source": "<a href=\"https://about.twitter.com/products/tweetdeck\" rel=\"nofollow\">TweetDeck</a>", "text": "Dear @Bungie guardian kills should not counted be for killing people in your fireteam, peopel do rumble and do that to cheat. I Hate it", "truncated": false, "user": {"created_at": "Fri Feb 07 06:46:56 +0000 2014", "default_profile": true, "description": "IT Guy who is passionate about gaming and sharing his adventures though his gaming blog.", "favourites_count": 192, "followers_count": 100, "friends_count": 228, "id": 2331425280, "lang": "en", "listed_count": 1, "location": "Games", "name": "IT Guy", "profile_background_color": "C0DEED", "profile_background_image_url": "http://abs.twimg.com/images/themes/theme1/bg.png", "profile_background_tile": false, "profile_image_url": "https://pbs.twimg.com/profile_images/431814303461953536/_x-p-x-l_normal.jpeg", "profile_link_color": "0084B4", "profile_sidebar_fill_color": "DDEEF6", "profile_text_color": "333333", "protected": false, "screen_name": "ITGuyGaming", "statuses_count": 843, "time_zone": "Volgograd", "url": "http://t.co/AqF8ITJW02", "utc_offset": 10800}, "user_mentions": [{"id": 26280712, "name": "Bungie", "screen_name": "Bungie"}]}
{"created_at": "Mon Oct 12 16:18:53 +0000 2015", "favorited": false, "id": 653605770655694848, "in_reply_to_screen_name": "TheOnlyRazzYT", "in_reply_to_status_id": 653605659955601408, "in_reply_to_user_id": 1553750689, "lang": "en", "retweeted": false, "source": "<a href=\"http://twitter.com/#!/download/ipad\" rel=\"nofollow\">Twitter for iPad</a>", "text": "@TheOnlyRazzYT @IamaTurtle2 I'll just ask a friend to team with me in rumble, and I'll cheat it off.", "truncated": false, "user": {"created_at": "Tue Mar 19 21:23:56 +0000 2013", "description": "Some 17 guy | Soldier of the Night | #BatSquadEeeee | Morning Glory | Not a RPer | Profess. @TeamKaliber fan | AVI art not mine | Ask if you wanna know more", "favourites_count": 49495, "followers_count": 3305, "friends_count": 3289, "geo_enabled": true, "id": 1281555728, "lang": "en", "listed_count": 31, "location": "Lewisville (Ponyville), TX", "name": "HawkFire", "profile_background_color": "C0DEED", "profile_background_image_url": "http://pbs.twimg.com/profile_background_images/575030980739629056/DpGBKlbV.jpeg", "profile_background_tile": true, "profile_banner_url": "https://pbs.twimg.com/profile_banners/1281555728/1426561221", "profile_image_url": "https://pbs.twimg.com/profile_images/676511666918436865/hRhnV-xg_normal.jpg", "profile_link_color": "0000FF", "profile_sidebar_fill_color": "DDEEF6", "profile_text_color": "333333", "protected": false, "screen_name": "SP_220_HawkFire", "statuses_count": 72866, "time_zone": "Central America", "url": "https://t.co/P4u0o5RPeg", "utc_offset": -21600}, "user_mentions": [{"id": 1553750689, "name": "The Adorable Razz", "screen_name": "TheOnlyRazzYT"}, {"id": 1470908521, "name": "Spoopy Naive AvP", "screen_name": "IamaTurtle2"}]}
{"created_at": "Thu Oct 15 05:40:57 +0000 2015", "favorite_count": 45, "favorited": false, "id": 654532392971931648, "lang": "en", "retweet_count": 5, "retweeted": false, "source": "<a href=\"http://twitter.com/download/iphone\" rel=\"nofollow\">Twitter for iPhone</a>", "text": "If you insult ET, Raiders, Last Crusade, or Jurassic Park in my presence, prepare to rumble. I cheat and I fight dirty.", "truncated": false, "user": {"created_at": "Wed May 04 04:18:40 +0000 2011", "description": "#1 NYT Bestseller, Masshole, SC alum, map person. RED QUEEN out now and GLASS SWORD out 2/9/16 from HarperTeen. Rep'd by Suzie Townsend. I'm not here to mingle.", "favourites_count": 22179, "followers_count": 17777, "friends_count": 500, "id": 292737255, "lang": "en", "listed_count": 256, "location": "MA/LA", "name": "VictoREYa Aveyard", "profile_background_color": "C0DEED", "profile_background_image_url": "http://pbs.twimg.com/profile_background_images/633718172/qyqdw3hgij37356udaby.jpeg", "profile_background_tile": false, "profile_banner_url": "https://pbs.twimg.com/profile_banners/292737255/1436983154", "profile_image_url": "https://pbs.twimg.com/profile_images/671853924802912256/SjK-_O9w_normal.png", "profile_link_color": "3B94D9", "profile_sidebar_fill_color": "DDEEF6", "profile_text_color": "333333", "protected": false, "screen_name": "VictoriaAveyard", "statuses_count": 37789, "time_zone": "Atlantic Time (Canada)", "url": "https://t.co/GTobTfsBa5", "utc_offset": -14400, "verified": true}}
{"created_at": "Sun Oct 18 19:19:14 +0000 2015", "favorited": false, "id": 655825484824072192, "lang": "en", "retweeted": false, "source": "<a href=\"http://twitter.com/download/iphone\" rel=\"nofollow\">Twitter for iPhone</a>", "text": "*belly rumble*\n\nWelp time to cheat", "truncated": false, "user": {"created_at": "Sun Apr 11 06:03:47 +0000 2010", "description": "well peng / FLCL", "favourites_count": 5450, "followers_count": 1747, "friends_count": 665, "geo_enabled": true, "id": 131748193, "lang": "en", "listed_count": 8, "location": "Glo Gang", "name": "\u3164\u3164\u3164", "profile_background_color": "131516", "profile_background_image_url": "http://pbs.twimg.com/profile_background_images/378800000158285248/AZcyhhFE.jpeg", "profile_background_tile": true, "profile_banner_url": "https://pbs.twimg.com/profile_banners/131748193/1450953603", "profile_image_url": "https://pbs.twimg.com/profile_images/675796712393465856/OsOId1Y2_normal.jpg", "profile_link_color": "DBB004", "profile_sidebar_fill_color": "EFEFEF", "profile_text_color": "333333", "protected": false, "screen_name": "SixPhoneCoolie", "statuses_count": 70361, "time_zone": "Alaska", "utc_offset": -32400}}
{"created_at": "Mon Oct 19 03:49:28 +0000 2015", "favorited": false, "id": 655953888168710144, "in_reply_to_screen_name": "Anthony_Rumble", "in_reply_to_status_id": 654503941409865728, "in_reply_to_user_id": 350660137, "lang": "en", "retweeted": false, "source": "<a href=\"http://twitter.com\" rel=\"nofollow\">Twitter Web Client</a>", "text": "@Anthony_Rumble @UriahHallMMA u can't skip rumble and go straight to dc ! That'd be like using a cheat code, @ryanbader", "truncated": false, "user": {"created_at": "Sun May 15 04:22:14 +0000 2011", "default_profile_image": true, "favourites_count": 312, "followers_count": 15, "friends_count": 76, "id": 298897879, "lang": "en", "name": "Samuel Green", "profile_background_color": "000000", "profile_background_image_url": "http://abs.twimg.com/images/themes/theme1/bg.png", "profile_background_tile": false, "profile_banner_url": "https://pbs.twimg.com/profile_banners/298897879/1444035830", "profile_image_url": "https://abs.twimg.com/sticky/default_profile_images/default_profile_0_normal.png", "profile_link_color": "0084B4", "profile_sidebar_fill_color": "000000", "profile_text_color": "000000", "protected": false, "screen_name": "Samuel_Pancakes", "statuses_count": 517}, "user_mentions": [{"id": 350660137, "name": "Anthony Johnson", "screen_name": "Anthony_Rumble"}, {"id": 796865185, "name": "U R I A H    H A L L", "screen_name": "UriahHallMMA"}, {"id": 22832087, "name": "Ryan Bader", "screen_name": "ryanbader"}]}
{"created_at": "Tue Oct 20 11:53:11 +0000 2015", "favorited": false, "id": 656438008741167104, "in_reply_to_screen_name": "RealHughJackman", "in_reply_to_status_id": 656188536111144960, "in_reply_to_user_id": 27042513, "lang": "en", "retweeted": false, "source": "<a href=\"http://www.twitter.com\" rel=\"nofollow\">Twitter for Windows Phone</a>", "text": "@RealHughJackman  Cheat Cheat Cheat!! Olwayz Ready To Rumble With Foodiezz\ud83d\ude08", "truncated": false, "user": {"created_at": "Thu Sep 17 06:20:58 +0000 2015", "default_profile": true, "description": "# Teenager   # 5.11 - 170.  # Love: Mom\u2764   # CBR Possessor   # Rich In Enthusiasm   # Philanthropist   # UnSacred    # Relationship: Can't Say", "favourites_count": 47, "followers_count": 48, "friends_count": 130, "id": 3591022159, "lang": "en", "location": "India", "name": "Ram Rishikar", "profile_background_color": "C0DEED", "profile_background_image_url": "http://abs.twimg.com/images/themes/theme1/bg.png", "profile_background_tile": false, "profile_banner_url": "https://pbs.twimg.com/profile_banners/3591022159/1446396642", "profile_image_url": "https://pbs.twimg.com/profile_images/644397868195844096/XPF2ERAl_normal.jpg", "profile_link_color": "0084B4", "profile_sidebar_fill_color": "DDEEF6", "profile_text_color": "333333", "protected": false, "screen_name": "Rishi_Ibn215", "statuses_count": 164}, "user_mentions": [{"id": 27042513, "name": "Hugh Jackman", "screen_name": "RealHughJackman"}]}
{"created_at": "Wed Oct 21 13:28:22 +0000 2015", "favorited": false, "id": 656824348020469760, "in_reply_to_screen_name": "W1DGET", "in_reply_to_status_id": 656821524847046657, "in_reply_to_user_id": 71646958, "lang": "en", "retweeted": false, "source": "<a href=\"http://twitter.com\" rel=\"nofollow\">Twitter Web Client</a>", "text": "@W1DGET @Remalaptar @chunky_m0nk3y @MonkeyCh0ps 6-man fireteam, go into rumble and just cheat :-P", "truncated": false, "user": {"created_at": "Wed Feb 25 13:48:33 +0000 2009", "description": "Socialist, gamer, cinephile, in love with math-rock, co-host on @LapsedGamer, video content at  http://t.co/qBVaD40EAg", "favourites_count": 642, "followers_count": 211, "friends_count": 280, "geo_enabled": true, "id": 21866665, "lang": "en", "listed_count": 7, "location": "Northants", "name": "Mark Hamer", "profile_background_color": "000000", "profile_background_image_url": "http://pbs.twimg.com/profile_background_images/47416172/mqpeopledontread.br.jpg", "profile_background_tile": false, "profile_banner_url": "https://pbs.twimg.com/profile_banners/21866665/1402943690", "profile_image_url": "https://pbs.twimg.com/profile_images/603261788264640512/Yq6alRqq_normal.png", "profile_link_color": "706238", "profile_sidebar_fill_color": "F0E5C1", "profile_text_color": "000000", "protected": false, "screen_name": "Damocles693", "statuses_count": 4364, "time_zone": "London"}, "user_mentions": [{"id": 71646958, "name": "Paul Eccles", "screen_name": "W1DGET"}, {"id": 274045791, "name": "Andy Palmer", "screen_name": "Remalaptar"}, {"id": 301379700, "name": "Pete Turner", "screen_name": "chunky_m0nk3y"}, {"id": 143613180, "name": "Rehan Sheikh", "screen_name": "MonkeyCh0ps"}]}
{"created_at": "Tue Nov 03 01:04:57 +0000 2015", "favorited": false, "id": 661348305385955328, "lang": "en", "retweeted": false, "source": "<a href=\"http://twitter.com/download/iphone\" rel=\"nofollow\">Twitter for iPhone</a>", "text": "The last 2 people in the Royal Rumble should be Reigns and Ambrose and let Ambrose cheat to win it", "truncated": false, "user": {"created_at": "Tue Jul 26 06:08:01 +0000 2011", "description": "Don't @ Me My Girl Is Spanish", "favourites_count": 1868, "followers_count": 638, "friends_count": 280, "id": 342555701, "lang": "en", "listed_count": 10, "location": "Limitless Fortress ", "name": "Eobard Thawne", "profile_background_color": "000000", "profile_background_image_url": "http://abs.twimg.com/images/themes/theme1/bg.png", "profile_background_tile": false, "profile_banner_url": "https://pbs.twimg.com/profile_banners/342555701/1430324450", "profile_image_url": "https://pbs.twimg.com/profile_images/651544528256651264/5gJ-9Vsg_normal.jpg", "profile_link_color": "33B300", "profile_sidebar_fill_color": "000000", "profile_text_color": "000000", "protected": false, "screen_name": "Sucio_McFly", "statuses_count": 135180, "time_zone": "Central Time (US & Canada)", "utc_offset": -21600}}
{"created_at": "Fri Nov 06 00:33:49 +0000 2015", "favorited": false, "id": 662427632156454912, "in_reply_to_screen_name": "crazybrit462", "in_reply_to_status_id": 662427128714149888, "in_reply_to_user_id": 43123375, "lang": "en", "retweeted": false, "source": "<a href=\"http://twitter.com/download/iphone\" rel=\"nofollow\">Twitter for iPhone</a>", "text": "@crazybrit462 @thewadekeller perfect. Need reigns to cheat to win in the finals. That storyline brings us right to the rumble...easy", "truncated": false, "user": {"created_at": "Tue Apr 26 17:52:28 +0000 2011", "default_profile": true, "description": "anyway though, styles dont apply to me. Jeff Goldblum couldnt be more fly to me.", "favourites_count": 157, "followers_count": 51, "friends_count": 181, "id": 288345682, "lang": "en", "listed_count": 1, "name": "W", "profile_background_color": "C0DEED", "profile_background_image_url": "http://abs.twimg.com/images/themes/theme1/bg.png", "profile_background_tile": false, "profile_banner_url": "https://pbs.twimg.com/profile_banners/288345682/1399313175", "profile_image_url": "https://pbs.twimg.com/profile_images/672885865119633408/WLmsfLSz_normal.jpg", "profile_link_color": "0084B4", "profile_sidebar_fill_color": "DDEEF6", "profile_text_color": "333333", "protected": false, "screen_name": "BeamCarpenters", "statuses_count": 403, "time_zone": "Eastern Time (US & Canada)", "utc_offset": -18000}, "user_mentions": [{"id": 43123375, "name": "Mark Wright", "screen_name": "crazybrit462"}, {"id": 69524494, "name": "Wade Keller", "screen_name": "thewadekeller"}]}
{"created_at": "Thu Nov 12 19:01:35 +0000 2015", "favorited": false, "id": 664880738857283585, "lang": "en", "media": [{"display_url": "pic.twitter.com/9YcUEjTGVG", "expanded_url": "http://twitter.com/vinnysgreen/status/664880738857283585/photo/1", "id": 664880738744066049, "id_str": "664880738744066049", "indices": [37, 60], "media_url": "http://pbs.twimg.com/media/CTohglrW4AE6j88.jpg", "media_url_https": "https://pbs.twimg.com/media/CTohglrW4AE6j88.jpg", "sizes": {"large": {"h": 537, "resize": "fit", "w": 806}, "medium": {"h": 399, "resize": "fit", "w": 600}, "small": {"h": 226, "resize": "fit", "w": 340}, "thumb": {"h": 150, "resize": "crop", "w": 150}}, "type": "photo", "url": "https://t.co/9YcUEjTGVG"}], "retweeted": false, "source": "<a href=\"http://dlvr.it\" rel=\"nofollow\">dlvr.it</a>", "text": "Rumblr Cheat https://t.co/8A22KIKFVi https://t.co/9YcUEjTGVG", "truncated": false, "urls": {"https://t.co/8A22KIKFVi": "http://www.snopes.com/rumblr/"}, "user": {"created_at": "Tue Nov 11 20:09:34 +0000 2014", "description": "| https://t.co/Xt6XDiqOGc | https://t.co/SEI0Yy3IRo | https://t.co/Q7uZwoes2v | Marine Veteran, Ally, Political Junkie. Retweets are just retweets...", "favourites_count": 446, "followers_count": 415, "friends_count": 1730, "id": 2896866728, "lang": "en", "listed_count": 9, "location": "San Diego, CA", "name": "Vinny Green", "profile_background_color": "000000", "profile_background_image_url": "http://abs.twimg.com/images/themes/theme1/bg.png", "profile_background_tile": false, "profile_image_url": "https://pbs.twimg.com/profile_images/646510682989400064/53u-SeYI_normal.jpg", "profile_link_color": "3B94D9", "profile_sidebar_fill_color": "000000", "profile_text_color": "000000", "protected": false, "screen_name": "vinnysgreen", "statuses_count": 1707, "time_zone": "Pacific Time (US & Canada)", "url": "http://t.co/2ZoIAPUdGu", "utc_offset": -28800}}
{"created_at": "Thu Nov 12 19:42:32 +0000 2015", "favorited": false, "id": 664891044606156800, "lang": "en", "retweeted": false, "source": "<a href=\"http://twitter.com\" rel=\"nofollow\">Twitter Web Client</a>", "text": "Rumblr Cheat https://t.co/bMn3Ezyjw8", "truncated": false, "urls": {"https://t.co/bMn3Ezyjw8": "http://www.snopes.com/rumblr/"}, "user": {"created_at": "Wed Mar 04 00:39:31 +0000 2009", "default_profile": true, "description": "Prior to my party leaving me, I was raised by Uncle Walter and Murrow\u2019s Boys.", "favourites_count": 4671, "followers_count": 1169, "friends_count": 2046, "id": 22707692, "lang": "en", "listed_count": 78, "location": "Westchester County, NY", "name": "Jon Cohen", "profile_background_color": "C0DEED", "profile_background_image_url": "http://abs.twimg.com/images/themes/theme1/bg.png", "profile_background_tile": false, "profile_image_url": "https://pbs.twimg.com/profile_images/541451515831910400/jrl1-2VS_normal.png", "profile_link_color": "0084B4", "profile_sidebar_fill_color": "DDEEF6", "profile_text_color": "333333", "protected": false, "screen_name": "JonUPS_", "statuses_count": 128313, "time_zone": "Eastern Time (US & Canada)", "utc_offset": -18000}}
{"created_at": "Thu Nov 12 20:11:53 +0000 2015", "favorited": false, "id": 664898427805761536, "lang": "en", "retweeted": false, "source": "<a href=\"http://twitterfeed.com\" rel=\"nofollow\">twitterfeed</a>", "text": "Snopes: Rumblr Cheat: Yet again, the news and social media were duped by publicity grifters hawking Rumblr, a ... https://t.co/XWtxBZmKLq", "truncated": false, "urls": {"https://t.co/XWtxBZmKLq": "http://bit.ly/1NNYhrO"}, "user": {"created_at": "Thu Oct 09 17:37:27 +0000 2008", "description": "Let's make critical thinking easy (and fun).", "favourites_count": 4, "followers_count": 3837, "friends_count": 677, "id": 16669742, "lang": "en", "listed_count": 272, "location": "Everywhere", "name": "Skeptic Network", "profile_background_color": "000000", "profile_background_image_url": "http://pbs.twimg.com/profile_background_images/4759267/fractile_dk.jpg", "profile_background_tile": true, "profile_banner_url": "https://pbs.twimg.com/profile_banners/16669742/1360552274", "profile_image_url": "https://pbs.twimg.com/profile_images/90185083/fractile_sing_SN3_normal.jpg", "profile_link_color": "B00B07", "profile_sidebar_fill_color": "EBECEF", "profile_text_color": "15377E", "protected": false, "screen_name": "SkepNet", "statuses_count": 18326, "time_zone": "Eastern Time (US & Canada)", "utc_offset": -18000}}
{"created_at": "Thu Nov 12 20:11:54 +0000 2015", "favorited": false, "id": 664898432197197824, "lang": "et", "retweeted": false, "source": "<a href=\"http://twitterfeed.com\" rel=\"nofollow\">twitterfeed</a>", "text": "Snopes- Rumblr Cheat https://t.co/GO1uFnUzaY", "truncated": false, "urls": {"https://t.co/GO1uFnUzaY": "http://bit.ly/1NNYhrR"}, "user": {"created_at": "Wed Oct 29 14:35:02 +0000 2008", "default_profile": true, "description": "Random Headlines", "followers_count": 122, "friends_count": 13, "id": 17042353, "lang": "en", "listed_count": 3, "location": "Random", "name": "Headline Post", "profile_background_color": "C0DEED", "profile_background_image_url": "http://abs.twimg.com/images/themes/theme1/bg.png", "profile_background_tile": false, "profile_image_url": "https://pbs.twimg.com/profile_images/63101611/headline_normal.jpg", "profile_link_color": "0084B4", "profile_sidebar_fill_color": "DDEEF6", "profile_text_color": "333333", "protected": false, "screen_name": "headlinepost", "statuses_count": 15917, "time_zone": "Central Time (US & Canada)", "utc_offset": -21600}}
{"created_at": "Thu Nov 12 20:11:54 +0000 2015", "favorited": false, "id": 664898435384938496, "lang": "en", "retweeted": false, "source": "<a href=\"http://twitterfeed.com\" rel=\"nofollow\">twitterfeed</a>", "text": "IS IT TRUE? Rumblr Cheat: Yet again, the news and social media were duped by publicity grifters hawking Rumblr... https://t.co/Ddv8QlsQpR", "truncated": false, "urls": {"https://t.co/Ddv8QlsQpR": "http://bit.ly/1SmRK6n"}, "user": {"created_at": "Tue Nov 03 07:16:37 +0000 2009", "description": "Keeping the Internet safe by exposing online scams and hoaxes.", "followers_count": 152, "friends_count": 13, "id": 87130129, "lang": "en", "listed_count": 6, "location": "Tubes", "name": "Internet Scam", "profile_background_color": "000000", "profile_background_image_url": "http://pbs.twimg.com/profile_background_images/50465684/internetscam.jpg", "profile_background_tile": false, "profile_image_url": "https://pbs.twimg.com/profile_images/506278879/internetscam-id_normal.jpg", "profile_link_color": "2FC2EF", "profile_sidebar_fill_color": "000000", "profile_text_color": "666666", "protected": false, "screen_name": "InternetScam", "statuses_count": 2728, "time_zone": "Central Time (US & Canada)", "utc_offset": -21600}}
{"created_at": "Thu Nov 12 20:11:56 +0000 2015", "favorited": false, "hashtags": ["snopes"], "id": 664898442045423616, "lang": "en", "retweeted": false, "source": "<a href=\"http://twitterfeed.com\" rel=\"nofollow\">twitterfeed</a>", "text": "Rumblr Cheat https://t.co/6yIgKOoxad via @snopes #snopes", "truncated": false, "urls": {"https://t.co/6yIgKOoxad": "http://ap236.ca/1NNYfA0"}, "user": {"created_at": "Sun May 11 21:40:42 +0000 2008", "description": "President & CEO of Journey to Diversity Workplaces. Former Barrie Green Party President. Sci-fi fan.\r\nhttp://t.co/XIvT2nHlex", "favourites_count": 192, "followers_count": 846, "friends_count": 497, "id": 14737210, "lang": "en", "listed_count": 65, "location": "Barrie, Ontario, Canada", "name": "Peter V. Tretter", "profile_background_color": "000000", "profile_background_image_url": "http://pbs.twimg.com/profile_background_images/760525136/0c706c2e6268f6ffc8a8861f3bb3511d.jpeg", "profile_background_tile": true, "profile_banner_url": "https://pbs.twimg.com/profile_banners/14737210/1419116675", "profile_image_url": "https://pbs.twimg.com/profile_images/684597586318225408/jM95qqmC_normal.jpg", "profile_link_color": "95ACF9", "profile_sidebar_fill_color": "333333", "profile_text_color": "999999", "protected": false, "screen_name": "ap236", "statuses_count": 19414, "time_zone": "Eastern Time (US & Canada)", "url": "http://t.co/YcXyy379hb", "utc_offset": -18000}, "user_mentions": [{"id": 14294848, "name": "snopes.com", "screen_name": "snopes"}]}
{"created_at": "Thu Nov 12 20:11:57 +0000 2015", "favorited": false, "id": 664898448429199360, "lang": "en", "retweeted": false, "source": "<a href=\"http://twitterfeed.com\" rel=\"nofollow\">twitterfeed</a>", "text": "Rumblr Cheat: Yet again, the news and social media were duped by publicity grifters hawking Rumblr, a purporte... https://t.co/7m4tEA10ko", "truncated": false, "urls": {"https://t.co/7m4tEA10ko": "http://bit.ly/1NNYhrO"}, "user": {"created_at": "Tue Nov 09 09:35:42 +0000 2010", "favourites_count": 9, "followers_count": 874, "friends_count": 1639, "id": 213594945, "lang": "en", "listed_count": 5, "location": "New Jersey", "name": "Tammy Stein", "profile_background_color": "131516", "profile_background_image_url": "http://abs.twimg.com/images/themes/theme14/bg.gif", "profile_background_tile": true, "profile_image_url": "https://pbs.twimg.com/profile_images/1163133789/Tammy_Stein_normal.jpg", "profile_link_color": "009999", "profile_sidebar_fill_color": "EFEFEF", "profile_text_color": "333333", "protected": false, "screen_name": "Legal_101HQ", "statuses_count": 3246}}
{"created_at": "Thu Nov 12 20:11:58 +0000 2015", "favorited": false, "hashtags": ["factorfiction"], "id": 664898450828320768, "lang": "en", "retweeted": false, "source": "<a href=\"http://twitterfeed.com\" rel=\"nofollow\">twitterfeed</a>", "text": "Rumblr Cheat: Yet again, the news and social media were duped by publicity grifters hawking Rum... https://t.co/BvtwpSvQUZ #factorfiction", "truncated": false, "urls": {"https://t.co/BvtwpSvQUZ": "http://bit.ly/1NNYhrO"}, "user": {"created_at": "Tue Jun 17 15:05:55 +0000 2008", "description": "Professional photographer for many years, graduate of Brooks Institute, but now working in healthcare!  The advertising game got to be a drag...", "favourites_count": 209, "followers_count": 961, "friends_count": 1902, "id": 15146527, "lang": "en", "listed_count": 21, "location": "Tampa Bay, FL", "name": "Ted Wade", "profile_background_color": "B2DFDA", "profile_background_image_url": "http://pbs.twimg.com/profile_background_images/321056501/Inside_the_Melk_Abbey_-_can_you_spot_me_in_the_pho.jpg", "profile_background_tile": true, "profile_image_url": "https://pbs.twimg.com/profile_images/82775180/080124_Me_0005_normal.jpg", "profile_link_color": "93A644", "profile_sidebar_fill_color": "FFFFFF", "profile_text_color": "333333", "protected": false, "screen_name": "tedlw", "statuses_count": 47147, "time_zone": "Quito", "utc_offset": -18000}}
{"created_at": "Thu Nov 12 20:11:59 +0000 2015", "favorited": false, "id": 664898453739208704, "lang": "en", "retweeted": false, "source": "<a href=\"http://twitterfeed.com\" rel=\"nofollow\">twitterfeed</a>", "text": "Rumblr Cheat https://t.co/B67nWCjJQu", "truncated": false, "urls": {"https://t.co/B67nWCjJQu": "http://bit.ly/1NNYhrR"}, "user": {"created_at": "Thu Apr 30 17:23:18 +0000 2009", "description": "A modern day Don Quixote, the Knight of the Woeful Figure. Come with me through the trials of life and knight-errantry in this nasty world...", "followers_count": 91, "friends_count": 74, "id": 36717689, "lang": "en", "listed_count": 2, "location": "Spain and the World", "name": "Blog Quixote", "profile_background_color": "FFFFFF", "profile_background_image_url": "http://pbs.twimg.com/profile_background_images/10928963/BlogQuixote_Background.jpg", "profile_background_tile": false, "profile_image_url": "https://pbs.twimg.com/profile_images/192637077/QUIXOTE_normal.JPG", "profile_link_color": "9D582E", "profile_sidebar_fill_color": "EADEAA", "profile_text_color": "333333", "protected": false, "screen_name": "BlogQuixote", "statuses_count": 50446, "time_zone": "Madrid", "url": "http://t.co/nVpEhPQ0ft", "utc_offset": 3600}}
{"created_at": "Thu Nov 12 20:11:59 +0000 2015", "favorited": false, "id": 664898455630835712, "lang": "en", "retweeted": false, "source": "<a href=\"http://twitterfeed.com\" rel=\"nofollow\">twitterfeed</a>", "text": "Rumblr Cheat: Yet again, the news and social media were duped by publicity grifters hawking Rumblr, a purporte... https://t.co/Ve4G5DTvDR", "truncated": false, "urls": {"https://t.co/Ve4G5DTvDR": "http://bit.ly/1SmRK6n"}, "user": {"created_at": "Wed Jan 02 08:21:49 +0000 2013", "default_profile": true, "description": "Web designer. Computer tech. Like paranomal and mysteries.", "favourites_count": 1, "followers_count": 5116, "friends_count": 6497, "id": 1054540363, "lang": "en", "listed_count": 21, "name": "RMD.1", "profile_background_color": "C0DEED", "profile_background_image_url": "http://abs.twimg.com/images/themes/theme1/bg.png", "profile_background_tile": false, "profile_banner_url": "https://pbs.twimg.com/profile_banners/1054540363/1357115184", "profile_image_url": "https://pbs.twimg.com/profile_images/3062588092/156f982d0f6ea81a5e4eb08767adb86b_normal.jpeg", "profile_link_color": "0084B4", "profile_sidebar_fill_color": "DDEEF6", "profile_text_color": "333333", "protected": false, "screen_name": "rd_rmd1", "statuses_count": 3960, "time_zone": "New Caledonia", "utc_offset": 39600}}
{"created_at": "Fri Nov 13 14:06:06 +0000 2015", "favorited": false, "id": 665168765605294080, "lang": "en", "media": [{"display_url": "pic.twitter.com/eN9IVysn2a", "expanded_url": "http://twitter.com/racket_rumble/status/665168765605294080/photo/1", "id": 665168763956817920, "id_str": "665168763956817920", "indices": [121, 144], "media_url": "http://pbs.twimg.com/media/CTsnd3NU8AASJ6W.png", "media_url_https": "https://pbs.twimg.com/media/CTsnd3NU8AASJ6W.png", "sizes": {"large": {"h": 672, "resize": "fit", "w": 720}, "medium": {"h": 560, "resize": "fit", "w": 600}, "small": {"h": 317, "resize": "fit", "w": 340}, "thumb": {"h": 150, "resize": "crop", "w": 150}}, "type": "photo", "url": "https://t.co/eN9IVysn2a"}], "retweeted": false, "source": "<a href=\"http://www.twitter.com\" rel=\"nofollow\">Twitter for BlackBerry</a>", "text": "There's only one reason why a good &amp; loving husband would cheat on his wife w/the nanny-\nno intimacy in the marriage https://t.co/eN9IVysn2a", "truncated": false, "user": {"created_at": "Fri Oct 12 08:07:18 +0000 2012", "description": "\u201cIndifference may not wreck a man's life at any one turn, but it will destroy him with a kind of dry-rot in the long run\u201d\nRated R- 18+", "favourites_count": 4077, "followers_count": 414, "friends_count": 334, "id": 875175385, "lang": "en", "listed_count": 15, "location": "Ugh The Raptors ", "name": "Raptor Expert", "profile_background_color": "131516", "profile_background_image_url": "http://pbs.twimg.com/profile_background_images/378800000107916653/ace94b028f2db81a3e2fb21451de6f29.jpeg", "profile_background_tile": true, "profile_banner_url": "https://pbs.twimg.com/profile_banners/875175385/1446749721", "profile_image_url": "https://pbs.twimg.com/profile_images/682283507570216960/B7EW7cGQ_normal.jpg", "profile_link_color": "009999", "profile_sidebar_fill_color": "EFEFEF", "profile_text_color": "333333", "protected": false, "screen_name": "racket_rumble", "statuses_count": 20263, "time_zone": "Atlantic Time (Canada)", "utc_offset": -14400}}
{"created_at": "Mon Nov 16 23:54:04 +0000 2015", "favorited": false, "id": 666403893505576961, "lang": "en", "retweeted": false, "source": "<a href=\"http://twitter.com/download/iphone\" rel=\"nofollow\">Twitter for iPhone</a>", "text": "If you gone cheat on me make sure he look better than me &amp; he can rumble \ud83d\ude0a", "truncated": false, "user": {"created_at": "Mon Dec 05 02:35:42 +0000 2011", "description": "One Who Is Like God | Sc : grindb | #SOD #CrownsUpClawsOut", "favourites_count": 16596, "followers_count": 1790, "friends_count": 1279, "geo_enabled": true, "id": 428699548, "lang": "en", "listed_count": 3, "location": "Worlds 16' ", "name": "YEEZY", "profile_background_color": "F5ABB5", "profile_background_image_url": "http://abs.twimg.com/images/themes/theme14/bg.gif", "profile_background_tile": true, "profile_banner_url": "https://pbs.twimg.com/profile_banners/428699548/1452741184", "profile_image_url": "https://pbs.twimg.com/profile_images/687505785891459072/AiQF_-cb_normal.jpg", "profile_link_color": "9266CC", "profile_sidebar_fill_color": "EFEFEF", "profile_text_color": "333333", "protected": false, "screen_name": "_Brilx2", "statuses_count": 75799, "time_zone": "Alaska", "utc_offset": -32400}}
