{"created_at": "Wed Dec 16 22:18:39 +0000 2015", "favorited": false, "hashtags": ["YourLocalABC", "Richland"], "id": 677251519612194816, "in_reply_to_screen_name": "KierraKAPPKVEW", "in_reply_to_status_id": 677251128745066498, "in_reply_to_user_id": 1955180796, "lang": "en", "media": [{"display_url": "pic.twitter.com/rPulKzloTT", "expanded_url": "http://twitter.com/KierraKAPPKVEW/status/677251519612194816/photo/1", "id": 677251502033928192, "id_str": "677251502033928192", "indices": [121, 144], "media_url": "http://pbs.twimg.com/media/CWYUpyJVAAAnId8.jpg", "media_url_https": "https://pbs.twimg.com/media/CWYUpyJVAAAnId8.jpg", "sizes": {"large": {"h": 768, "resize": "fit", "w": 1024}, "medium": {"h": 450, "resize": "fit", "w": 600}, "small": {"h": 255, "resize": "fit", "w": 340}, "thumb": {"h": 150, "resize": "crop", "w": 150}}, "type": "photo", "url": "https://t.co/rPulKzloTT"}], "place": {"attributes": {}, "bounding_box": {"coordinates": [[[-119.2648184, 46.162262], [-119.087063, 46.162262], [-119.087063, 46.236321], [-119.2648184, 46.236321]]], "type": "Polygon"}, "contained_within": [], "country": "United States", "country_code": "US", "full_name": "Kennewick, WA", "id": "63d0671506628c8d", "name": "Kennewick", "place_type": "city", "url": "https://api.twitter.com/1.1/geo/id/63d0671506628c8d.json"}, "retweet_count": 1, "retweeted": false, "source": "<a href=\"http://twitter.com/download/iphone\" rel=\"nofollow\">Twitter for iPhone</a>", "text": "Tonight on #YourLocalABC: a Circle K employee refuses to serve a cop in #Richland. Responses from Circle K &amp; police. https://t.co/rPulKzloTT", "truncated": false, "user": {"created_at": "Fri Oct 11 22:25:51 +0000 2013", "description": "@KAPPKVEW Reporter | @UW alum | https://t.co/5MfOz5ScPy | kierrae@kvewtv.com", "favourites_count": 382, "followers_count": 452, "friends_count": 365, "geo_enabled": true, "id": 1955180796, "lang": "en", "listed_count": 16, "location": "Richland, WA", "name": "Kierra Elfalan", "profile_background_color": "C0DEED", "profile_background_image_url": "http://pbs.twimg.com/profile_background_images/378800000101675648/018bcd6108095843109e940afb92446c.jpeg", "profile_background_tile": false, "profile_banner_url": "https://pbs.twimg.com/profile_banners/1955180796/1451770817", "profile_image_url": "https://pbs.twimg.com/profile_images/678387469792894977/pbzUZ01E_normal.jpg", "profile_link_color": "9266CC", "profile_sidebar_fill_color": "DDEEF6", "profile_text_color": "333333", "protected": false, "screen_name": "KierraKAPPKVEW", "statuses_count": 673, "time_zone": "Arizona", "url": "https://t.co/jpOwHsyod6", "utc_offset": -25200}}
{"created_at": "Fri Dec 18 02:02:34 +0000 2015", "favorited": false, "id": 677670258409406464, "lang": "en", "media": [{"display_url": "pic.twitter.com/DwXY3fYMar", "expanded_url": "http://twitter.com/vinnysgreen/status/677670258409406464/photo/1", "id": 677670258250022912, "id_str": "677670258250022912", "indices": [71, 94], "media_url": "http://pbs.twimg.com/media/CWeRgmnXAAAL1-k.jpg", "media_url_https": "https://pbs.twimg.com/media/CWeRgmnXAAAL1-k.jpg", "sizes": {"large": {"h": 555, "resize": "fit", "w": 985}, "medium": {"h": 337, "resize": "fit", "w": 600}, "small": {"h": 191, "resize": "fit", "w": 340}, "thumb": {"h": 150, "resize": "crop", "w": 150}}, "type": "photo", "url": "https://t.co/DwXY3fYMar"}], "retweeted": false, "source": "<a href=\"http://dlvr.it\" rel=\"nofollow\">dlvr.it</a>", "text": "Circle K Clerk Refuses to Serve Police Officer https://t.co/AsuvZlYE9g https://t.co/DwXY3fYMar", "truncated": false, "urls": {"https://t.co/AsuvZlYE9g": "http://www.snopes.com/2015/12/17/circle-k-clerk-refuses-serve-police-officer/?utm_source=dlvr.it&utm_medium=twitter&utm_campaign=vinnysgreen"}, "user": {"created_at": "Tue Nov 11 20:09:34 +0000 2014", "description": "| https://t.co/Xt6XDiqOGc | https://t.co/SEI0Yy3IRo | https://t.co/Q7uZwoes2v | Marine Veteran, Ally, Political Junkie. Retweets are just retweets...", "favourites_count": 446, "followers_count": 415, "friends_count": 1730, "id": 2896866728, "lang": "en", "listed_count": 9, "location": "San Diego, CA", "name": "Vinny Green", "profile_background_color": "000000", "profile_background_image_url": "http://abs.twimg.com/images/themes/theme1/bg.png", "profile_background_tile": false, "profile_image_url": "https://pbs.twimg.com/profile_images/646510682989400064/53u-SeYI_normal.jpg", "profile_link_color": "3B94D9", "profile_sidebar_fill_color": "000000", "profile_text_color": "000000", "protected": false, "screen_name": "vinnysgreen", "statuses_count": 1695, "time_zone": "Pacific Time (US & Canada)", "url": "http://t.co/2ZoIAPUdGu", "utc_offset": -28800}}
{"created_at": "Fri Dec 18 02:21:07 +0000 2015", "favorite_count": 10, "favorited": false, "hashtags": ["CircleK"], "id": 677674926971727872, "lang": "en", "media": [{"display_url": "pic.twitter.com/yqfIpfkEmp", "expanded_url": "http://twitter.com/snopes/status/677674926971727872/photo/1", "id": 677674925692448768, "id_str": "677674925692448768", "indices": [94, 117], "media_url": "http://pbs.twimg.com/media/CWeVwSMWcAAFCVI.jpg", "media_url_https": "https://pbs.twimg.com/media/CWeVwSMWcAAFCVI.jpg", "sizes": {"large": {"h": 555, "resize": "fit", "w": 985}, "medium": {"h": 337, "resize": "fit", "w": 600}, "small": {"h": 191, "resize": "fit", "w": 340}, "thumb": {"h": 150, "resize": "crop", "w": 150}}, "type": "photo", "url": "https://t.co/yqfIpfkEmp"}], "retweet_count": 8, "retweeted": false, "source": "<a href=\"http://twitter.com\" rel=\"nofollow\">Twitter Web Client</a>", "text": "Police in West Richland kindly ask you stop outraging over #CircleK:\n\nhttps://t.co/zuWMkQBMqb https://t.co/yqfIpfkEmp", "truncated": false, "urls": {"https://t.co/zuWMkQBMqb": "http://www.snopes.com/2015/12/17/circle-k-clerk-refuses-serve-police-officer/"}, "user": {"created_at": "Thu Apr 03 17:00:11 +0000 2008", "description": "The definitive Internet reference source for urban legends, folklore, myths, rumors, and misinformation.", "favourites_count": 12, "followers_count": 118555, "id": 14294848, "lang": "en", "listed_count": 3235, "name": "snopes.com", "profile_background_color": "C7F2B1", "profile_background_image_url": "http://pbs.twimg.com/profile_background_images/840081271/d90db0daf7c81f75aea62d88c084e755.png", "profile_background_tile": false, "profile_banner_url": "https://pbs.twimg.com/profile_banners/14294848/1365714336", "profile_image_url": "https://pbs.twimg.com/profile_images/3507964197/be9d1840411bca2d8101382340f58957_normal.png", "profile_link_color": "81D159", "profile_sidebar_fill_color": "DDEEF6", "profile_text_color": "333333", "protected": false, "screen_name": "snopes", "statuses_count": 4852, "time_zone": "Pacific Time (US & Canada)", "url": "http://t.co/10Or8rl3ff", "utc_offset": -28800, "verified": true}}
{"created_at": "Fri Dec 18 02:22:36 +0000 2015", "favorited": false, "hashtags": ["CircleK"], "id": 677675296829624320, "lang": "en", "media": [{"display_url": "pic.twitter.com/JWmmol2uN8", "expanded_url": "http://twitter.com/snopes/status/677674926971727872/photo/1", "id": 677674925692448768, "id_str": "677674925692448768", "indices": [94, 117], "media_url": "http://pbs.twimg.com/media/CWeVwSMWcAAFCVI.jpg", "media_url_https": "https://pbs.twimg.com/media/CWeVwSMWcAAFCVI.jpg", "sizes": {"large": {"h": 555, "resize": "fit", "w": 985}, "medium": {"h": 337, "resize": "fit", "w": 600}, "small": {"h": 191, "resize": "fit", "w": 340}, "thumb": {"h": 150, "resize": "crop", "w": 150}}, "source_status_id": 677674926971727872, "source_status_id_str": "677674926971727872", "source_user_id": 14294848, "source_user_id_str": "14294848", "type": "photo", "url": "https://t.co/JWmmol2uN8"}], "retweeted": false, "source": "<a href=\"http://ifttt.com\" rel=\"nofollow\">IFTTT</a>", "text": "Police in West Richland kindly ask you stop outraging over #CircleK:\n\nhttps://t.co/7wE4bKbPGl https://t.co/JWmmol2uN8", "truncated": false, "urls": {"https://t.co/7wE4bKbPGl": "http://www.snopes.com/2015/12/17/circle-k-clerk-refuses-serve-police-officer/"}, "user": {"created_at": "Mon Jan 28 14:40:52 +0000 2013", "default_profile": true, "description": "I tweet about all things in Cape Town. #CapeFact The Mother City. For info in events: #CapeEvents. Also #capetownfairy me for any quests", "favourites_count": 661, "followers_count": 2623, "friends_count": 2736, "id": 1128255048, "lang": "en", "listed_count": 90, "location": "Cape Town", "name": "Cape Town Fairy", "profile_background_color": "C0DEED", "profile_background_image_url": "http://abs.twimg.com/images/themes/theme1/bg.png", "profile_background_tile": false, "profile_banner_url": "https://pbs.twimg.com/profile_banners/1128255048/1359385361", "profile_image_url": "https://pbs.twimg.com/profile_images/3175089990/ddcec258fe970be63266d343dc094577_normal.png", "profile_link_color": "0084B4", "profile_sidebar_fill_color": "DDEEF6", "profile_text_color": "333333", "protected": false, "screen_name": "CapeTownFairy", "statuses_count": 72988, "time_zone": "Athens", "utc_offset": 7200}}
{"created_at": "Fri Dec 18 02:24:43 +0000 2015", "favorited": false, "hashtags": ["CircleK", "Clerk", "PoliceOfficerPolice", "officer"], "id": 677675829552353280, "lang": "en", "media": [{"display_url": "pic.twitter.com/ImoU1MTyNo", "expanded_url": "http://twitter.com/Hoaxolizer/status/677675829552353280/photo/1", "id": 677675829422354433, "id_str": "677675829422354433", "indices": [105, 128], "media_url": "http://pbs.twimg.com/media/CWeWk42WcAEdj5c.jpg", "media_url_https": "https://pbs.twimg.com/media/CWeWk42WcAEdj5c.jpg", "sizes": {"large": {"h": 480, "resize": "fit", "w": 640}, "medium": {"h": 450, "resize": "fit", "w": 600}, "small": {"h": 255, "resize": "fit", "w": 340}, "thumb": {"h": 150, "resize": "crop", "w": 150}}, "type": "photo", "url": "https://t.co/ImoU1MTyNo"}], "retweeted": false, "source": "<a href=\"http://leadstories.com\" rel=\"nofollow\">Lead Stories Feed Publisher</a>", "text": "#CircleK #Clerk Refuses to Serve Police Officer #PoliceOfficerPolice #officer... https://t.co/MMRNO9mCoV https://t.co/ImoU1MTyNo", "truncated": false, "urls": {"https://t.co/MMRNO9mCoV": "http://hoax.trendolizer.com/2015/12/circle-k-clerk-refuses-to-serve-police-officer.html"}, "user": {"created_at": "Tue Oct 21 09:02:21 +0000 2014", "default_profile": true, "description": "The most trending news about hoaxes as collected by Trendolizer", "followers_count": 662, "friends_count": 429, "id": 2839486181, "lang": "en", "listed_count": 64, "name": "Trending Hoax News", "profile_background_color": "C0DEED", "profile_background_image_url": "http://abs.twimg.com/images/themes/theme1/bg.png", "profile_background_tile": false, "profile_banner_url": "https://pbs.twimg.com/profile_banners/2839486181/1413882440", "profile_image_url": "https://pbs.twimg.com/profile_images/524486681945067520/woFPZPVc_normal.jpeg", "profile_link_color": "0084B4", "profile_sidebar_fill_color": "DDEEF6", "profile_text_color": "333333", "protected": false, "screen_name": "Hoaxolizer", "statuses_count": 12981, "url": "http://t.co/7pRPb4ABpu"}}
{"created_at": "Fri Dec 18 02:33:26 +0000 2015", "favorited": false, "id": 677678026310688769, "lang": "en", "retweeted": false, "source": "<a href=\"http://twitterfeed.com\" rel=\"nofollow\">twitterfeed</a>", "text": "Circle K Clerk Refuses to Serve Police Officer: Police in West Richland, Washington attempted to defuse social... https://t.co/MWObjUakG9", "truncated": false, "urls": {"https://t.co/MWObjUakG9": "http://bit.ly/1UGW8PF"}, "user": {"created_at": "Mon May 16 17:15:31 +0000 2011", "description": "Imperfection is beauty, madness is genius and it's better to be absolutely ridiculous than absolutely boring.", "favourites_count": 91, "followers_count": 2414, "friends_count": 2152, "id": 299774695, "lang": "en", "listed_count": 104, "location": "Chicago, IL", "name": "Claire Brooks", "profile_background_color": "FFFFFF", "profile_background_image_url": "http://pbs.twimg.com/profile_background_images/448914235171418112/O6etbApY.png", "profile_background_tile": true, "profile_banner_url": "https://pbs.twimg.com/profile_banners/299774695/1395864769", "profile_image_url": "https://pbs.twimg.com/profile_images/448916115519840256/qto38nWs_normal.jpeg", "profile_link_color": "000000", "profile_sidebar_fill_color": "E0ECF8", "profile_text_color": "606060", "protected": false, "screen_name": "violentdaylight", "statuses_count": 196160, "time_zone": "Central Time (US & Canada)", "url": "http://t.co/8gPJ5tHMMj", "utc_offset": -21600}}
{"created_at": "Fri Dec 18 02:45:27 +0000 2015", "favorited": false, "id": 677681048302575616, "lang": "en", "retweeted": false, "source": "<a href=\"http://twitter.com\" rel=\"nofollow\">Twitter Web Client</a>", "text": "There's a war on cops the way there is a war on Christmas. The officer's wife that started this outrage seems nice. https://t.co/BLRPJuNKIw", "truncated": false, "urls": {"https://t.co/BLRPJuNKIw": "http://www.snopes.com/2015/12/17/circle-k-clerk-refuses-serve-police-officer/"}, "user": {"created_at": "Sat Feb 01 15:16:47 +0000 2014", "default_profile": true, "description": "My Iron Dog prowess honors the indomitability of the human spirit & man's ability 2 sit & hold on. My 21 SkiDoo races = Chevy Malibu driven around equator 588x", "favourites_count": 489, "followers_count": 88, "friends_count": 253, "id": 2322477504, "lang": "en", "listed_count": 9, "name": "Calamity Todd Fe", "profile_background_color": "C0DEED", "profile_background_image_url": "http://abs.twimg.com/images/themes/theme1/bg.png", "profile_background_tile": false, "profile_banner_url": "https://pbs.twimg.com/profile_banners/2322477504/1394221515", "profile_image_url": "https://pbs.twimg.com/profile_images/507216456929378304/Iu-odlZn_normal.jpeg", "profile_link_color": "0084B4", "profile_sidebar_fill_color": "DDEEF6", "profile_text_color": "333333", "protected": false, "screen_name": "CalamityToddFe", "statuses_count": 2268}}
{"created_at": "Fri Dec 18 02:49:19 +0000 2015", "favorited": false, "id": 677682023255941120, "lang": "en", "retweeted": false, "source": "<a href=\"http://twitterfeed.com\" rel=\"nofollow\">twitterfeed</a>", "text": "Snopes: Circle K Clerk Refuses to Serve Police Officer: Police in West Richland, Washington attempted to defus... https://t.co/tJhNcJ0CKa", "truncated": false, "urls": {"https://t.co/tJhNcJ0CKa": "http://bit.ly/1lV1Sd3"}, "user": {"created_at": "Thu Oct 09 17:37:27 +0000 2008", "description": "Let's make critical thinking easy (and fun).", "favourites_count": 4, "followers_count": 3835, "friends_count": 677, "id": 16669742, "lang": "en", "listed_count": 272, "location": "Everywhere", "name": "Skeptic Network", "profile_background_color": "000000", "profile_background_image_url": "http://pbs.twimg.com/profile_background_images/4759267/fractile_dk.jpg", "profile_background_tile": true, "profile_banner_url": "https://pbs.twimg.com/profile_banners/16669742/1360552274", "profile_image_url": "https://pbs.twimg.com/profile_images/90185083/fractile_sing_SN3_normal.jpg", "profile_link_color": "B00B07", "profile_sidebar_fill_color": "EBECEF", "profile_text_color": "15377E", "protected": false, "screen_name": "SkepNet", "statuses_count": 18316, "time_zone": "Eastern Time (US & Canada)", "utc_offset": -18000}}
{"created_at": "Fri Dec 18 02:49:21 +0000 2015", "favorited": false, "id": 677682029346103299, "lang": "en", "retweeted": false, "source": "<a href=\"http://twitterfeed.com\" rel=\"nofollow\">twitterfeed</a>", "text": "urban legend: Police in West Richland, Washington attempted to defuse social media outrage after an officer's ... https://t.co/S4u4hQJHjy", "truncated": false, "urls": {"https://t.co/S4u4hQJHjy": "http://bit.ly/1UGW8PF"}, "user": {"created_at": "Fri Feb 06 02:21:17 +0000 2009", "default_profile": true, "followers_count": 316, "friends_count": 33, "id": 20211460, "lang": "en", "listed_count": 12, "name": "Urban Legends", "profile_background_color": "C0DEED", "profile_background_image_url": "http://abs.twimg.com/images/themes/theme1/bg.png", "profile_background_tile": false, "profile_image_url": "https://pbs.twimg.com/profile_images/607710950532083713/MvenxG0Z_normal.jpg", "profile_link_color": "0084B4", "profile_sidebar_fill_color": "DDEEF6", "profile_text_color": "333333", "protected": false, "screen_name": "UrbanLegends", "statuses_count": 2202, "time_zone": "Eastern Time (US & Canada)", "utc_offset": -18000}}
{"created_at": "Fri Dec 18 02:49:22 +0000 2015", "favorited": false, "id": 677682033590673408, "lang": "en", "retweeted": false, "source": "<a href=\"http://twitterfeed.com\" rel=\"nofollow\">twitterfeed</a>", "text": "Snopes- Circle K Clerk Refuses to Serve Police Officer https://t.co/ZpXXCs7VbR", "truncated": false, "urls": {"https://t.co/ZpXXCs7VbR": "http://bit.ly/1UGW8PF"}, "user": {"created_at": "Wed Oct 29 14:35:02 +0000 2008", "default_profile": true, "description": "Random Headlines", "followers_count": 122, "friends_count": 13, "id": 17042353, "lang": "en", "listed_count": 3, "location": "Random", "name": "Headline Post", "profile_background_color": "C0DEED", "profile_background_image_url": "http://abs.twimg.com/images/themes/theme1/bg.png", "profile_background_tile": false, "profile_image_url": "https://pbs.twimg.com/profile_images/63101611/headline_normal.jpg", "profile_link_color": "0084B4", "profile_sidebar_fill_color": "DDEEF6", "profile_text_color": "333333", "protected": false, "screen_name": "headlinepost", "statuses_count": 15901, "time_zone": "Central Time (US & Canada)", "utc_offset": -21600}}
{"created_at": "Fri Dec 18 04:22:56 +0000 2015", "favorited": false, "id": 677705582166614017, "lang": "en", "media": [{"display_url": "pic.twitter.com/foH2LiMJrd", "expanded_url": "http://twitter.com/AlgieFlowersesq/status/677705582166614017/photo/1", "id": 677705581969436672, "id_str": "677705581969436672", "indices": [74, 97], "media_url": "http://pbs.twimg.com/media/CWexotuWcAAaAUr.jpg", "media_url_https": "https://pbs.twimg.com/media/CWexotuWcAAaAUr.jpg", "sizes": {"large": {"h": 555, "resize": "fit", "w": 985}, "medium": {"h": 337, "resize": "fit", "w": 600}, "small": {"h": 191, "resize": "fit", "w": 340}, "thumb": {"h": 150, "resize": "crop", "w": 150}}, "type": "photo", "url": "https://t.co/foH2LiMJrd"}], "retweeted": false, "source": "<a href=\"http://www.algernonflowers.com\" rel=\"nofollow\">Algernon Flowers</a>", "text": "Circle K Clerk Refuses to Serve Police Officer -  https://t.co/8Bjzsqs5TY https://t.co/foH2LiMJrd", "truncated": false, "urls": {"https://t.co/8Bjzsqs5TY": "http://www.algernonflowers.com/circle-k-clerk-refuses-to-serve-police-officer/"}, "user": {"created_at": "Fri Nov 20 06:27:48 +0000 2015", "default_profile": true, "description": "SKEPTICISM, ATHIESM, SECULARISM AND POLITICS VIEWED FROM LONDON", "favourites_count": 2, "followers_count": 28, "friends_count": 197, "id": 4232373135, "lang": "en", "listed_count": 1, "location": "London", "name": "Algernon Flowers", "profile_background_color": "C0DEED", "profile_background_image_url": "http://abs.twimg.com/images/themes/theme1/bg.png", "profile_background_tile": false, "profile_banner_url": "https://pbs.twimg.com/profile_banners/4232373135/1448116809", "profile_image_url": "https://pbs.twimg.com/profile_images/668029575583178756/xYR2FcLY_normal.jpg", "profile_link_color": "0084B4", "profile_sidebar_fill_color": "DDEEF6", "profile_text_color": "333333", "protected": false, "screen_name": "AlgieFlowersesq", "statuses_count": 923, "url": "https://t.co/efYWuCcN3U"}}
{"created_at": "Fri Dec 18 04:23:11 +0000 2015", "favorited": false, "id": 677705645911617537, "lang": "en", "media": [{"display_url": "pic.twitter.com/01D1bUkOrU", "expanded_url": "http://twitter.com/AlgieFlowersesq/status/677705645911617537/photo/1", "id": 677705645060132864, "id_str": "677705645060132864", "indices": [71, 94], "media_url": "http://pbs.twimg.com/media/CWexsYwWEAAc1mu.jpg", "media_url_https": "https://pbs.twimg.com/media/CWexsYwWEAAc1mu.jpg", "sizes": {"large": {"h": 555, "resize": "fit", "w": 985}, "medium": {"h": 337, "resize": "fit", "w": 600}, "small": {"h": 191, "resize": "fit", "w": 340}, "thumb": {"h": 150, "resize": "crop", "w": 150}}, "type": "photo", "url": "https://t.co/01D1bUkOrU"}], "retweeted": false, "source": "<a href=\"http://publicize.wp.com/\" rel=\"nofollow\">WordPress.com</a>", "text": "Circle K Clerk Refuses to Serve Police\u00a0Officer https://t.co/8Bjzsqs5TY https://t.co/01D1bUkOrU", "truncated": false, "urls": {"https://t.co/8Bjzsqs5TY": "http://www.algernonflowers.com/circle-k-clerk-refuses-to-serve-police-officer/"}, "user": {"created_at": "Fri Nov 20 06:27:48 +0000 2015", "default_profile": true, "description": "SKEPTICISM, ATHIESM, SECULARISM AND POLITICS VIEWED FROM LONDON", "favourites_count": 2, "followers_count": 28, "friends_count": 197, "id": 4232373135, "lang": "en", "listed_count": 1, "location": "London", "name": "Algernon Flowers", "profile_background_color": "C0DEED", "profile_background_image_url": "http://abs.twimg.com/images/themes/theme1/bg.png", "profile_background_tile": false, "profile_banner_url": "https://pbs.twimg.com/profile_banners/4232373135/1448116809", "profile_image_url": "https://pbs.twimg.com/profile_images/668029575583178756/xYR2FcLY_normal.jpg", "profile_link_color": "0084B4", "profile_sidebar_fill_color": "DDEEF6", "profile_text_color": "333333", "protected": false, "screen_name": "AlgieFlowersesq", "statuses_count": 923, "url": "https://t.co/efYWuCcN3U"}}
{"created_at": "Fri Dec 18 23:07:44 +0000 2015", "favorite_count": 1, "favorited": false, "hashtags": ["Snopes"], "id": 677988647342313473, "lang": "en", "retweeted": false, "source": "<a href=\"http://momknowsshopping.com/UFOParanormal\" rel=\"nofollow\">UFOParanormalNews</a>", "text": "#Snopes  Circle K Clerk Refuses to Serve Police Officer https://t.co/a4Zn39nKmu", "truncated": false, "urls": {"https://t.co/a4Zn39nKmu": "http://goo.gl/DMoxlL"}, "user": {"created_at": "Wed Oct 01 13:34:46 +0000 2014", "description": "We provide the latest news on #UFO's, #Paranormal, #Ghosts and everything that is strange or weird. Plus #Software, #Camera's and #Computer items.", "favourites_count": 3, "followers_count": 12326, "friends_count": 11489, "geo_enabled": true, "id": 2797963749, "lang": "en", "listed_count": 413, "name": "UFO Paranormal", "profile_background_color": "000000", "profile_background_image_url": "http://abs.twimg.com/images/themes/theme1/bg.png", "profile_background_tile": false, "profile_banner_url": "https://pbs.twimg.com/profile_banners/2797963749/1419626990", "profile_image_url": "https://pbs.twimg.com/profile_images/517311356198858753/OkOTy-q6_normal.jpeg", "profile_link_color": "FA743E", "profile_sidebar_fill_color": "000000", "profile_text_color": "000000", "protected": false, "screen_name": "UFOParanormNews", "statuses_count": 76966, "url": "https://t.co/I4rmVNErYQ"}}
