{"created_at": "Sat Oct 17 15:48:58 +0000 2015", "favorited": false, "id": 655410181627641856, "lang": "en", "retweeted": false, "source": "<a href=\"http://twitter.com\" rel=\"nofollow\">Twitter Web Client</a>", "text": "Can't wait to show off my costume to trick-or-treaters: Guy Who Almost Didn't Open Door, But Did, Only To Inform Children He Has No Candy.", "truncated": false, "user": {"created_at": "Mon Aug 02 03:53:46 +0000 2010", "default_profile": true, "description": "TV Writer, Contributor to @FunnyOrDie, @RecordSetter, YouTube Filmmaker", "favourites_count": 1023, "followers_count": 373, "friends_count": 357, "id": 173699583, "lang": "en", "listed_count": 3, "location": "Toronto", "name": "David Elmaleh", "profile_background_color": "C0DEED", "profile_background_image_url": "http://abs.twimg.com/images/themes/theme1/bg.png", "profile_background_tile": false, "profile_image_url": "https://pbs.twimg.com/profile_images/666076732399738881/_Rum75AT_normal.jpg", "profile_link_color": "0084B4", "profile_sidebar_fill_color": "DDEEF6", "profile_text_color": "333333", "protected": false, "screen_name": "davidelmaleh", "statuses_count": 163, "time_zone": "Eastern Time (US & Canada)", "url": "https://t.co/cwIYpZN7qp", "utc_offset": -18000}}
{"created_at": "Mon Oct 19 18:07:45 +0000 2015", "favorite_count": 80, "favorited": false, "id": 656169880085991424, "lang": "en", "media": [{"display_url": "pic.twitter.com/7mally1kCM", "expanded_url": "http://twitter.com/Cernovich/status/656169880085991424/photo/1", "id": 656169873874272257, "id_str": "656169873874272257", "indices": [31, 53], "media_url": "http://pbs.twimg.com/media/CRsvBhSWwAEfCxy.jpg", "media_url_https": "https://pbs.twimg.com/media/CRsvBhSWwAEfCxy.jpg", "sizes": {"large": {"h": 720, "resize": "fit", "w": 480}, "medium": {"h": 720, "resize": "fit", "w": 480}, "small": {"h": 510, "resize": "fit", "w": 340}, "thumb": {"h": 150, "resize": "crop", "w": 150}}, "type": "photo", "url": "http://t.co/7mally1kCM"}], "retweet_count": 65, "retweeted": false, "source": "<a href=\"http://twitter.com/download/iphone\" rel=\"nofollow\">Twitter for iPhone</a>", "text": "No Candy for Bigoted Children! http://t.co/7mally1kCM", "truncated": false, "user": {"created_at": "Sat Aug 20 03:02:29 +0000 2011", "description": "Author of Gorilla Mindset, lawyer, and free speech activist. I've been in jail and sued. Still standing.", "favourites_count": 8425, "followers_count": 26339, "friends_count": 648, "geo_enabled": true, "id": 358545917, "lang": "en", "listed_count": 341, "location": "Mexico ", "name": "Mike Cernovich", "profile_background_color": "1A1B1F", "profile_background_image_url": "http://pbs.twimg.com/profile_background_images/674428640323596288/Q2bwNItx.jpg", "profile_background_tile": false, "profile_banner_url": "https://pbs.twimg.com/profile_banners/358545917/1449631534", "profile_image_url": "https://pbs.twimg.com/profile_images/656152201447002113/4FZgHsis_normal.jpg", "profile_link_color": "DD2E44", "profile_sidebar_fill_color": "000000", "profile_text_color": "000000", "protected": false, "screen_name": "Cernovich", "statuses_count": 42096, "time_zone": "Pacific Time (US & Canada)", "url": "https://t.co/EgEle73vxA", "utc_offset": -28800}}
{"created_at": "Wed Oct 21 23:13:15 +0000 2015", "favorite_count": 12, "favorited": false, "id": 656971539846328320, "lang": "en", "retweet_count": 2, "retweeted": false, "source": "<a href=\"http://twitter.com/download/iphone\" rel=\"nofollow\">Twitter for iPhone</a>", "text": "NO CANDY FOR BIGOTED CHILDREN", "truncated": false, "user": {"created_at": "Sat Jan 22 00:00:39 +0000 2011", "description": "Intersectional feminist. Non-Arab Palestinian. 19 years young, and Pansexual. #ProtectTransLives #BlackLivesMatter #FreePalestine @rihanna follows", "favourites_count": 78950, "followers_count": 19117, "friends_count": 985, "geo_enabled": true, "id": 241316195, "lang": "en", "listed_count": 104, "location": "Chicago, IL", "name": "\u0633\u0627\u0645\u0631", "profile_background_color": "F5ABB5", "profile_background_image_url": "http://pbs.twimg.com/profile_background_images/631265747197521920/LTqRASba.jpg", "profile_background_tile": true, "profile_banner_url": "https://pbs.twimg.com/profile_banners/241316195/1451161921", "profile_image_url": "https://pbs.twimg.com/profile_images/680847079808217088/mcfNw3Pm_normal.png", "profile_link_color": "F5ABB5", "profile_sidebar_fill_color": "DDEEF6", "profile_text_color": "333333", "protected": false, "screen_name": "KababPapi", "statuses_count": 192651, "time_zone": "Central Time (US & Canada)", "url": "https://t.co/CxNimZsOjT", "utc_offset": -21600}}
{"created_at": "Thu Oct 22 22:48:47 +0000 2015", "favorite_count": 13, "favorited": false, "id": 657327770310197248, "lang": "en", "media": [{"display_url": "pic.twitter.com/0VZoyd620I", "expanded_url": "http://twitter.com/snopes/status/657327770310197248/photo/1", "id": 657327769391493120, "id_str": "657327769391493120", "indices": [106, 129], "media_url": "http://pbs.twimg.com/media/CR9MH6OUcAAOuJ-.jpg", "media_url_https": "https://pbs.twimg.com/media/CR9MH6OUcAAOuJ-.jpg", "sizes": {"large": {"h": 900, "resize": "fit", "w": 600}, "medium": {"h": 900, "resize": "fit", "w": 600}, "small": {"h": 510, "resize": "fit", "w": 340}, "thumb": {"h": 150, "resize": "crop", "w": 150}}, "type": "photo", "url": "https://t.co/0VZoyd620I"}], "retweet_count": 26, "retweeted": false, "source": "<a href=\"http://twitter.com\" rel=\"nofollow\">Twitter Web Client</a>", "text": "No one is withholding candy from \"bigoted children\" dressed as cops or soldiers:\n\nhttps://t.co/yykA9LBl5v https://t.co/0VZoyd620I", "truncated": false, "urls": {"https://t.co/yykA9LBl5v": "http://www.snopes.com/no-candy-bigoted-children/"}, "user": {"created_at": "Thu Apr 03 17:00:11 +0000 2008", "description": "The definitive Internet reference source for urban legends, folklore, myths, rumors, and misinformation.", "favourites_count": 12, "followers_count": 118527, "id": 14294848, "lang": "en", "listed_count": 3234, "name": "snopes.com", "profile_background_color": "C7F2B1", "profile_background_image_url": "http://pbs.twimg.com/profile_background_images/840081271/d90db0daf7c81f75aea62d88c084e755.png", "profile_background_tile": false, "profile_banner_url": "https://pbs.twimg.com/profile_banners/14294848/1365714336", "profile_image_url": "https://pbs.twimg.com/profile_images/3507964197/be9d1840411bca2d8101382340f58957_normal.png", "profile_link_color": "81D159", "profile_sidebar_fill_color": "DDEEF6", "profile_text_color": "333333", "protected": false, "screen_name": "snopes", "statuses_count": 4852, "time_zone": "Pacific Time (US & Canada)", "url": "http://t.co/10Or8rl3ff", "utc_offset": -28800, "verified": true}}
{"created_at": "Thu Oct 22 22:56:33 +0000 2015", "favorited": false, "id": 657329724390293504, "lang": "en", "media": [{"display_url": "pic.twitter.com/Ko3g2ASio8", "expanded_url": "http://twitter.com/snopes/status/657327770310197248/photo/1", "id": 657327769391493120, "id_str": "657327769391493120", "indices": [106, 129], "media_url": "http://pbs.twimg.com/media/CR9MH6OUcAAOuJ-.jpg", "media_url_https": "https://pbs.twimg.com/media/CR9MH6OUcAAOuJ-.jpg", "sizes": {"large": {"h": 900, "resize": "fit", "w": 600}, "medium": {"h": 900, "resize": "fit", "w": 600}, "small": {"h": 510, "resize": "fit", "w": 340}, "thumb": {"h": 150, "resize": "crop", "w": 150}}, "source_status_id": 657327770310197248, "source_status_id_str": "657327770310197248", "source_user_id": 14294848, "source_user_id_str": "14294848", "type": "photo", "url": "https://t.co/Ko3g2ASio8"}], "retweeted": false, "source": "<a href=\"http://ifttt.com\" rel=\"nofollow\">IFTTT</a>", "text": "No one is withholding candy from \"bigoted children\" dressed as cops or soldiers:\n\nhttps://t.co/rV74mTvWd2 https://t.co/Ko3g2ASio8", "truncated": false, "urls": {"https://t.co/rV74mTvWd2": "http://www.snopes.com/no-candy-bigoted-children/"}, "user": {"created_at": "Mon Jan 28 14:40:52 +0000 2013", "default_profile": true, "description": "I tweet about all things in Cape Town. #CapeFact The Mother City. For info in events: #CapeEvents. Also #capetownfairy me for any quests", "favourites_count": 661, "followers_count": 2623, "friends_count": 2737, "id": 1128255048, "lang": "en", "listed_count": 89, "location": "Cape Town", "name": "Cape Town Fairy", "profile_background_color": "C0DEED", "profile_background_image_url": "http://abs.twimg.com/images/themes/theme1/bg.png", "profile_background_tile": false, "profile_banner_url": "https://pbs.twimg.com/profile_banners/1128255048/1359385361", "profile_image_url": "https://pbs.twimg.com/profile_images/3175089990/ddcec258fe970be63266d343dc094577_normal.png", "profile_link_color": "0084B4", "profile_sidebar_fill_color": "DDEEF6", "profile_text_color": "333333", "protected": false, "screen_name": "CapeTownFairy", "statuses_count": 72899, "time_zone": "Athens", "utc_offset": 7200}}
{"created_at": "Thu Oct 22 23:01:02 +0000 2015", "favorited": false, "id": 657330850476920833, "lang": "en", "retweeted": false, "source": "<a href=\"http://twitterfeed.com\" rel=\"nofollow\">twitterfeed</a>", "text": "Snopes: Candy Fascists: A satirical sign threatening to withhold Halloween candy from \"bigoted children\" cause... https://t.co/GupYpdDh2j", "truncated": false, "urls": {"https://t.co/GupYpdDh2j": "http://bit.ly/1McHejN"}, "user": {"created_at": "Thu Oct 09 17:37:27 +0000 2008", "description": "Let's make critical thinking easy (and fun).", "favourites_count": 4, "followers_count": 3835, "friends_count": 677, "id": 16669742, "lang": "en", "listed_count": 272, "location": "Everywhere", "name": "Skeptic Network", "profile_background_color": "000000", "profile_background_image_url": "http://pbs.twimg.com/profile_background_images/4759267/fractile_dk.jpg", "profile_background_tile": true, "profile_banner_url": "https://pbs.twimg.com/profile_banners/16669742/1360552274", "profile_image_url": "https://pbs.twimg.com/profile_images/90185083/fractile_sing_SN3_normal.jpg", "profile_link_color": "B00B07", "profile_sidebar_fill_color": "EBECEF", "profile_text_color": "15377E", "protected": false, "screen_name": "SkepNet", "statuses_count": 18315, "time_zone": "Eastern Time (US & Canada)", "utc_offset": -18000}}
{"created_at": "Thu Oct 22 23:01:03 +0000 2015", "favorited": false, "id": 657330856919347200, "lang": "en", "retweeted": false, "source": "<a href=\"http://twitterfeed.com\" rel=\"nofollow\">twitterfeed</a>", "text": "urban legend: A satirical sign threatening to withhold Halloween candy from \"bigoted children\" caused offense ... https://t.co/esrBCjDfR2", "truncated": false, "urls": {"https://t.co/esrBCjDfR2": "http://bit.ly/1McHe3i"}, "user": {"created_at": "Fri Feb 06 02:21:17 +0000 2009", "default_profile": true, "followers_count": 316, "friends_count": 33, "id": 20211460, "lang": "en", "listed_count": 12, "name": "Urban Legends", "profile_background_color": "C0DEED", "profile_background_image_url": "http://abs.twimg.com/images/themes/theme1/bg.png", "profile_background_tile": false, "profile_image_url": "https://pbs.twimg.com/profile_images/607710950532083713/MvenxG0Z_normal.jpg", "profile_link_color": "0084B4", "profile_sidebar_fill_color": "DDEEF6", "profile_text_color": "333333", "protected": false, "screen_name": "UrbanLegends", "statuses_count": 2201, "time_zone": "Eastern Time (US & Canada)", "utc_offset": -18000}}
{"created_at": "Thu Oct 22 23:01:04 +0000 2015", "favorited": false, "id": 657330861004578816, "lang": "en", "retweeted": false, "source": "<a href=\"http://twitterfeed.com\" rel=\"nofollow\">twitterfeed</a>", "text": "Snopes- Candy Fascists https://t.co/XNeUheT1KU", "truncated": false, "urls": {"https://t.co/XNeUheT1KU": "http://bit.ly/1McHe3i"}, "user": {"created_at": "Wed Oct 29 14:35:02 +0000 2008", "default_profile": true, "description": "Random Headlines", "followers_count": 122, "friends_count": 13, "id": 17042353, "lang": "en", "listed_count": 3, "location": "Random", "name": "Headline Post", "profile_background_color": "C0DEED", "profile_background_image_url": "http://abs.twimg.com/images/themes/theme1/bg.png", "profile_background_tile": false, "profile_image_url": "https://pbs.twimg.com/profile_images/63101611/headline_normal.jpg", "profile_link_color": "0084B4", "profile_sidebar_fill_color": "DDEEF6", "profile_text_color": "333333", "protected": false, "screen_name": "headlinepost", "statuses_count": 15900, "time_zone": "Central Time (US & Canada)", "utc_offset": -21600}}
{"created_at": "Fri Oct 23 00:03:01 +0000 2015", "favorited": false, "id": 657346452390334464, "in_reply_to_screen_name": "PrisonPlanet", "in_reply_to_status_id": 657325721501704192, "in_reply_to_user_id": 18643437, "lang": "en", "retweeted": false, "source": "<a href=\"http://twitter.com\" rel=\"nofollow\">Twitter Web Client</a>", "text": "@PrisonPlanet @lizzyf620 Snopes just killed this one: https://t.co/hVPRjjZpgp", "truncated": false, "urls": {"https://t.co/hVPRjjZpgp": "http://www.snopes.com/no-candy-bigoted-children/"}, "user": {"created_at": "Tue Nov 10 16:51:31 +0000 2009", "description": "Spreading #TURTH (True Understanding Relayed Through Humor/Honesty/Harm) wherever I go. I also write and video game. Part-time Xenomorph.", "favourites_count": 9738, "followers_count": 400, "friends_count": 641, "id": 88968082, "lang": "en", "listed_count": 20, "location": "#NoFunNeligahn", "name": "N'Eligahn", "profile_background_color": "000000", "profile_background_image_url": "http://pbs.twimg.com/profile_background_images/378800000158019416/ECPeKlqQ.jpeg", "profile_background_tile": false, "profile_banner_url": "https://pbs.twimg.com/profile_banners/88968082/1443065072", "profile_image_url": "https://pbs.twimg.com/profile_images/686290136913567744/Z0KASCST_normal.png", "profile_link_color": "0B8000", "profile_sidebar_fill_color": "009E44", "profile_text_color": "000000", "protected": false, "screen_name": "NEligahn", "statuses_count": 43808, "time_zone": "Atlantic Time (Canada)", "url": "http://t.co/pNPOt8mTgq", "utc_offset": -14400}, "user_mentions": [{"id": 18643437, "name": "Paul Joseph Watson", "screen_name": "PrisonPlanet"}, {"id": 1712939281, "name": "Liz O'GingerMcIrish", "screen_name": "lizzyf620"}]}
{"created_at": "Fri Oct 23 00:06:57 +0000 2015", "favorite_count": 5, "favorited": false, "id": 657347439129665537, "in_reply_to_screen_name": "fullkatten", "in_reply_to_status_id": 657347225249554434, "in_reply_to_user_id": 2650940092, "lang": "en", "retweet_count": 4, "retweeted": false, "source": "<a href=\"http://twitter.com/download/iphone\" rel=\"nofollow\">Twitter for iPhone</a>", "text": "\"no candy for bigoted children\" EXPLODE MUNDO", "truncated": false, "user": {"created_at": "Sat Jun 28 19:02:54 +0000 2014", "description": "neur\u00f3tica sussa/desgracinha ambulante", "favourites_count": 17746, "followers_count": 19458, "friends_count": 490, "geo_enabled": true, "id": 2650940092, "lang": "sv", "listed_count": 21, "name": "wendys square burger", "profile_background_color": "000000", "profile_background_image_url": "http://abs.twimg.com/images/themes/theme15/bg.png", "profile_background_tile": false, "profile_banner_url": "https://pbs.twimg.com/profile_banners/2650940092/1451940379", "profile_image_url": "https://pbs.twimg.com/profile_images/686753419483312128/ks6w_GFb_normal.jpg", "profile_link_color": "000000", "profile_sidebar_fill_color": "DDEEF6", "profile_text_color": "333333", "protected": false, "screen_name": "fullkatten", "statuses_count": 19515, "time_zone": "Santiago", "utc_offset": -10800}}
{"created_at": "Fri Oct 23 01:39:51 +0000 2015", "favorited": false, "hashtags": ["Debunked"], "id": 657370819291693056, "lang": "en", "media": [{"display_url": "pic.twitter.com/6NyA5li0Rl", "expanded_url": "http://twitter.com/Frances_Locke/status/657370819291693056/photo/1", "id": 657370818842722304, "id_str": "657370818842722304", "indices": [100, 123], "media_url": "http://pbs.twimg.com/media/CR9zRt7UAAALbvI.jpg", "media_url_https": "https://pbs.twimg.com/media/CR9zRt7UAAALbvI.jpg", "sizes": {"large": {"h": 537, "resize": "fit", "w": 1024}, "medium": {"h": 315, "resize": "fit", "w": 600}, "small": {"h": 178, "resize": "fit", "w": 340}, "thumb": {"h": 150, "resize": "crop", "w": 150}}, "type": "photo", "url": "https://t.co/6NyA5li0Rl"}], "retweeted": false, "source": "<a href=\"http://www.hootsuite.com\" rel=\"nofollow\">Hootsuite</a>", "text": "No, that \"No Candy For Bigoted Children\" post is NOT a real thing #Debunked https://t.co/jX451h3yPO https://t.co/6NyA5li0Rl", "truncated": false, "urls": {"https://t.co/jX451h3yPO": "http://ow.ly/TK6df"}, "user": {"created_at": "Wed Feb 18 14:17:13 +0000 2009", "description": "Writer. Editor. Witty Bitch. Unabashed SJW. Atheist heathen. Editor-In-Chief at @TheWittyBitches Did I mention I like cats? https://t.co/SqH4lWXnMC", "favourites_count": 1406, "followers_count": 479, "friends_count": 256, "id": 21199101, "lang": "en", "listed_count": 13, "location": "Las Vegas, Nevada", "name": "Frances Locke", "profile_background_color": "FFFFFF", "profile_background_image_url": "http://pbs.twimg.com/profile_background_images/615875298635071488/rifXIbbO.jpg", "profile_background_tile": true, "profile_banner_url": "https://pbs.twimg.com/profile_banners/21199101/1439683318", "profile_image_url": "https://pbs.twimg.com/profile_images/632698602410762241/ILeeB_ww_normal.jpg", "profile_link_color": "45E7D7", "profile_sidebar_fill_color": "E5507E", "profile_text_color": "362720", "protected": false, "screen_name": "Frances_Locke", "statuses_count": 3021, "time_zone": "Pacific Time (US & Canada)", "url": "https://t.co/8ol92f4NJ3", "utc_offset": -28800}}
{"created_at": "Fri Oct 23 01:39:51 +0000 2015", "favorited": false, "hashtags": ["Debunked"], "id": 657370820285734912, "lang": "en", "media": [{"display_url": "pic.twitter.com/RcC6OZEVxM", "expanded_url": "http://twitter.com/TheWittyBitches/status/657370820285734912/photo/1", "id": 657370819920728064, "id_str": "657370819920728064", "indices": [100, 123], "media_url": "http://pbs.twimg.com/media/CR9zRx8VEAA9bH7.jpg", "media_url_https": "https://pbs.twimg.com/media/CR9zRx8VEAA9bH7.jpg", "sizes": {"large": {"h": 537, "resize": "fit", "w": 1024}, "medium": {"h": 315, "resize": "fit", "w": 600}, "small": {"h": 178, "resize": "fit", "w": 340}, "thumb": {"h": 150, "resize": "crop", "w": 150}}, "type": "photo", "url": "https://t.co/RcC6OZEVxM"}], "retweeted": false, "source": "<a href=\"http://www.hootsuite.com\" rel=\"nofollow\">Hootsuite</a>", "text": "No, that \"No Candy For Bigoted Children\" post is NOT a real thing #Debunked https://t.co/PjY4CVgbMC https://t.co/RcC6OZEVxM", "truncated": false, "urls": {"https://t.co/PjY4CVgbMC": "http://ow.ly/TK6f2"}, "user": {"created_at": "Thu Jan 15 03:25:03 +0000 2015", "description": "Those wicked bitches your mother warned you about.\nFounding Editor- Frances Locke", "favourites_count": 303, "followers_count": 210, "friends_count": 123, "id": 2979350386, "lang": "en", "listed_count": 11, "location": "Las Vegas, NV", "name": "Witty Bitches", "profile_background_color": "000000", "profile_background_image_url": "http://pbs.twimg.com/profile_background_images/632584381622697984/RwkAwAKb.jpg", "profile_background_tile": true, "profile_banner_url": "https://pbs.twimg.com/profile_banners/2979350386/1443735111", "profile_image_url": "https://pbs.twimg.com/profile_images/649697274390446080/7fhq1phc_normal.png", "profile_link_color": "19E3CF", "profile_sidebar_fill_color": "000000", "profile_text_color": "000000", "protected": false, "screen_name": "TheWittyBitches", "statuses_count": 736, "time_zone": "Pacific Time (US & Canada)", "url": "http://t.co/SqH4lWXnMC", "utc_offset": -28800}}
{"created_at": "Fri Oct 23 01:47:33 +0000 2015", "favorite_count": 1, "favorited": false, "id": 657372755680063488, "lang": "en", "retweeted": false, "source": "<a href=\"http://twitter.com\" rel=\"nofollow\">Twitter Web Client</a>", "text": "Candy Fascists https://t.co/vs6vJj1Wgd\nAt least it was a joke, but sad that it is so damn plausible in our world. @DLoesch @WDWSthrnBelle", "truncated": false, "urls": {"https://t.co/vs6vJj1Wgd": "http://www.snopes.com/no-candy-bigoted-children/"}, "user": {"created_at": "Tue May 13 20:16:20 +0000 2014", "default_profile": true, "description": "Licensed Small Arms & Ammunition manufacturer, former FINRA Series 3, 4, 7, 24, 27, 30, 53, 55, 63, & 65 license holder. Member NRA, NTA, SCI, NSSF & NDIA.", "favourites_count": 1805, "followers_count": 292, "friends_count": 193, "geo_enabled": true, "id": 2493487567, "lang": "en", "listed_count": 19, "location": "St. Louis, Missouri", "name": "Michael H Blank", "profile_background_color": "C0DEED", "profile_background_image_url": "http://abs.twimg.com/images/themes/theme1/bg.png", "profile_background_tile": false, "profile_banner_url": "https://pbs.twimg.com/profile_banners/2493487567/1430173347", "profile_image_url": "https://pbs.twimg.com/profile_images/614861795031937024/kZRAsVw9_normal.jpg", "profile_link_color": "0084B4", "profile_sidebar_fill_color": "DDEEF6", "profile_text_color": "333333", "protected": false, "screen_name": "MichaelHBlank", "statuses_count": 3493, "time_zone": "Pacific Time (US & Canada)", "url": "http://t.co/EhAJaN8Zn8", "utc_offset": -28800}, "user_mentions": [{"id": 7702542, "name": "Dana Loesch", "screen_name": "DLoesch"}, {"id": 1358020466, "name": "DisneySouthernBelle", "screen_name": "WDWSthrnBelle"}]}
{"created_at": "Fri Oct 23 03:53:53 +0000 2015", "favorited": false, "id": 657404548810690560, "in_reply_to_screen_name": "Sailor_Samara", "in_reply_to_status_id": 657398460220575744, "in_reply_to_user_id": 146479542, "lang": "en", "retweeted": false, "source": "<a href=\"http://tapbots.com/tweetbot\" rel=\"nofollow\">Tweetbot for i\u039fS</a>", "text": "@Sailor_Samara The poster's fake. https://t.co/0fuCzJfYx3", "truncated": false, "urls": {"https://t.co/0fuCzJfYx3": "http://www.snopes.com/no-candy-bigoted-children/"}, "user": {"created_at": "Sat Jul 06 18:56:48 +0000 2013", "description": "I have profane opinions about many things. Mostly Sailor Moon, Disney, cartoons, feminism and politics.  \n\nhttps://t.co/Sv5uZwtiFB https://t.co/YebAJX9yGR", "favourites_count": 13492, "followers_count": 589, "friends_count": 385, "id": 1573456909, "lang": "en", "listed_count": 28, "location": "Toronto", "name": "Ice Crystal Gem\u2744\ufe0f", "profile_background_color": "642D8B", "profile_background_image_url": "http://pbs.twimg.com/profile_background_images/639207571291635712/-RGKmpPf.png", "profile_background_tile": true, "profile_banner_url": "https://pbs.twimg.com/profile_banners/1573456909/1440898257", "profile_image_url": "https://pbs.twimg.com/profile_images/661562526359035907/pXcMSL7W_normal.jpg", "profile_link_color": "89C9FA", "profile_sidebar_fill_color": "000000", "profile_text_color": "000000", "protected": false, "screen_name": "SailorSoapbox", "statuses_count": 53246, "time_zone": "Eastern Time (US & Canada)", "url": "https://t.co/6VejL4HtI9", "utc_offset": -18000}, "user_mentions": [{"id": 146479542, "name": "Sailor Samara", "screen_name": "Sailor_Samara"}]}
{"created_at": "Fri Oct 23 12:06:02 +0000 2015", "favorited": false, "id": 657528402707091456, "lang": "en", "media": [{"display_url": "pic.twitter.com/5oGhhEMwNC", "expanded_url": "http://twitter.com/Jamie1km/status/657528402707091456/photo/1", "id": 657528332079108097, "id_str": "657528332079108097", "indices": [113, 136], "media_url": "http://pbs.twimg.com/media/CSACiMdUkAE430Y.jpg", "media_url_https": "https://pbs.twimg.com/media/CSACiMdUkAE430Y.jpg", "sizes": {"large": {"h": 900, "resize": "fit", "w": 600}, "medium": {"h": 900, "resize": "fit", "w": 600}, "small": {"h": 510, "resize": "fit", "w": 340}, "thumb": {"h": 150, "resize": "crop", "w": 150}}, "type": "photo", "url": "https://t.co/5oGhhEMwNC"}], "retweeted": false, "source": "<a href=\"https://about.twitter.com/products/tweetdeck\" rel=\"nofollow\">TweetDeck</a>", "text": "Calm down. No one is actually denying candy to child pirates for promoting rape culture. https://t.co/zv4XnqCGlb https://t.co/5oGhhEMwNC", "truncated": false, "urls": {"https://t.co/zv4XnqCGlb": "http://www.snopes.com/no-candy-bigoted-children/"}, "user": {"created_at": "Thu Jul 17 16:56:38 +0000 2008", "description": "Writer, Game Designer, Fighter AND Lover, Total Geek.", "favourites_count": 1338, "followers_count": 1973, "friends_count": 789, "geo_enabled": true, "id": 15470236, "lang": "en", "listed_count": 118, "location": "Atlanta, Georgia, USA", "name": "Jamie Chambers", "profile_background_color": "EDE9D0", "profile_background_image_url": "http://pbs.twimg.com/profile_background_images/71093733/Jamie-Twitter-BG.jpg", "profile_background_tile": false, "profile_banner_url": "https://pbs.twimg.com/profile_banners/15470236/1446381291", "profile_image_url": "https://pbs.twimg.com/profile_images/660797145075818496/uwqbH4Tf_normal.jpg", "profile_link_color": "5E5D0D", "profile_sidebar_fill_color": "C6D7E4", "profile_text_color": "48453A", "protected": false, "screen_name": "Jamie1km", "statuses_count": 34750, "time_zone": "Eastern Time (US & Canada)", "url": "https://t.co/4rR7VQMRBO", "utc_offset": -18000}}
{"created_at": "Fri Oct 23 12:17:57 +0000 2015", "favorited": false, "id": 657531402603225089, "in_reply_to_screen_name": "yoUofOh", "in_reply_to_status_id": 657522972337401856, "in_reply_to_user_id": 25530811, "lang": "en", "retweeted": false, "source": "<a href=\"http://twitter.com\" rel=\"nofollow\">Twitter Web Client</a>", "text": "@yoUofOh @mwtrizzle It's a Facebook joke https://t.co/z2SKabqjkg", "truncated": false, "urls": {"https://t.co/z2SKabqjkg": "http://www.snopes.com/no-candy-bigoted-children/"}, "user": {"created_at": "Sat May 01 17:05:45 +0000 2010", "description": "Everyone is stupid except me", "favourites_count": 8, "followers_count": 348, "friends_count": 328, "id": 139134389, "lang": "en", "listed_count": 17, "location": "Madison WI", "name": "Shaun Byrnes", "profile_background_color": "C0DEED", "profile_background_image_url": "http://pbs.twimg.com/profile_background_images/611132056517668864/RBgrK4ng.jpg", "profile_background_tile": true, "profile_banner_url": "https://pbs.twimg.com/profile_banners/139134389/1422303203", "profile_image_url": "https://pbs.twimg.com/profile_images/638876629175898112/dy-6JFjB_normal.jpg", "profile_link_color": "0084B4", "profile_sidebar_fill_color": "DDEEF6", "profile_text_color": "0A0101", "protected": false, "screen_name": "ButtersBC", "statuses_count": 32482, "time_zone": "Mountain Time (US & Canada)", "url": "http://t.co/YBGgY5nWhX", "utc_offset": -25200}, "user_mentions": [{"id": 25530811, "name": "Mrs. Banders", "screen_name": "yoUofOh"}, {"id": 17347505, "name": "Marls Barkley", "screen_name": "mwtrizzle"}]}
{"created_at": "Fri Oct 23 12:45:41 +0000 2015", "favorited": false, "id": 657538382868799488, "lang": "en", "retweeted": false, "source": "<a href=\"http://www.facebook.com/twitter\" rel=\"nofollow\">Facebook</a>", "text": "Candy Fascists https://t.co/xo5CZC8CiZ", "truncated": false, "urls": {"https://t.co/xo5CZC8CiZ": "http://fb.me/4QWkk1pgf"}, "user": {"created_at": "Thu Feb 21 05:22:28 +0000 2008", "description": "Pc/Mac Tech Support", "favourites_count": 162, "followers_count": 112, "friends_count": 135, "geo_enabled": true, "id": 13757382, "lang": "en", "listed_count": 6, "location": "UMBC", "name": "Mark Lasuk", "profile_background_color": "709397", "profile_background_image_url": "http://abs.twimg.com/images/themes/theme6/bg.gif", "profile_background_tile": false, "profile_image_url": "https://pbs.twimg.com/profile_images/66820818/P1000548_normal.jpg", "profile_link_color": "FF3300", "profile_sidebar_fill_color": "A0C5C7", "profile_text_color": "333333", "protected": false, "screen_name": "mlasuk", "statuses_count": 5468}}
{"created_at": "Fri Oct 23 22:50:03 +0000 2015", "favorite_count": 2, "favorited": false, "id": 657690477626564609, "lang": "en", "media": [{"display_url": "pic.twitter.com/ahRT5fXPVr", "expanded_url": "http://twitter.com/GabrielTompkins/status/657690477626564609/photo/1", "id": 657690477433638912, "id_str": "657690477433638912", "indices": [51, 74], "media_url": "http://pbs.twimg.com/media/CSCWAS-W0AABsgr.jpg", "media_url_https": "https://pbs.twimg.com/media/CSCWAS-W0AABsgr.jpg", "sizes": {"large": {"h": 900, "resize": "fit", "w": 600}, "medium": {"h": 900, "resize": "fit", "w": 600}, "small": {"h": 510, "resize": "fit", "w": 340}, "thumb": {"h": 150, "resize": "crop", "w": 150}}, "type": "photo", "url": "https://t.co/ahRT5fXPVr"}], "retweet_count": 1, "retweeted": false, "source": "<a href=\"http://www.apple.com\" rel=\"nofollow\">iOS</a>", "text": "No candy for bigoted children! No soup for you!!\ud83d\ude12\ud83d\ude02 https://t.co/ahRT5fXPVr", "truncated": false, "user": {"created_at": "Wed Jun 06 01:42:54 +0000 2012", "description": "23. TEA PARTY. III%. GOD, country music, hunting & farm life. MO\u039b\u03a9N \u039bABE! @MICHELLEMALKIN, @JAMESROSENFNC #StandWithIsrael Cruz '16!", "favourites_count": 7690, "followers_count": 26865, "friends_count": 16181, "geo_enabled": true, "id": 600581009, "lang": "en", "listed_count": 283, "location": "UNITED STATES OF AMERICA (MI)", "name": "Gabe Tompkins", "profile_background_color": "C0DEED", "profile_background_image_url": "http://pbs.twimg.com/profile_background_images/378800000082983987/48c8779b400261a2c373e51eeeec9b75.jpeg", "profile_background_tile": true, "profile_banner_url": "https://pbs.twimg.com/profile_banners/600581009/1446907576", "profile_image_url": "https://pbs.twimg.com/profile_images/671394429647892481/jSVENmkG_normal.jpg", "profile_link_color": "0084B4", "profile_sidebar_fill_color": "DDEEF6", "profile_text_color": "333333", "protected": false, "screen_name": "GabrielTompkins", "statuses_count": 17537}}
{"created_at": "Sat Oct 24 01:00:28 +0000 2015", "favorited": false, "hashtags": ["Snopes"], "id": 657723297342337024, "lang": "en", "retweeted": false, "source": "<a href=\"http://momknowsshopping.com/UFOParanormal\" rel=\"nofollow\">UFOParanormalNews</a>", "text": "#Snopes  A satirical sign threatening to withhold Halloween candy from bigoted children https://t.co/agXo6cnRDM", "truncated": false, "urls": {"https://t.co/agXo6cnRDM": "http://goo.gl/b7Soiy"}, "user": {"created_at": "Wed Oct 01 13:34:46 +0000 2014", "description": "We provide the latest news on #UFO's, #Paranormal, #Ghosts and everything that is strange or weird. Plus #Software, #Camera's and #Computer items.", "favourites_count": 3, "followers_count": 12314, "friends_count": 11492, "geo_enabled": true, "id": 2797963749, "lang": "en", "listed_count": 413, "name": "UFO Paranormal", "profile_background_color": "000000", "profile_background_image_url": "http://abs.twimg.com/images/themes/theme1/bg.png", "profile_background_tile": false, "profile_banner_url": "https://pbs.twimg.com/profile_banners/2797963749/1419626990", "profile_image_url": "https://pbs.twimg.com/profile_images/517311356198858753/OkOTy-q6_normal.jpeg", "profile_link_color": "FA743E", "profile_sidebar_fill_color": "000000", "profile_text_color": "000000", "protected": false, "screen_name": "UFOParanormNews", "statuses_count": 76907, "url": "https://t.co/I4rmVNErYQ"}}
{"created_at": "Sat Oct 24 12:28:45 +0000 2015", "favorited": false, "id": 657896510546399233, "lang": "en", "retweeted": false, "source": "<a href=\"http://twitter.com\" rel=\"nofollow\">Twitter Web Client</a>", "text": "Candy Fascists https://t.co/P1z9YxMnrT", "truncated": false, "urls": {"https://t.co/P1z9YxMnrT": "http://www.snopes.com/no-candy-bigoted-children/"}, "user": {"created_at": "Tue Mar 22 21:38:39 +0000 2011", "favourites_count": 1, "followers_count": 9, "friends_count": 28, "id": 270574323, "lang": "en", "name": "Sancira", "profile_background_color": "FFFFFF", "profile_background_image_url": "http://pbs.twimg.com/profile_background_images/315137503/free-twitter-background--un--85288507.br.jpg", "profile_background_tile": false, "profile_image_url": "https://pbs.twimg.com/profile_images/2416668951/fp1u2sh4wher7b0kk14g_normal.jpeg", "profile_link_color": "0000FF", "profile_sidebar_fill_color": "00FF03", "profile_text_color": "000000", "protected": false, "screen_name": "ElspetEarth", "statuses_count": 110, "time_zone": "Eastern Time (US & Canada)", "utc_offset": -18000}}
{"created_at": "Sun Oct 25 15:10:35 +0000 2015", "favorited": false, "id": 658299624894009344, "lang": "en", "media": [{"display_url": "pic.twitter.com/3499jeOqtP", "expanded_url": "http://twitter.com/HymieDoucheman/status/658299624894009344/photo/1", "id": 658299624772382721, "id_str": "658299624772382721", "indices": [48, 71], "media_url": "http://pbs.twimg.com/media/CSLABVpUsAEu-uE.jpg", "media_url_https": "https://pbs.twimg.com/media/CSLABVpUsAEu-uE.jpg", "sizes": {"large": {"h": 900, "resize": "fit", "w": 600}, "medium": {"h": 900, "resize": "fit", "w": 600}, "small": {"h": 510, "resize": "fit", "w": 340}, "thumb": {"h": 150, "resize": "crop", "w": 150}}, "type": "photo", "url": "https://t.co/3499jeOqtP"}], "retweet_count": 1, "retweeted": false, "source": "<a href=\"http://www.apple.com\" rel=\"nofollow\">iOS</a>", "text": "No candy for your bigoted children.\n\n@OpieRadio https://t.co/3499jeOqtP", "truncated": false, "user": {"created_at": "Tue Feb 07 13:49:18 +0000 2012", "default_profile": true, "favourites_count": 143, "followers_count": 139, "friends_count": 284, "id": 485700865, "lang": "en", "listed_count": 4, "name": "Brock Steele", "profile_background_color": "C0DEED", "profile_background_image_url": "http://abs.twimg.com/images/themes/theme1/bg.png", "profile_background_tile": false, "profile_image_url": "https://pbs.twimg.com/profile_images/628639982853304320/6QDTgdg4_normal.jpg", "profile_link_color": "0084B4", "profile_sidebar_fill_color": "DDEEF6", "profile_text_color": "333333", "protected": false, "screen_name": "HymieDoucheman", "statuses_count": 1562, "time_zone": "Hawaii", "utc_offset": -36000}, "user_mentions": [{"id": 19143584, "name": "opie radio", "screen_name": "OpieRadio"}]}
{"created_at": "Sun Oct 25 15:22:30 +0000 2015", "favorited": false, "id": 658302624446459904, "lang": "en", "retweeted": false, "source": "<a href=\"http://bufferapp.com\" rel=\"nofollow\">Buffer</a>", "text": "Candy Fascists https://t.co/x2e7Zo0XUs", "truncated": false, "urls": {"https://t.co/x2e7Zo0XUs": "http://buff.ly/1NY7XRw"}, "user": {"created_at": "Sun Jan 22 16:43:19 +0000 2012", "description": "(636) 947-3600 http://t.co/rcZu1kwEwL Kenneth P. Carp is a United States unemployment attorney. He can take your case no matter where you are.", "favourites_count": 2, "followers_count": 704, "friends_count": 1989, "id": 471221424, "lang": "en", "listed_count": 7, "name": "Kenneth Carp", "profile_background_color": "C0DEED", "profile_background_image_url": "http://pbs.twimg.com/profile_background_images/378800000020408042/56a5a5b0295c10a504dd2bc93149a21e.jpeg", "profile_background_tile": false, "profile_banner_url": "https://pbs.twimg.com/profile_banners/471221424/1420561013", "profile_image_url": "https://pbs.twimg.com/profile_images/378800000111567670/b0d62b54dfc2e2d86524fb55a87beb40_normal.png", "profile_link_color": "0084B4", "profile_sidebar_fill_color": "DDEEF6", "profile_text_color": "333333", "protected": false, "screen_name": "KennethCarp", "statuses_count": 919, "time_zone": "Central Time (US & Canada)", "url": "http://t.co/U79JNZ3GLe", "utc_offset": -21600}}
{"created_at": "Sat Oct 31 16:25:50 +0000 2015", "favorited": false, "id": 660492888158113792, "lang": "en", "retweeted": false, "source": "<a href=\"http://twitter.com/download/iphone\" rel=\"nofollow\">Twitter for iPhone</a>", "text": "omg i forgot i live in a real neighborhood with children now what if i get trick or treaters i have no candy", "truncated": false, "user": {"created_at": "Fri Jan 09 23:36:03 +0000 2009", "description": "i make cool shit that you can live in", "favourites_count": 7260, "followers_count": 442, "friends_count": 553, "geo_enabled": true, "id": 18820269, "lang": "en", "listed_count": 4, "location": "nyc", "name": "jonathan", "profile_background_color": "FFFFFF", "profile_background_image_url": "http://pbs.twimg.com/profile_background_images/886473199/4668ba4cb5e779c442b08936d838059a.jpeg", "profile_background_tile": false, "profile_banner_url": "https://pbs.twimg.com/profile_banners/18820269/1442260248", "profile_image_url": "https://pbs.twimg.com/profile_images/674734091808428032/40l1QEhb_normal.jpg", "profile_link_color": "E23E14", "profile_sidebar_fill_color": "363636", "profile_text_color": "131516", "protected": false, "screen_name": "h1ghtimes", "statuses_count": 14861, "time_zone": "Central Time (US & Canada)", "url": "https://t.co/vFfJY33cEl", "utc_offset": -21600}}
{"created_at": "Sat Oct 31 21:01:38 +0000 2015", "favorite_count": 2, "favorited": false, "id": 660562293579714560, "lang": "en", "retweeted": false, "source": "<a href=\"http://twitter.com/download/iphone\" rel=\"nofollow\">Twitter for iPhone</a>", "text": "Payless Shoes store has \"No Candy\" sign because they are too cheap to accommodate children trick or treaters.", "truncated": false, "user": {"created_at": "Tue Oct 13 15:55:05 +0000 2009", "description": "NYC Drag Queen. A renaissance gal with all sorts of creative projects!", "favourites_count": 1103, "followers_count": 1441, "friends_count": 165, "id": 82125451, "lang": "en", "listed_count": 25, "name": "Linda Simpson", "profile_background_color": "0B0B5C", "profile_background_image_url": "http://pbs.twimg.com/profile_background_images/378800000101903881/8f93597b9abf98820d088c94f2402e67.jpeg", "profile_background_tile": true, "profile_banner_url": "https://pbs.twimg.com/profile_banners/82125451/1382746885", "profile_image_url": "https://pbs.twimg.com/profile_images/1260033663/li_normal.jpg", "profile_link_color": "0B465C", "profile_sidebar_fill_color": "DDEEF6", "profile_text_color": "333333", "protected": false, "screen_name": "simpsonlinda", "statuses_count": 2417, "url": "http://t.co/FS8MAsPDDU"}}
{"created_at": "Sun Nov 01 00:51:31 +0000 2015", "favorited": false, "id": 660620145711185920, "lang": "en", "retweeted": false, "source": "<a href=\"http://twitter.com/download/iphone\" rel=\"nofollow\">Twitter for iPhone</a>", "text": "My fucking lights are off why are trick or treaters coming up to my house! I don't got no candy for you children", "truncated": false, "user": {"created_at": "Tue Jan 24 04:14:48 +0000 2012", "description": "the shit is bananas", "favourites_count": 1923, "followers_count": 79, "friends_count": 101, "id": 472626144, "lang": "en", "name": "hannah", "profile_background_color": "642D8B", "profile_background_image_url": "http://pbs.twimg.com/profile_background_images/413294105/tumblr_lyld46t6Yf1r6ywbso1_500.jpg", "profile_background_tile": true, "profile_banner_url": "https://pbs.twimg.com/profile_banners/472626144/1450976743", "profile_image_url": "https://pbs.twimg.com/profile_images/686807682636840961/1ucSfqz7_normal.jpg", "profile_link_color": "0A0909", "profile_sidebar_fill_color": "DDEEF6", "profile_text_color": "333333", "protected": false, "screen_name": "LoveHannerz", "statuses_count": 8776, "time_zone": "Pacific Time (US & Canada)", "utc_offset": -28800}}
{"created_at": "Sun Nov 01 15:56:29 +0000 2015", "favorited": false, "hashtags": ["marijuana", "cannabis"], "id": 660847889569046528, "lang": "en", "retweet_count": 1, "retweeted": false, "source": "<a href=\"http://twitterfeed.com\" rel=\"nofollow\">twitterfeed</a>", "text": "No candy for bigoted children!: \nMake political correctness really count this Halloween m... https://t.co/nrwLin2m1I #marijuana #cannabis", "truncated": false, "urls": {"https://t.co/nrwLin2m1I": "http://cannabis.marijuanalinks.tk/EWA"}, "user": {"created_at": "Fri Jan 10 15:50:31 +0000 2014", "description": "#marijuana #Cannabis #GoodVibeTribe #HippieTribe #420", "followers_count": 11052, "friends_count": 5197, "id": 2285289534, "lang": "en", "listed_count": 133, "name": "Cannabis", "profile_background_color": "C0DEED", "profile_background_image_url": "http://pbs.twimg.com/profile_background_images/378800000165829059/WSVeNH8k.jpeg", "profile_background_tile": true, "profile_banner_url": "https://pbs.twimg.com/profile_banners/2285289534/1389371955", "profile_image_url": "https://pbs.twimg.com/profile_images/421682556392583169/PZVJzou2_normal.jpeg", "profile_link_color": "0084B4", "profile_sidebar_fill_color": "DDEEF6", "profile_text_color": "333333", "protected": false, "screen_name": "Marijuana_Links", "statuses_count": 180322}}
{"created_at": "Mon Nov 16 16:06:31 +0000 2015", "favorite_count": 2, "favorited": false, "id": 666286233446973440, "in_reply_to_screen_name": "Reptile_keeper_", "in_reply_to_status_id": 666284921967796229, "in_reply_to_user_id": 610402421, "lang": "en", "retweeted": false, "source": "<a href=\"http://twitter.com\" rel=\"nofollow\">Twitter Web Client</a>", "text": "@Reptile_keeper_ @tregarthen67 @Twigolet @RobC_UK @bakerbee1 Worth a read - https://t.co/JWT2tbFYbm", "truncated": false, "urls": {"https://t.co/JWT2tbFYbm": "http://www.snopes.com/no-candy-bigoted-children/"}, "user": {"created_at": "Wed Jan 19 12:10:20 +0000 2011", "description": "Vapour troll #31", "favourites_count": 981, "followers_count": 187, "friends_count": 281, "id": 240212385, "lang": "en", "listed_count": 10, "name": "Jon Edwards", "profile_background_color": "022330", "profile_background_image_url": "http://pbs.twimg.com/profile_background_images/584554445901443072/TvNFHMWE.jpg", "profile_background_tile": true, "profile_banner_url": "https://pbs.twimg.com/profile_banners/240212385/1432720365", "profile_image_url": "https://pbs.twimg.com/profile_images/682218186486476800/rIirJ2VB_normal.jpg", "profile_link_color": "0084B4", "profile_sidebar_fill_color": "C0DFEC", "profile_text_color": "333333", "protected": false, "screen_name": "jonuk76", "statuses_count": 1364}, "user_mentions": [{"id": 610402421, "name": "AbillionBavs", "screen_name": "Reptile_keeper_"}, {"id": 131127172, "name": "Jarrod Green", "screen_name": "tregarthen67"}, {"id": 1726319492, "name": "Sarah J", "screen_name": "Twigolet"}, {"id": 2774491532, "name": "RobC", "screen_name": "RobC_UK"}, {"id": 2889759354, "name": "BakerB", "screen_name": "bakerbee1"}]}
