{"created_at": "Wed Sep 16 02:31:01 +0000 2015", "favorited": false, "id": 643975345666854912, "lang": "en", "retweet_count": 1, "retweeted": false, "source": "<a href=\"http://twitter.com\" rel=\"nofollow\">Twitter Web Client</a>", "text": "OBAMA's Harvard Flaw Review. https://t.co/5k2VO9XKYF", "truncated": false, "urls": {"https://t.co/5k2VO9XKYF": "https://twitter.com/ObligedFriend/status/643975162803556352"}, "user": {"created_at": "Mon Mar 16 16:08:34 +0000 2009", "description": "I'm a Quant, Stock Trader, Market Timer, Precious Metals Bug, Economics, Health Nut, History Buff, Physics, Politics, Science, Anthropology, Internet, Mars Life", "favourites_count": 27042, "followers_count": 36707, "friends_count": 40215, "id": 24716002, "lang": "en", "listed_count": 708, "location": "USA", "name": "Transparency Yall!!", "profile_background_color": "0099B9", "profile_background_image_url": "http://abs.twimg.com/images/themes/theme4/bg.gif", "profile_background_tile": false, "profile_banner_url": "https://pbs.twimg.com/profile_banners/24716002/1355294303", "profile_image_url": "https://pbs.twimg.com/profile_images/1823074362/suncityadimono_normal.jpg", "profile_link_color": "0099B9", "profile_sidebar_fill_color": "95E8EC", "profile_text_color": "3C3940", "protected": false, "screen_name": "tradethecycles", "statuses_count": 384488, "time_zone": "Pacific Time (US & Canada)", "utc_offset": -28800}}
{"created_at": "Thu Oct 15 23:10:34 +0000 2015", "favorited": false, "id": 654796536866443265, "lang": "en", "retweeted": false, "source": "<a href=\"http://twitterfeed.com\" rel=\"nofollow\">twitterfeed</a>", "text": "Snopes: Harvard Flaw Review: No, Harvard University study did not prove that areas with higher rates of gun ow... http://t.co/lPosFMQmon", "truncated": false, "urls": {"http://t.co/lPosFMQmon": "http://bit.ly/1jESgkO"}, "user": {"created_at": "Thu Oct 09 17:37:27 +0000 2008", "description": "Let's make critical thinking easy (and fun).", "favourites_count": 4, "followers_count": 3835, "friends_count": 677, "id": 16669742, "lang": "en", "listed_count": 272, "location": "Everywhere", "name": "Skeptic Network", "profile_background_color": "000000", "profile_background_image_url": "http://pbs.twimg.com/profile_background_images/4759267/fractile_dk.jpg", "profile_background_tile": true, "profile_banner_url": "https://pbs.twimg.com/profile_banners/16669742/1360552274", "profile_image_url": "https://pbs.twimg.com/profile_images/90185083/fractile_sing_SN3_normal.jpg", "profile_link_color": "B00B07", "profile_sidebar_fill_color": "EBECEF", "profile_text_color": "15377E", "protected": false, "screen_name": "SkepNet", "statuses_count": 18315, "time_zone": "Eastern Time (US & Canada)", "utc_offset": -18000}}
{"created_at": "Thu Oct 15 23:10:35 +0000 2015", "favorited": false, "id": 654796540796514304, "lang": "en", "retweeted": false, "source": "<a href=\"http://twitterfeed.com\" rel=\"nofollow\">twitterfeed</a>", "text": "urban legend: No, Harvard University study did not prove that areas with higher rates of gun ownership have lo... http://t.co/m3hbf5OG8s", "truncated": false, "urls": {"http://t.co/m3hbf5OG8s": "http://bit.ly/1jESgkS"}, "user": {"created_at": "Fri Feb 06 02:21:17 +0000 2009", "default_profile": true, "followers_count": 316, "friends_count": 33, "id": 20211460, "lang": "en", "listed_count": 12, "name": "Urban Legends", "profile_background_color": "C0DEED", "profile_background_image_url": "http://abs.twimg.com/images/themes/theme1/bg.png", "profile_background_tile": false, "profile_image_url": "https://pbs.twimg.com/profile_images/607710950532083713/MvenxG0Z_normal.jpg", "profile_link_color": "0084B4", "profile_sidebar_fill_color": "DDEEF6", "profile_text_color": "333333", "protected": false, "screen_name": "UrbanLegends", "statuses_count": 2201, "time_zone": "Eastern Time (US & Canada)", "utc_offset": -18000}}
{"created_at": "Thu Oct 15 23:10:38 +0000 2015", "favorited": false, "id": 654796555308822528, "lang": "en", "retweeted": false, "source": "<a href=\"http://twitterfeed.com\" rel=\"nofollow\">twitterfeed</a>", "text": "Harvard Flaw Review: No, Harvard University study did not prove that areas with higher rates of gun ownership ... http://t.co/crx8r13Df8", "truncated": false, "urls": {"http://t.co/crx8r13Df8": "http://bit.ly/1jESgkO"}, "user": {"created_at": "Tue Nov 09 09:35:42 +0000 2010", "favourites_count": 9, "followers_count": 879, "friends_count": 1639, "id": 213594945, "lang": "en", "listed_count": 5, "location": "New Jersey", "name": "Tammy Stein", "profile_background_color": "131516", "profile_background_image_url": "http://abs.twimg.com/images/themes/theme14/bg.gif", "profile_background_tile": true, "profile_image_url": "https://pbs.twimg.com/profile_images/1163133789/Tammy_Stein_normal.jpg", "profile_link_color": "009999", "profile_sidebar_fill_color": "EFEFEF", "profile_text_color": "333333", "protected": false, "screen_name": "Legal_101HQ", "statuses_count": 3239}}
{"created_at": "Thu Oct 15 23:10:42 +0000 2015", "favorited": false, "id": 654796570420867074, "lang": "en", "retweeted": false, "source": "<a href=\"http://twitterfeed.com\" rel=\"nofollow\">twitterfeed</a>", "text": "Harvard Flaw Review: No, Harvard University study did not prove that areas with higher rates of gun ownership ... http://t.co/hYCf9dqEjR", "truncated": false, "urls": {"http://t.co/hYCf9dqEjR": "http://bit.ly/1jESh8m"}, "user": {"created_at": "Wed Jan 02 08:21:49 +0000 2013", "default_profile": true, "description": "Web designer. Computer tech. Like paranomal and mysteries.", "favourites_count": 1, "followers_count": 5121, "friends_count": 6497, "id": 1054540363, "lang": "en", "listed_count": 21, "name": "RMD.1", "profile_background_color": "C0DEED", "profile_background_image_url": "http://abs.twimg.com/images/themes/theme1/bg.png", "profile_background_tile": false, "profile_banner_url": "https://pbs.twimg.com/profile_banners/1054540363/1357115184", "profile_image_url": "https://pbs.twimg.com/profile_images/3062588092/156f982d0f6ea81a5e4eb08767adb86b_normal.jpeg", "profile_link_color": "0084B4", "profile_sidebar_fill_color": "DDEEF6", "profile_text_color": "333333", "protected": false, "screen_name": "rd_rmd1", "statuses_count": 3953, "time_zone": "New Caledonia", "utc_offset": 39600}}
{"created_at": "Thu Oct 15 23:55:01 +0000 2015", "favorited": false, "id": 654807722894868481, "lang": "en", "retweeted": false, "source": "<a href=\"http://twitter.com\" rel=\"nofollow\">Twitter Web Client</a>", "text": "No, a Harvard University study did not prove that areas with higher rates of gun ownership have lower crime rates. http://t.co/1I14fbvklv", "truncated": false, "urls": {"http://t.co/1I14fbvklv": "http://www.snopes.com/harvard-flaw-review/"}, "user": {"created_at": "Wed Apr 30 23:32:02 +0000 2014", "description": "The Future of America", "favourites_count": 9280, "followers_count": 284, "friends_count": 269, "id": 2471629956, "lang": "en", "listed_count": 36, "location": "Over there Not there Yes There", "name": "Gremlinbroom", "profile_background_color": "FA743E", "profile_background_image_url": "http://pbs.twimg.com/profile_background_images/605875140337860610/G3lukhLk.jpg", "profile_background_tile": true, "profile_banner_url": "https://pbs.twimg.com/profile_banners/2471629956/1452572919", "profile_image_url": "https://pbs.twimg.com/profile_images/678595442066644992/76z7lQDp_normal.jpg", "profile_link_color": "FA743E", "profile_sidebar_fill_color": "DDEEF6", "profile_text_color": "333333", "protected": false, "screen_name": "Gremlinbroom", "statuses_count": 15057, "url": "https://t.co/Ddmhsmkh0k"}}
{"created_at": "Thu Oct 15 23:55:46 +0000 2015", "favorite_count": 1, "favorited": false, "hashtags": ["NRA", "Gunsense"], "id": 654807912053805056, "lang": "en", "retweet_count": 1, "retweeted": false, "source": "<a href=\"http://twitter.com\" rel=\"nofollow\">Twitter Web Client</a>", "text": "No, a 2007 Harvard study didn't prove high rates of gun ownership lead to lower rates of crime #NRA #Gunsense http://t.co/skE8lTNtsZ", "truncated": false, "urls": {"http://t.co/skE8lTNtsZ": "http://www.snopes.com/harvard-flaw-review/"}, "user": {"created_at": "Thu Jan 30 00:25:07 +0000 2014", "favourites_count": 39375, "followers_count": 2735, "friends_count": 89, "geo_enabled": true, "id": 2318014982, "lang": "en", "listed_count": 190, "location": "Upstate New York", "name": "Liberal Hippie Queen", "profile_background_color": "000000", "profile_background_image_url": "http://abs.twimg.com/images/themes/theme17/bg.gif", "profile_background_tile": false, "profile_banner_url": "https://pbs.twimg.com/profile_banners/2318014982/1446300055", "profile_image_url": "https://pbs.twimg.com/profile_images/594587407414108162/3sZ_8cHd_normal.jpg", "profile_link_color": "3B94D9", "profile_sidebar_fill_color": "000000", "profile_text_color": "000000", "protected": false, "screen_name": "andreajmarkley", "statuses_count": 89642, "time_zone": "Eastern Time (US & Canada)", "url": "http://t.co/HET8ptd4kd", "utc_offset": -18000}}
{"created_at": "Fri Oct 16 00:13:51 +0000 2015", "favorited": false, "id": 654812463385317376, "lang": "en", "retweeted": false, "source": "<a href=\"http://www.facebook.com/twitter\" rel=\"nofollow\">Facebook</a>", "text": "FALSE: Harvard University Study Reveals Astonishing Link Between Firearms, Crime and Gun Control http://t.co/Lh1kkT7vOc", "truncated": false, "urls": {"http://t.co/Lh1kkT7vOc": "http://fb.me/7xfqfdWFQ"}, "user": {"created_at": "Thu Oct 09 19:55:59 +0000 2008", "description": "Fangirl geek, cat owner, Sci-Fi/Fantasy oriented, unappologetic liberal.  There may very well be more, but you'll have to discover that yourself.  Cheers.", "favourites_count": 1328, "followers_count": 232, "friends_count": 548, "geo_enabled": true, "id": 16672654, "lang": "en", "listed_count": 6, "location": "Boones Mill, VA", "name": "Mary Davis", "profile_background_color": "F2EEEF", "profile_background_image_url": "http://pbs.twimg.com/profile_background_images/623956419/xd95c7fc91d4729bc65d792df401c425.jpg", "profile_background_tile": false, "profile_banner_url": "https://pbs.twimg.com/profile_banners/16672654/1439666328", "profile_image_url": "https://pbs.twimg.com/profile_images/662090378997334016/BfeFi-jP_normal.jpg", "profile_link_color": "7B8894", "profile_sidebar_fill_color": "FAFAFA", "profile_text_color": "8F2E2E", "protected": false, "screen_name": "Imzadimylove", "statuses_count": 19548, "time_zone": "Eastern Time (US & Canada)", "utc_offset": -18000}}
{"created_at": "Fri Oct 16 01:07:23 +0000 2015", "favorite_count": 1, "favorited": false, "hashtags": ["guncontrol"], "id": 654825935850487808, "lang": "en", "retweeted": false, "source": "<a href=\"http://twitter.com\" rel=\"nofollow\">Twitter Web Client</a>", "text": "Harvard Uni study did not prove that areas with higher rates of gun ownership have lower crime rates. \nhttp://t.co/fBqlDQG0H2 #guncontrol", "truncated": false, "urls": {"http://t.co/fBqlDQG0H2": "http://www.snopes.com/harvard-flaw-review/"}, "user": {"created_at": "Fri Dec 10 08:29:40 +0000 2010", "description": "Movies & TV. Science & Technology. Humanity & Animals. Earth & Space. Writing. Photography.\n#uspoli #progressive  \nRTs are not Rotten Tomatoes.", "favourites_count": 2512, "followers_count": 356, "friends_count": 833, "geo_enabled": true, "id": 224953153, "lang": "en", "listed_count": 8, "name": "Simon Palmer", "profile_background_color": "C0DEED", "profile_background_image_url": "http://pbs.twimg.com/profile_background_images/670871506553978880/iTuy7nu0.jpg", "profile_background_tile": false, "profile_banner_url": "https://pbs.twimg.com/profile_banners/224953153/1448783254", "profile_image_url": "https://pbs.twimg.com/profile_images/677268009908441092/S_5fu6cO_normal.jpg", "profile_link_color": "0084B4", "profile_sidebar_fill_color": "000000", "profile_text_color": "000000", "protected": false, "screen_name": "simpalmer", "statuses_count": 742, "time_zone": "New Caledonia", "utc_offset": 39600}}
{"created_at": "Fri Oct 16 02:46:39 +0000 2015", "favorited": false, "id": 654850914260389889, "lang": "en", "media": [{"display_url": "pic.twitter.com/TE89fn8KJj", "expanded_url": "http://twitter.com/mikeymicron/status/654850914260389889/photo/1", "id": 654850912955924480, "id_str": "654850912955924480", "indices": [115, 137], "media_url": "http://pbs.twimg.com/media/CRZ_b4-UAAAorwU.jpg", "media_url_https": "https://pbs.twimg.com/media/CRZ_b4-UAAAorwU.jpg", "sizes": {"large": {"h": 408, "resize": "fit", "w": 750}, "medium": {"h": 326, "resize": "fit", "w": 600}, "small": {"h": 184, "resize": "fit", "w": 340}, "thumb": {"h": 150, "resize": "crop", "w": 150}}, "type": "photo", "url": "http://t.co/TE89fn8KJj"}], "retweeted": false, "source": "<a href=\"https://friendsplus.me\" rel=\"nofollow\">Friends Me</a>", "text": "No, a Harvard University study did not prove that areas with higher rates of gun ownership\u2026 http://t.co/LG94Raaoss http://t.co/TE89fn8KJj", "truncated": false, "urls": {"http://t.co/LG94Raaoss": "http://bit.ly/1OGTcAZ"}, "user": {"created_at": "Sun Mar 20 03:39:57 +0000 2011", "default_profile": true, "favourites_count": 15, "followers_count": 124, "friends_count": 163, "id": 269110674, "lang": "en", "listed_count": 10, "name": "Mikeymicron", "profile_background_color": "C0DEED", "profile_background_image_url": "http://abs.twimg.com/images/themes/theme1/bg.png", "profile_background_tile": false, "profile_image_url": "https://pbs.twimg.com/profile_images/1573146767/playtime_normal.jpg", "profile_link_color": "0084B4", "profile_sidebar_fill_color": "DDEEF6", "profile_text_color": "333333", "protected": false, "screen_name": "mikeymicron", "statuses_count": 26885, "time_zone": "Central Time (US & Canada)", "utc_offset": -21600}}
{"created_at": "Fri Oct 16 03:32:42 +0000 2015", "favorited": false, "id": 654862504892350464, "lang": "en", "retweeted": false, "source": "<a href=\"http://www.facebook.com/twitter\" rel=\"nofollow\">Facebook</a>", "text": "FALSE: Harvard University Study Reveals Astonishing Link Between Firearms, Crime and Gun Control http://t.co/TnLyEMn3uB", "truncated": false, "urls": {"http://t.co/TnLyEMn3uB": "http://fb.me/4LW7M4FyI"}, "user": {"created_at": "Sat Apr 18 10:09:40 +0000 2009", "description": "swordmaster/fight choreographer/teacher/author", "favourites_count": 1, "followers_count": 131, "friends_count": 65, "id": 32846670, "lang": "en", "listed_count": 14, "location": "Union City NJ", "name": "Teel James Glenn", "profile_background_color": "642D8B", "profile_background_image_url": "http://abs.twimg.com/images/themes/theme10/bg.gif", "profile_background_tile": true, "profile_image_url": "https://pbs.twimg.com/profile_images/2326567689/y69s4akklf088k85jezp_normal.jpeg", "profile_link_color": "FF0000", "profile_sidebar_fill_color": "7AC3EE", "profile_text_color": "3D1957", "protected": false, "screen_name": "teeljamesglenn", "statuses_count": 29716, "time_zone": "Quito", "url": "http://t.co/jEcLE4jFnd", "utc_offset": -18000}}
{"created_at": "Fri Oct 16 08:33:18 +0000 2015", "favorited": false, "id": 654938154802262016, "lang": "en", "retweeted": false, "source": "<a href=\"http://twitter.com/download/android\" rel=\"nofollow\">Twitter for Android</a>", "text": "No, a Harvard University study did not prove that areas with higher rates of gun ownership have lower crime rates.\nhttp://t.co/rHeEcSrohi", "truncated": false, "urls": {"http://t.co/rHeEcSrohi": "http://www.snopes.com/harvard-flaw-review/"}, "user": {"created_at": "Sat Dec 17 16:33:13 +0000 2011", "description": "Thoughtful schlub.", "favourites_count": 146, "followers_count": 70, "friends_count": 159, "geo_enabled": true, "id": 439311121, "lang": "en", "listed_count": 5, "location": "Inwood, Manhattan, New York", "name": "Barry Solow", "profile_background_color": "131516", "profile_background_image_url": "http://abs.twimg.com/images/themes/theme14/bg.gif", "profile_background_tile": true, "profile_image_url": "https://pbs.twimg.com/profile_images/3507275936/55bfb1ca206719518fbae115eda5d3f3_normal.png", "profile_link_color": "009999", "profile_sidebar_fill_color": "EFEFEF", "profile_text_color": "333333", "protected": false, "screen_name": "BarrySolow", "statuses_count": 3214}}
{"created_at": "Fri Oct 16 20:25:49 +0000 2015", "favorited": false, "id": 655117462090809344, "lang": "en", "retweeted": false, "source": "<a href=\"http://twitter.com\" rel=\"nofollow\">Twitter Web Client</a>", "text": "Not a study,not peer reviewed, riddled with illogical fallacies,'authors' gun lobby shills @Everytown @MomsDemand\nhttp://t.co/WmBDVyg9Ja", "truncated": false, "urls": {"http://t.co/WmBDVyg9Ja": "http://www.snopes.com/harvard-flaw-review/"}, "user": {"created_at": "Mon Oct 05 13:31:30 +0000 2015", "default_profile": true, "favourites_count": 523, "followers_count": 49, "friends_count": 227, "id": 3871491748, "lang": "en", "name": "Shapunkin", "profile_background_color": "C0DEED", "profile_background_image_url": "http://abs.twimg.com/images/themes/theme1/bg.png", "profile_background_tile": false, "profile_image_url": "https://pbs.twimg.com/profile_images/651047924466614273/jjY_6Lnv_normal.jpg", "profile_link_color": "0084B4", "profile_sidebar_fill_color": "DDEEF6", "profile_text_color": "333333", "protected": false, "screen_name": "Shapunkin", "statuses_count": 250, "time_zone": "Pacific Time (US & Canada)", "utc_offset": -28800}, "user_mentions": [{"id": 250386727, "name": "Everytown", "screen_name": "Everytown"}, {"id": 1017637447, "name": "Moms Demand Action", "screen_name": "MomsDemand"}]}
{"created_at": "Fri Oct 16 23:55:57 +0000 2015", "favorite_count": 11, "favorited": false, "id": 655170343565398016, "lang": "en", "media": [{"display_url": "pic.twitter.com/ZLDSnesInp", "expanded_url": "http://twitter.com/kharyp/status/655170343565398016/photo/1", "id": 655170337097785345, "id_str": "655170337097785345", "indices": [116, 138], "media_url": "http://pbs.twimg.com/media/CReh80oWIAESkk4.jpg", "media_url_https": "https://pbs.twimg.com/media/CReh80oWIAESkk4.jpg", "sizes": {"large": {"h": 1024, "resize": "fit", "w": 646}, "medium": {"h": 951, "resize": "fit", "w": 600}, "small": {"h": 538, "resize": "fit", "w": 340}, "thumb": {"h": 150, "resize": "crop", "w": 150}}, "type": "photo", "url": "http://t.co/ZLDSnesInp"}], "retweet_count": 27, "retweeted": false, "source": "<a href=\"http://twitter.com/download/iphone\" rel=\"nofollow\">Twitter for iPhone</a>", "text": "No,a Harvard study didn't prove areas w higher rates of gun ownership have lower crime rates http://t.co/8i9zkwwXeP http://t.co/ZLDSnesInp", "truncated": false, "urls": {"http://t.co/8i9zkwwXeP": "http://www.snopes.com/harvard-flaw-review/"}, "user": {"created_at": "Fri Jul 03 21:24:55 +0000 2009", "description": "1st they ignore you, then laugh at you, then fight you, then you win. WI Survivor Engagement Lead 4 @Everytown. #GunViolence Survivor. Tweets are mine. #BiPaAv", "favourites_count": 21084, "followers_count": 25379, "friends_count": 23029, "id": 53503202, "lang": "en", "listed_count": 608, "location": "WI Social Media Lead 4 @MomsDemand", "name": "KHARY PENEBAKER", "profile_background_color": "C0DEED", "profile_background_image_url": "http://pbs.twimg.com/profile_background_images/56737972/kyan_wearing_glasses.jpg", "profile_background_tile": false, "profile_banner_url": "https://pbs.twimg.com/profile_banners/53503202/1441915168", "profile_image_url": "https://pbs.twimg.com/profile_images/642064870175866880/fdM4Lvd4_normal.jpg", "profile_link_color": "0084B4", "profile_sidebar_fill_color": "DDEEF6", "profile_text_color": "333333", "protected": false, "screen_name": "kharyp", "statuses_count": 304072, "time_zone": "Central Time (US & Canada)", "url": "https://t.co/jIY68O5xVD", "utc_offset": -21600}}
{"created_at": "Sat Oct 17 20:14:38 +0000 2015", "favorite_count": 1, "favorited": false, "id": 655477035553411072, "lang": "en", "retweeted": false, "source": "<a href=\"http://twitter.com\" rel=\"nofollow\">Twitter Web Client</a>", "text": "NO, a Harvard University study did not prove that areas with higher rates of gun ownership have lower crime rates. http://t.co/c2VJO7ywoR", "truncated": false, "urls": {"http://t.co/c2VJO7ywoR": "http://www.snopes.com/harvard-flaw-review/"}, "user": {"created_at": "Thu Feb 11 04:41:26 +0000 2010", "description": "I'm a bleeding heart liberal and peace-loving Quaker.  Equality should never be considered optional or conditional. Sarcasm is a necessity.", "favourites_count": 2490, "followers_count": 1278, "friends_count": 1175, "id": 113243806, "lang": "en", "listed_count": 75, "location": "NC", "name": "Marcy", "profile_background_color": "FFFFFF", "profile_background_image_url": "http://pbs.twimg.com/profile_background_images/537237687481008130/02ZvFDZe.jpeg", "profile_background_tile": true, "profile_banner_url": "https://pbs.twimg.com/profile_banners/113243806/1450140022", "profile_image_url": "https://pbs.twimg.com/profile_images/3104319747/9a9da4453c4cac4b58454b82ddf43ae1_normal.jpeg", "profile_link_color": "0E1AF2", "profile_sidebar_fill_color": "DDEEF6", "profile_text_color": "333333", "protected": false, "screen_name": "mms5048", "statuses_count": 58495, "time_zone": "Quito", "utc_offset": -18000}}
{"created_at": "Sat Oct 17 21:11:59 +0000 2015", "favorited": false, "id": 655491469218852864, "lang": "en", "retweeted": false, "source": "<a href=\"http://www.apple.com\" rel=\"nofollow\">iOS</a>", "text": "FALSE: Harvard University Study Reveals Astonishing Link Between Firearms, Crime and Gun Control http://t.co/bWgBuqb5r3", "truncated": false, "urls": {"http://t.co/bWgBuqb5r3": "http://www.snopes.com/harvard-flaw-review/"}, "user": {"created_at": "Fri Aug 26 17:46:43 +0000 2011", "default_profile": true, "default_profile_image": true, "favourites_count": 7, "followers_count": 26, "friends_count": 127, "id": 362608967, "lang": "en", "listed_count": 8, "name": "Richard Cookson", "profile_background_color": "C0DEED", "profile_background_image_url": "http://abs.twimg.com/images/themes/theme1/bg.png", "profile_background_tile": false, "profile_image_url": "https://abs.twimg.com/sticky/default_profile_images/default_profile_0_normal.png", "profile_link_color": "0084B4", "profile_sidebar_fill_color": "DDEEF6", "profile_text_color": "333333", "protected": false, "screen_name": "HMSSheffield", "statuses_count": 4287, "time_zone": "Eastern Time (US & Canada)", "utc_offset": -18000}}
{"created_at": "Sun Oct 18 15:58:45 +0000 2015", "favorited": false, "id": 655775029162962944, "lang": "en", "retweeted": false, "source": "<a href=\"http://www.facebook.com/twitter\" rel=\"nofollow\">Facebook</a>", "text": "FALSE: Harvard University Study Reveals Astonishing Link Between Firearms, Crime and Gun Control http://t.co/3lK1lCChVE", "truncated": false, "urls": {"http://t.co/3lK1lCChVE": "http://fb.me/1ON5G7nYr"}, "user": {"created_at": "Tue Sep 23 15:47:08 +0000 2008", "default_profile": true, "description": "High-functioning autistic man living in Las Vegas, Nevada. No stranger to being strange.", "favourites_count": 354, "followers_count": 2255, "friends_count": 2257, "id": 16420692, "lang": "en", "listed_count": 22, "location": "Las Vegas Nevada", "name": "Donald Rilea", "profile_background_color": "C0DEED", "profile_background_image_url": "http://abs.twimg.com/images/themes/theme1/bg.png", "profile_background_tile": false, "profile_image_url": "https://pbs.twimg.com/profile_images/61683740/Amigo_The_Inspector_1_normal.jpg", "profile_link_color": "0084B4", "profile_sidebar_fill_color": "DDEEF6", "profile_text_color": "333333", "protected": false, "screen_name": "Catman_Rilea", "statuses_count": 60476, "time_zone": "Pacific Time (US & Canada)", "url": "http://t.co/oIKqcIaOEL", "utc_offset": -28800}}
{"created_at": "Mon Oct 19 12:31:16 +0000 2015", "favorited": false, "hashtags": ["GunSENSE"], "id": 656085202448556032, "lang": "en", "retweeted": false, "source": "<a href=\"http://twitter.com\" rel=\"nofollow\">Twitter Web Client</a>", "text": "No, a Harvard study did not prove that areas with higher rates of gun ownership have lower crime rates. http://t.co/RGtWZQ9m13 #GunSENSE", "truncated": false, "urls": {"http://t.co/RGtWZQ9m13": "http://www.snopes.com/harvard-flaw-review/"}, "user": {"created_at": "Sat Mar 14 18:34:19 +0000 2009", "description": "Reader, writer, music lover, environmentalist, liberal, kitchen pyrotechnician, Predators hockey fan. I notice stuff.", "favourites_count": 1072, "followers_count": 2450, "friends_count": 1594, "geo_enabled": true, "id": 24408575, "lang": "en", "listed_count": 163, "location": "Nashville", "name": "Lisa", "profile_background_color": "8B542B", "profile_background_image_url": "http://pbs.twimg.com/profile_background_images/506566554545168384/LF6Idpkn.jpeg", "profile_background_tile": true, "profile_banner_url": "https://pbs.twimg.com/profile_banners/24408575/1409609751", "profile_image_url": "https://pbs.twimg.com/profile_images/669262079635902464/qaTM5lYn_normal.jpg", "profile_link_color": "9D582E", "profile_sidebar_fill_color": "EADEAA", "profile_text_color": "333333", "protected": false, "screen_name": "Litzz11", "statuses_count": 38020, "time_zone": "Central Time (US & Canada)", "utc_offset": -21600}}
{"created_at": "Fri Oct 23 06:01:22 +0000 2015", "favorited": false, "id": 657436634200326144, "lang": "en", "retweeted": false, "source": "<a href=\"http://www.facebook.com/twitter\" rel=\"nofollow\">Facebook</a>", "text": "FALSE: Harvard University Study Reveals Astonishing Link Between Firearms, Crime and Gun Control https://t.co/GVEwKH6mln", "truncated": false, "urls": {"https://t.co/GVEwKH6mln": "http://fb.me/23UiC7idT"}, "user": {"created_at": "Wed Jul 24 19:39:20 +0000 2013", "description": "Concert harpist, faculty at UNT College of Music @UNT CoM, 2nd degree brown belt, dog lover, outdoor enthusiast.", "favourites_count": 175, "followers_count": 302, "friends_count": 254, "id": 1618501477, "lang": "en", "listed_count": 5, "location": "Denton, TX", "name": "Jaymee Haefner", "profile_background_color": "C6E2EE", "profile_background_image_url": "http://pbs.twimg.com/profile_background_images/378800000054279299/0b0057a518ce946f32d68ee86c72acd7.gif", "profile_background_tile": false, "profile_banner_url": "https://pbs.twimg.com/profile_banners/1618501477/1374708247", "profile_image_url": "https://pbs.twimg.com/profile_images/430773219377684481/r8qNUDM-_normal.jpeg", "profile_link_color": "1F98C7", "profile_sidebar_fill_color": "DDEEF6", "profile_text_color": "333333", "protected": false, "screen_name": "JaymeeHaefner", "statuses_count": 193, "url": "http://t.co/ae9p53iG9U"}}
