{"created_at": "Sat Aug 15 11:02:32 +0000 2015", "favorited": false, "hashtags": ["iceland"], "id": 632507662584926208, "lang": "en", "media": [{"display_url": "pic.twitter.com/qZo5wJ3SoC", "expanded_url": "http://twitter.com/Dieg0us/status/632507662584926208/photo/1", "id": 632507622797803520, "id_str": "632507622797803520", "indices": [24, 46], "media_url": "http://pbs.twimg.com/media/CMceVO6XAAA2qSz.jpg", "media_url_https": "https://pbs.twimg.com/media/CMceVO6XAAA2qSz.jpg", "sizes": {"large": {"h": 1024, "resize": "fit", "w": 328}, "medium": {"h": 1024, "resize": "fit", "w": 328}, "small": {"h": 680, "resize": "fit", "w": 217}, "thumb": {"h": 150, "resize": "crop", "w": 150}}, "type": "photo", "url": "http://t.co/qZo5wJ3SoC"}], "retweeted": false, "source": "<a href=\"http://twitter.com/#!/download/ipad\" rel=\"nofollow\">Twitter for iPad</a>", "text": "#iceland Land of Giants http://t.co/qZo5wJ3SoC", "truncated": false, "user": {"created_at": "Sat May 02 07:01:17 +0000 2009", "description": "En qu\u00e9 estar\u00eda yo pensando...", "favourites_count": 769, "followers_count": 82, "friends_count": 103, "id": 37159621, "lang": "es", "listed_count": 4, "name": "Diego Sacris", "profile_background_color": "022330", "profile_background_image_url": "http://abs.twimg.com/images/themes/theme15/bg.png", "profile_background_tile": false, "profile_banner_url": "https://pbs.twimg.com/profile_banners/37159621/1354535314", "profile_image_url": "https://pbs.twimg.com/profile_images/576373224495276033/OnncbFuo_normal.jpeg", "profile_link_color": "0084B4", "profile_sidebar_fill_color": "C0DFEC", "profile_text_color": "333333", "protected": false, "screen_name": "Dieg0us", "statuses_count": 2770, "time_zone": "Madrid", "utc_offset": 3600}}
{"created_at": "Fri Sep 25 17:48:22 +0000 2015", "favorite_count": 3, "favorited": false, "id": 647467696930562050, "lang": "en", "media": [{"display_url": "pic.twitter.com/EtAiTFXivi", "expanded_url": "http://twitter.com/theyshouldworry/status/647467696930562050/photo/1", "id": 647467693155708928, "id_str": "647467693155708928", "indices": [24, 46], "media_url": "http://pbs.twimg.com/media/CPxEb74WcAAFr5G.jpg", "media_url_https": "https://pbs.twimg.com/media/CPxEb74WcAAFr5G.jpg", "sizes": {"large": {"h": 348, "resize": "fit", "w": 620}, "medium": {"h": 336, "resize": "fit", "w": 600}, "small": {"h": 190, "resize": "fit", "w": 340}, "thumb": {"h": 150, "resize": "crop", "w": 150}}, "type": "photo", "url": "http://t.co/EtAiTFXivi"}, {"display_url": "pic.twitter.com/EtAiTFXivi", "expanded_url": "http://twitter.com/theyshouldworry/status/647467696930562050/photo/1", "id": 647467692325212160, "id_str": "647467692325212160", "indices": [24, 46], "media_url": "http://pbs.twimg.com/media/CPxEb4yWEAAmPSq.jpg", "media_url_https": "https://pbs.twimg.com/media/CPxEb4yWEAAmPSq.jpg", "sizes": {"large": {"h": 439, "resize": "fit", "w": 625}, "medium": {"h": 421, "resize": "fit", "w": 600}, "small": {"h": 238, "resize": "fit", "w": 340}, "thumb": {"h": 150, "resize": "crop", "w": 150}}, "type": "photo", "url": "http://t.co/EtAiTFXivi"}, {"display_url": "pic.twitter.com/EtAiTFXivi", "expanded_url": "http://twitter.com/theyshouldworry/status/647467696930562050/photo/1", "id": 647467695563239424, "id_str": "647467695563239424", "indices": [24, 46], "media_url": "http://pbs.twimg.com/media/CPxEcE2WcAANd7y.jpg", "media_url_https": "https://pbs.twimg.com/media/CPxEcE2WcAANd7y.jpg", "sizes": {"large": {"h": 395, "resize": "fit", "w": 621}, "medium": {"h": 381, "resize": "fit", "w": 600}, "small": {"h": 216, "resize": "fit", "w": 340}, "thumb": {"h": 150, "resize": "crop", "w": 150}}, "type": "photo", "url": "http://t.co/EtAiTFXivi"}], "retweeted": false, "source": "<a href=\"http://twitter.com\" rel=\"nofollow\">Twitter Web Client</a>", "text": "Land Of Giants, Iceland http://t.co/EtAiTFXivi", "truncated": false, "user": {"created_at": "Tue Aug 21 20:32:57 +0000 2012", "description": "\u00e9g tala ekki \u00edslensku", "favourites_count": 52430, "followers_count": 1752, "friends_count": 2083, "geo_enabled": true, "id": 772213405, "lang": "it", "listed_count": 7, "location": "Silent in the trees", "name": "finner's revenge", "profile_background_color": "ACDED6", "profile_background_image_url": "http://pbs.twimg.com/profile_background_images/582116923199995904/St175QJl.jpg", "profile_background_tile": true, "profile_banner_url": "https://pbs.twimg.com/profile_banners/772213405/1450993598", "profile_image_url": "https://pbs.twimg.com/profile_images/683215354466840576/fPbZG2cY_normal.jpg", "profile_link_color": "16DE34", "profile_sidebar_fill_color": "F6F6F6", "profile_text_color": "333333", "protected": false, "screen_name": "theyshouldworry", "statuses_count": 32557, "time_zone": "Rome", "utc_offset": 3600}}
{"created_at": "Sun Oct 04 04:06:33 +0000 2015", "favorited": false, "id": 650522367010017280, "lang": "en", "retweeted": false, "source": "<a href=\"http://tapbots.com/software/tweetbot/mac\" rel=\"nofollow\">Tweetbot for Mac</a>", "text": "The Land of Giants\u2122 : Proposal for Landsnet, Iceland http://t.co/E96S064qlp https://t.co/OzvfXpz6tr", "truncated": false, "urls": {"http://t.co/E96S064qlp": "http://www.choishine.com/Projects/giants.html", "https://t.co/OzvfXpz6tr": "https://twitter.com/ShogoNu/status/650161992687202305"}, "user": {"created_at": "Sun Jun 22 00:09:52 +0000 2008", "favourites_count": 347, "followers_count": 1968, "friends_count": 2237, "id": 15193667, "lang": "ja", "listed_count": 154, "location": "\u65b0\u6f5f\u770c\u4f50\u6e21\u5e02", "name": "matiere*", "profile_background_color": "0099B9", "profile_background_image_url": "http://abs.twimg.com/images/themes/theme4/bg.gif", "profile_background_tile": false, "profile_banner_url": "https://pbs.twimg.com/profile_banners/15193667/1394268466", "profile_image_url": "https://pbs.twimg.com/profile_images/1187122868/maru_1_normal.jpg", "profile_link_color": "0099B9", "profile_sidebar_fill_color": "95E8EC", "profile_text_color": "3C3940", "protected": false, "screen_name": "matiere", "statuses_count": 358456, "time_zone": "Tokyo", "url": "http://t.co/ZfpaRlaPpU", "utc_offset": 32400}}
{"created_at": "Sun Oct 04 06:26:47 +0000 2015", "favorited": false, "id": 650557659410747392, "lang": "en", "retweeted": false, "source": "<a href=\"http://pinterest.com\" rel=\"nofollow\">Pinterest</a>", "text": "The Land of Giants\u2122 : Proposal for Landsnet, Iceland  http://t.co/tnTfmFjpCz http://t.co/vSHA6DlN89", "truncated": false, "urls": {"http://t.co/tnTfmFjpCz": "http://www.choishine.com/Projects/giants.html", "http://t.co/vSHA6DlN89": "http://pinterest.com/pin/343821752781344445/"}, "user": {"created_at": "Sun Mar 15 04:42:13 +0000 2009", "description": "(Undefined) http://t.co/QeTNqz9u2x", "favourites_count": 4, "followers_count": 109, "friends_count": 206, "id": 24487880, "lang": "en", "listed_count": 3, "location": "Hobart, Australia", "name": "Inga Westerberg", "profile_background_color": "311523", "profile_background_image_url": "http://pbs.twimg.com/profile_background_images/618922138905395200/WTfZ9CGn.jpg", "profile_background_tile": false, "profile_banner_url": "https://pbs.twimg.com/profile_banners/24487880/1451585488", "profile_image_url": "https://pbs.twimg.com/profile_images/682624952722264064/jLhG_2GL_normal.jpg", "profile_link_color": "56969E", "profile_sidebar_fill_color": "8EA59B", "profile_text_color": "4D5760", "protected": false, "screen_name": "IngaLeonora", "statuses_count": 2807, "time_zone": "Hobart", "url": "http://t.co/zmSMlM7ciE", "utc_offset": 39600}}
{"created_at": "Sun Oct 04 14:17:29 +0000 2015", "favorited": false, "id": 650676113534902272, "lang": "en", "media": [{"display_url": "pic.twitter.com/OcQvTFsLWc", "expanded_url": "http://twitter.com/GreggGrose/status/650676113534902272/photo/1", "id": 650676112704430081, "id_str": "650676112704430081", "indices": [75, 97], "media_url": "http://pbs.twimg.com/media/CQeqeiGUYAEWsCM.jpg", "media_url_https": "https://pbs.twimg.com/media/CQeqeiGUYAEWsCM.jpg", "sizes": {"large": {"h": 504, "resize": "fit", "w": 750}, "medium": {"h": 403, "resize": "fit", "w": 600}, "small": {"h": 228, "resize": "fit", "w": 340}, "thumb": {"h": 150, "resize": "crop", "w": 150}}, "type": "photo", "url": "http://t.co/OcQvTFsLWc"}], "retweeted": false, "source": "<a href=\"http://twitter.com\" rel=\"nofollow\">Twitter Web Client</a>", "text": "The Land of Giants : Proposal for Landsnet, Iceland http://t.co/1GFJFIhgXl http://t.co/OcQvTFsLWc", "truncated": false, "urls": {"http://t.co/1GFJFIhgXl": "http://www.choishine.com/Projects/giants.html"}, "user": {"created_at": "Tue Jun 14 20:48:39 +0000 2011", "description": "Nothing but the best - sports, music, bikes, internets, otters", "favourites_count": 3541, "followers_count": 217, "friends_count": 1280, "id": 317369942, "lang": "en", "listed_count": 5, "location": "Duluth, MN", "name": "Gregg Grose", "profile_background_color": "1A1B1F", "profile_background_image_url": "http://pbs.twimg.com/profile_background_images/831492264/b29af18915eda62d94b1d9ff36419e9c.jpeg", "profile_background_tile": true, "profile_banner_url": "https://pbs.twimg.com/profile_banners/317369942/1431459001", "profile_image_url": "https://pbs.twimg.com/profile_images/596332605579988992/mSHvad2Y_normal.jpg", "profile_link_color": "1D1E1F", "profile_sidebar_fill_color": "252429", "profile_text_color": "666666", "protected": false, "screen_name": "GreggGrose", "statuses_count": 4941}}
{"created_at": "Mon Oct 05 03:32:55 +0000 2015", "favorite_count": 1, "favorited": false, "hashtags": ["Iceland", "design", "architecture"], "id": 650876293324611584, "lang": "en", "retweeted": false, "source": "<a href=\"http://twitter.com\" rel=\"nofollow\">Twitter Web Client</a>", "text": "#Iceland, The Land of Giants? http://t.co/dy9cibE874 #design #architecture", "truncated": false, "urls": {"http://t.co/dy9cibE874": "http://www.choishine.com/Projects/giants.html"}, "user": {"created_at": "Tue Feb 16 20:02:13 +0000 2010", "description": "Photographer + Web Content Manager for the USDA Northeast Climate Hub @USDAClimateHubs", "favourites_count": 496, "followers_count": 445, "friends_count": 871, "geo_enabled": true, "id": 114845777, "lang": "en", "listed_count": 30, "location": "Newmarket NH", "name": "Karrah Kwasnik", "profile_background_color": "ADADAD", "profile_background_image_url": "http://pbs.twimg.com/profile_background_images/821431940/b709a8c077a79f824a425207cef8cf57.jpeg", "profile_background_tile": true, "profile_banner_url": "https://pbs.twimg.com/profile_banners/114845777/1449717051", "profile_image_url": "https://pbs.twimg.com/profile_images/564970425143148544/R155YDdc_normal.png", "profile_link_color": "F5ABB5", "profile_sidebar_fill_color": "23DDA9", "profile_text_color": "FF875B", "protected": false, "screen_name": "KARRAHK", "statuses_count": 1538, "time_zone": "Quito", "url": "http://t.co/wviVqVaQME", "utc_offset": -18000}}
{"created_at": "Mon Oct 12 19:30:22 +0000 2015", "favorited": false, "id": 653653956426657792, "lang": "en", "retweeted": false, "source": "<a href=\"http://twitter.com\" rel=\"nofollow\">Twitter Web Client</a>", "text": "Land of Giants: A Tantalising Glimpse of What Could Have Been http://t.co/C0lYCtc2xU", "truncated": false, "urls": {"http://t.co/C0lYCtc2xU": "http://www.urbanghostsmedia.com/2015/10/land-of-giants-iceland-electricity-pylon-design/"}, "user": {"created_at": "Wed Apr 25 19:03:15 +0000 2007", "description": "Aging Comic Fanboy", "favourites_count": 3906, "followers_count": 455, "friends_count": 2013, "id": 5505872, "lang": "en", "listed_count": 13, "location": "Indiana", "name": "Russ Cross", "profile_background_color": "642D8B", "profile_background_image_url": "http://pbs.twimg.com/profile_background_images/32680348/PanClarinet02.JPG", "profile_background_tile": true, "profile_image_url": "https://pbs.twimg.com/profile_images/490657829959655425/Wx1bulOE_normal.png", "profile_link_color": "FF0000", "profile_sidebar_fill_color": "7AC3EE", "profile_text_color": "3D1957", "protected": false, "screen_name": "russc98", "statuses_count": 21713, "time_zone": "Eastern Time (US & Canada)", "utc_offset": -18000}}
{"created_at": "Mon Oct 12 19:37:24 +0000 2015", "favorited": false, "hashtags": ["urbex", "design", "alternativepower", "architecture", "cool"], "id": 653655728360681473, "lang": "en", "retweeted": false, "source": "<a href=\"http://twitter.com\" rel=\"nofollow\">Twitter Web Client</a>", "text": "Land of Giants: A Tantalising Glimpse of What Could Have Been http://t.co/R74sVA8DGh #urbex #design #alternativepower #architecture #cool", "truncated": false, "urls": {"http://t.co/R74sVA8DGh": "http://www.urbanghostsmedia.com/?p=33513"}, "user": {"created_at": "Tue Mar 10 19:36:39 +0000 2009", "description": "Creative Human. ~ Designer, Web developer, Artist, Skateboarder, Musician, Producer, Entrepreneur ~ designerCon 2015 booth #315 https://t.co/IeL9jrCSc1", "favourites_count": 315, "followers_count": 862, "friends_count": 706, "geo_enabled": true, "id": 23639481, "lang": "en", "listed_count": 241, "location": "Cleveland, OH", "name": "Rick Sans", "profile_background_color": "C6E2EE", "profile_background_image_url": "http://abs.twimg.com/images/themes/theme1/bg.png", "profile_background_tile": false, "profile_banner_url": "https://pbs.twimg.com/profile_banners/23639481/1424258108", "profile_image_url": "https://pbs.twimg.com/profile_images/517507110607667200/zb_a8IxB_normal.jpeg", "profile_link_color": "1F98C7", "profile_sidebar_fill_color": "DAECF4", "profile_text_color": "663B12", "protected": false, "screen_name": "ricksans", "statuses_count": 4705, "time_zone": "Quito", "url": "https://t.co/V6nI1yXTsT", "utc_offset": -18000}}
{"created_at": "Mon Oct 12 19:53:49 +0000 2015", "favorited": false, "id": 653659861037776896, "lang": "en", "retweeted": false, "source": "<a href=\"http://twitter.com\" rel=\"nofollow\">Twitter Web Client</a>", "text": "Land of Giants: A Tantalising Glimpse of What Could Have Been http://t.co/6ds1WsEWGb via @UrbanGhosts", "truncated": false, "urls": {"http://t.co/6ds1WsEWGb": "http://www.urbanghostsmedia.com/?p=33513"}, "user": {"created_at": "Mon Feb 08 20:17:35 +0000 2010", "favourites_count": 72, "followers_count": 55285, "friends_count": 60980, "geo_enabled": true, "id": 112521824, "lang": "en", "listed_count": 652, "location": "Dublin, Ireland", "name": "Jacob Kotze", "profile_background_color": "2D545C", "profile_background_image_url": "http://pbs.twimg.com/profile_background_images/439714403261227008/rXs4SNPE.jpeg", "profile_background_tile": true, "profile_banner_url": "https://pbs.twimg.com/profile_banners/112521824/1385887502", "profile_image_url": "https://pbs.twimg.com/profile_images/619852234004787200/uWp_yzL0_normal.jpg", "profile_link_color": "100A14", "profile_sidebar_fill_color": "DAECF4", "profile_text_color": "663B12", "protected": false, "screen_name": "jacobkotze", "statuses_count": 10589, "time_zone": "Dublin"}, "user_mentions": [{"id": 65186980, "name": "Tom Moran", "screen_name": "UrbanGhosts"}]}
{"created_at": "Tue Oct 13 09:26:40 +0000 2015", "favorited": false, "id": 653864420729331712, "lang": "en", "retweeted": false, "source": "<a href=\"http://www.apple.com\" rel=\"nofollow\">iOS</a>", "text": "\"Land of Giants: A Tantalising Glimpse of What Could Have Been\" \n\nFrom the desk of AJS http://t.co/bJzVQeRlyi", "truncated": false, "urls": {"http://t.co/bJzVQeRlyi": "http://www.urbanghostsmedia.com/2015/10/land-of-giants-iceland-electricity-pylon-design/"}, "user": {"created_at": "Tue Jan 27 18:35:53 +0000 2009", "description": "Author, writer of The Lady Thrillington Adventure, The Missing and other works.", "favourites_count": 75, "followers_count": 228, "friends_count": 201, "geo_enabled": true, "id": 19607139, "lang": "en", "listed_count": 17, "location": "Edinburgh", "name": "Adam J. Shardlow", "profile_background_color": "1A1B1F", "profile_background_image_url": "http://pbs.twimg.com/profile_background_images/378800000047305872/52702db5493f6a962f54cf69372fe426.jpeg", "profile_background_tile": true, "profile_banner_url": "https://pbs.twimg.com/profile_banners/19607139/1375984738", "profile_image_url": "https://pbs.twimg.com/profile_images/523754537065385984/r0LCLw4-_normal.jpeg", "profile_link_color": "2FC2EF", "profile_sidebar_fill_color": "252429", "profile_text_color": "666666", "protected": false, "screen_name": "MiddleManLost", "statuses_count": 7063, "time_zone": "Edinburgh", "url": "http://t.co/7foiDwVcMI"}}
{"created_at": "Tue Oct 13 15:45:15 +0000 2015", "favorited": false, "hashtags": ["Iceland"], "id": 653959691647717378, "lang": "en", "media": [{"display_url": "pic.twitter.com/yvJcTMSWzc", "expanded_url": "http://twitter.com/LaserArtStyle/status/653959691647717378/photo/1", "id": 653959690699808769, "id_str": "653959690699808769", "indices": [107, 129], "media_url": "http://pbs.twimg.com/media/CRNU37WWIAEp_Wn.png", "media_url_https": "https://pbs.twimg.com/media/CRNU37WWIAEp_Wn.png", "sizes": {"large": {"h": 428, "resize": "fit", "w": 620}, "medium": {"h": 414, "resize": "fit", "w": 600}, "small": {"h": 234, "resize": "fit", "w": 340}, "thumb": {"h": 150, "resize": "crop", "w": 150}}, "type": "photo", "url": "http://t.co/yvJcTMSWzc"}], "retweeted": false, "source": "<a href=\"http://twitter.com\" rel=\"nofollow\">Twitter Web Client</a>", "text": "The Land of Giants\nChoi + Shine Architects \nPiloni elettrici creativi  in #Iceland!\nhttp://t.co/ZQkzknae0X http://t.co/yvJcTMSWzc", "truncated": false, "urls": {"http://t.co/ZQkzknae0X": "http://bit.ly/1MkEpeU"}, "user": {"created_at": "Mon Jul 22 08:54:22 +0000 2013", "description": "L\u2019arte di incidere i tuoi sogni.  \r\n#Tradizione e #innovazione nel settore dell'#homed\u00e8cor.\r\n#design #arte #laser #MadeinItaly\r\nSponsor ufficiale di @VolleyLube", "favourites_count": 369, "followers_count": 433, "friends_count": 815, "id": 1612360422, "lang": "it", "listed_count": 10, "location": "Macerata, Marche", "name": "L.A.S. LaserArtStyle", "profile_background_color": "1A1B1F", "profile_background_image_url": "http://abs.twimg.com/images/themes/theme9/bg.gif", "profile_background_tile": false, "profile_banner_url": "https://pbs.twimg.com/profile_banners/1612360422/1450708277", "profile_image_url": "https://pbs.twimg.com/profile_images/378800000180090739/e34df530490ce2e3782706f54ac52d78_normal.jpeg", "profile_link_color": "2FC2EF", "profile_sidebar_fill_color": "252429", "profile_text_color": "666666", "protected": false, "screen_name": "LaserArtStyle", "statuses_count": 1778, "time_zone": "Rome", "url": "http://t.co/Ct0aUwBBeb", "utc_offset": 3600}}
{"created_at": "Wed Oct 14 13:59:36 +0000 2015", "favorited": false, "id": 654295492399075328, "lang": "en", "retweeted": false, "source": "<a href=\"http://twitter.com\" rel=\"nofollow\">Twitter Web Client</a>", "text": "The Land of Giants\u2122: Proposal for Landsnet, Iceland http://t.co/woIyUvrsbk", "truncated": false, "urls": {"http://t.co/woIyUvrsbk": "http://www.choishine.com/Projects/giants.html"}, "user": {"created_at": "Mon Mar 19 16:44:09 +0000 2012", "description": "Graphic Designer \u00b7 Live and breathe design and music.", "favourites_count": 15491, "followers_count": 666, "friends_count": 326, "id": 529522444, "lang": "en", "listed_count": 40, "location": "Athens, Greece", "name": "Julie Bakopoulou", "profile_background_color": "131516", "profile_background_image_url": "http://pbs.twimg.com/profile_background_images/538227075136512000/x4PKp4nI.png", "profile_background_tile": true, "profile_banner_url": "https://pbs.twimg.com/profile_banners/529522444/1417160859", "profile_image_url": "https://pbs.twimg.com/profile_images/458851754226900992/X1ldUF_O_normal.jpeg", "profile_link_color": "C32148", "profile_sidebar_fill_color": "252429", "profile_text_color": "666666", "protected": false, "screen_name": "jubaloo_", "statuses_count": 5564, "time_zone": "Athens", "url": "http://t.co/UlKLF4go9I", "utc_offset": 7200}}
{"created_at": "Thu Oct 15 00:19:03 +0000 2015", "favorited": false, "id": 654451382074761216, "lang": "en", "retweeted": false, "source": "<a href=\"http://twitter.com\" rel=\"nofollow\">Twitter Web Client</a>", "text": "Land of Giants http://t.co/HDNfWTHqbZ", "truncated": false, "urls": {"http://t.co/HDNfWTHqbZ": "http://www.snopes.com/land-of-giants-iceland/"}, "user": {"created_at": "Tue Nov 11 20:09:34 +0000 2014", "description": "| https://t.co/Xt6XDiqOGc | https://t.co/SEI0Yy3IRo | https://t.co/Q7uZwoes2v | Marine Veteran, Ally, Political Junkie. Retweets are just retweets...", "favourites_count": 446, "followers_count": 414, "friends_count": 1737, "id": 2896866728, "lang": "en", "listed_count": 9, "location": "San Diego, CA", "name": "Vinny Green", "profile_background_color": "000000", "profile_background_image_url": "http://abs.twimg.com/images/themes/theme1/bg.png", "profile_background_tile": false, "profile_image_url": "https://pbs.twimg.com/profile_images/646510682989400064/53u-SeYI_normal.jpg", "profile_link_color": "3B94D9", "profile_sidebar_fill_color": "000000", "profile_text_color": "000000", "protected": false, "screen_name": "vinnysgreen", "statuses_count": 1674, "time_zone": "Pacific Time (US & Canada)", "url": "http://t.co/2ZoIAPUdGu", "utc_offset": -28800}}
{"created_at": "Sat Oct 17 15:44:36 +0000 2015", "favorited": false, "hashtags": ["Iceland", "metalgiants"], "id": 655409081516236801, "lang": "en", "media": [{"display_url": "pic.twitter.com/FKY4oa7Hzt", "expanded_url": "http://twitter.com/Hoaxolizer/status/655409081516236801/photo/1", "id": 655409081361027072, "id_str": "655409081361027072", "indices": [60, 82], "media_url": "http://pbs.twimg.com/media/CRh7FkUW0AAdlFY.jpg", "media_url_https": "https://pbs.twimg.com/media/CRh7FkUW0AAdlFY.jpg", "sizes": {"large": {"h": 480, "resize": "fit", "w": 640}, "medium": {"h": 450, "resize": "fit", "w": 600}, "small": {"h": 255, "resize": "fit", "w": 340}, "thumb": {"h": 150, "resize": "crop", "w": 150}}, "type": "photo", "url": "http://t.co/FKY4oa7Hzt"}], "retweet_count": 1, "retweeted": false, "source": "<a href=\"http://leadstories.com\" rel=\"nofollow\">Lead Stories Feed Publisher</a>", "text": "Land of Giants #Iceland #metalgiants http://t.co/2bbY8hXVvv http://t.co/FKY4oa7Hzt", "truncated": false, "urls": {"http://t.co/2bbY8hXVvv": "http://hoax.trendolizer.com/2015/10/land-of-giants.html"}, "user": {"created_at": "Tue Oct 21 09:02:21 +0000 2014", "default_profile": true, "description": "The most trending news about hoaxes as collected by Trendolizer", "followers_count": 658, "friends_count": 430, "id": 2839486181, "lang": "en", "listed_count": 64, "name": "Trending Hoax News", "profile_background_color": "C0DEED", "profile_background_image_url": "http://abs.twimg.com/images/themes/theme1/bg.png", "profile_background_tile": false, "profile_banner_url": "https://pbs.twimg.com/profile_banners/2839486181/1413882440", "profile_image_url": "https://pbs.twimg.com/profile_images/524486681945067520/woFPZPVc_normal.jpeg", "profile_link_color": "0084B4", "profile_sidebar_fill_color": "DDEEF6", "profile_text_color": "333333", "protected": false, "screen_name": "Hoaxolizer", "statuses_count": 12867, "url": "http://t.co/7pRPb4ABpu"}}
{"created_at": "Mon Oct 19 12:46:28 +0000 2015", "favorited": false, "id": 656089029885038592, "lang": "en", "media": [{"display_url": "pic.twitter.com/XFuDjlMFj3", "expanded_url": "http://twitter.com/Energyrad/status/656089029885038592/photo/1", "id": 656088274637860864, "id_str": "656088274637860864", "indices": [74, 96], "media_url": "http://pbs.twimg.com/media/CRrkz0cWsAAaS5O.jpg", "media_url_https": "https://pbs.twimg.com/media/CRrkz0cWsAAaS5O.jpg", "sizes": {"large": {"h": 468, "resize": "fit", "w": 468}, "medium": {"h": 468, "resize": "fit", "w": 468}, "small": {"h": 340, "resize": "fit", "w": 340}, "thumb": {"h": 150, "resize": "crop", "w": 150}}, "type": "photo", "url": "http://t.co/XFuDjlMFj3"}], "retweet_count": 3, "retweeted": false, "source": "<a href=\"https://about.twitter.com/products/tweetdeck\" rel=\"nofollow\">TweetDeck</a>", "text": "The Land of Giants: Proposal for Landsnet, Iceland http://t.co/gxtNHazQvV http://t.co/XFuDjlMFj3", "truncated": false, "urls": {"http://t.co/gxtNHazQvV": "http://www.choishine.com/Projects/giants.html"}, "user": {"created_at": "Thu Nov 10 13:20:43 +0000 2011", "description": "Energyrad provides a multi-institutional and interdisciplinary forum for the analysis and discussion of energy economics, markets and policy regulation", "followers_count": 98, "friends_count": 103, "id": 409238325, "lang": "es", "listed_count": 3, "location": "Concepci\u00f3n, Chile", "name": "EnergyRAD", "profile_background_color": "FFFFFF", "profile_background_image_url": "http://pbs.twimg.com/profile_background_images/687170478/0ecb2997bed3b885e5ffcc7873dab06c.jpeg", "profile_background_tile": false, "profile_banner_url": "https://pbs.twimg.com/profile_banners/409238325/1399322250", "profile_image_url": "https://pbs.twimg.com/profile_images/3462457010/dae95028878f8958e9f3de6ebceb2085_normal.png", "profile_link_color": "3B94D9", "profile_sidebar_fill_color": "DDEEF6", "profile_text_color": "333333", "protected": false, "screen_name": "Energyrad", "statuses_count": 816, "time_zone": "Santiago", "url": "http://t.co/94Fj1zaC", "utc_offset": -10800}}
