{"created_at": "Fri Jul 19 17:41:31 +0000 2013", "favorite_count": 1, "favorited": false, "id": 358280453519716352, "lang": "en", "retweeted": false, "source": "<a href=\"http://twitter.com\" rel=\"nofollow\">Twitter Web Client</a>", "text": "The John Pearl Elementary School: \"Half of our Teachers are carrying 45cal ACP's You decide which half You want to test\"", "truncated": false, "user": {"created_at": "Fri May 03 21:31:43 +0000 2013", "default_profile": true, "description": "Conservative, Christian, Blacksmith. I stalk Fine-Craft. Folk Metal fan. #tcot, #CCOT #tgdn, #pjnet, #tGia", "favourites_count": 13638, "followers_count": 12021, "friends_count": 11734, "id": 1400789210, "lang": "en", "listed_count": 142, "location": " Pa", "name": "Joel ", "profile_background_color": "C0DEED", "profile_background_image_url": "http://abs.twimg.com/images/themes/theme1/bg.png", "profile_background_tile": false, "profile_banner_url": "https://pbs.twimg.com/profile_banners/1400789210/1368767260", "profile_image_url": "https://pbs.twimg.com/profile_images/3631420752/8d966f43b39a81a9439b350eab2a04e1_normal.jpeg", "profile_link_color": "0084B4", "profile_sidebar_fill_color": "DDEEF6", "profile_text_color": "333333", "protected": false, "screen_name": "Blacksmith222", "statuses_count": 24491}}
{"created_at": "Mon Sep 02 06:03:51 +0000 2013", "favorited": false, "id": 374412336418660352, "lang": "en", "retweet_count": 1, "retweeted": false, "source": "<a href=\"http://twitter.com\" rel=\"nofollow\">Twitter Web Client</a>", "text": "Sign outside John Pearl Elementary School: Warning half of our school teachers are carrying Glock .45cal pistols guess which ones.", "truncated": false, "user": {"created_at": "Wed Dec 21 19:05:59 +0000 2011", "description": "Liberty Loving Libertarian (INTJ) Mottos: Hostis res Publica - Morte ai Tiranni - Dum Spiro, Pugno - Tu Ne Cede Malis - Molon Labe - Vox populi vox Dei #TGDN", "favourites_count": 3751, "followers_count": 3459, "friends_count": 3791, "id": 443044262, "lang": "en", "listed_count": 75, "location": "San Francisco", "name": "Ron Getty", "profile_background_color": "9AE6D9", "profile_background_image_url": "http://abs.twimg.com/images/themes/theme16/bg.gif", "profile_background_tile": false, "profile_banner_url": "https://pbs.twimg.com/profile_banners/443044262/1398991410", "profile_image_url": "https://pbs.twimg.com/profile_images/509845661269782528/zQqR-Ec7_normal.jpeg", "profile_link_color": "0084B4", "profile_sidebar_fill_color": "DDFFCC", "profile_text_color": "333333", "protected": false, "screen_name": "MorteAiTiranni", "statuses_count": 36721, "time_zone": "Pacific Time (US & Canada)", "utc_offset": -28800}}
{"created_at": "Mon Sep 02 06:07:17 +0000 2013", "favorite_count": 2, "favorited": false, "id": 374413199405113344, "in_reply_to_screen_name": "KathrynKemm", "in_reply_to_status_id": 374412608368934912, "in_reply_to_user_id": 1512234564, "lang": "en", "media": [{"display_url": "pic.twitter.com/Py00LigPDH", "expanded_url": "http://twitter.com/MorteAiTiranni/status/374413199405113344/photo/1", "id": 374413199409307650, "id_str": "374413199409307650", "indices": [114, 136], "media_url": "http://pbs.twimg.com/media/BTIu0jYCYAIzzEA.jpg", "media_url_https": "https://pbs.twimg.com/media/BTIu0jYCYAIzzEA.jpg", "sizes": {"large": {"h": 480, "resize": "fit", "w": 480}, "medium": {"h": 480, "resize": "fit", "w": 480}, "small": {"h": 340, "resize": "fit", "w": 340}, "thumb": {"h": 150, "resize": "crop", "w": 150}}, "type": "photo", "url": "http://t.co/Py00LigPDH"}], "retweet_count": 1, "retweeted": false, "source": "<a href=\"http://twitter.com\" rel=\"nofollow\">Twitter Web Client</a>", "text": "@KathrynKemm Here's the photo of John Pearl Elementary school teachers carry didn't have enough room for the jpeg http://t.co/Py00LigPDH", "truncated": false, "user": {"created_at": "Wed Dec 21 19:05:59 +0000 2011", "description": "Liberty Loving Libertarian (INTJ) Mottos: Hostis res Publica - Morte ai Tiranni - Dum Spiro, Pugno - Tu Ne Cede Malis - Molon Labe - Vox populi vox Dei #TGDN", "favourites_count": 3751, "followers_count": 3459, "friends_count": 3791, "id": 443044262, "lang": "en", "listed_count": 75, "location": "San Francisco", "name": "Ron Getty", "profile_background_color": "9AE6D9", "profile_background_image_url": "http://abs.twimg.com/images/themes/theme16/bg.gif", "profile_background_tile": false, "profile_banner_url": "https://pbs.twimg.com/profile_banners/443044262/1398991410", "profile_image_url": "https://pbs.twimg.com/profile_images/509845661269782528/zQqR-Ec7_normal.jpeg", "profile_link_color": "0084B4", "profile_sidebar_fill_color": "DDFFCC", "profile_text_color": "333333", "protected": false, "screen_name": "MorteAiTiranni", "statuses_count": 36721, "time_zone": "Pacific Time (US & Canada)", "utc_offset": -28800}, "user_mentions": [{"id": 1512234564, "name": "Mad Doggie!", "screen_name": "KathrynKemm"}]}
{"created_at": "Sat Nov 22 12:48:52 +0000 2014", "favorited": false, "id": 536139249582886913, "in_reply_to_screen_name": "BraveConWarrior", "in_reply_to_status_id": 536128968081301504, "in_reply_to_user_id": 329323059, "lang": "en", "retweeted": false, "source": "<a href=\"http://twitter.com\" rel=\"nofollow\">Twitter Web Client</a>", "text": "@BraveConWarrior   John \"Pearl\" Elementary School. Are those guns \"Pearl\" handled?  \"Nyuk,Nyuk,Nyuk\"- Joe \"Curly\" Howard.", "truncated": false, "user": {"created_at": "Mon Mar 11 08:48:57 +0000 2013", "default_profile": true, "description": "Founder and President of the Society for the Preservation of our American Republic.", "favourites_count": 946, "followers_count": 1207, "friends_count": 2182, "id": 1258946970, "lang": "en", "listed_count": 54, "location": "Swift Water,New York,USA", "name": "Robert C. Laity", "profile_background_color": "C0DEED", "profile_background_image_url": "http://abs.twimg.com/images/themes/theme1/bg.png", "profile_background_tile": false, "profile_banner_url": "https://pbs.twimg.com/profile_banners/1258946970/1451727011", "profile_image_url": "https://pbs.twimg.com/profile_images/667966774889984000/Ip07QRYA_normal.jpg", "profile_link_color": "0084B4", "profile_sidebar_fill_color": "DDEEF6", "profile_text_color": "333333", "protected": false, "screen_name": "RobertCLaity", "statuses_count": 26371, "time_zone": "Eastern Time (US & Canada)", "utc_offset": -18000}, "user_mentions": [{"id": 329323059, "name": "Conservative Warrior", "screen_name": "BraveConWarrior"}]}
{"created_at": "Sun Jan 11 19:40:03 +0000 2015", "favorited": false, "hashtags": ["Rise"], "id": 554362117621821440, "lang": "en", "retweeted": false, "source": "<a href=\"https://twitter.com/download/android\" rel=\"nofollow\">Twitter for  Android</a>", "text": "john orr 0/\"@_Pearl_xo: especially Vryburger teachers \"@PaBiiEe: Can all high school teachers watch this ?? #Rise !!!\"\"", "truncated": false, "user": {"created_at": "Tue Oct 13 14:35:00 +0000 2009", "description": "No DMs", "favourites_count": 44, "followers_count": 1397, "friends_count": 633, "geo_enabled": true, "id": 82108611, "lang": "en", "listed_count": 10, "location": "Johannesburg South Africa", "name": "charity", "profile_background_color": "642D8B", "profile_background_image_url": "http://abs.twimg.com/images/themes/theme10/bg.gif", "profile_background_tile": true, "profile_banner_url": "https://pbs.twimg.com/profile_banners/82108611/1448879167", "profile_image_url": "https://pbs.twimg.com/profile_images/678994741430779904/MwX0047f_normal.jpg", "profile_link_color": "FF0000", "profile_sidebar_fill_color": "7AC3EE", "profile_text_color": "3D1957", "protected": false, "screen_name": "chari_tee", "statuses_count": 20868}}
{"created_at": "Tue Oct 13 23:46:58 +0000 2015", "favorite_count": 17, "favorited": false, "id": 654080921839267841, "lang": "en", "media": [{"display_url": "pic.twitter.com/9VpYDdpocD", "expanded_url": "http://twitter.com/snopes/status/654080921839267841/photo/1", "id": 654080921365315584, "id_str": "654080921365315584", "indices": [56, 78], "media_url": "http://pbs.twimg.com/media/CRPDIexXAAAQmHa.jpg", "media_url_https": "https://pbs.twimg.com/media/CRPDIexXAAAQmHa.jpg", "sizes": {"large": {"h": 500, "resize": "fit", "w": 500}, "medium": {"h": 500, "resize": "fit", "w": 500}, "small": {"h": 340, "resize": "fit", "w": 340}, "thumb": {"h": 150, "resize": "crop", "w": 150}}, "type": "photo", "url": "http://t.co/9VpYDdpocD"}], "retweet_count": 18, "retweeted": false, "source": "<a href=\"http://twitter.com\" rel=\"nofollow\">Twitter Web Client</a>", "text": "This is not a real school sign:\n\nhttp://t.co/Fm3aWMTwIJ http://t.co/9VpYDdpocD", "truncated": false, "urls": {"http://t.co/Fm3aWMTwIJ": "http://m.snopes.com/john-pearl-elementary-school-guns/"}, "user": {"created_at": "Thu Apr 03 17:00:11 +0000 2008", "description": "The definitive Internet reference source for urban legends, folklore, myths, rumors, and misinformation.", "favourites_count": 12, "followers_count": 118990, "friends_count": 4, "id": 14294848, "lang": "en", "listed_count": 3241, "name": "snopes.com", "profile_background_color": "C7F2B1", "profile_background_image_url": "http://pbs.twimg.com/profile_background_images/840081271/d90db0daf7c81f75aea62d88c084e755.png", "profile_background_tile": false, "profile_banner_url": "https://pbs.twimg.com/profile_banners/14294848/1365714336", "profile_image_url": "https://pbs.twimg.com/profile_images/3507964197/be9d1840411bca2d8101382340f58957_normal.png", "profile_link_color": "81D159", "profile_sidebar_fill_color": "DDEEF6", "profile_text_color": "333333", "protected": false, "screen_name": "snopes", "statuses_count": 4888, "time_zone": "Pacific Time (US & Canada)", "url": "http://t.co/10Or8rl3ff", "utc_offset": -28800, "verified": true}}
{"created_at": "Wed Oct 14 00:04:26 +0000 2015", "favorited": false, "id": 654085318220599296, "lang": "en", "media": [{"display_url": "pic.twitter.com/M1BRbMbxlq", "expanded_url": "http://twitter.com/snopes/status/654080921839267841/photo/1", "id": 654080921365315584, "id_str": "654080921365315584", "indices": [56, 78], "media_url": "http://pbs.twimg.com/media/CRPDIexXAAAQmHa.jpg", "media_url_https": "https://pbs.twimg.com/media/CRPDIexXAAAQmHa.jpg", "sizes": {"large": {"h": 500, "resize": "fit", "w": 500}, "medium": {"h": 500, "resize": "fit", "w": 500}, "small": {"h": 340, "resize": "fit", "w": 340}, "thumb": {"h": 150, "resize": "crop", "w": 150}}, "source_status_id": 654080921839267841, "source_status_id_str": "654080921839267841", "source_user_id": 14294848, "source_user_id_str": "14294848", "type": "photo", "url": "http://t.co/M1BRbMbxlq"}], "retweeted": false, "source": "<a href=\"http://ifttt.com\" rel=\"nofollow\">IFTTT</a>", "text": "This is not a real school sign:\n\nhttp://t.co/ECjCkTNLT7 http://t.co/M1BRbMbxlq", "truncated": false, "urls": {"http://t.co/ECjCkTNLT7": "http://m.snopes.com/john-pearl-elementary-school-guns/"}, "user": {"created_at": "Mon Jan 28 14:40:52 +0000 2013", "default_profile": true, "description": "I tweet about all things in Cape Town. #CapeFact The Mother City. For info in events: #CapeEvents. Also #capetownfairy me for any quests", "favourites_count": 663, "followers_count": 2631, "friends_count": 2747, "id": 1128255048, "lang": "en", "listed_count": 90, "location": "Cape Town", "name": "Cape Town Fairy", "profile_background_color": "C0DEED", "profile_background_image_url": "http://abs.twimg.com/images/themes/theme1/bg.png", "profile_background_tile": false, "profile_banner_url": "https://pbs.twimg.com/profile_banners/1128255048/1359385361", "profile_image_url": "https://pbs.twimg.com/profile_images/3175089990/ddcec258fe970be63266d343dc094577_normal.png", "profile_link_color": "0084B4", "profile_sidebar_fill_color": "DDEEF6", "profile_text_color": "333333", "protected": false, "screen_name": "CapeTownFairy", "statuses_count": 73727, "time_zone": "Athens", "utc_offset": 7200}}
{"created_at": "Wed Oct 14 00:16:42 +0000 2015", "favorited": false, "id": 654088402225246208, "lang": "en", "media": [{"display_url": "pic.twitter.com/BvMsBS5f3Q", "expanded_url": "http://twitter.com/snopes/status/654080921839267841/photo/1", "id": 654080921365315584, "id_str": "654080921365315584", "indices": [68, 90], "media_url": "http://pbs.twimg.com/media/CRPDIexXAAAQmHa.jpg", "media_url_https": "https://pbs.twimg.com/media/CRPDIexXAAAQmHa.jpg", "sizes": {"large": {"h": 500, "resize": "fit", "w": 500}, "medium": {"h": 500, "resize": "fit", "w": 500}, "small": {"h": 340, "resize": "fit", "w": 340}, "thumb": {"h": 150, "resize": "crop", "w": 150}}, "source_status_id": 654080921839267841, "source_status_id_str": "654080921839267841", "source_user_id": 14294848, "source_user_id_str": "14294848", "type": "photo", "url": "http://t.co/BvMsBS5f3Q"}], "retweeted": false, "source": "<a href=\"http://backtoblaq.com\" rel=\"nofollow\">Blaq for BlackBerry\u00ae 10</a>", "text": "RT @snopes: This is not a real school sign:\n\nhttp://t.co/oRJYXEgLsH http://t.co/BvMsBS5f3Q", "truncated": false, "urls": {"http://t.co/oRJYXEgLsH": "http://m.snopes.com/john-pearl-elementary-school-guns/"}, "user": {"created_at": "Thu Apr 16 03:04:36 +0000 2009", "description": "I'm a husband, father, staffing agency supervisor, p/t church employee and Internet entrepreneur. RTs not necessarily agreement. (I enjoy being provocative.)", "favourites_count": 4191, "followers_count": 513, "friends_count": 1285, "id": 31619745, "lang": "en", "listed_count": 75, "location": "\u00dcT: 43.648055,-79.379878", "name": "Russ Skinner", "profile_background_color": "9AE4E8", "profile_background_image_url": "http://pbs.twimg.com/profile_background_images/56822938/twilk_background.jpg", "profile_background_tile": true, "profile_image_url": "https://pbs.twimg.com/profile_images/378800000670112874/8a12e946491d924b76c1a6809a828307_normal.png", "profile_link_color": "0000FF", "profile_sidebar_fill_color": "E0FF92", "profile_text_color": "000000", "protected": false, "screen_name": "russskinner", "statuses_count": 26117, "time_zone": "Eastern Time (US & Canada)", "url": "http://t.co/rXSHF6Xcby", "utc_offset": -18000}, "user_mentions": [{"id": 14294848, "name": "snopes.com", "screen_name": "snopes"}]}
{"created_at": "Sat Oct 17 21:13:09 +0000 2015", "favorited": false, "id": 655491763084349442, "lang": "en", "retweeted": false, "source": "<a href=\"http://www.apple.com\" rel=\"nofollow\">iOS</a>", "text": "Schoolhouse Glock : http://t.co/qTGu6foOH0 http://t.co/LBbENquEGT", "truncated": false, "urls": {"http://t.co/LBbENquEGT": "http://www.snopes.com/john-pearl-elementary-school-guns/", "http://t.co/qTGu6foOH0": "http://snopes.com"}, "user": {"created_at": "Fri Aug 26 17:46:43 +0000 2011", "default_profile": true, "default_profile_image": true, "favourites_count": 7, "followers_count": 26, "friends_count": 126, "id": 362608967, "lang": "en", "listed_count": 8, "name": "Richard Cookson", "profile_background_color": "C0DEED", "profile_background_image_url": "http://abs.twimg.com/images/themes/theme1/bg.png", "profile_background_tile": false, "profile_image_url": "https://abs.twimg.com/sticky/default_profile_images/default_profile_0_normal.png", "profile_link_color": "0084B4", "profile_sidebar_fill_color": "DDEEF6", "profile_text_color": "333333", "protected": false, "screen_name": "HMSSheffield", "statuses_count": 4332, "time_zone": "Eastern Time (US & Canada)", "utc_offset": -18000}}
{"created_at": "Sun Oct 18 00:25:01 +0000 2015", "favorited": false, "hashtags": ["Snopes"], "id": 655540048042041344, "lang": "en", "retweeted": false, "source": "<a href=\"http://momknowsshopping.com/UFOParanormal\" rel=\"nofollow\">UFOParanormalNews</a>", "text": "#Snopes  Fact Check: Does a sign outside John Pearl Elementary warn potential school http://t.co/WZZ06uNycp", "truncated": false, "urls": {"http://t.co/WZZ06uNycp": "http://goo.gl/hVbK2a"}, "user": {"created_at": "Wed Oct 01 13:34:46 +0000 2014", "description": "We provide the latest news on #UFO's, #Paranormal, #Ghosts and everything that is strange or weird. Plus #Software, #Camera's and #Computer items.", "favourites_count": 3, "followers_count": 12440, "friends_count": 11604, "geo_enabled": true, "id": 2797963749, "lang": "en", "listed_count": 416, "name": "UFO Paranormal", "profile_background_color": "000000", "profile_background_image_url": "http://abs.twimg.com/images/themes/theme1/bg.png", "profile_background_tile": false, "profile_banner_url": "https://pbs.twimg.com/profile_banners/2797963749/1419626990", "profile_image_url": "https://pbs.twimg.com/profile_images/517311356198858753/OkOTy-q6_normal.jpeg", "profile_link_color": "FA743E", "profile_sidebar_fill_color": "000000", "profile_text_color": "000000", "protected": false, "screen_name": "UFOParanormNews", "statuses_count": 77556, "url": "https://t.co/I4rmVNErYQ"}}
{"created_at": "Sun Oct 18 00:32:02 +0000 2015", "favorited": false, "hashtags": ["Snopes"], "id": 655541814758391808, "lang": "en", "retweet_count": 1, "retweeted": false, "source": "<a href=\"http://momknowsshopping.com/UFOParanormal\" rel=\"nofollow\">UFOParanormalNews</a>", "text": "#Snopes  This is not a photograph warning potential school shooters that teachers at http://t.co/nLr0aPELuN", "truncated": false, "urls": {"http://t.co/nLr0aPELuN": "http://goo.gl/wX0JaK"}, "user": {"created_at": "Wed Oct 01 13:34:46 +0000 2014", "description": "We provide the latest news on #UFO's, #Paranormal, #Ghosts and everything that is strange or weird. Plus #Software, #Camera's and #Computer items.", "favourites_count": 3, "followers_count": 12440, "friends_count": 11604, "geo_enabled": true, "id": 2797963749, "lang": "en", "listed_count": 416, "name": "UFO Paranormal", "profile_background_color": "000000", "profile_background_image_url": "http://abs.twimg.com/images/themes/theme1/bg.png", "profile_background_tile": false, "profile_banner_url": "https://pbs.twimg.com/profile_banners/2797963749/1419626990", "profile_image_url": "https://pbs.twimg.com/profile_images/517311356198858753/OkOTy-q6_normal.jpeg", "profile_link_color": "FA743E", "profile_sidebar_fill_color": "000000", "profile_text_color": "000000", "protected": false, "screen_name": "UFOParanormNews", "statuses_count": 77556, "url": "https://t.co/I4rmVNErYQ"}}
