{"created_at": "Sat Sep 26 21:49:54 +0000 2015", "favorited": false, "id": 647890865067835392, "lang": "en", "retweeted": false, "source": "<a href=\"http://www.facebook.com/twitter\" rel=\"nofollow\">Facebook</a>", "text": "The people must act.  Governments have sold them out to Muslims.  Millions of petrodollars can buy lots of officials. http://t.co/K7usHRKJrd", "truncated": false, "urls": {"http://t.co/K7usHRKJrd": "http://fb.me/6RtCmZ4ZG"}, "user": {"created_at": "Sat Apr 23 17:38:11 +0000 2011", "description": "Theologian.  US Patriot.  Teacher.  Friend of @Israel.                      Drinks tea not Kool-Aid.", "favourites_count": 396, "followers_count": 272, "friends_count": 367, "id": 286777547, "lang": "en", "listed_count": 10, "location": "Washington, D.C.", "name": "Ricky Vines", "profile_background_color": "ACDED6", "profile_background_image_url": "http://abs.twimg.com/images/themes/theme18/bg.gif", "profile_background_tile": false, "profile_banner_url": "https://pbs.twimg.com/profile_banners/286777547/1362345988", "profile_image_url": "https://pbs.twimg.com/profile_images/3144242545/c8d891c322059d5568fc12ee2497515f_normal.jpeg", "profile_link_color": "038543", "profile_sidebar_fill_color": "F6F6F6", "profile_text_color": "333333", "protected": false, "screen_name": "rickyvines", "statuses_count": 8259, "time_zone": "Quito", "url": "http://t.co/kjXXllxjO7", "utc_offset": -18000}}
{"created_at": "Thu Oct 08 01:40:32 +0000 2015", "favorited": false, "id": 651935175077662721, "in_reply_to_screen_name": "realDonaldTrump", "in_reply_to_user_id": 25073877, "lang": "en", "retweeted": false, "source": "<a href=\"http://twitter.com\" rel=\"nofollow\">Twitter Web Client</a>", "text": "@realDonaldTrump Why is the government bringing busloads of muslims into the country thru Mexico into Oklahoma.  All men. Ages between 20-45", "truncated": false, "user": {"created_at": "Thu Dec 22 05:57:28 +0000 2011", "default_profile": true, "default_profile_image": true, "followers_count": 2, "friends_count": 7, "id": 443453135, "lang": "en", "location": "Plum Boro, Pa", "name": "Nadine Goodwin", "profile_background_color": "C0DEED", "profile_background_image_url": "http://abs.twimg.com/images/themes/theme1/bg.png", "profile_background_tile": false, "profile_image_url": "https://abs.twimg.com/sticky/default_profile_images/default_profile_6_normal.png", "profile_link_color": "0084B4", "profile_sidebar_fill_color": "DDEEF6", "profile_text_color": "333333", "protected": false, "screen_name": "NadineGoodwin1", "statuses_count": 4, "time_zone": "Eastern Time (US & Canada)", "utc_offset": -18000}, "user_mentions": [{"id": 25073877, "name": "Donald J. Trump", "screen_name": "realDonaldTrump"}]}
{"created_at": "Thu Oct 08 23:05:06 +0000 2015", "favorited": false, "id": 652258446109220865, "lang": "en", "retweeted": false, "source": "<a href=\"http://twitter.com/download/android\" rel=\"nofollow\">Twitter for Android</a>", "text": "There are rumors of busloads of Muslims crossing the Texas boarder over the the last 2 days. Can anyone verify this.", "truncated": false, "user": {"created_at": "Wed Jun 10 10:56:54 +0000 2015", "default_profile": true, "description": "Very concerned with our country and the lack of common sense", "favourites_count": 362, "followers_count": 1385, "friends_count": 3301, "id": 3317103903, "lang": "en", "listed_count": 3, "name": "Jim Hill", "profile_background_color": "C0DEED", "profile_background_image_url": "http://abs.twimg.com/images/themes/theme1/bg.png", "profile_background_tile": false, "profile_image_url": "https://pbs.twimg.com/profile_images/684200141759238144/Xt8C9gXC_normal.png", "profile_link_color": "0084B4", "profile_sidebar_fill_color": "DDEEF6", "profile_text_color": "333333", "protected": false, "screen_name": "hill7393", "statuses_count": 555}}
{"created_at": "Thu Oct 08 23:14:49 +0000 2015", "favorited": false, "id": 652260889404555264, "in_reply_to_screen_name": "InOurSmallWay", "in_reply_to_user_id": 15964558, "lang": "en", "retweeted": false, "source": "<a href=\"http://twitter.com/download/android\" rel=\"nofollow\">Twitter for Android</a>", "text": "@InOurSmallWay do you have any contacts in Texas. I have a friend who has been told busloads of Muslims have crossed the boarder last 2 days", "truncated": false, "user": {"created_at": "Wed Jun 10 10:56:54 +0000 2015", "default_profile": true, "description": "Very concerned with our country and the lack of common sense", "favourites_count": 362, "followers_count": 1385, "friends_count": 3301, "id": 3317103903, "lang": "en", "listed_count": 3, "name": "Jim Hill", "profile_background_color": "C0DEED", "profile_background_image_url": "http://abs.twimg.com/images/themes/theme1/bg.png", "profile_background_tile": false, "profile_image_url": "https://pbs.twimg.com/profile_images/684200141759238144/Xt8C9gXC_normal.png", "profile_link_color": "0084B4", "profile_sidebar_fill_color": "DDEEF6", "profile_text_color": "333333", "protected": false, "screen_name": "hill7393", "statuses_count": 555}, "user_mentions": [{"id": 15964558, "name": "LilaRamkey", "screen_name": "InOurSmallWay"}]}
{"created_at": "Sun Oct 11 17:44:28 +0000 2015", "favorite_count": 7, "favorited": false, "id": 653264917471039492, "in_reply_to_screen_name": "NDAA2012", "in_reply_to_status_id": 653201761948303361, "in_reply_to_user_id": 455571514, "lang": "en", "retweet_count": 8, "retweeted": false, "source": "<a href=\"http://twitter.com\" rel=\"nofollow\">Twitter Web Client</a>", "text": "@NDAA2012 @DrottM the Sodomite in the White House has plans to dump busloads of muslims in Wisconsin EVERYONE NEEDS TO BE ARMED against them", "truncated": false, "user": {"created_at": "Sun Jan 18 04:16:30 +0000 2015", "description": "Student of Vedanta, a Transcendor, world traveller Justice lover, DAR, TRUMP SUPPORTER:: anti-Socialism anti-Islam ShariaFreeZone We the People are a Republic", "favourites_count": 4189, "followers_count": 367, "friends_count": 243, "geo_enabled": true, "id": 2983503587, "lang": "en", "listed_count": 5, "name": "Lilpup", "profile_background_color": "3B94D9", "profile_background_image_url": "http://abs.twimg.com/images/themes/theme4/bg.gif", "profile_background_tile": true, "profile_banner_url": "https://pbs.twimg.com/profile_banners/2983503587/1451974461", "profile_image_url": "https://pbs.twimg.com/profile_images/643294654365089792/hXmW9F3v_normal.jpg", "profile_link_color": "3B94D9", "profile_sidebar_fill_color": "000000", "profile_text_color": "000000", "protected": false, "screen_name": "lilpup59", "statuses_count": 5865}, "user_mentions": [{"id": 455571514, "name": "#NDAA 2012", "screen_name": "NDAA2012"}, {"id": 1338047336, "name": "Bossy Patriot", "screen_name": "DrottM"}]}
{"created_at": "Tue Oct 13 00:43:28 +0000 2015", "favorite_count": 16, "favorited": false, "id": 653732753955905536, "lang": "en", "media": [{"display_url": "pic.twitter.com/o2KiE1PXFQ", "expanded_url": "http://twitter.com/snopes/status/653732753955905536/photo/1", "id": 653732753557422080, "id_str": "653732753557422080", "indices": [116, 138], "media_url": "http://pbs.twimg.com/media/CRKGecnUAAA-cnI.jpg", "media_url_https": "https://pbs.twimg.com/media/CRKGecnUAAA-cnI.jpg", "sizes": {"large": {"h": 510, "resize": "fit", "w": 825}, "medium": {"h": 370, "resize": "fit", "w": 600}, "small": {"h": 210, "resize": "fit", "w": 340}, "thumb": {"h": 150, "resize": "crop", "w": 150}}, "type": "photo", "url": "http://t.co/o2KiE1PXFQ"}], "retweet_count": 24, "retweeted": false, "source": "<a href=\"http://twitter.com\" rel=\"nofollow\">Twitter Web Client</a>", "text": "A rumor claiming busloads of Muslims are being trafficked through Oklahoma didn't check out: http://t.co/qKxTRAmkWK http://t.co/o2KiE1PXFQ", "truncated": false, "urls": {"http://t.co/qKxTRAmkWK": "http://bit.ly/1R7UZOv"}, "user": {"created_at": "Thu Apr 03 17:00:11 +0000 2008", "description": "The definitive Internet reference source for urban legends, folklore, myths, rumors, and misinformation.", "favourites_count": 12, "followers_count": 118584, "id": 14294848, "lang": "en", "listed_count": 3236, "name": "snopes.com", "profile_background_color": "C7F2B1", "profile_background_image_url": "http://pbs.twimg.com/profile_background_images/840081271/d90db0daf7c81f75aea62d88c084e755.png", "profile_background_tile": false, "profile_banner_url": "https://pbs.twimg.com/profile_banners/14294848/1365714336", "profile_image_url": "https://pbs.twimg.com/profile_images/3507964197/be9d1840411bca2d8101382340f58957_normal.png", "profile_link_color": "81D159", "profile_sidebar_fill_color": "DDEEF6", "profile_text_color": "333333", "protected": false, "screen_name": "snopes", "statuses_count": 4852, "time_zone": "Pacific Time (US & Canada)", "url": "http://t.co/10Or8rl3ff", "utc_offset": -28800, "verified": true}}
{"created_at": "Tue Oct 13 00:47:28 +0000 2015", "favorited": false, "id": 653733760056336384, "lang": "en", "media": [{"display_url": "pic.twitter.com/Sxrr0LNRC7", "expanded_url": "http://twitter.com/snopes/status/653732753955905536/photo/1", "id": 653732753557422080, "id_str": "653732753557422080", "indices": [95, 117], "media_url": "http://pbs.twimg.com/media/CRKGecnUAAA-cnI.jpg", "media_url_https": "https://pbs.twimg.com/media/CRKGecnUAAA-cnI.jpg", "sizes": {"large": {"h": 510, "resize": "fit", "w": 825}, "medium": {"h": 370, "resize": "fit", "w": 600}, "small": {"h": 210, "resize": "fit", "w": 340}, "thumb": {"h": 150, "resize": "crop", "w": 150}}, "source_status_id": 653732753955905536, "source_status_id_str": "653732753955905536", "source_user_id": 14294848, "source_user_id_str": "14294848", "type": "photo", "url": "http://t.co/Sxrr0LNRC7"}], "retweeted": false, "source": "<a href=\"http://ifttt.com\" rel=\"nofollow\">IFTTT</a>", "text": "A rumor claiming busloads of Muslims are being trafficked through Oklahoma didn't check out: \u2026 http://t.co/Sxrr0LNRC7", "truncated": false, "user": {"created_at": "Mon Jan 28 14:40:52 +0000 2013", "default_profile": true, "description": "I tweet about all things in Cape Town. #CapeFact The Mother City. For info in events: #CapeEvents. Also #capetownfairy me for any quests", "favourites_count": 661, "followers_count": 2623, "friends_count": 2736, "id": 1128255048, "lang": "en", "listed_count": 90, "location": "Cape Town", "name": "Cape Town Fairy", "profile_background_color": "C0DEED", "profile_background_image_url": "http://abs.twimg.com/images/themes/theme1/bg.png", "profile_background_tile": false, "profile_banner_url": "https://pbs.twimg.com/profile_banners/1128255048/1359385361", "profile_image_url": "https://pbs.twimg.com/profile_images/3175089990/ddcec258fe970be63266d343dc094577_normal.png", "profile_link_color": "0084B4", "profile_sidebar_fill_color": "DDEEF6", "profile_text_color": "333333", "protected": false, "screen_name": "CapeTownFairy", "statuses_count": 73111, "time_zone": "Athens", "utc_offset": 7200}}
{"created_at": "Tue Oct 13 00:56:51 +0000 2015", "favorite_count": 1, "favorited": false, "id": 653736119490600960, "lang": "en", "retweeted": false, "source": "<a href=\"http://twitter.com\" rel=\"nofollow\">Twitter Web Client</a>", "text": "Snopes had to INVESTIGATE this crap, guys. http://t.co/AfKBXOGEM4 https://t.co/G6Hx3CnwPa", "truncated": false, "urls": {"http://t.co/AfKBXOGEM4": "http://m.snopes.com/busloads-of-muslims/", "https://t.co/G6Hx3CnwPa": "https://twitter.com/snopes/status/653732753955905536"}, "user": {"created_at": "Sun Apr 11 06:26:18 +0000 2010", "description": "Gamer, foodie, punster, wonk, erudite, whimsical, unabashed, history, news, trivia, music, Mass Effect & California. Comma lover. This bio was written for me.", "favourites_count": 13110, "followers_count": 1004, "friends_count": 250, "id": 131752497, "lang": "en", "listed_count": 78, "location": "Neither Here Nor There", "name": "JD", "profile_background_color": "FFFFFF", "profile_background_image_url": "http://abs.twimg.com/images/themes/theme14/bg.gif", "profile_background_tile": true, "profile_banner_url": "https://pbs.twimg.com/profile_banners/131752497/1378069947", "profile_image_url": "https://pbs.twimg.com/profile_images/474213249638858752/vCsDi64l_normal.jpeg", "profile_link_color": "009999", "profile_sidebar_fill_color": "EFEFEF", "profile_text_color": "333333", "protected": false, "screen_name": "nevesytrof", "statuses_count": 148591, "time_zone": "Pacific Time (US & Canada)", "url": "http://t.co/3QzLr3p2am", "utc_offset": -28800}}
{"created_at": "Tue Oct 13 00:59:46 +0000 2015", "favorited": false, "id": 653736855746146305, "lang": "en", "retweeted": false, "source": "<a href=\"http://twitter.com\" rel=\"nofollow\">Twitter Web Client</a>", "text": "\u2018No Way\u2019 Station  \nWhy make this shot up? http://t.co/xBpUFzmSt9 via @po_st", "truncated": false, "urls": {"http://t.co/xBpUFzmSt9": "http://po.st/2MHmU1"}, "user": {"created_at": "Wed Apr 30 23:32:02 +0000 2014", "description": "The Future of America", "favourites_count": 9468, "followers_count": 285, "friends_count": 269, "id": 2471629956, "lang": "en", "listed_count": 37, "location": "Over there Not there Yes There", "name": "Gremlinbroom", "profile_background_color": "FA743E", "profile_background_image_url": "http://pbs.twimg.com/profile_background_images/605875140337860610/G3lukhLk.jpg", "profile_background_tile": true, "profile_banner_url": "https://pbs.twimg.com/profile_banners/2471629956/1452572919", "profile_image_url": "https://pbs.twimg.com/profile_images/678595442066644992/76z7lQDp_normal.jpg", "profile_link_color": "FA743E", "profile_sidebar_fill_color": "DDEEF6", "profile_text_color": "333333", "protected": false, "screen_name": "Gremlinbroom", "statuses_count": 15344, "url": "https://t.co/Ddmhsmkh0k"}, "user_mentions": [{"id": 386270039, "name": "Po.st", "screen_name": "Po_st"}]}
{"created_at": "Tue Oct 13 01:08:33 +0000 2015", "favorited": false, "hashtags": ["Oklahoma"], "id": 653739064382910464, "lang": "en", "media": [{"display_url": "pic.twitter.com/07T8dYJUIz", "expanded_url": "http://twitter.com/Hoaxolizer/status/653739064382910464/photo/1", "id": 653739064257064960, "id_str": "653739064257064960", "indices": [85, 107], "media_url": "http://pbs.twimg.com/media/CRKMNxzWsAAZa7A.jpg", "media_url_https": "https://pbs.twimg.com/media/CRKMNxzWsAAZa7A.jpg", "sizes": {"large": {"h": 480, "resize": "fit", "w": 640}, "medium": {"h": 450, "resize": "fit", "w": 600}, "small": {"h": 255, "resize": "fit", "w": 340}, "thumb": {"h": 150, "resize": "crop", "w": 150}}, "type": "photo", "url": "http://t.co/07T8dYJUIz"}], "retweeted": false, "source": "<a href=\"http://leadstories.com\" rel=\"nofollow\">Lead Stories Feed Publisher</a>", "text": "FALSE: Busloads of Muslims are Traveling through #Oklahoma... http://t.co/euBF00np9H http://t.co/07T8dYJUIz", "truncated": false, "urls": {"http://t.co/euBF00np9H": "http://hoax.trendolizer.com/2015/10/false-busloads-of-muslims-are-traveling-through-oklahoma.html"}, "user": {"created_at": "Tue Oct 21 09:02:21 +0000 2014", "default_profile": true, "description": "The most trending news about hoaxes as collected by Trendolizer", "followers_count": 660, "friends_count": 429, "id": 2839486181, "lang": "en", "listed_count": 65, "name": "Trending Hoax News", "profile_background_color": "C0DEED", "profile_background_image_url": "http://abs.twimg.com/images/themes/theme1/bg.png", "profile_background_tile": false, "profile_banner_url": "https://pbs.twimg.com/profile_banners/2839486181/1413882440", "profile_image_url": "https://pbs.twimg.com/profile_images/524486681945067520/woFPZPVc_normal.jpeg", "profile_link_color": "0084B4", "profile_sidebar_fill_color": "DDEEF6", "profile_text_color": "333333", "protected": false, "screen_name": "Hoaxolizer", "statuses_count": 12994, "url": "http://t.co/7pRPb4ABpu"}}
{"created_at": "Tue Oct 13 01:12:08 +0000 2015", "favorited": false, "hashtags": ["Oklahoma"], "id": 653739964694462464, "lang": "en", "media": [{"display_url": "pic.twitter.com/GoHMg7Xd3V", "expanded_url": "http://twitter.com/Rumorizer/status/653739964694462464/photo/1", "id": 653739964618940416, "id_str": "653739964618940416", "indices": [85, 107], "media_url": "http://pbs.twimg.com/media/CRKNCL6WoAAv5vz.jpg", "media_url_https": "https://pbs.twimg.com/media/CRKNCL6WoAAv5vz.jpg", "sizes": {"large": {"h": 480, "resize": "fit", "w": 640}, "medium": {"h": 450, "resize": "fit", "w": 600}, "small": {"h": 255, "resize": "fit", "w": 340}, "thumb": {"h": 150, "resize": "crop", "w": 150}}, "type": "photo", "url": "http://t.co/GoHMg7Xd3V"}], "retweeted": false, "source": "<a href=\"http://leadstories.com\" rel=\"nofollow\">Lead Stories Feed Publisher</a>", "text": "FALSE: Busloads of Muslims are Traveling through #Oklahoma... http://t.co/uGcfCgV2xN http://t.co/GoHMg7Xd3V", "truncated": false, "urls": {"http://t.co/uGcfCgV2xN": "http://rumors.trendolizer.com/2015/10/false-busloads-of-muslims-are-traveling-through-oklahoma.html"}, "user": {"created_at": "Tue Mar 10 11:46:54 +0000 2015", "default_profile": true, "description": "The most trending rumors on the internet as collected by Trendolizer (http://t.co/dzB23WEO89)", "followers_count": 161, "friends_count": 192, "id": 3083846986, "lang": "nl", "listed_count": 128, "name": "Trending Rumors", "profile_background_color": "C0DEED", "profile_background_image_url": "http://abs.twimg.com/images/themes/theme1/bg.png", "profile_background_tile": false, "profile_banner_url": "https://pbs.twimg.com/profile_banners/3083846986/1425988048", "profile_image_url": "https://pbs.twimg.com/profile_images/575261631086661632/1wxHWsKL_normal.png", "profile_link_color": "0084B4", "profile_sidebar_fill_color": "DDEEF6", "profile_text_color": "333333", "protected": false, "screen_name": "Rumorizer", "statuses_count": 14135, "url": "http://t.co/sz6CzbTQKl"}}
{"created_at": "Tue Oct 13 01:57:48 +0000 2015", "favorited": false, "id": 653751456793686017, "lang": "en", "retweeted": false, "source": "<a href=\"http://www.facebook.com/twitter\" rel=\"nofollow\">Facebook</a>", "text": "FALSE. http://t.co/wPua104bp6", "truncated": false, "urls": {"http://t.co/wPua104bp6": "http://fb.me/FtVy5YoP"}, "user": {"created_at": "Thu Oct 09 19:55:59 +0000 2008", "description": "Fangirl geek, cat owner, Sci-Fi/Fantasy oriented, unappologetic liberal.  There may very well be more, but you'll have to discover that yourself.  Cheers.", "favourites_count": 1328, "followers_count": 233, "friends_count": 548, "geo_enabled": true, "id": 16672654, "lang": "en", "listed_count": 6, "location": "Boones Mill, VA", "name": "Mary Davis", "profile_background_color": "F2EEEF", "profile_background_image_url": "http://pbs.twimg.com/profile_background_images/623956419/xd95c7fc91d4729bc65d792df401c425.jpg", "profile_background_tile": false, "profile_banner_url": "https://pbs.twimg.com/profile_banners/16672654/1439666328", "profile_image_url": "https://pbs.twimg.com/profile_images/662090378997334016/BfeFi-jP_normal.jpg", "profile_link_color": "7B8894", "profile_sidebar_fill_color": "FAFAFA", "profile_text_color": "8F2E2E", "protected": false, "screen_name": "Imzadimylove", "statuses_count": 19584, "time_zone": "Eastern Time (US & Canada)", "utc_offset": -18000}}
{"created_at": "Tue Oct 13 02:51:29 +0000 2015", "favorited": false, "id": 653764969465430017, "lang": "en", "retweeted": false, "source": "<a href=\"http://www.facebook.com/twitter\" rel=\"nofollow\">Facebook</a>", "text": "FALSE: Busloads of Muslims are Traveling through Oklahoma http://t.co/dFAEEiq4Wi", "truncated": false, "urls": {"http://t.co/dFAEEiq4Wi": "http://fb.me/2s5yKVzA4"}, "user": {"created_at": "Sat Jul 31 19:54:08 +0000 2010", "default_profile": true, "description": "I have a Carpet Cleaning business name is CARPET CLEANING  $40 A ROOM. In the Lake Charles Louisiana area", "favourites_count": 11, "followers_count": 126, "friends_count": 731, "geo_enabled": true, "id": 173225233, "lang": "en", "location": "Lake Charles, Louisiana", "name": "Jim Pitts", "profile_background_color": "C0DEED", "profile_background_image_url": "http://abs.twimg.com/images/themes/theme1/bg.png", "profile_background_tile": false, "profile_banner_url": "https://pbs.twimg.com/profile_banners/173225233/1442282001", "profile_image_url": "https://pbs.twimg.com/profile_images/3486285387/40825c15daa4c420cf191b37b8b064fc_normal.jpeg", "profile_link_color": "0084B4", "profile_sidebar_fill_color": "DDEEF6", "profile_text_color": "333333", "protected": false, "screen_name": "jimpitts1", "statuses_count": 356, "time_zone": "Central Time (US & Canada)", "url": "https://t.co/Y7E7K2fdHJ", "utc_offset": -21600}}
{"created_at": "Wed Oct 14 00:36:38 +0000 2015", "favorite_count": 1, "favorited": false, "hashtags": ["Snopes"], "id": 654093418394742784, "lang": "en", "retweeted": false, "source": "<a href=\"http://momknowsshopping.com/UFOParanormal\" rel=\"nofollow\">UFOParanormalNews</a>", "text": "#Snopes  FACT CHECK: Are tens of thousands of Muslim refugees being transported quietly http://t.co/mx6tiP7823", "truncated": false, "urls": {"http://t.co/mx6tiP7823": "http://goo.gl/kqikiS"}, "user": {"created_at": "Wed Oct 01 13:34:46 +0000 2014", "description": "We provide the latest news on #UFO's, #Paranormal, #Ghosts and everything that is strange or weird. Plus #Software, #Camera's and #Computer items.", "favourites_count": 3, "followers_count": 12348, "friends_count": 11549, "geo_enabled": true, "id": 2797963749, "lang": "en", "listed_count": 413, "name": "UFO Paranormal", "profile_background_color": "000000", "profile_background_image_url": "http://abs.twimg.com/images/themes/theme1/bg.png", "profile_background_tile": false, "profile_banner_url": "https://pbs.twimg.com/profile_banners/2797963749/1419626990", "profile_image_url": "https://pbs.twimg.com/profile_images/517311356198858753/OkOTy-q6_normal.jpeg", "profile_link_color": "FA743E", "profile_sidebar_fill_color": "000000", "profile_text_color": "000000", "protected": false, "screen_name": "UFOParanormNews", "statuses_count": 77047, "url": "https://t.co/I4rmVNErYQ"}}
{"created_at": "Wed Oct 14 23:27:54 +0000 2015", "favorite_count": 4, "favorited": false, "hashtags": ["WhiteGenocide", "Merkel"], "id": 654438511802757120, "lang": "en", "retweet_count": 11, "retweeted": false, "source": "<a href=\"https://about.twitter.com/products/tweetdeck\" rel=\"nofollow\">TweetDeck</a>", "text": "German patriots furious about constant stream of busloads of muslims being forced on them. #WhiteGenocide #Merkel https://t.co/cAQsQ8dg9M", "truncated": false, "urls": {"https://t.co/cAQsQ8dg9M": "https://www.youtube.com/watch?v=YXVycEbJn60"}, "user": {"created_at": "Fri Feb 17 07:05:49 +0000 2012", "description": "European Americans promotes North America's European heritage. We provide coverage on ethnicity, culture, history and politics in America and the West.", "favourites_count": 5235, "followers_count": 2605, "friends_count": 235, "id": 494758799, "lang": "en", "listed_count": 60, "location": "United States of America", "name": "European Americans", "profile_background_color": "989E67", "profile_background_image_url": "http://pbs.twimg.com/profile_background_images/560884410132611073/d9cTK1v8.png", "profile_background_tile": true, "profile_banner_url": "https://pbs.twimg.com/profile_banners/494758799/1442466105", "profile_image_url": "https://pbs.twimg.com/profile_images/641344996415684610/AFmSWZbv_normal.png", "profile_link_color": "ABB8C2", "profile_sidebar_fill_color": "74806E", "profile_text_color": "4B5A5E", "protected": false, "screen_name": "EuroAmericans", "statuses_count": 8154, "time_zone": "Eastern Time (US & Canada)", "utc_offset": -18000}}
{"created_at": "Thu Oct 15 02:53:39 +0000 2015", "favorited": false, "id": 654490288547885056, "lang": "en", "retweeted": false, "source": "<a href=\"http://www.apple.com\" rel=\"nofollow\">iOS</a>", "text": "FALSE: Busloads of Muslims are Traveling through Oklahoma http://t.co/G1Nncb4ToS", "truncated": false, "urls": {"http://t.co/G1Nncb4ToS": "http://m.snopes.com/busloads-of-muslims/"}, "user": {"created_at": "Fri May 20 17:29:57 +0000 2011", "description": "Pro-Jesus,Pro-Gun,Pro-Life,Pro-Man+Women=Marriage,Pro-Israel,Anti-Entitlement.Time for men to bring back Jesus,Honor,Action #tcot #TGDN", "favourites_count": 2069, "followers_count": 3577, "friends_count": 3353, "id": 302140715, "lang": "en", "listed_count": 77, "location": "Nashville,TN", "name": "Stand Strong", "profile_background_color": "131516", "profile_background_image_url": "http://abs.twimg.com/images/themes/theme14/bg.gif", "profile_background_tile": true, "profile_banner_url": "https://pbs.twimg.com/profile_banners/302140715/1360815698", "profile_image_url": "https://pbs.twimg.com/profile_images/494470859491258368/F2d0Dc7i_normal.jpeg", "profile_link_color": "009999", "profile_sidebar_fill_color": "EFEFEF", "profile_text_color": "333333", "protected": false, "screen_name": "Keene44", "statuses_count": 58160}}
{"created_at": "Fri Oct 16 19:30:41 +0000 2015", "favorited": false, "id": 655103587580780544, "lang": "en", "media": [{"display_url": "pic.twitter.com/86RFds33iU", "expanded_url": "http://twitter.com/Hoaxolizer/status/655103587580780544/photo/1", "id": 655103587505283072, "id_str": "655103587505283072", "indices": [81, 103], "media_url": "http://pbs.twimg.com/media/CRdlPfBWIAA7146.jpg", "media_url_https": "https://pbs.twimg.com/media/CRdlPfBWIAA7146.jpg", "sizes": {"large": {"h": 480, "resize": "fit", "w": 640}, "medium": {"h": 450, "resize": "fit", "w": 600}, "small": {"h": 255, "resize": "fit", "w": 340}, "thumb": {"h": 150, "resize": "crop", "w": 150}}, "type": "photo", "url": "http://t.co/86RFds33iU"}], "retweeted": false, "source": "<a href=\"http://leadstories.com\" rel=\"nofollow\">Lead Stories Feed Publisher</a>", "text": "FALSE: Busloads of Muslims are Traveling through Oklahoma http://t.co/NlgLLd3psP http://t.co/86RFds33iU", "truncated": false, "urls": {"http://t.co/NlgLLd3psP": "http://hoax.trendolizer.com/2015/10/false-busloads-of-muslims-are-traveling-through-oklahoma-1.html"}, "user": {"created_at": "Tue Oct 21 09:02:21 +0000 2014", "default_profile": true, "description": "The most trending news about hoaxes as collected by Trendolizer", "followers_count": 660, "friends_count": 429, "id": 2839486181, "lang": "en", "listed_count": 65, "name": "Trending Hoax News", "profile_background_color": "C0DEED", "profile_background_image_url": "http://abs.twimg.com/images/themes/theme1/bg.png", "profile_background_tile": false, "profile_banner_url": "https://pbs.twimg.com/profile_banners/2839486181/1413882440", "profile_image_url": "https://pbs.twimg.com/profile_images/524486681945067520/woFPZPVc_normal.jpeg", "profile_link_color": "0084B4", "profile_sidebar_fill_color": "DDEEF6", "profile_text_color": "333333", "protected": false, "screen_name": "Hoaxolizer", "statuses_count": 12994, "url": "http://t.co/7pRPb4ABpu"}}
{"created_at": "Mon Oct 19 01:53:48 +0000 2015", "favorited": false, "hashtags": ["Snopes"], "id": 655924778029699072, "lang": "en", "retweeted": false, "source": "<a href=\"http://momknowsshopping.com/UFOParanormal\" rel=\"nofollow\">UFOParanormalNews</a>", "text": "#Snopes  A social media rumor claiming busloads of Muslims are being quietly trafficked http://t.co/VPiP4E1l8J", "truncated": false, "urls": {"http://t.co/VPiP4E1l8J": "http://goo.gl/10OtXp"}, "user": {"created_at": "Wed Oct 01 13:34:46 +0000 2014", "description": "We provide the latest news on #UFO's, #Paranormal, #Ghosts and everything that is strange or weird. Plus #Software, #Camera's and #Computer items.", "favourites_count": 3, "followers_count": 12348, "friends_count": 11549, "geo_enabled": true, "id": 2797963749, "lang": "en", "listed_count": 413, "name": "UFO Paranormal", "profile_background_color": "000000", "profile_background_image_url": "http://abs.twimg.com/images/themes/theme1/bg.png", "profile_background_tile": false, "profile_banner_url": "https://pbs.twimg.com/profile_banners/2797963749/1419626990", "profile_image_url": "https://pbs.twimg.com/profile_images/517311356198858753/OkOTy-q6_normal.jpeg", "profile_link_color": "FA743E", "profile_sidebar_fill_color": "000000", "profile_text_color": "000000", "protected": false, "screen_name": "UFOParanormNews", "statuses_count": 77047, "url": "https://t.co/I4rmVNErYQ"}}
{"created_at": "Mon Nov 02 23:28:59 +0000 2015", "favorited": false, "id": 661324151043579904, "lang": "en", "retweeted": false, "source": "<a href=\"http://mobile.twitter.com\" rel=\"nofollow\">Mobile Web</a>", "text": "'No Way' Station https://t.co/A5BUBt5A3i", "truncated": false, "urls": {"https://t.co/A5BUBt5A3i": "http://www.snopes.com/busloads-of-muslims/"}, "user": {"created_at": "Sat Aug 24 19:58:47 +0000 2013", "default_profile": true, "description": "Raised by a WWll survivor! I miss the 80's! the days when people were people, and depended on God ,the dirt, rain, & hard work! not money, technology,& govt", "favourites_count": 1907, "followers_count": 1198, "friends_count": 1167, "id": 1697320214, "lang": "en", "listed_count": 55, "name": "Michael Ray", "profile_background_color": "C0DEED", "profile_background_image_url": "http://abs.twimg.com/images/themes/theme1/bg.png", "profile_background_tile": false, "profile_banner_url": "https://pbs.twimg.com/profile_banners/1697320214/1444339756", "profile_image_url": "https://pbs.twimg.com/profile_images/681879421649698816/4IHzUR_N_normal.jpg", "profile_link_color": "0084B4", "profile_sidebar_fill_color": "DDEEF6", "profile_text_color": "333333", "protected": false, "screen_name": "Countrygrown35", "statuses_count": 23024}}
