{"created_at": "Mon Oct 12 12:47:19 +0000 2015", "favorited": false, "id": 653552525254090755, "in_reply_to_screen_name": "Stealthy_Marine", "in_reply_to_status_id": 653538982198820864, "in_reply_to_user_id": 458508167, "lang": "en", "retweeted": false, "source": "<a href=\"http://twitter.com/download/android\" rel=\"nofollow\">Twitter for Android</a>", "text": "@Stealthy_Marine re: Al Sharpton. i think he should be in jail, but here is Snopes version [take it or leave it]:  http://t.co/OXkqwP3gse", "truncated": false, "urls": {"http://t.co/OXkqwP3gse": "http://m.snopes.com/obama-al-sharpton-taxes/"}, "user": {"created_at": "Fri May 08 08:04:02 +0000 2009", "default_profile": true, "description": "LIFE Leadership, Sno-Isle 9/12 Project, American Legion, VFW, CPO/US Navy", "favourites_count": 609, "followers_count": 166, "friends_count": 451, "geo_enabled": true, "id": 38629282, "lang": "en", "listed_count": 4, "name": "MG Forrest", "profile_background_color": "C0DEED", "profile_background_image_url": "http://abs.twimg.com/images/themes/theme1/bg.png", "profile_background_tile": false, "profile_image_url": "https://pbs.twimg.com/profile_images/302921108/P0906101421089_normal.jpg", "profile_link_color": "0084B4", "profile_sidebar_fill_color": "DDEEF6", "profile_text_color": "333333", "protected": false, "screen_name": "docnavyguy", "statuses_count": 1219, "time_zone": "Central Time (US & Canada)", "url": "http://t.co/bCHTZOdria", "utc_offset": -21600}, "user_mentions": [{"id": 458508167, "name": "Stealthy_Marine", "screen_name": "Stealthy_Marine"}]}
{"created_at": "Mon Oct 12 12:47:41 +0000 2015", "favorited": false, "id": 653552618577354752, "in_reply_to_screen_name": "jmanly4", "in_reply_to_status_id": 653527153158565889, "in_reply_to_user_id": 1315635128, "lang": "en", "retweeted": false, "source": "<a href=\"http://twitter.com/download/android\" rel=\"nofollow\">Twitter for Android</a>", "text": "@jmanly4 re: Al Sharpton. i think he should be in jail, but here is Snopes version [take it or leave it]:  http://t.co/OXkqwP3gse", "truncated": false, "urls": {"http://t.co/OXkqwP3gse": "http://m.snopes.com/obama-al-sharpton-taxes/"}, "user": {"created_at": "Fri May 08 08:04:02 +0000 2009", "default_profile": true, "description": "LIFE Leadership, Sno-Isle 9/12 Project, American Legion, VFW, CPO/US Navy", "favourites_count": 609, "followers_count": 166, "friends_count": 451, "geo_enabled": true, "id": 38629282, "lang": "en", "listed_count": 4, "name": "MG Forrest", "profile_background_color": "C0DEED", "profile_background_image_url": "http://abs.twimg.com/images/themes/theme1/bg.png", "profile_background_tile": false, "profile_image_url": "https://pbs.twimg.com/profile_images/302921108/P0906101421089_normal.jpg", "profile_link_color": "0084B4", "profile_sidebar_fill_color": "DDEEF6", "profile_text_color": "333333", "protected": false, "screen_name": "docnavyguy", "statuses_count": 1219, "time_zone": "Central Time (US & Canada)", "url": "http://t.co/bCHTZOdria", "utc_offset": -21600}, "user_mentions": [{"id": 1315635128, "name": "Jeff Manly", "screen_name": "jmanly4"}]}
{"created_at": "Mon Oct 12 12:48:08 +0000 2015", "favorited": false, "id": 653552733165744128, "in_reply_to_screen_name": "388fjv9", "in_reply_to_status_id": 653491354211905536, "in_reply_to_user_id": 889781113, "lang": "en", "retweet_count": 1, "retweeted": false, "source": "<a href=\"http://twitter.com/download/android\" rel=\"nofollow\">Twitter for Android</a>", "text": "@388fjv9 re: Al Sharpton. i think he should be in jail, but here is Snopes version [take it or leave it]:  http://t.co/OXkqwP3gse", "truncated": false, "urls": {"http://t.co/OXkqwP3gse": "http://m.snopes.com/obama-al-sharpton-taxes/"}, "user": {"created_at": "Fri May 08 08:04:02 +0000 2009", "default_profile": true, "description": "LIFE Leadership, Sno-Isle 9/12 Project, American Legion, VFW, CPO/US Navy", "favourites_count": 609, "followers_count": 166, "friends_count": 451, "geo_enabled": true, "id": 38629282, "lang": "en", "listed_count": 4, "name": "MG Forrest", "profile_background_color": "C0DEED", "profile_background_image_url": "http://abs.twimg.com/images/themes/theme1/bg.png", "profile_background_tile": false, "profile_image_url": "https://pbs.twimg.com/profile_images/302921108/P0906101421089_normal.jpg", "profile_link_color": "0084B4", "profile_sidebar_fill_color": "DDEEF6", "profile_text_color": "333333", "protected": false, "screen_name": "docnavyguy", "statuses_count": 1219, "time_zone": "Central Time (US & Canada)", "url": "http://t.co/bCHTZOdria", "utc_offset": -21600}, "user_mentions": [{"id": 889781113, "name": "DJ", "screen_name": "388fjv9"}]}
{"created_at": "Mon Oct 12 12:48:31 +0000 2015", "favorited": false, "id": 653552828972036096, "in_reply_to_screen_name": "ourepictimes", "in_reply_to_status_id": 653437131533107200, "in_reply_to_user_id": 1140263227, "lang": "en", "retweeted": false, "source": "<a href=\"http://twitter.com/download/android\" rel=\"nofollow\">Twitter for Android</a>", "text": "@ourepictimes re: Al Sharpton. i think he should be in jail, but here is Snopes version [take it or leave it]:  http://t.co/OXkqwP3gse", "truncated": false, "urls": {"http://t.co/OXkqwP3gse": "http://m.snopes.com/obama-al-sharpton-taxes/"}, "user": {"created_at": "Fri May 08 08:04:02 +0000 2009", "default_profile": true, "description": "LIFE Leadership, Sno-Isle 9/12 Project, American Legion, VFW, CPO/US Navy", "favourites_count": 609, "followers_count": 166, "friends_count": 451, "geo_enabled": true, "id": 38629282, "lang": "en", "listed_count": 4, "name": "MG Forrest", "profile_background_color": "C0DEED", "profile_background_image_url": "http://abs.twimg.com/images/themes/theme1/bg.png", "profile_background_tile": false, "profile_image_url": "https://pbs.twimg.com/profile_images/302921108/P0906101421089_normal.jpg", "profile_link_color": "0084B4", "profile_sidebar_fill_color": "DDEEF6", "profile_text_color": "333333", "protected": false, "screen_name": "docnavyguy", "statuses_count": 1219, "time_zone": "Central Time (US & Canada)", "url": "http://t.co/bCHTZOdria", "utc_offset": -21600}, "user_mentions": [{"id": 1140263227, "name": "EpicTimes", "screen_name": "ourepictimes"}]}
{"created_at": "Mon Oct 12 12:49:14 +0000 2015", "favorited": false, "id": 653553007527768064, "in_reply_to_screen_name": "Linksman102", "in_reply_to_status_id": 653432820610699264, "in_reply_to_user_id": 226647254, "lang": "en", "retweeted": false, "source": "<a href=\"http://twitter.com/download/android\" rel=\"nofollow\">Twitter for Android</a>", "text": "@Linksman102 re: Al Sharpton. i think he should be in jail, but here is Snopes version [take it or leave it]:  http://t.co/OXkqwP3gse", "truncated": false, "urls": {"http://t.co/OXkqwP3gse": "http://m.snopes.com/obama-al-sharpton-taxes/"}, "user": {"created_at": "Fri May 08 08:04:02 +0000 2009", "default_profile": true, "description": "LIFE Leadership, Sno-Isle 9/12 Project, American Legion, VFW, CPO/US Navy", "favourites_count": 609, "followers_count": 166, "friends_count": 451, "geo_enabled": true, "id": 38629282, "lang": "en", "listed_count": 4, "name": "MG Forrest", "profile_background_color": "C0DEED", "profile_background_image_url": "http://abs.twimg.com/images/themes/theme1/bg.png", "profile_background_tile": false, "profile_image_url": "https://pbs.twimg.com/profile_images/302921108/P0906101421089_normal.jpg", "profile_link_color": "0084B4", "profile_sidebar_fill_color": "DDEEF6", "profile_text_color": "333333", "protected": false, "screen_name": "docnavyguy", "statuses_count": 1219, "time_zone": "Central Time (US & Canada)", "url": "http://t.co/bCHTZOdria", "utc_offset": -21600}, "user_mentions": [{"id": 226647254, "name": "Linksman102", "screen_name": "Linksman102"}]}
{"created_at": "Mon Oct 12 12:49:53 +0000 2015", "favorited": false, "id": 653553171420196864, "in_reply_to_screen_name": "TiffanyAchilles", "in_reply_to_status_id": 653423789867433984, "in_reply_to_user_id": 3234802378, "lang": "en", "retweeted": false, "source": "<a href=\"http://twitter.com/download/android\" rel=\"nofollow\">Twitter for Android</a>", "text": "@TiffanyAchilles re: Al Sharpton. i think he should be in jail, but here is Snopes version [take it or leave it]:  http://t.co/OXkqwP3gse", "truncated": false, "urls": {"http://t.co/OXkqwP3gse": "http://m.snopes.com/obama-al-sharpton-taxes/"}, "user": {"created_at": "Fri May 08 08:04:02 +0000 2009", "default_profile": true, "description": "LIFE Leadership, Sno-Isle 9/12 Project, American Legion, VFW, CPO/US Navy", "favourites_count": 609, "followers_count": 166, "friends_count": 451, "geo_enabled": true, "id": 38629282, "lang": "en", "listed_count": 4, "name": "MG Forrest", "profile_background_color": "C0DEED", "profile_background_image_url": "http://abs.twimg.com/images/themes/theme1/bg.png", "profile_background_tile": false, "profile_image_url": "https://pbs.twimg.com/profile_images/302921108/P0906101421089_normal.jpg", "profile_link_color": "0084B4", "profile_sidebar_fill_color": "DDEEF6", "profile_text_color": "333333", "protected": false, "screen_name": "docnavyguy", "statuses_count": 1219, "time_zone": "Central Time (US & Canada)", "url": "http://t.co/bCHTZOdria", "utc_offset": -21600}, "user_mentions": [{"id": 3234802378, "name": "Tiffany Carmona", "screen_name": "TiffanyAchilles"}]}
{"created_at": "Mon Oct 12 12:50:16 +0000 2015", "favorited": false, "id": 653553269139095552, "in_reply_to_screen_name": "BrettLP", "in_reply_to_status_id": 653423619914133504, "in_reply_to_user_id": 41393941, "lang": "en", "retweeted": false, "source": "<a href=\"http://twitter.com/download/android\" rel=\"nofollow\">Twitter for Android</a>", "text": "@BrettLP re: Al Sharpton. i think he should be in jail, but here is Snopes version [take it or leave it]:  http://t.co/OXkqwP3gse", "truncated": false, "urls": {"http://t.co/OXkqwP3gse": "http://m.snopes.com/obama-al-sharpton-taxes/"}, "user": {"created_at": "Fri May 08 08:04:02 +0000 2009", "default_profile": true, "description": "LIFE Leadership, Sno-Isle 9/12 Project, American Legion, VFW, CPO/US Navy", "favourites_count": 609, "followers_count": 166, "friends_count": 451, "geo_enabled": true, "id": 38629282, "lang": "en", "listed_count": 4, "name": "MG Forrest", "profile_background_color": "C0DEED", "profile_background_image_url": "http://abs.twimg.com/images/themes/theme1/bg.png", "profile_background_tile": false, "profile_image_url": "https://pbs.twimg.com/profile_images/302921108/P0906101421089_normal.jpg", "profile_link_color": "0084B4", "profile_sidebar_fill_color": "DDEEF6", "profile_text_color": "333333", "protected": false, "screen_name": "docnavyguy", "statuses_count": 1219, "time_zone": "Central Time (US & Canada)", "url": "http://t.co/bCHTZOdria", "utc_offset": -21600}, "user_mentions": [{"id": 41393941, "name": "Brett", "screen_name": "BrettLP"}]}
{"created_at": "Mon Oct 12 12:50:37 +0000 2015", "favorited": false, "id": 653553356409958400, "in_reply_to_screen_name": "dlittleton1", "in_reply_to_status_id": 653419797443547136, "in_reply_to_user_id": 56035004, "lang": "en", "retweeted": false, "source": "<a href=\"http://twitter.com/download/android\" rel=\"nofollow\">Twitter for Android</a>", "text": "@dlittleton1 re: Al Sharpton. i think he should be in jail, but here is Snopes version [take it or leave it]:  http://t.co/OXkqwP3gse", "truncated": false, "urls": {"http://t.co/OXkqwP3gse": "http://m.snopes.com/obama-al-sharpton-taxes/"}, "user": {"created_at": "Fri May 08 08:04:02 +0000 2009", "default_profile": true, "description": "LIFE Leadership, Sno-Isle 9/12 Project, American Legion, VFW, CPO/US Navy", "favourites_count": 609, "followers_count": 166, "friends_count": 451, "geo_enabled": true, "id": 38629282, "lang": "en", "listed_count": 4, "name": "MG Forrest", "profile_background_color": "C0DEED", "profile_background_image_url": "http://abs.twimg.com/images/themes/theme1/bg.png", "profile_background_tile": false, "profile_image_url": "https://pbs.twimg.com/profile_images/302921108/P0906101421089_normal.jpg", "profile_link_color": "0084B4", "profile_sidebar_fill_color": "DDEEF6", "profile_text_color": "333333", "protected": false, "screen_name": "docnavyguy", "statuses_count": 1219, "time_zone": "Central Time (US & Canada)", "url": "http://t.co/bCHTZOdria", "utc_offset": -21600}, "user_mentions": [{"id": 56035004, "name": "Dave Littleton", "screen_name": "dlittleton1"}]}
{"created_at": "Mon Oct 12 12:50:54 +0000 2015", "favorite_count": 1, "favorited": false, "id": 653553430259040256, "in_reply_to_screen_name": "softballmom991", "in_reply_to_status_id": 653418201129160704, "in_reply_to_user_id": 275774577, "lang": "en", "retweeted": false, "source": "<a href=\"http://twitter.com/download/android\" rel=\"nofollow\">Twitter for Android</a>", "text": "@softballmom991 re: Al Sharpton. i think he should be in jail, but here is Snopes version [take it or leave it]:  http://t.co/OXkqwP3gse", "truncated": false, "urls": {"http://t.co/OXkqwP3gse": "http://m.snopes.com/obama-al-sharpton-taxes/"}, "user": {"created_at": "Fri May 08 08:04:02 +0000 2009", "default_profile": true, "description": "LIFE Leadership, Sno-Isle 9/12 Project, American Legion, VFW, CPO/US Navy", "favourites_count": 609, "followers_count": 166, "friends_count": 451, "geo_enabled": true, "id": 38629282, "lang": "en", "listed_count": 4, "name": "MG Forrest", "profile_background_color": "C0DEED", "profile_background_image_url": "http://abs.twimg.com/images/themes/theme1/bg.png", "profile_background_tile": false, "profile_image_url": "https://pbs.twimg.com/profile_images/302921108/P0906101421089_normal.jpg", "profile_link_color": "0084B4", "profile_sidebar_fill_color": "DDEEF6", "profile_text_color": "333333", "protected": false, "screen_name": "docnavyguy", "statuses_count": 1219, "time_zone": "Central Time (US & Canada)", "url": "http://t.co/bCHTZOdria", "utc_offset": -21600}, "user_mentions": [{"id": 275774577, "name": "lisa elliott", "screen_name": "softballmom991"}]}
{"created_at": "Mon Oct 12 12:51:20 +0000 2015", "favorited": false, "id": 653553535770955776, "in_reply_to_screen_name": "atticsonline", "in_reply_to_status_id": 653414693671993344, "in_reply_to_user_id": 3382396089, "lang": "en", "retweeted": false, "source": "<a href=\"http://twitter.com/download/android\" rel=\"nofollow\">Twitter for Android</a>", "text": "@atticsonline re: Al Sharpton. i think he should be in jail, but here is Snopes version [take it or leave it]:  http://t.co/OXkqwP3gse", "truncated": false, "urls": {"http://t.co/OXkqwP3gse": "http://m.snopes.com/obama-al-sharpton-taxes/"}, "user": {"created_at": "Fri May 08 08:04:02 +0000 2009", "default_profile": true, "description": "LIFE Leadership, Sno-Isle 9/12 Project, American Legion, VFW, CPO/US Navy", "favourites_count": 609, "followers_count": 166, "friends_count": 451, "geo_enabled": true, "id": 38629282, "lang": "en", "listed_count": 4, "name": "MG Forrest", "profile_background_color": "C0DEED", "profile_background_image_url": "http://abs.twimg.com/images/themes/theme1/bg.png", "profile_background_tile": false, "profile_image_url": "https://pbs.twimg.com/profile_images/302921108/P0906101421089_normal.jpg", "profile_link_color": "0084B4", "profile_sidebar_fill_color": "DDEEF6", "profile_text_color": "333333", "protected": false, "screen_name": "docnavyguy", "statuses_count": 1219, "time_zone": "Central Time (US & Canada)", "url": "http://t.co/bCHTZOdria", "utc_offset": -21600}, "user_mentions": [{"id": 3382396089, "name": "atticonline", "screen_name": "atticsonline"}]}
{"created_at": "Mon Oct 12 12:56:08 +0000 2015", "favorited": false, "id": 653554745819316224, "in_reply_to_screen_name": "WeThePeople109", "in_reply_to_status_id": 653409456164876288, "in_reply_to_user_id": 122397629, "lang": "en", "retweeted": false, "source": "<a href=\"http://twitter.com/download/android\" rel=\"nofollow\">Twitter for Android</a>", "text": "@njs6464 re: Al Sharpton. i think he should be in jail, but here is Snopes version [take it or leave it]:  http://t.co/OXkqwP3gse", "truncated": false, "urls": {"http://t.co/OXkqwP3gse": "http://m.snopes.com/obama-al-sharpton-taxes/"}, "user": {"created_at": "Fri May 08 08:04:02 +0000 2009", "default_profile": true, "description": "LIFE Leadership, Sno-Isle 9/12 Project, American Legion, VFW, CPO/US Navy", "favourites_count": 609, "followers_count": 166, "friends_count": 451, "geo_enabled": true, "id": 38629282, "lang": "en", "listed_count": 4, "name": "MG Forrest", "profile_background_color": "C0DEED", "profile_background_image_url": "http://abs.twimg.com/images/themes/theme1/bg.png", "profile_background_tile": false, "profile_image_url": "https://pbs.twimg.com/profile_images/302921108/P0906101421089_normal.jpg", "profile_link_color": "0084B4", "profile_sidebar_fill_color": "DDEEF6", "profile_text_color": "333333", "protected": false, "screen_name": "docnavyguy", "statuses_count": 1219, "time_zone": "Central Time (US & Canada)", "url": "http://t.co/bCHTZOdria", "utc_offset": -21600}}
{"created_at": "Mon Oct 12 12:56:34 +0000 2015", "favorited": false, "id": 653554856020480000, "in_reply_to_screen_name": "Cherokee65L", "in_reply_to_status_id": 653408979809345536, "in_reply_to_user_id": 3501519201, "lang": "en", "retweeted": false, "source": "<a href=\"http://twitter.com/download/android\" rel=\"nofollow\">Twitter for Android</a>", "text": "@Cherokee65L re: Al Sharpton. i think he should be in jail, but here is Snopes version [take it or leave it]:  http://t.co/OXkqwP3gse", "truncated": false, "urls": {"http://t.co/OXkqwP3gse": "http://m.snopes.com/obama-al-sharpton-taxes/"}, "user": {"created_at": "Fri May 08 08:04:02 +0000 2009", "default_profile": true, "description": "LIFE Leadership, Sno-Isle 9/12 Project, American Legion, VFW, CPO/US Navy", "favourites_count": 609, "followers_count": 166, "friends_count": 451, "geo_enabled": true, "id": 38629282, "lang": "en", "listed_count": 4, "name": "MG Forrest", "profile_background_color": "C0DEED", "profile_background_image_url": "http://abs.twimg.com/images/themes/theme1/bg.png", "profile_background_tile": false, "profile_image_url": "https://pbs.twimg.com/profile_images/302921108/P0906101421089_normal.jpg", "profile_link_color": "0084B4", "profile_sidebar_fill_color": "DDEEF6", "profile_text_color": "333333", "protected": false, "screen_name": "docnavyguy", "statuses_count": 1219, "time_zone": "Central Time (US & Canada)", "url": "http://t.co/bCHTZOdria", "utc_offset": -21600}, "user_mentions": [{"id": 3501519201, "name": "Roy Lee L", "screen_name": "Cherokee65L"}]}
{"created_at": "Mon Oct 12 12:56:58 +0000 2015", "favorited": false, "id": 653554955433803776, "in_reply_to_screen_name": "martylawson", "in_reply_to_status_id": 653384986641481728, "in_reply_to_user_id": 57039652, "lang": "en", "retweeted": false, "source": "<a href=\"http://twitter.com/download/android\" rel=\"nofollow\">Twitter for Android</a>", "text": "@martylawson re: Al Sharpton. i think he should be in jail, but here is Snopes version [take it or leave it]:  http://t.co/OXkqwP3gse", "truncated": false, "urls": {"http://t.co/OXkqwP3gse": "http://m.snopes.com/obama-al-sharpton-taxes/"}, "user": {"created_at": "Fri May 08 08:04:02 +0000 2009", "default_profile": true, "description": "LIFE Leadership, Sno-Isle 9/12 Project, American Legion, VFW, CPO/US Navy", "favourites_count": 609, "followers_count": 166, "friends_count": 451, "geo_enabled": true, "id": 38629282, "lang": "en", "listed_count": 4, "name": "MG Forrest", "profile_background_color": "C0DEED", "profile_background_image_url": "http://abs.twimg.com/images/themes/theme1/bg.png", "profile_background_tile": false, "profile_image_url": "https://pbs.twimg.com/profile_images/302921108/P0906101421089_normal.jpg", "profile_link_color": "0084B4", "profile_sidebar_fill_color": "DDEEF6", "profile_text_color": "333333", "protected": false, "screen_name": "docnavyguy", "statuses_count": 1219, "time_zone": "Central Time (US & Canada)", "url": "http://t.co/bCHTZOdria", "utc_offset": -21600}, "user_mentions": [{"id": 57039652, "name": "martylawson", "screen_name": "martylawson"}]}
{"created_at": "Mon Oct 12 12:57:18 +0000 2015", "favorited": false, "id": 653555041345777664, "in_reply_to_screen_name": "virginia_fidler", "in_reply_to_status_id": 653379791735820289, "in_reply_to_user_id": 3182371068, "lang": "en", "retweet_count": 1, "retweeted": false, "source": "<a href=\"http://twitter.com/download/android\" rel=\"nofollow\">Twitter for Android</a>", "text": "@virginia_fidler re: Al Sharpton. i think he should be in jail, but here is Snopes version [take it or leave it]:  http://t.co/OXkqwP3gse", "truncated": false, "urls": {"http://t.co/OXkqwP3gse": "http://m.snopes.com/obama-al-sharpton-taxes/"}, "user": {"created_at": "Fri May 08 08:04:02 +0000 2009", "default_profile": true, "description": "LIFE Leadership, Sno-Isle 9/12 Project, American Legion, VFW, CPO/US Navy", "favourites_count": 609, "followers_count": 166, "friends_count": 451, "geo_enabled": true, "id": 38629282, "lang": "en", "listed_count": 4, "name": "MG Forrest", "profile_background_color": "C0DEED", "profile_background_image_url": "http://abs.twimg.com/images/themes/theme1/bg.png", "profile_background_tile": false, "profile_image_url": "https://pbs.twimg.com/profile_images/302921108/P0906101421089_normal.jpg", "profile_link_color": "0084B4", "profile_sidebar_fill_color": "DDEEF6", "profile_text_color": "333333", "protected": false, "screen_name": "docnavyguy", "statuses_count": 1219, "time_zone": "Central Time (US & Canada)", "url": "http://t.co/bCHTZOdria", "utc_offset": -21600}, "user_mentions": [{"id": 3182371068, "name": "virginia fidler", "screen_name": "virginia_fidler"}]}
