{"created_at": "Tue Jul 28 12:45:49 +0000 2015", "favorited": false, "hashtags": ["Hillary", "prolife"], "id": 626010673709993984, "lang": "en", "retweeted": false, "source": "<a href=\"http://www.hootsuite.com\" rel=\"nofollow\">Hootsuite</a>", "text": "Wow!\n@CarlyFiorina Skips \u2018Rape/Incest\u2019 Bait, Blasts #Hillary\u2019s Abortion Extremism http://t.co/fj7zQD1rmO #prolife", "truncated": false, "urls": {"http://t.co/fj7zQD1rmO": "http://nyv.me/l/A4m6"}, "user": {"created_at": "Tue Apr 13 06:07:35 +0000 2010", "description": "Grassroots & Community Organizing for the Red Team \nRT\u2260endorsement \nOPINIONS my own.\nConservative Valkyrie", "favourites_count": 6826, "followers_count": 2646, "friends_count": 2898, "id": 132427750, "lang": "en", "listed_count": 101, "location": "Mostly MI/CA/DC ", "name": "Chris #Bossy McCoy", "profile_background_color": "FF6699", "profile_background_image_url": "http://pbs.twimg.com/profile_background_images/882775196/7258d11cadeab2004aaa9b2d68f6d753.jpeg", "profile_background_tile": true, "profile_banner_url": "https://pbs.twimg.com/profile_banners/132427750/1369933126", "profile_image_url": "https://pbs.twimg.com/profile_images/585472975698325506/r4q5QSwf_normal.jpg", "profile_link_color": "B40B43", "profile_sidebar_fill_color": "E5507E", "profile_text_color": "362720", "protected": false, "screen_name": "ChrisYMcCoy", "statuses_count": 24289}, "user_mentions": [{"id": 65691824, "name": "Carly Fiorina", "screen_name": "CarlyFiorina"}]}
{"created_at": "Tue Jul 28 22:15:19 +0000 2015", "favorite_count": 5, "favorited": false, "id": 626153991680884736, "lang": "en", "retweet_count": 13, "retweeted": false, "source": "<a href=\"http://www.networkedblogs.com/\" rel=\"nofollow\">NetworkedBlogs</a>", "text": "Carly Fiorina refuses the rape and incest bait http://t.co/O3m6hlWEKu", "truncated": false, "urls": {"http://t.co/O3m6hlWEKu": "http://legalinsurrection.com/2015/07/carly-fiorina-refuses-the-rape-and-incest-bait/"}, "user": {"created_at": "Thu Dec 11 16:07:35 +0000 2008", "default_profile": true, "description": "Official Twitter account of Legal Insurrection Blog.  RT is not endorsement.", "followers_count": 18433, "friends_count": 1065, "geo_enabled": true, "id": 18050303, "lang": "en", "listed_count": 871, "name": "Legal Insurrection", "profile_background_color": "C0DEED", "profile_background_image_url": "http://abs.twimg.com/images/themes/theme1/bg.png", "profile_background_tile": false, "profile_banner_url": "https://pbs.twimg.com/profile_banners/18050303/1401458123", "profile_image_url": "https://pbs.twimg.com/profile_images/477274566209720320/UYAYF5BQ_normal.png", "profile_link_color": "0084B4", "profile_sidebar_fill_color": "DDEEF6", "profile_text_color": "333333", "protected": false, "screen_name": "LegInsurrection", "statuses_count": 40819, "time_zone": "Quito", "url": "http://t.co/pxSbgPlA3m", "utc_offset": -18000}}
{"created_at": "Tue Jul 28 22:15:29 +0000 2015", "favorited": false, "hashtags": ["tcot"], "id": 626154034500517888, "lang": "en", "retweeted": false, "source": "<a href=\"http://twitterfeed.com\" rel=\"nofollow\">twitterfeed</a>", "text": "Carly Fiorina refuses the rape and incest bait http://t.co/lBS0gYqOGu | #tcot", "truncated": false, "urls": {"http://t.co/lBS0gYqOGu": "http://27x.net/52b0"}, "user": {"created_at": "Sat Apr 04 22:37:43 +0000 2009", "description": "It is the DUTY of the patriot to protect his country from its government. Thomas Paine", "favourites_count": 100, "followers_count": 25787, "friends_count": 23871, "id": 28885875, "lang": "en", "listed_count": 918, "location": "To The Right of You!", "name": "CO2HOG\u2122", "profile_background_color": "000000", "profile_background_image_url": "http://pbs.twimg.com/profile_background_images/510566746697134080/2Mj1JHiU.jpeg", "profile_background_tile": false, "profile_banner_url": "https://pbs.twimg.com/profile_banners/28885875/1429242566", "profile_image_url": "https://pbs.twimg.com/profile_images/588545693968531459/ZS_T_R7k_normal.jpg", "profile_link_color": "00ACEE", "profile_sidebar_fill_color": "3D2C2B", "profile_text_color": "050505", "protected": false, "screen_name": "CO2HOG", "statuses_count": 592272, "time_zone": "Pacific Time (US & Canada)", "utc_offset": -28800}}
{"created_at": "Tue Jul 28 22:15:30 +0000 2015", "favorited": false, "id": 626154036534771712, "lang": "en", "retweeted": false, "source": "<a href=\"http://twitterfeed.com\" rel=\"nofollow\">twitterfeed</a>", "text": "Carly Fiorina refuses the rape and incest bait http://t.co/mBZsObjlLf", "truncated": false, "urls": {"http://t.co/mBZsObjlLf": "http://bit.ly/1I8emSq"}, "user": {"created_at": "Tue Apr 29 14:56:13 +0000 2014", "default_profile": true, "description": "Tea Party movement news and tweets", "followers_count": 117, "friends_count": 19, "id": 2469394070, "lang": "en", "listed_count": 23, "name": "Tea Party News", "profile_background_color": "C0DEED", "profile_background_image_url": "http://abs.twimg.com/images/themes/theme1/bg.png", "profile_background_tile": false, "profile_image_url": "https://pbs.twimg.com/profile_images/461158463276449792/pWDUtpR2_normal.jpeg", "profile_link_color": "0084B4", "profile_sidebar_fill_color": "DDEEF6", "profile_text_color": "333333", "protected": false, "screen_name": "teapartynew", "statuses_count": 49104, "url": "https://t.co/J65D2H3iXH"}}
{"created_at": "Tue Jul 28 22:18:33 +0000 2015", "favorite_count": 6, "favorited": false, "hashtags": ["LetCarlyDebate"], "id": 626154803534671877, "lang": "en", "retweet_count": 9, "retweeted": false, "source": "<a href=\"http://seesmic.com/\" rel=\"nofollow\">Seesmic</a>", "text": "#LetCarlyDebate RT @LegInsurrection: Carly Fiorina refuses the rape and incest bait http://t.co/eGyL48ZwYE", "truncated": false, "urls": {"http://t.co/eGyL48ZwYE": "http://bit.ly/1HZRTJz"}, "user": {"created_at": "Sat Sep 20 13:49:46 +0000 2008", "description": "Politics/pop culture junkie. Tweets w/ a Southern accent. @IJReview contributor. When in doubt,  #AskTheNearestHippie. Oh yeah: #Panthers.", "favourites_count": 3661, "followers_count": 30432, "friends_count": 2850, "id": 16377693, "lang": "en", "listed_count": 1202, "location": "North Carolina", "name": "Sister Toldjah", "profile_background_color": "022330", "profile_background_image_url": "http://pbs.twimg.com/profile_background_images/615651828743671808/Vdi3Z_YH.jpg", "profile_background_tile": false, "profile_banner_url": "https://pbs.twimg.com/profile_banners/16377693/1451327719", "profile_image_url": "https://pbs.twimg.com/profile_images/681543532360916993/XQaOoPFz_normal.jpg", "profile_link_color": "0084B4", "profile_sidebar_fill_color": "000000", "profile_text_color": "000000", "protected": false, "screen_name": "sistertoldjah", "statuses_count": 215229, "time_zone": "Eastern Time (US & Canada)", "url": "http://t.co/KvCm0vvSZJ", "utc_offset": -18000}, "user_mentions": [{"id": 18050303, "name": "Legal Insurrection", "screen_name": "LegInsurrection"}]}
{"created_at": "Tue Jul 28 22:36:58 +0000 2015", "favorited": false, "hashtags": ["CNRapp"], "id": 626159437800165376, "lang": "en", "retweeted": false, "source": "<a href=\"http://ifttt.com\" rel=\"nofollow\">IFTTT</a>", "text": "http://t.co/SsZWbFcDGz Carly Fiorina refuses the rape and incest bait #CNRapp", "truncated": false, "urls": {"http://t.co/SsZWbFcDGz": "http://ift.tt/1MwHM33"}, "user": {"created_at": "Mon Oct 06 19:15:49 +0000 2014", "description": "Conservative News, Politics, People & more", "followers_count": 1516, "friends_count": 38, "id": 2811212223, "lang": "en", "listed_count": 72, "name": "CNR", "profile_background_color": "131516", "profile_background_image_url": "http://pbs.twimg.com/profile_background_images/519207261323796480/mZghMoxW.png", "profile_background_tile": false, "profile_banner_url": "https://pbs.twimg.com/profile_banners/2811212223/1412623123", "profile_image_url": "https://pbs.twimg.com/profile_images/519204695244427264/jjXhu7fU_normal.png", "profile_link_color": "009999", "profile_sidebar_fill_color": "000000", "profile_text_color": "000000", "protected": false, "screen_name": "ConservativeApp", "statuses_count": 288922, "url": "https://t.co/XjrZJDzERo"}}
{"created_at": "Tue Jul 28 22:42:14 +0000 2015", "favorited": false, "hashtags": ["gop", "ccot", "tcot"], "id": 626160764051656705, "lang": "en", "retweeted": false, "source": "<a href=\"http://sharethis.com\" rel=\"nofollow\">ShareThis.com</a>", "text": "Carly Fiorina refuses the rape and incest bait\nhttps://t.co/3s4uFDiFNT via @sharethis #gop #ccot #tcot", "truncated": false, "urls": {"https://t.co/3s4uFDiFNT": "https://shar.es/1s9Q5a"}, "user": {"created_at": "Thu Jul 08 12:14:49 +0000 2010", "default_profile": true, "description": "Proud Conservative Woman. Steadfast belief: When Good Stands Up to Evil, Evil Blinks (VB)", "favourites_count": 340, "followers_count": 3310, "friends_count": 3371, "id": 164252124, "lang": "en", "listed_count": 105, "location": "Virginia", "name": "Lady Penquin", "profile_background_color": "C0DEED", "profile_background_image_url": "http://abs.twimg.com/images/themes/theme1/bg.png", "profile_background_tile": false, "profile_image_url": "https://pbs.twimg.com/profile_images/1061856196/penguin2_1__normal.jpg", "profile_link_color": "0084B4", "profile_sidebar_fill_color": "DDEEF6", "profile_text_color": "333333", "protected": false, "screen_name": "Lady_Penquin", "statuses_count": 17121, "time_zone": "Quito", "url": "http://t.co/FPaXeTeyT8", "utc_offset": -18000}, "user_mentions": [{"id": 14116807, "name": "ShareThis", "screen_name": "ShareThis"}]}
{"created_at": "Tue Jul 28 22:47:01 +0000 2015", "favorited": false, "hashtags": ["orcot"], "id": 626161970048290820, "lang": "en", "retweeted": false, "source": "<a href=\"http://www.hootsuite.com\" rel=\"nofollow\">Hootsuite</a>", "text": "#orcot Carly Fiorina refuses the rape and incest bait http://t.co/ALGaaunAzw", "truncated": false, "urls": {"http://t.co/ALGaaunAzw": "http://ow.ly/31WRny"}, "user": {"created_at": "Sun Mar 15 00:04:53 +0000 2009", "description": "New Media, Cigars, Photography, Wine, Strategy, Barbecue, Football and Free Markets. \n\nFounder, #orcot. \n\n All tweets follow the maxim, 'Shut up, I explained.'", "favourites_count": 276, "followers_count": 3357, "friends_count": 3081, "id": 24454752, "lang": "en", "listed_count": 170, "location": "Oregon", "name": "jeffery reynolds", "profile_background_color": "1911F5", "profile_background_image_url": "http://abs.twimg.com/images/themes/theme14/bg.gif", "profile_background_tile": true, "profile_banner_url": "https://pbs.twimg.com/profile_banners/24454752/1399919467", "profile_image_url": "https://pbs.twimg.com/profile_images/427581622884384768/yrg0obiu_normal.jpeg", "profile_link_color": "0C330A", "profile_sidebar_fill_color": "EFEFEF", "profile_text_color": "221F73", "protected": false, "screen_name": "ChargerJeff", "statuses_count": 57061, "time_zone": "Pacific Time (US & Canada)", "url": "http://t.co/cGXCwtiFb7", "utc_offset": -28800}}
{"created_at": "Tue Jul 28 22:53:10 +0000 2015", "favorited": false, "id": 626163518065094658, "lang": "en", "retweeted": false, "source": "<a href=\"http://publicize.wp.com/\" rel=\"nofollow\">WordPress.com</a>", "text": "Carly Fiorina refuses the rape and incest\u00a0bait http://t.co/H65vWKXBRI http://t.co/kDewUYWG96", "truncated": false, "urls": {"http://t.co/H65vWKXBRI": "http://www.youtube.com/watch?feature=player_embedded&v=NkmkwTDV5p4", "http://t.co/kDewUYWG96": "http://freedomsfloodgates.com/2015/07/28/carly-fiorina-refuses-the-rape-and-incest-bait/"}, "user": {"created_at": "Tue Jan 06 22:57:53 +0000 2015", "description": "Vigilant guardian of American liberty", "followers_count": 115, "friends_count": 41, "id": 2965112411, "lang": "en", "listed_count": 49, "location": "New Hampshire", "name": "Freedom's Floodgates", "profile_background_color": "000000", "profile_background_image_url": "http://abs.twimg.com/images/themes/theme1/bg.png", "profile_background_tile": false, "profile_banner_url": "https://pbs.twimg.com/profile_banners/2965112411/1420585327", "profile_image_url": "https://pbs.twimg.com/profile_images/552600586651045889/FeV0KsPd_normal.png", "profile_link_color": "ABB8C2", "profile_sidebar_fill_color": "000000", "profile_text_color": "000000", "protected": false, "screen_name": "FFloodgates", "statuses_count": 63050, "url": "http://t.co/5eh3tI6nDf"}}
{"created_at": "Tue Jul 28 23:02:07 +0000 2015", "favorite_count": 2, "favorited": false, "id": 626165770641346560, "lang": "en", "retweet_count": 2, "retweeted": false, "source": "<a href=\"http://www.facebook.com/twitter\" rel=\"nofollow\">Facebook</a>", "text": "Carly Fiorina refuses the rape and incest bait http://t.co/B6lz4RQCox", "truncated": false, "urls": {"http://t.co/B6lz4RQCox": "http://fb.me/1TJiwR4db"}, "user": {"created_at": "Sun Jul 12 21:53:53 +0000 2009", "description": "Writes things at @LegInsurrection. Loves Texas, whiskey, rabble-rousing, my man, and my dog. Catholic by choice. City girl. Feisty. #GigEm", "favourites_count": 7395, "followers_count": 15640, "friends_count": 1073, "id": 56202097, "lang": "en", "listed_count": 634, "location": "Houston, TX", "name": "Kemberlee Kaye", "profile_background_color": "F9CDAD", "profile_background_image_url": "http://pbs.twimg.com/profile_background_images/445743713/xb06a6345bd536fbe79b3752ca560f22.png", "profile_background_tile": true, "profile_banner_url": "https://pbs.twimg.com/profile_banners/56202097/1410761479", "profile_image_url": "https://pbs.twimg.com/profile_images/621176286526861313/lTDV6oPS_normal.jpg", "profile_link_color": "FC9D9A", "profile_sidebar_fill_color": "83AF9B", "profile_text_color": "FE4365", "protected": false, "screen_name": "KemberleeKaye", "statuses_count": 95945, "time_zone": "Central Time (US & Canada)", "url": "http://t.co/ZvUG6eLCEA", "utc_offset": -21600}}
{"created_at": "Tue Jul 28 23:11:29 +0000 2015", "favorited": false, "hashtags": ["P2", "tcot", "sgp", "teaparty", "uniteblue", "progressive", "jcot", "fyi", "mtv", "left"], "id": 626168126862950402, "lang": "en", "retweeted": false, "source": "<a href=\"http://www.flipboard.com\" rel=\"nofollow\">Flipboard</a>", "text": "Carly Fiorina refuses the rape &amp; incest bait http://t.co/YUKTZ5J6ia\n\n#P2 #tcot #sgp #teaparty #uniteblue #progressive #jcot #fyi #mtv #left", "truncated": false, "urls": {"http://t.co/YUKTZ5J6ia": "http://flip.it/zrW8Z"}, "user": {"created_at": "Thu Aug 28 01:08:57 +0000 2008", "description": "\u201cI predict future happiness for Americans, if they can prevent the government from wasting the labors of the people under the pretense of taking care of them.", "favourites_count": 32, "followers_count": 1023, "friends_count": 99, "id": 16020483, "lang": "en", "listed_count": 107, "location": "North America", "name": "Suhr Mesa", "profile_background_color": "12949B", "profile_background_image_url": "http://pbs.twimg.com/profile_background_images/33084010/Pond_Reeds1.jpg", "profile_background_tile": false, "profile_banner_url": "https://pbs.twimg.com/profile_banners/16020483/1441849172", "profile_image_url": "https://pbs.twimg.com/profile_images/1868047979/work_normal.jpg", "profile_link_color": "7D0418", "profile_sidebar_fill_color": "A1999F", "profile_text_color": "333333", "protected": false, "screen_name": "suhrmesa", "statuses_count": 71420, "time_zone": "Eastern Time (US & Canada)", "url": "https://t.co/PeocHZD21n", "utc_offset": -18000}}
{"created_at": "Tue Jul 28 23:23:14 +0000 2015", "favorited": false, "id": 626171084744826881, "lang": "en", "retweet_count": 1, "retweeted": false, "source": "<a href=\"http://www.apple.com\" rel=\"nofollow\">iOS</a>", "text": "\"Carly Fiorina refuses the rape and incest bait\" http://t.co/QMtc8J2uSZ", "truncated": false, "urls": {"http://t.co/QMtc8J2uSZ": "http://legalinsurrection.com/2015/07/carly-fiorina-refuses-the-rape-and-incest-bait/"}, "user": {"created_at": "Sat Mar 17 18:37:26 +0000 2007", "description": "I manage money.", "favourites_count": 2081, "followers_count": 4919, "friends_count": 5173, "id": 1366631, "lang": "en", "listed_count": 108, "location": "Never Land", "name": "George Mardre", "profile_background_color": "9AE4E8", "profile_background_image_url": "http://abs.twimg.com/images/themes/theme1/bg.png", "profile_background_tile": false, "profile_banner_url": "https://pbs.twimg.com/profile_banners/1366631/1450369950", "profile_image_url": "https://pbs.twimg.com/profile_images/2837007127/9a1d9bb9c8d0cb8176754ba6ac1bdc5e_normal.jpeg", "profile_link_color": "0000FF", "profile_sidebar_fill_color": "E0FF92", "profile_text_color": "000000", "protected": false, "screen_name": "gmardre", "statuses_count": 84432, "time_zone": "Central Time (US & Canada)", "utc_offset": -21600}}
{"created_at": "Tue Jul 28 23:24:17 +0000 2015", "favorited": false, "id": 626171348012953601, "lang": "en", "retweeted": false, "source": "<a href=\"http://twitter.com\" rel=\"nofollow\">Twitter Web Client</a>", "text": "Carly Fiorina refuses the rape and incest bait https://t.co/lyqWjoL6eD via @sharethis", "truncated": false, "urls": {"https://t.co/lyqWjoL6eD": "https://shar.es/1s9Vca"}, "user": {"created_at": "Mon Oct 01 22:32:22 +0000 2012", "default_profile": true, "description": "Fiscal conservative -  I love the USA. #TGDN  #IStandWithIsrael  #2A NoDMS", "favourites_count": 39743, "followers_count": 4941, "friends_count": 5386, "id": 857121152, "lang": "en", "listed_count": 105, "location": "Florida", "name": "4chunat1", "profile_background_color": "C0DEED", "profile_background_image_url": "http://abs.twimg.com/images/themes/theme1/bg.png", "profile_background_tile": false, "profile_image_url": "https://pbs.twimg.com/profile_images/661212098072981504/CjDeRIKk_normal.png", "profile_link_color": "0084B4", "profile_sidebar_fill_color": "DDEEF6", "profile_text_color": "333333", "protected": false, "screen_name": "4chunat1", "statuses_count": 98043}, "user_mentions": [{"id": 14116807, "name": "ShareThis", "screen_name": "ShareThis"}]}
{"created_at": "Wed Jul 29 00:12:13 +0000 2015", "favorited": false, "id": 626183410910908417, "lang": "en", "retweeted": false, "source": "<a href=\"http://www.apple.com\" rel=\"nofollow\">iOS</a>", "text": "Carly Fiorina refuses the rape and incest bait http://t.co/wjUqn3HLs8", "truncated": false, "urls": {"http://t.co/wjUqn3HLs8": "http://legalinsurrection.com/2015/07/carly-fiorina-refuses-the-rape-and-incest-bait/"}, "user": {"created_at": "Wed Dec 17 23:01:07 +0000 2008", "description": "Freethinking Conservative. Loving Father! medical doctor by day; mathematics, mountaineering, NHL, new tech, old wisdom and so much more by night.", "favourites_count": 24, "followers_count": 1771, "friends_count": 1966, "id": 18202628, "lang": "en", "listed_count": 59, "location": "FL, USA", "name": "@christophil", "profile_background_color": "3D62A1", "profile_background_image_url": "http://pbs.twimg.com/profile_background_images/378800000046925549/3e12a0779c13e98bf27c14f2cf29f681.jpeg", "profile_background_tile": true, "profile_banner_url": "https://pbs.twimg.com/profile_banners/18202628/1378766665", "profile_image_url": "https://pbs.twimg.com/profile_images/401355068/newtwitcrazy-22_normal.JPG", "profile_link_color": "FF4726", "profile_sidebar_fill_color": "A1504D", "profile_text_color": "000000", "protected": false, "screen_name": "christophil", "statuses_count": 31138, "time_zone": "Eastern Time (US & Canada)", "utc_offset": -18000}}
{"created_at": "Wed Jul 29 00:20:07 +0000 2015", "favorite_count": 1, "favorited": false, "id": 626185398088278016, "lang": "en", "retweet_count": 1, "retweeted": false, "source": "<a href=\"http://www.hootsuite.com\" rel=\"nofollow\">Hootsuite</a>", "text": "RT @leginsurrection Carly Fiorina refuses the rape and incest bait http://t.co/ASmbadrjks", "truncated": false, "urls": {"http://t.co/ASmbadrjks": "http://ow.ly/31X2NV"}, "user": {"created_at": "Fri Aug 08 01:59:24 +0000 2008", "default_profile": true, "description": "Pro-Israel, media critic, sports fan,", "favourites_count": 30, "followers_count": 1821, "friends_count": 856, "geo_enabled": true, "id": 15772783, "lang": "en", "listed_count": 127, "location": "People's Republic of Maryland", "name": "David Gerstman", "profile_background_color": "C0DEED", "profile_background_image_url": "http://abs.twimg.com/images/themes/theme1/bg.png", "profile_background_tile": false, "profile_banner_url": "https://pbs.twimg.com/profile_banners/15772783/1440648796", "profile_image_url": "https://pbs.twimg.com/profile_images/2451915266/ccw8jjv4pdkzk5rzedef_normal.jpeg", "profile_link_color": "0084B4", "profile_sidebar_fill_color": "DDEEF6", "profile_text_color": "333333", "protected": false, "screen_name": "soccerdhg", "statuses_count": 88002, "time_zone": "Eastern Time (US & Canada)", "url": "http://t.co/cQOlUo4MiX", "utc_offset": -18000}, "user_mentions": [{"id": 18050303, "name": "Legal Insurrection", "screen_name": "LegInsurrection"}]}
{"created_at": "Wed Jul 29 01:24:32 +0000 2015", "favorited": false, "id": 626201609832239104, "lang": "en", "retweeted": false, "source": "<a href=\"http://mobile.twitter.com\" rel=\"nofollow\">Mobile Web</a>", "text": "Carly Fiorina refuses the rape and incest bait https://t.co/E8m5h3TDSL via @sharethis", "truncated": false, "urls": {"https://t.co/E8m5h3TDSL": "https://shar.es/1sUfCh"}, "user": {"created_at": "Sun May 06 03:04:11 +0000 2012", "description": "RN", "favourites_count": 7332, "followers_count": 166, "friends_count": 183, "id": 572260847, "lang": "en", "listed_count": 12, "location": "Yukon, Oklahoma", "name": "Eris", "profile_background_color": "000000", "profile_background_image_url": "http://abs.twimg.com/images/themes/theme10/bg.gif", "profile_background_tile": false, "profile_banner_url": "https://pbs.twimg.com/profile_banners/572260847/1439010618", "profile_image_url": "https://pbs.twimg.com/profile_images/629881271582208000/6RrPy_It_normal.jpg", "profile_link_color": "3B0839", "profile_sidebar_fill_color": "000000", "profile_text_color": "000000", "protected": false, "screen_name": "Eris1701", "statuses_count": 12014}, "user_mentions": [{"id": 14116807, "name": "ShareThis", "screen_name": "ShareThis"}]}
{"created_at": "Wed Jul 29 01:57:12 +0000 2015", "favorited": false, "id": 626209829829242880, "lang": "en", "retweeted": false, "source": "<a href=\"http://twitter.com\" rel=\"nofollow\">Twitter Web Client</a>", "text": "Carly Fiorina refuses the rape and incest bait https://t.co/Lj9pmDm5ZX via @sharethis", "truncated": false, "urls": {"https://t.co/Lj9pmDm5ZX": "https://shar.es/1sU2kJ"}, "user": {"created_at": "Fri Jul 29 22:37:05 +0000 2011", "description": "I'm a conservative,  a bookworm, I love to cook and I adore my miniature schnauzers.  LSU alumn - GEAUX Tigers #TedCruz  #CruzCrew", "favourites_count": 444, "followers_count": 1704, "friends_count": 2179, "id": 345001664, "lang": "en", "listed_count": 52, "location": "Oklahoma", "name": "M Helm", "profile_background_color": "000000", "profile_background_image_url": "http://abs.twimg.com/images/themes/theme1/bg.png", "profile_background_tile": false, "profile_banner_url": "https://pbs.twimg.com/profile_banners/345001664/1443503499", "profile_image_url": "https://pbs.twimg.com/profile_images/2698892357/c5e422713b56c2ede921c14659cc4075_normal.jpeg", "profile_link_color": "9266CC", "profile_sidebar_fill_color": "000000", "profile_text_color": "000000", "protected": false, "screen_name": "1Bunny4T", "statuses_count": 32280, "time_zone": "Central Time (US & Canada)", "utc_offset": -21600}, "user_mentions": [{"id": 14116807, "name": "ShareThis", "screen_name": "ShareThis"}]}
{"created_at": "Wed Jul 29 02:36:09 +0000 2015", "favorite_count": 1, "favorited": false, "id": 626219630487404544, "lang": "en", "retweeted": false, "source": "<a href=\"http://www.apple.com\" rel=\"nofollow\">iOS</a>", "text": "Carly Fiorina refuses the rape and incest bait http://t.co/iu2J3TUc9w", "truncated": false, "urls": {"http://t.co/iu2J3TUc9w": "http://legalinsurrection.com/2015/07/carly-fiorina-refuses-the-rape-and-incest-bait/"}, "user": {"created_at": "Fri May 20 17:29:57 +0000 2011", "description": "Pro-Jesus,Pro-Gun,Pro-Life,Pro-Man+Women=Marriage,Pro-Israel,Anti-Entitlement.Time for men to bring back Jesus,Honor,Action #tcot #TGDN", "favourites_count": 2047, "followers_count": 3581, "friends_count": 3350, "id": 302140715, "lang": "en", "listed_count": 78, "location": "Nashville,TN", "name": "Stand Strong", "profile_background_color": "131516", "profile_background_image_url": "http://abs.twimg.com/images/themes/theme14/bg.gif", "profile_background_tile": true, "profile_banner_url": "https://pbs.twimg.com/profile_banners/302140715/1360815698", "profile_image_url": "https://pbs.twimg.com/profile_images/494470859491258368/F2d0Dc7i_normal.jpeg", "profile_link_color": "009999", "profile_sidebar_fill_color": "EFEFEF", "profile_text_color": "333333", "protected": false, "screen_name": "Keene44", "statuses_count": 57879}}
{"created_at": "Wed Jul 29 02:50:30 +0000 2015", "favorited": false, "id": 626223243322470401, "lang": "en", "retweeted": false, "source": "<a href=\"http://twitter.com\" rel=\"nofollow\">Twitter Web Client</a>", "text": "Carly Fiorina refuses the rape and incest bait https://t.co/xObBopySpi via @sharethis", "truncated": false, "urls": {"https://t.co/xObBopySpi": "https://shar.es/1sU5JV"}, "user": {"created_at": "Fri Sep 14 02:15:43 +0000 2012", "description": "TAM, Grrrrrrr!!, #TGDN, I miss Andrew, LOVE JESUS/GOD", "favourites_count": 15026, "followers_count": 1647, "friends_count": 1404, "id": 822533414, "lang": "en", "listed_count": 117, "location": "SoCal", "name": "jeanee5TAM", "profile_background_color": "FFF04D", "profile_background_image_url": "http://abs.twimg.com/images/themes/theme19/bg.gif", "profile_background_tile": false, "profile_image_url": "https://pbs.twimg.com/profile_images/3720878872/7f0a2c005d2035c4bb9fc715f3c8fdd2_normal.jpeg", "profile_link_color": "0099CC", "profile_sidebar_fill_color": "F6FFD1", "profile_text_color": "333333", "protected": false, "screen_name": "jeanee5TAM", "statuses_count": 120066, "time_zone": "Pacific Time (US & Canada)", "utc_offset": -28800}, "user_mentions": [{"id": 14116807, "name": "ShareThis", "screen_name": "ShareThis"}]}
{"created_at": "Wed Jul 29 05:04:05 +0000 2015", "favorite_count": 1, "favorited": false, "id": 626256860421730304, "lang": "en", "retweeted": false, "source": "<a href=\"http://sharethis.com\" rel=\"nofollow\">ShareThis.com</a>", "text": "SMART LADY!  Carly Fiorina refuses the rape and incest bait\nhttps://t.co/sg8yx6MlZO via @sharethis", "truncated": false, "urls": {"https://t.co/sg8yx6MlZO": "https://shar.es/1sUknb"}, "user": {"created_at": "Thu Mar 12 21:20:37 +0000 2009", "description": "Retired RN, Tennishead, 100% Rafael Nadal fan! Conservative, I believe in the Constitution. Progressive culture is destroying America. I don't speak PC", "favourites_count": 5740, "followers_count": 1377, "friends_count": 203, "id": 24040708, "lang": "en", "listed_count": 78, "location": "#goingdownthetoilet Illinois", "name": "outlaw sixty", "profile_background_color": "DD2E44", "profile_background_image_url": "http://pbs.twimg.com/profile_background_images/623349282293223424/6wsLdEOD.jpg", "profile_background_tile": true, "profile_banner_url": "https://pbs.twimg.com/profile_banners/24040708/1440071976", "profile_image_url": "https://pbs.twimg.com/profile_images/595964414861250560/FarwifV9_normal.jpg", "profile_link_color": "DD2E44", "profile_sidebar_fill_color": "95E8EC", "profile_text_color": "3C3940", "protected": false, "screen_name": "lynney62", "statuses_count": 90801, "time_zone": "Central Time (US & Canada)", "utc_offset": -21600}, "user_mentions": [{"id": 14116807, "name": "ShareThis", "screen_name": "ShareThis"}]}
{"created_at": "Wed Jul 29 11:56:09 +0000 2015", "favorited": false, "id": 626360561190703104, "lang": "en", "retweeted": false, "source": "<a href=\"http://mobile.twitter.com\" rel=\"nofollow\">Mobile Web</a>", "text": "Carly Fiorina refuses the rape and incest bait https://t.co/PWVbN0K8T3 via @sharethis", "truncated": false, "urls": {"https://t.co/PWVbN0K8T3": "https://shar.es/1sQj9w"}, "user": {"created_at": "Sun Apr 28 19:02:37 +0000 2013", "description": "A follower of The Way and a Libertarian in the midst of the demolition derby called Illinois.\r\nAlways pithy, never picayune.", "favourites_count": 2, "followers_count": 1221, "friends_count": 2085, "id": 1387671650, "lang": "en", "listed_count": 16, "location": "ORD", "name": "cindy wity", "profile_background_color": "C0DEED", "profile_background_image_url": "http://pbs.twimg.com/profile_background_images/378800000074010193/ae051ee4d9b1bf909e1e309188902d9a.jpeg", "profile_background_tile": true, "profile_image_url": "https://pbs.twimg.com/profile_images/3608759983/ddb7428f8b6751ba41d2e6db80469a99_normal.jpeg", "profile_link_color": "0084B4", "profile_sidebar_fill_color": "DDEEF6", "profile_text_color": "333333", "protected": false, "screen_name": "WityCindy", "statuses_count": 9723, "url": "http://t.co/qK3Ni3wf0A"}, "user_mentions": [{"id": 14116807, "name": "ShareThis", "screen_name": "ShareThis"}]}
{"created_at": "Wed Jul 29 13:25:04 +0000 2015", "favorited": false, "hashtags": ["LIKEABOSS"], "id": 626382936292462593, "lang": "en", "retweeted": false, "source": "<a href=\"http://twitter.com\" rel=\"nofollow\">Twitter Web Client</a>", "text": "Carly Fiorina refuses the rape and incest bait https://t.co/CbiaZ42q4g via @sharethis #LIKEABOSS", "truncated": false, "urls": {"https://t.co/CbiaZ42q4g": "https://shar.es/1sQ8zb"}, "user": {"created_at": "Thu Oct 22 16:27:43 +0000 2009", "description": "Christian, Conservative & Counselor of Law\nVice Chair of the Dallas County Republican Party", "favourites_count": 281, "followers_count": 455, "friends_count": 837, "geo_enabled": true, "id": 84363846, "lang": "en", "listed_count": 7, "location": "Garland, Tx", "name": "Elizabeth Bingham", "profile_background_color": "131516", "profile_background_image_url": "http://abs.twimg.com/images/themes/theme14/bg.gif", "profile_background_tile": true, "profile_banner_url": "https://pbs.twimg.com/profile_banners/84363846/1440020126", "profile_image_url": "https://pbs.twimg.com/profile_images/627602029196767232/af_O7owx_normal.jpg", "profile_link_color": "F52020", "profile_sidebar_fill_color": "EFEFEF", "profile_text_color": "333333", "protected": false, "screen_name": "SeekJustice117", "statuses_count": 3318, "time_zone": "Central Time (US & Canada)", "utc_offset": -21600}, "user_mentions": [{"id": 14116807, "name": "ShareThis", "screen_name": "ShareThis"}]}
{"created_at": "Wed Jul 29 14:16:18 +0000 2015", "favorited": false, "id": 626395829029486592, "lang": "en", "retweeted": false, "source": "<a href=\"http://mobile.twitter.com\" rel=\"nofollow\">Mobile Web</a>", "text": "Carly Fiorina refuses the rape and incest bait https://t.co/WMs0ckU7Dn via @sharethis", "truncated": false, "urls": {"https://t.co/WMs0ckU7Dn": "https://shar.es/1sQSNc"}, "user": {"created_at": "Sun Jan 18 16:05:33 +0000 2009", "description": "US Air Force Vietnam Vet 66-67 Conservative. Retired railroad. Married up. Charlotte, NC Life's good!", "favourites_count": 67, "followers_count": 2564, "friends_count": 2821, "geo_enabled": true, "id": 19148087, "lang": "en", "listed_count": 27, "name": "Charles Browning", "profile_background_color": "C6E2EE", "profile_background_image_url": "http://pbs.twimg.com/profile_background_images/109433763/DSC07064.JPG", "profile_background_tile": false, "profile_image_url": "https://pbs.twimg.com/profile_images/466977844526985216/K4rIZTy3_normal.jpeg", "profile_link_color": "1F98C7", "profile_sidebar_fill_color": "DAECF4", "profile_text_color": "663B12", "protected": false, "screen_name": "ChasBrowning", "statuses_count": 11529, "time_zone": "Eastern Time (US & Canada)", "utc_offset": -18000}, "user_mentions": [{"id": 14116807, "name": "ShareThis", "screen_name": "ShareThis"}]}
{"created_at": "Wed Jul 29 21:45:01 +0000 2015", "favorited": false, "id": 626508754561970180, "lang": "en", "retweeted": false, "source": "<a href=\"http://mobile.twitter.com\" rel=\"nofollow\">Mobile Web</a>", "text": "Carly Fiorina refuses the rape and incest bait https://t.co/ROoOfd0Oh5 via @sharethis", "truncated": false, "urls": {"https://t.co/ROoOfd0Oh5": "https://shar.es/1sR2rq"}, "user": {"created_at": "Tue Oct 21 22:28:09 +0000 2014", "default_profile": true, "description": "A fiscal conservative who believes in God, the good ol' USA, mom, and apple pie. I'm a Nam vet (11D) who's seen the Varmit while fighting for our rights .", "favourites_count": 244, "followers_count": 2790, "friends_count": 2754, "geo_enabled": true, "id": 2869644949, "lang": "en", "listed_count": 31, "location": "ALWAYS On the road to Hawaii", "name": "Carwizrd", "profile_background_color": "C0DEED", "profile_background_image_url": "http://abs.twimg.com/images/themes/theme1/bg.png", "profile_background_tile": false, "profile_banner_url": "https://pbs.twimg.com/profile_banners/2869644949/1424546720", "profile_image_url": "https://pbs.twimg.com/profile_images/566884797335617536/Jn3lovIM_normal.jpeg", "profile_link_color": "0084B4", "profile_sidebar_fill_color": "DDEEF6", "profile_text_color": "333333", "protected": false, "screen_name": "carwizrd", "statuses_count": 8913}, "user_mentions": [{"id": 14116807, "name": "ShareThis", "screen_name": "ShareThis"}]}
{"created_at": "Thu Jul 30 13:33:27 +0000 2015", "favorited": false, "id": 626747434245341184, "lang": "en", "retweeted": false, "source": "<a href=\"http://twitter.com\" rel=\"nofollow\">Twitter Web Client</a>", "text": "Carly Fiorina refuses the rape and incest bait https://t.co/6o6cfAtGS7 via @sharethis", "truncated": false, "urls": {"https://t.co/6o6cfAtGS7": "https://shar.es/1sTvju"}, "user": {"created_at": "Fri May 04 13:03:36 +0000 2012", "default_profile": true, "description": "female, mother, senior citizen, widow, remarried, retired, value truth, want what is right for youth, and if it matters I'm what is known as a white American", "favourites_count": 6281, "followers_count": 5350, "friends_count": 5360, "id": 570816898, "lang": "en", "listed_count": 181, "location": "MN", "name": "Diane Lange", "profile_background_color": "C0DEED", "profile_background_image_url": "http://abs.twimg.com/images/themes/theme1/bg.png", "profile_background_tile": false, "profile_banner_url": "https://pbs.twimg.com/profile_banners/570816898/1355351090", "profile_image_url": "https://pbs.twimg.com/profile_images/2886678780/b8535cce4d90dc5b927ba96c7d5e7c79_normal.jpeg", "profile_link_color": "0084B4", "profile_sidebar_fill_color": "DDEEF6", "profile_text_color": "333333", "protected": false, "screen_name": "DclareDiane", "statuses_count": 245436, "time_zone": "Central Time (US & Canada)", "utc_offset": -21600}, "user_mentions": [{"id": 14116807, "name": "ShareThis", "screen_name": "ShareThis"}]}
{"created_at": "Tue Aug 11 15:20:47 +0000 2015", "favorite_count": 3, "favorited": false, "hashtags": ["Carly2016", "tcot", "Abortion", "RedNationRising"], "id": 631123099086249985, "lang": "en", "retweet_count": 6, "retweeted": false, "source": "<a href=\"http://mobile.twitter.com\" rel=\"nofollow\">Mobile Web</a>", "text": "On the Rape/Incest Exception: An Open Letter to Carly Fiorina, Part 2 http://t.co/YWNzoyarRM #Carly2016 #tcot #Abortion #RedNationRising", "truncated": false, "urls": {"http://t.co/YWNzoyarRM": "http://po.st/xZA8ns"}, "user": {"created_at": "Sat Sep 15 06:57:14 +0000 2012", "default_profile": true, "description": "Actor; Writer for https://t.co/WU5I6f9hJH #ycot #tcot", "favourites_count": 1329, "followers_count": 1340, "friends_count": 2013, "id": 824720095, "lang": "en", "listed_count": 31, "name": "Frank Camp", "profile_background_color": "C0DEED", "profile_background_image_url": "http://abs.twimg.com/images/themes/theme1/bg.png", "profile_background_tile": false, "profile_banner_url": "https://pbs.twimg.com/profile_banners/824720095/1450278571", "profile_image_url": "https://pbs.twimg.com/profile_images/643950038603964416/YKJ2mREj_normal.jpg", "profile_link_color": "0084B4", "profile_sidebar_fill_color": "DDEEF6", "profile_text_color": "333333", "protected": false, "screen_name": "FrankDCamp", "statuses_count": 5739}}
{"created_at": "Tue Aug 11 15:21:43 +0000 2015", "favorited": false, "hashtags": ["Carly2016", "tcot", "RedNationRising", "ycot"], "id": 631123334504189953, "lang": "en", "retweet_count": 2, "retweeted": false, "source": "<a href=\"http://mobile.twitter.com\" rel=\"nofollow\">Mobile Web</a>", "text": "On the Rape/Incest Exception: An Open Letter to Carly Fiorina, Part 2 http://t.co/td9ez0UZxb #Carly2016 #tcot #RedNationRising #ycot", "truncated": false, "urls": {"http://t.co/td9ez0UZxb": "http://po.st/ZJ0z7E"}, "user": {"created_at": "Fri May 08 20:39:47 +0000 2015", "default_profile": true, "description": "Writer for https://t.co/lraS7oyRuS #ycot", "favourites_count": 265, "followers_count": 285, "friends_count": 256, "id": 3242364663, "lang": "en", "listed_count": 6, "name": "Rob Knowles", "profile_background_color": "C0DEED", "profile_background_image_url": "http://abs.twimg.com/images/themes/theme1/bg.png", "profile_background_tile": false, "profile_banner_url": "https://pbs.twimg.com/profile_banners/3242364663/1444758129", "profile_image_url": "https://pbs.twimg.com/profile_images/671092801157885952/X4PPmcji_normal.jpg", "profile_link_color": "0084B4", "profile_sidebar_fill_color": "DDEEF6", "profile_text_color": "333333", "protected": false, "screen_name": "rob_politics", "statuses_count": 1669}}
{"created_at": "Tue Aug 11 20:33:54 +0000 2015", "favorited": false, "id": 631201899933487104, "lang": "en", "retweeted": false, "source": "<a href=\"http://twitter.com\" rel=\"nofollow\">Twitter Web Client</a>", "text": "On the Rape/Incest Exception: An Open Letter to Carly Fiorina, Part 2 http://t.co/N0O8XXwsGQ via @po_st", "truncated": false, "urls": {"http://t.co/N0O8XXwsGQ": "http://po.st/3MCvBQ"}, "user": {"created_at": "Mon Mar 30 23:15:08 +0000 2009", "description": "Not anti-Government--Just Pro Constitution.", "favourites_count": 38, "followers_count": 1180, "friends_count": 344, "id": 27757215, "lang": "en", "listed_count": 62, "location": "West Virginia, USA", "name": "StarDust Dolittle", "profile_background_color": "D88D94", "profile_background_image_url": "http://pbs.twimg.com/profile_background_images/92112842/rosefairypinkangel_1.jpg", "profile_background_tile": true, "profile_banner_url": "https://pbs.twimg.com/profile_banners/27757215/1366069902", "profile_image_url": "https://pbs.twimg.com/profile_images/378800000341231625/dfcf97f0f5fb3e2627f58b458063de11_normal.jpeg", "profile_link_color": "9E3640", "profile_sidebar_fill_color": "E1A8AC", "profile_text_color": "000000", "protected": false, "screen_name": "DustyFae", "statuses_count": 97554, "time_zone": "Eastern Time (US & Canada)", "url": "http://t.co/xwaWWeWjFR", "utc_offset": -18000}, "user_mentions": [{"id": 386270039, "name": "Po.st", "screen_name": "Po_st"}]}
{"created_at": "Tue Aug 11 20:43:54 +0000 2015", "favorited": false, "id": 631204415509168128, "lang": "en", "retweeted": false, "source": "<a href=\"http://twitter.com\" rel=\"nofollow\">Twitter Web Client</a>", "text": "On the Rape/Incest Exception: An Open Letter to Carly Fiorina, Part 2 http://t.co/l2iGVgf0ro via @po_st", "truncated": false, "urls": {"http://t.co/l2iGVgf0ro": "http://po.st/4AeBK8"}, "user": {"created_at": "Fri Sep 05 00:53:39 +0000 2008", "description": "https://t.co/LFsZfbUGj0\nhttps://t.co/u2AO7gMQIm https://t.co/vxeY7VgjkB https://t.co/D7pE4MVaGx #NOCOMMIES  #shariaistreason #NOAMENSTY #NRA     #Patriot #Jesus", "favourites_count": 6874, "followers_count": 4848, "friends_count": 4823, "id": 16137969, "lang": "en", "listed_count": 99, "location": "southern, CA ", "name": "LizzieinCommunistCA", "profile_background_color": "947C6F", "profile_background_image_url": "http://pbs.twimg.com/profile_background_images/810845675/dab298e5d67a55c6425ad697a3d233fa.jpeg", "profile_background_tile": true, "profile_banner_url": "https://pbs.twimg.com/profile_banners/16137969/1388364757", "profile_image_url": "https://pbs.twimg.com/profile_images/536661875191074816/s5aaihd__normal.jpeg", "profile_link_color": "4A913C", "profile_sidebar_fill_color": "DDEEF6", "profile_text_color": "333333", "protected": false, "screen_name": "lizzieatfm", "statuses_count": 62341, "time_zone": "Pacific Time (US & Canada)", "url": "http://t.co/hxWrX756Q2", "utc_offset": -28800}, "user_mentions": [{"id": 386270039, "name": "Po.st", "screen_name": "Po_st"}]}
{"created_at": "Tue Aug 11 21:07:18 +0000 2015", "favorited": false, "id": 631210305129807872, "lang": "en", "retweeted": false, "source": "<a href=\"http://mobile.twitter.com\" rel=\"nofollow\">Mobile Web</a>", "text": "On the Rape/Incest Exception: An Open Letter to Carly Fiorina, Part 2 http://t.co/czFOgjZ7E9 via @po_st", "truncated": false, "urls": {"http://t.co/czFOgjZ7E9": "http://po.st/4QmIly"}, "user": {"created_at": "Wed Oct 14 04:41:21 +0000 2009", "description": "Labor & Delivery nurse, unrepentant dog rescuer, baseball fan, mad crocheter, aspiring knitter, gardener, Tea Party Hobbit #TGDN #ORPUW", "favourites_count": 10662, "followers_count": 5151, "friends_count": 5695, "id": 82277624, "lang": "en", "listed_count": 123, "location": "Texas", "name": "Tara", "profile_background_color": "C6E2EE", "profile_background_image_url": "http://abs.twimg.com/images/themes/theme2/bg.gif", "profile_background_tile": false, "profile_banner_url": "https://pbs.twimg.com/profile_banners/82277624/1363580664", "profile_image_url": "https://pbs.twimg.com/profile_images/378800000780948954/724b9af38c4f605c548fed33e25eed18_normal.jpeg", "profile_link_color": "1F98C7", "profile_sidebar_fill_color": "DAECF4", "profile_text_color": "663B12", "protected": false, "screen_name": "TruCelt", "statuses_count": 64206, "time_zone": "Central Time (US & Canada)", "utc_offset": -21600}, "user_mentions": [{"id": 386270039, "name": "Po.st", "screen_name": "Po_st"}]}
{"created_at": "Wed Aug 12 01:05:55 +0000 2015", "favorited": false, "id": 631270355814879232, "lang": "en", "retweeted": false, "source": "<a href=\"http://twitter.com\" rel=\"nofollow\">Twitter Web Client</a>", "text": "On the Rape/Incest Exception: An Open Letter to Carly Fiorina, Part 2 http://t.co/NXckTMMph4 via @po_st", "truncated": false, "urls": {"http://t.co/NXckTMMph4": "http://po.st/ZVh3Ck"}, "user": {"created_at": "Sun Aug 25 20:39:42 +0000 2013", "description": "Political Critic/Cr\u00edtica pol\u00edtica Freelance writer/Escritor independiente Scholar/Erudito Researcher/Investigador You Follow&I will Follow as well. \u0295\u00b4\u25d5\u203f-`\u0294", "favourites_count": 2450, "followers_count": 2461, "friends_count": 2462, "geo_enabled": true, "id": 1700087322, "lang": "en", "listed_count": 54, "location": "Unknown/Classified", "name": "Wraith Writer", "profile_background_color": "131516", "profile_background_image_url": "http://pbs.twimg.com/profile_background_images/523999075562057728/O0dK94uS.jpeg", "profile_background_tile": true, "profile_banner_url": "https://pbs.twimg.com/profile_banners/1700087322/1413766153", "profile_image_url": "https://pbs.twimg.com/profile_images/504315059581890560/y1cOVqSF_normal.jpeg", "profile_link_color": "3B94D9", "profile_sidebar_fill_color": "DDEEF6", "profile_text_color": "0084B4", "protected": false, "screen_name": "Wraith_Writer", "statuses_count": 98154, "time_zone": "Mountain Time (US & Canada)", "utc_offset": -25200}, "user_mentions": [{"id": 386270039, "name": "Po.st", "screen_name": "Po_st"}]}
{"created_at": "Wed Aug 12 01:07:34 +0000 2015", "favorited": false, "id": 631270768765087744, "lang": "en", "retweeted": false, "source": "<a href=\"http://twitter.com\" rel=\"nofollow\">Twitter Web Client</a>", "text": "On the Rape/Incest Exception: An Open Letter to Carly Fiorina, Part 2 http://t.co/hdx90dQkmk via @po_st", "truncated": false, "urls": {"http://t.co/hdx90dQkmk": "http://po.st/cHRUWU"}, "user": {"created_at": "Sun Aug 25 20:39:42 +0000 2013", "description": "Political Critic/Cr\u00edtica pol\u00edtica Freelance writer/Escritor independiente Scholar/Erudito Researcher/Investigador You Follow&I will Follow as well. \u0295\u00b4\u25d5\u203f-`\u0294", "favourites_count": 2450, "followers_count": 2461, "friends_count": 2462, "geo_enabled": true, "id": 1700087322, "lang": "en", "listed_count": 54, "location": "Unknown/Classified", "name": "Wraith Writer", "profile_background_color": "131516", "profile_background_image_url": "http://pbs.twimg.com/profile_background_images/523999075562057728/O0dK94uS.jpeg", "profile_background_tile": true, "profile_banner_url": "https://pbs.twimg.com/profile_banners/1700087322/1413766153", "profile_image_url": "https://pbs.twimg.com/profile_images/504315059581890560/y1cOVqSF_normal.jpeg", "profile_link_color": "3B94D9", "profile_sidebar_fill_color": "DDEEF6", "profile_text_color": "0084B4", "protected": false, "screen_name": "Wraith_Writer", "statuses_count": 98154, "time_zone": "Mountain Time (US & Canada)", "utc_offset": -25200}, "user_mentions": [{"id": 386270039, "name": "Po.st", "screen_name": "Po_st"}]}
{"created_at": "Wed Aug 12 01:40:16 +0000 2015", "favorited": false, "id": 631278999705010176, "lang": "en", "retweeted": false, "source": "<a href=\"http://twitter.com/download/android\" rel=\"nofollow\">Twitter for Android</a>", "text": "On the Rape/Incest Exception: An Open Letter to Carly Fiorina, Part 2 http://t.co/goLsiotSFs via @po_st", "truncated": false, "urls": {"http://t.co/goLsiotSFs": "http://po.st/1Exndn"}, "user": {"created_at": "Mon Aug 20 18:11:36 +0000 2012", "description": "BIBLICAL FUNDAMENTALIST #FreedomWorks #ProLife #TeaParty #FFRNNU \n#RespectPolice #STOPObama #SupportIsrael \n#ConventionOfStates", "favourites_count": 9358, "followers_count": 11043, "friends_count": 11335, "geo_enabled": true, "id": 769971685, "lang": "en", "listed_count": 168, "location": "Where He leads me I follow \u261d", "name": "Pamela Jane", "profile_background_color": "26234A", "profile_background_image_url": "http://pbs.twimg.com/profile_background_images/782983098/7d403ae7926f7917e24fbca885dd5c23.png", "profile_background_tile": true, "profile_banner_url": "https://pbs.twimg.com/profile_banners/769971685/1446738915", "profile_image_url": "https://pbs.twimg.com/profile_images/556675111638409216/lxhRtIC5_normal.jpeg", "profile_link_color": "C7022A", "profile_sidebar_fill_color": "78C0A8", "profile_text_color": "5E412F", "protected": false, "screen_name": "PamelaJaneVP", "statuses_count": 242247, "url": "https://t.co/yD8NIllLKu"}, "user_mentions": [{"id": 386270039, "name": "Po.st", "screen_name": "Po_st"}]}
{"created_at": "Wed Aug 12 06:42:05 +0000 2015", "favorited": false, "id": 631354952632307712, "lang": "en", "retweeted": false, "source": "<a href=\"http://twitter.com\" rel=\"nofollow\">Twitter Web Client</a>", "text": "On the Rape/Incest Exception: An Open Letter to Carly Fiorina, Part 2 http://t.co/6xPU3kRMYQ via @po_st", "truncated": false, "urls": {"http://t.co/6xPU3kRMYQ": "http://po.st/Tw5oAP"}, "user": {"created_at": "Sat Aug 25 15:39:27 +0000 2012", "default_profile": true, "description": "Conservative, Evangelical Christian. Retired Air Force Reserve and veteran. Currently studying Information Tech as a VA student. Single, has a cat.", "favourites_count": 53, "followers_count": 1329, "friends_count": 2118, "geo_enabled": true, "id": 780542096, "lang": "en", "listed_count": 28, "location": "Colorado Springs, CO", "name": "Michael A. Bush", "profile_background_color": "C0DEED", "profile_background_image_url": "http://abs.twimg.com/images/themes/theme1/bg.png", "profile_background_tile": false, "profile_banner_url": "https://pbs.twimg.com/profile_banners/780542096/1440445725", "profile_image_url": "https://pbs.twimg.com/profile_images/635901297888116736/CGC-nhUY_normal.jpg", "profile_link_color": "0084B4", "profile_sidebar_fill_color": "DDEEF6", "profile_text_color": "333333", "protected": false, "screen_name": "MichaelABush1", "statuses_count": 7370}, "user_mentions": [{"id": 386270039, "name": "Po.st", "screen_name": "Po_st"}]}
{"created_at": "Thu Aug 13 00:28:32 +0000 2015", "favorited": false, "id": 631623335110021122, "lang": "en", "retweeted": false, "source": "<a href=\"http://twitter.com\" rel=\"nofollow\">Twitter Web Client</a>", "text": "On the Rape/Incest Exception: An Open Letter to Carly Fiorina, Part 2 http://t.co/bIBdgpHKCi via @po_st", "truncated": false, "urls": {"http://t.co/bIBdgpHKCi": "http://po.st/aZlOBO"}, "user": {"created_at": "Sun Aug 25 20:39:42 +0000 2013", "description": "Political Critic/Cr\u00edtica pol\u00edtica Freelance writer/Escritor independiente Scholar/Erudito Researcher/Investigador You Follow&I will Follow as well. \u0295\u00b4\u25d5\u203f-`\u0294", "favourites_count": 2450, "followers_count": 2461, "friends_count": 2462, "geo_enabled": true, "id": 1700087322, "lang": "en", "listed_count": 54, "location": "Unknown/Classified", "name": "Wraith Writer", "profile_background_color": "131516", "profile_background_image_url": "http://pbs.twimg.com/profile_background_images/523999075562057728/O0dK94uS.jpeg", "profile_background_tile": true, "profile_banner_url": "https://pbs.twimg.com/profile_banners/1700087322/1413766153", "profile_image_url": "https://pbs.twimg.com/profile_images/504315059581890560/y1cOVqSF_normal.jpeg", "profile_link_color": "3B94D9", "profile_sidebar_fill_color": "DDEEF6", "profile_text_color": "0084B4", "protected": false, "screen_name": "Wraith_Writer", "statuses_count": 98154, "time_zone": "Mountain Time (US & Canada)", "utc_offset": -25200}, "user_mentions": [{"id": 386270039, "name": "Po.st", "screen_name": "Po_st"}]}
{"created_at": "Sat Aug 15 14:59:32 +0000 2015", "favorited": false, "id": 632567304363053057, "lang": "en", "retweeted": false, "source": "<a href=\"http://twitter.com/download/android\" rel=\"nofollow\">Twitter for Android</a>", "text": "On the Rape/Incest Exception: An Open Letter to Carly Fiorina, Part 2 http://t.co/dEqSDcEaew via @po_st", "truncated": false, "urls": {"http://t.co/dEqSDcEaew": "http://po.st/4s1qRA"}, "user": {"created_at": "Mon Aug 20 18:11:36 +0000 2012", "description": "BIBLICAL FUNDAMENTALIST #FreedomWorks #ProLife #TeaParty #FFRNNU \n#RespectPolice #STOPObama #SupportIsrael \n#ConventionOfStates", "favourites_count": 9358, "followers_count": 11043, "friends_count": 11335, "geo_enabled": true, "id": 769971685, "lang": "en", "listed_count": 168, "location": "Where He leads me I follow \u261d", "name": "Pamela Jane", "profile_background_color": "26234A", "profile_background_image_url": "http://pbs.twimg.com/profile_background_images/782983098/7d403ae7926f7917e24fbca885dd5c23.png", "profile_background_tile": true, "profile_banner_url": "https://pbs.twimg.com/profile_banners/769971685/1446738915", "profile_image_url": "https://pbs.twimg.com/profile_images/556675111638409216/lxhRtIC5_normal.jpeg", "profile_link_color": "C7022A", "profile_sidebar_fill_color": "78C0A8", "profile_text_color": "5E412F", "protected": false, "screen_name": "PamelaJaneVP", "statuses_count": 242247, "url": "https://t.co/yD8NIllLKu"}, "user_mentions": [{"id": 386270039, "name": "Po.st", "screen_name": "Po_st"}]}
{"created_at": "Fri Aug 21 18:37:20 +0000 2015", "favorited": false, "id": 634796442406793217, "in_reply_to_screen_name": "CarlyFiorina", "in_reply_to_user_id": 65691824, "lang": "en", "retweeted": false, "source": "<a href=\"http://twitter.com\" rel=\"nofollow\">Twitter Web Client</a>", "text": "@CarlyFiorina\n  @realDonaldTrump\nWhy aren't YOU speaking out on behalf of SFC Martland?\n  http://t.co/fH00RcUrBs", "truncated": false, "urls": {"http://t.co/fH00RcUrBs": "http://www.foxnews.com/politics/2015/08/21/army-kicking-out-decorated-green-beret-who-stood-up-for-afghan-rape-victim/?intcmp=hpbt1"}, "user": {"created_at": "Wed Oct 08 21:07:21 +0000 2014", "description": "Political centrist following events in US, Middle East & World, Don't follow media experts with agendas spreading lies and misinformation. Supports the Kurds.", "favourites_count": 208, "followers_count": 380, "friends_count": 532, "id": 2847881972, "lang": "en", "listed_count": 9, "location": "Atlanta, Georgia USA", "name": "Charles Clark", "profile_background_color": "000000", "profile_background_image_url": "http://abs.twimg.com/images/themes/theme1/bg.png", "profile_background_tile": false, "profile_banner_url": "https://pbs.twimg.com/profile_banners/2847881972/1412817113", "profile_image_url": "https://pbs.twimg.com/profile_images/520326955032264704/XGKjW9B1_normal.jpeg", "profile_link_color": "3B94D9", "profile_sidebar_fill_color": "000000", "profile_text_color": "000000", "protected": false, "screen_name": "cbclark777", "statuses_count": 12525}, "user_mentions": [{"id": 65691824, "name": "Carly Fiorina", "screen_name": "CarlyFiorina"}, {"id": 25073877, "name": "Donald J. Trump", "screen_name": "realDonaldTrump"}]}
{"created_at": "Mon Sep 07 23:54:07 +0000 2015", "favorited": false, "id": 641036756633059333, "in_reply_to_screen_name": "CarlyFiorina", "in_reply_to_status_id": 640882628367814656, "in_reply_to_user_id": 65691824, "lang": "en", "retweeted": false, "source": "<a href=\"http://twitter.com\" rel=\"nofollow\">Twitter Web Client</a>", "text": "@CarlyFiorina \nyour stance on forced motherhood as a result of rape/incest?  is there help w/ adoption processes that doesn't reward father?", "truncated": false, "user": {"created_at": "Sat Sep 05 21:58:05 +0000 2015", "default_profile": true, "description": "Retired Army, Disabled Vet;  D.Mgt, MBA w/c Health Admin;  Displaced Arizonan stuck in El Paso. Fiscally Conservative Independent. Individualist.", "favourites_count": 909, "followers_count": 104, "friends_count": 67, "id": 3463718305, "lang": "en", "listed_count": 3, "location": "Texas, USA", "name": "KFerguson", "profile_background_color": "C0DEED", "profile_background_image_url": "http://abs.twimg.com/images/themes/theme1/bg.png", "profile_background_tile": false, "profile_banner_url": "https://pbs.twimg.com/profile_banners/3463718305/1450582058", "profile_image_url": "https://pbs.twimg.com/profile_images/679124239127982080/2iBamnAo_normal.jpg", "profile_link_color": "0084B4", "profile_sidebar_fill_color": "DDEEF6", "profile_text_color": "333333", "protected": false, "screen_name": "FergThink", "statuses_count": 2745, "time_zone": "Mountain Time (US & Canada)", "utc_offset": -25200}, "user_mentions": [{"id": 65691824, "name": "Carly Fiorina", "screen_name": "CarlyFiorina"}]}
{"created_at": "Thu Sep 10 22:06:02 +0000 2015", "favorite_count": 1, "favorited": false, "id": 642096720944496640, "in_reply_to_screen_name": "paulmeyer745", "in_reply_to_status_id": 642079034600476672, "in_reply_to_user_id": 526632149, "lang": "en", "retweeted": false, "source": "<a href=\"http://twitter.com/download/android\" rel=\"nofollow\">Twitter for Android</a>", "text": "@paulmeyer745 @Gdestefano95 @CarlyFiorina @HP @howardhoch \nI am too.The media is using R.S. as gold.The same that reported a fraud rape case", "truncated": false, "user": {"created_at": "Tue Oct 21 14:53:04 +0000 2014", "default_profile": true, "description": "Out spoken conservative. Great grandfather, retired nurse and supports 2nd Amendment.", "favourites_count": 8160, "followers_count": 1961, "friends_count": 2123, "geo_enabled": true, "id": 2840136808, "lang": "en", "listed_count": 27, "location": "Savannah,  Ga.", "name": "Lanny Cook", "profile_background_color": "C0DEED", "profile_background_image_url": "http://abs.twimg.com/images/themes/theme1/bg.png", "profile_background_tile": false, "profile_banner_url": "https://pbs.twimg.com/profile_banners/2840136808/1433076814", "profile_image_url": "https://pbs.twimg.com/profile_images/680800413004771329/B0Yv8I3V_normal.jpg", "profile_link_color": "0084B4", "profile_sidebar_fill_color": "DDEEF6", "profile_text_color": "333333", "protected": false, "screen_name": "ilerpine", "statuses_count": 15173}, "user_mentions": [{"id": 526632149, "name": "paul meyer", "screen_name": "paulmeyer745"}, {"id": 45265619, "name": "Gil DeStefano", "screen_name": "Gdestefano95"}, {"id": 65691824, "name": "Carly Fiorina", "screen_name": "CarlyFiorina"}, {"id": 17193794, "name": "HP", "screen_name": "HP"}, {"id": 63230162, "name": "Howard Hochman", "screen_name": "howardhoch"}]}
{"created_at": "Fri Sep 11 15:08:17 +0000 2015", "favorited": false, "hashtags": ["WakeUpAmerica", "NeverForget911", "September11", "RandPaul2016", "TedCruz2016", "CarlyFiorina", "Egypt"], "id": 642353978223796224, "lang": "en", "media": [{"display_url": "pic.twitter.com/w5UAhgkXyQ", "expanded_url": "http://twitter.com/sherymuslima/status/642353978223796224/photo/1", "id": 642353975635931136, "id_str": "642353975635931136", "indices": [115, 137], "media_url": "http://pbs.twimg.com/media/COoZiZnW8AAgm6B.jpg", "media_url_https": "https://pbs.twimg.com/media/COoZiZnW8AAgm6B.jpg", "sizes": {"large": {"h": 341, "resize": "fit", "w": 599}, "medium": {"h": 341, "resize": "fit", "w": 599}, "small": {"h": 193, "resize": "fit", "w": 340}, "thumb": {"h": 150, "resize": "crop", "w": 150}}, "type": "photo", "url": "http://t.co/w5UAhgkXyQ"}], "retweeted": false, "source": "<a href=\"http://twitter.com\" rel=\"nofollow\">Twitter Web Client</a>", "text": "#WakeUpAmerica #NeverForget911 #September11 \n#RandPaul2016 \n#TedCruz2016 \n#CarlyFiorina \n#Egypt \nRape is terrorism http://t.co/w5UAhgkXyQ", "truncated": false, "user": {"created_at": "Thu Jul 23 12:28:45 +0000 2009", "description": "@shereennasser1\n\u0641\u0627\u064a\u0632\u0629 \u0627\u0628\u0648 \u0627\u0644\u0646\u062c\u0627 \u0645\u0646 \u062d\u0645\u064a \u0645\u063a\u062a\u0635\u0628\u064a\u0646 \u0645\u0633\u062a\u0634\u0641\u064a \u0643\u0644\u064a\u0648\u0628\u0627\u062a\u0631\u0627 http://t.co/Llz4iWOlsH", "favourites_count": 11306, "followers_count": 1538, "friends_count": 773, "geo_enabled": true, "id": 59445101, "lang": "en", "listed_count": 57, "name": "Shereen nasser", "profile_background_color": "4A913C", "profile_background_image_url": "http://abs.twimg.com/images/themes/theme9/bg.gif", "profile_background_tile": false, "profile_banner_url": "https://pbs.twimg.com/profile_banners/59445101/1443909155", "profile_image_url": "https://pbs.twimg.com/profile_images/627548207137034240/1NVgf_PG_normal.jpg", "profile_link_color": "4A913C", "profile_sidebar_fill_color": "000000", "profile_text_color": "000000", "protected": false, "screen_name": "sherymuslima", "statuses_count": 139321, "time_zone": "Pacific Time (US & Canada)", "url": "http://t.co/ViZ3pDUYby", "utc_offset": -28800}}
{"created_at": "Sat Sep 12 22:40:34 +0000 2015", "favorite_count": 2, "favorited": false, "hashtags": ["MoreThingsTrumpWillSay"], "id": 642830188229853184, "lang": "en", "retweet_count": 2, "retweeted": false, "source": "<a href=\"http://twitter.com/#!/download/ipad\" rel=\"nofollow\">Twitter for iPad</a>", "text": "#MoreThingsTrumpWillSay\n\n\"No Mexican would ever rape Carly Fiorina!\"", "truncated": false, "user": {"created_at": "Wed Sep 17 16:01:58 +0000 2014", "description": "Psychologist. Author. Lecturer. Evolutionist. Biophysicist. Atheist. Liberal. Chess. Coffee. Music. Animals. NYC. Really nice guy. #UniteBlue", "favourites_count": 873, "followers_count": 1081, "friends_count": 1270, "id": 2815142532, "lang": "en", "listed_count": 25, "location": "drnolansaltzman@gmail.com", "name": "Dr. Nolan Saltzman", "profile_background_color": "000000", "profile_background_image_url": "http://abs.twimg.com/images/themes/theme1/bg.png", "profile_background_tile": false, "profile_banner_url": "https://pbs.twimg.com/profile_banners/2815142532/1410970295", "profile_image_url": "https://pbs.twimg.com/profile_images/515493122789228545/mBaJRvdl_normal.png", "profile_link_color": "3B94D9", "profile_sidebar_fill_color": "000000", "profile_text_color": "000000", "protected": false, "screen_name": "Dr_N_Saltzman", "statuses_count": 2229, "url": "https://t.co/nqpAgw5DRB"}}
{"created_at": "Sat Sep 19 12:08:47 +0000 2015", "favorited": false, "id": 645207909333385216, "in_reply_to_screen_name": "CarlyFiorina", "in_reply_to_user_id": 65691824, "lang": "en", "retweeted": false, "source": "<a href=\"http://twitter.com/download/iphone\" rel=\"nofollow\">Twitter for iPhone</a>", "text": "@CarlyFiorina\n\nGermany's Muslim Rapists\n\nAccording to the newspaper, police refuse to report refugee crimes.\n\nhttp://t.co/VZo8XuzTY8", "truncated": false, "urls": {"http://t.co/VZo8XuzTY8": "http://www.gatestoneinstitute.org/6527/migrants-rape-germany"}, "user": {"created_at": "Tue Sep 10 03:35:51 +0000 2013", "default_profile": true, "favourites_count": 4890, "followers_count": 279, "friends_count": 230, "id": 1850265967, "lang": "en", "listed_count": 35, "name": "Meredith Springer", "profile_background_color": "C0DEED", "profile_background_image_url": "http://abs.twimg.com/images/themes/theme1/bg.png", "profile_background_tile": false, "profile_image_url": "https://pbs.twimg.com/profile_images/378800000701269413/73683b935a3a5405af5f662bb0fd8056_normal.jpeg", "profile_link_color": "0084B4", "profile_sidebar_fill_color": "DDEEF6", "profile_text_color": "333333", "protected": false, "screen_name": "Chirpinagin", "statuses_count": 14436, "time_zone": "Eastern Time (US & Canada)", "utc_offset": -18000}, "user_mentions": [{"id": 65691824, "name": "Carly Fiorina", "screen_name": "CarlyFiorina"}]}
{"created_at": "Sun Sep 20 14:20:10 +0000 2015", "favorited": false, "id": 645603361518157825, "in_reply_to_screen_name": "CarlyFiorina", "in_reply_to_user_id": 65691824, "lang": "en", "retweeted": false, "source": "<a href=\"http://twitter.com/download/iphone\" rel=\"nofollow\">Twitter for iPhone</a>", "text": "@CarlyFiorina\n\nISLAMIC INVASION OF SWEDEN HAS LED TO RAPE CRISIS\n\nhttp://t.co/f0LCUUUKLo", "truncated": false, "urls": {"http://t.co/f0LCUUUKLo": "http://m.liveleak.com/view?i=de1_1394099792"}, "user": {"created_at": "Tue Sep 10 03:35:51 +0000 2013", "default_profile": true, "favourites_count": 4890, "followers_count": 279, "friends_count": 230, "id": 1850265967, "lang": "en", "listed_count": 35, "name": "Meredith Springer", "profile_background_color": "C0DEED", "profile_background_image_url": "http://abs.twimg.com/images/themes/theme1/bg.png", "profile_background_tile": false, "profile_image_url": "https://pbs.twimg.com/profile_images/378800000701269413/73683b935a3a5405af5f662bb0fd8056_normal.jpeg", "profile_link_color": "0084B4", "profile_sidebar_fill_color": "DDEEF6", "profile_text_color": "333333", "protected": false, "screen_name": "Chirpinagin", "statuses_count": 14436, "time_zone": "Eastern Time (US & Canada)", "utc_offset": -18000}, "user_mentions": [{"id": 65691824, "name": "Carly Fiorina", "screen_name": "CarlyFiorina"}]}
{"created_at": "Sat Sep 26 22:42:30 +0000 2015", "favorite_count": 2, "favorited": false, "id": 647904105839464448, "in_reply_to_screen_name": "NBCNews", "in_reply_to_status_id": 647900791051829248, "in_reply_to_user_id": 14173315, "lang": "en", "retweeted": false, "source": "<a href=\"http://twitter.com/download/android\" rel=\"nofollow\">Twitter for Android</a>", "text": "@NBCNews @CarlyFiorina \nFemales can't become pregnant by rape\nFemales don't need health care\nBesides, we'll cut child care anyway\nNo worries", "truncated": false, "user": {"created_at": "Sun Mar 25 17:46:14 +0000 2012", "description": "Better than muppet fodder not near as good as [space is so limited].  Love of Cooking.  And I can keep outdoor plants alive and growing.", "favourites_count": 4401, "followers_count": 143, "friends_count": 209, "id": 536502523, "lang": "en", "listed_count": 7, "name": "Lynn Halstead", "profile_background_color": "FCEBB6", "profile_background_image_url": "http://pbs.twimg.com/profile_background_images/735248973/8499e262e043a9f7f4abff47d8b1e41d.png", "profile_background_tile": true, "profile_image_url": "https://pbs.twimg.com/profile_images/430175440267796480/K5TQWjtW_normal.jpeg", "profile_link_color": "35A4CC", "profile_sidebar_fill_color": "78C0A8", "profile_text_color": "5E412F", "protected": false, "screen_name": "lhhalstead", "statuses_count": 13250, "time_zone": "Pacific Time (US & Canada)", "utc_offset": -28800}, "user_mentions": [{"id": 14173315, "name": "NBC News", "screen_name": "NBCNews"}, {"id": 65691824, "name": "Carly Fiorina", "screen_name": "CarlyFiorina"}]}
{"created_at": "Thu Oct 08 12:04:20 +0000 2015", "favorited": false, "id": 652092157474553856, "in_reply_to_screen_name": "pharris830", "in_reply_to_status_id": 650993468739706880, "in_reply_to_user_id": 1965905755, "lang": "en", "retweeted": false, "source": "<a href=\"http://twitter.com\" rel=\"nofollow\">Twitter Web Client</a>", "text": "Fake quote. http://t.co/2xrvHCNyV6 @pharris830 @Eykis", "truncated": false, "urls": {"http://t.co/2xrvHCNyV6": "http://m.snopes.com/carly-fiorina-rape-comment/"}, "user": {"created_at": "Fri Feb 11 17:06:01 +0000 2011", "default_profile": true, "description": "Grumpy lefty political blogger.", "favourites_count": 575, "followers_count": 1031, "friends_count": 1687, "id": 250712477, "lang": "en", "listed_count": 65, "location": "New York, NY", "name": "Steve M.", "profile_background_color": "C0DEED", "profile_background_image_url": "http://abs.twimg.com/images/themes/theme1/bg.png", "profile_background_tile": false, "profile_banner_url": "https://pbs.twimg.com/profile_banners/250712477/1399427903", "profile_image_url": "https://pbs.twimg.com/profile_images/1741249940/polls_angry_0056_977414_poll_xlarge_normal.png", "profile_link_color": "0084B4", "profile_sidebar_fill_color": "DDEEF6", "profile_text_color": "333333", "protected": false, "screen_name": "nomoremister", "statuses_count": 19987, "time_zone": "Eastern Time (US & Canada)", "url": "http://t.co/PAd28B9opj", "utc_offset": -18000}, "user_mentions": [{"id": 1965905755, "name": "philip harris", "screen_name": "pharris830"}, {"id": 19038210, "name": "Eykis", "screen_name": "Eykis"}]}
