{"created_at": "Wed Sep 16 19:02:39 +0000 2015", "favorited": false, "hashtags": ["tcot", "tlot", "tgdn"], "id": 644224898353655808, "lang": "en", "retweet_count": 1, "retweeted": false, "source": "<a href=\"http://twitterfeed.com\" rel=\"nofollow\">twitterfeed</a>", "text": "Obama breaks out Satanist Aleister Crowley t-shirt http://t.co/HXeikZQqWY #tcot #tlot #tgdn", "truncated": false, "urls": {"http://t.co/HXeikZQqWY": "http://bit.ly/1OZpyFe"}, "user": {"created_at": "Fri Mar 04 03:32:43 +0000 2011", "default_profile": true, "description": "Blog devoted to exposing the corruption of progressive politicians, biased progressive media, and their hypocrisy. Leftists need not follow.", "favourites_count": 1, "followers_count": 11353, "friends_count": 10554, "geo_enabled": true, "id": 260562061, "lang": "en", "listed_count": 151, "location": "California (unfortunately)", "name": "FAM Blog", "profile_background_color": "C0DEED", "profile_background_image_url": "http://abs.twimg.com/images/themes/theme1/bg.png", "profile_background_tile": false, "profile_banner_url": "https://pbs.twimg.com/profile_banners/260562061/1357889319", "profile_image_url": "https://pbs.twimg.com/profile_images/1492760027/debbie-wasserman_schultz1_normal.jpg", "profile_link_color": "0084B4", "profile_sidebar_fill_color": "DDEEF6", "profile_text_color": "333333", "protected": false, "screen_name": "famblog", "statuses_count": 16117, "time_zone": "Pacific Time (US & Canada)", "url": "http://t.co/mA63eehzk0", "utc_offset": -28800}}
{"created_at": "Wed Sep 16 19:02:39 +0000 2015", "favorited": false, "hashtags": ["tcot", "tlot", "tgdn"], "id": 644224900052312064, "lang": "en", "retweeted": false, "source": "<a href=\"http://twitterfeed.com\" rel=\"nofollow\">twitterfeed</a>", "text": "Obama breaks out Satanist Aleister Crowley t-shirt http://t.co/auVk5hzpf3 #tcot #tlot #tgdn", "truncated": false, "urls": {"http://t.co/auVk5hzpf3": "http://bit.ly/1OZpyFe"}, "user": {"created_at": "Wed Sep 30 06:02:32 +0000 2009", "description": "Documenting the failures and BS of the Democrats Liberals and Progressives. Or whatever the socialist pigs call themselves", "followers_count": 2846, "friends_count": 518, "id": 78527996, "lang": "en", "listed_count": 225, "name": "DNC Fail!", "profile_background_color": "C0DEED", "profile_background_image_url": "http://pbs.twimg.com/profile_background_images/138985965/vagbg.jpg", "profile_background_tile": false, "profile_banner_url": "https://pbs.twimg.com/profile_banners/78527996/1356471033", "profile_image_url": "https://pbs.twimg.com/profile_images/638662615/ObamaFacepalm_normal.jpg", "profile_link_color": "0084B4", "profile_sidebar_fill_color": "DDEEF6", "profile_text_color": "333333", "protected": false, "screen_name": "dncfail", "statuses_count": 105998, "time_zone": "Pacific Time (US & Canada)", "utc_offset": -28800}}
{"created_at": "Wed Sep 16 19:03:37 +0000 2015", "favorite_count": 3, "favorited": false, "hashtags": ["tcot", "tlot", "tgdn"], "id": 644225141954641921, "lang": "en", "media": [{"display_url": "pic.twitter.com/slTXmdFKxW", "expanded_url": "https://twitter.com/ricknick59/status/607826425945546752/photo/1", "id": 607826421860298753, "id_str": "607826421860298753", "indices": [92, 115], "media_url": "http://pbs.twimg.com/media/CG9u6QgUcAEOIKF.jpg", "media_url_https": "https://pbs.twimg.com/media/CG9u6QgUcAEOIKF.jpg", "sizes": {"large": {"h": 773, "resize": "fit", "w": 632}, "medium": {"h": 733, "resize": "fit", "w": 600}, "small": {"h": 415, "resize": "fit", "w": 340}, "thumb": {"h": 150, "resize": "crop", "w": 150}}, "source_status_id": 607826425945546752, "source_status_id_str": "607826425945546752", "source_user_id": 111356099, "source_user_id_str": "111356099", "type": "photo", "url": "https://t.co/slTXmdFKxW"}], "retweet_count": 9, "retweeted": false, "source": "<a href=\"https://about.twitter.com/products/tweetdeck\" rel=\"nofollow\">TweetDeck</a>", "text": "Obama breaks out Satanist Aleister Crowley t-shirt http://t.co/sBMm312rz4 #tcot #tlot #tgdn https://t.co/slTXmdFKxW", "truncated": false, "urls": {"http://t.co/sBMm312rz4": "http://bit.ly/1OZpyFe"}, "user": {"created_at": "Mon Feb 23 23:33:25 +0000 2009", "description": "Conservative w/libertarian leanings. Animal lover, L.A. Sports homer. Progressives are parasites regardless of race/gender. #tcot #tgdn \u039c\u039f\u039b\u03a9\u039d \u039b\u0391\u0392\u0395! NO DMs!", "favourites_count": 189, "followers_count": 99487, "friends_count": 91116, "geo_enabled": true, "id": 21707592, "lang": "en", "listed_count": 2490, "location": "Los Angeles - USSA", "name": "\u250c\u041f\u2510(\u2022_\u2022)", "profile_background_color": "9AE4E8", "profile_background_image_url": "http://pbs.twimg.com/profile_background_images/715631892/8cee59be3899d6110edf1d7d92517c98.jpeg", "profile_background_tile": true, "profile_banner_url": "https://pbs.twimg.com/profile_banners/21707592/1379137739", "profile_image_url": "https://pbs.twimg.com/profile_images/671901037637165056/nW2oYTu4_normal.jpg", "profile_link_color": "0084B4", "profile_sidebar_fill_color": "DDFFCC", "profile_text_color": "333333", "protected": false, "screen_name": "exposeliberals", "statuses_count": 150097, "time_zone": "Pacific Time (US & Canada)", "url": "http://t.co/YE9KnBu7mX", "utc_offset": -28800}}
{"created_at": "Wed Sep 16 20:12:43 +0000 2015", "favorited": false, "id": 644242531002241025, "lang": "en", "retweeted": false, "source": "<a href=\"http://linkis.com\" rel=\"nofollow\">Linkis.com</a>", "text": "Obama breaks out Satanist Aleister Crowley t-shirt http://t.co/xnTUWIZnit via @famblog", "truncated": false, "urls": {"http://t.co/xnTUWIZnit": "http://ln.is/com/s2WBO"}, "user": {"created_at": "Fri Aug 31 21:02:04 +0000 2012", "description": "Life Long Conservative - \r\nAll that is necessary for the triumph of evil is that good men do nothing - Edmund Burke", "favourites_count": 161, "followers_count": 4755, "friends_count": 5096, "geo_enabled": true, "id": 794671951, "lang": "en", "listed_count": 118, "location": "Texan in Orlando", "name": "Mike Welborn", "profile_background_color": "C0DEED", "profile_background_image_url": "http://pbs.twimg.com/profile_background_images/681582945/4d859f3215c0573feda37f8a02441004.jpeg", "profile_background_tile": false, "profile_banner_url": "https://pbs.twimg.com/profile_banners/794671951/1350011131", "profile_image_url": "https://pbs.twimg.com/profile_images/2563552324/kyvh4wwfr4xy8ajn8uyd_normal.jpeg", "profile_link_color": "0084B4", "profile_sidebar_fill_color": "DDEEF6", "profile_text_color": "333333", "protected": false, "screen_name": "MikeWelborn", "statuses_count": 77925, "time_zone": "Atlantic Time (Canada)", "url": "http://t.co/R3CVRmquT0", "utc_offset": -14400}, "user_mentions": [{"id": 260562061, "name": "FAM Blog", "screen_name": "famblog"}]}
{"created_at": "Wed Sep 16 20:30:59 +0000 2015", "favorited": false, "hashtags": ["tcot", "tlot", "tgdn"], "id": 644247126000533504, "lang": "en", "retweeted": false, "source": "<a href=\"http://twitterfeed.com\" rel=\"nofollow\">twitterfeed</a>", "text": "Obama breaks out Satanist Aleister Crowley t-shirt http://t.co/MSWzS3KfZJ #tcot #tlot #tgdn", "truncated": false, "urls": {"http://t.co/MSWzS3KfZJ": "http://bit.ly/1Yd9XZ1"}, "user": {"created_at": "Wed Sep 30 06:02:32 +0000 2009", "description": "Documenting the failures and BS of the Democrats Liberals and Progressives. Or whatever the socialist pigs call themselves", "followers_count": 2846, "friends_count": 518, "id": 78527996, "lang": "en", "listed_count": 225, "name": "DNC Fail!", "profile_background_color": "C0DEED", "profile_background_image_url": "http://pbs.twimg.com/profile_background_images/138985965/vagbg.jpg", "profile_background_tile": false, "profile_banner_url": "https://pbs.twimg.com/profile_banners/78527996/1356471033", "profile_image_url": "https://pbs.twimg.com/profile_images/638662615/ObamaFacepalm_normal.jpg", "profile_link_color": "0084B4", "profile_sidebar_fill_color": "DDEEF6", "profile_text_color": "333333", "protected": false, "screen_name": "dncfail", "statuses_count": 105998, "time_zone": "Pacific Time (US & Canada)", "utc_offset": -28800}}
{"created_at": "Wed Sep 16 20:31:00 +0000 2015", "favorited": false, "hashtags": ["tcot", "tlot", "tgdn"], "id": 644247131243458561, "lang": "en", "retweet_count": 1, "retweeted": false, "source": "<a href=\"http://twitterfeed.com\" rel=\"nofollow\">twitterfeed</a>", "text": "Obama breaks out Satanist Aleister Crowley t-shirt http://t.co/IFX1Y39Gk4 #tcot #tlot #tgdn", "truncated": false, "urls": {"http://t.co/IFX1Y39Gk4": "http://bit.ly/1KhpgGD"}, "user": {"created_at": "Fri Mar 04 03:32:43 +0000 2011", "default_profile": true, "description": "Blog devoted to exposing the corruption of progressive politicians, biased progressive media, and their hypocrisy. Leftists need not follow.", "favourites_count": 1, "followers_count": 11353, "friends_count": 10554, "geo_enabled": true, "id": 260562061, "lang": "en", "listed_count": 151, "location": "California (unfortunately)", "name": "FAM Blog", "profile_background_color": "C0DEED", "profile_background_image_url": "http://abs.twimg.com/images/themes/theme1/bg.png", "profile_background_tile": false, "profile_banner_url": "https://pbs.twimg.com/profile_banners/260562061/1357889319", "profile_image_url": "https://pbs.twimg.com/profile_images/1492760027/debbie-wasserman_schultz1_normal.jpg", "profile_link_color": "0084B4", "profile_sidebar_fill_color": "DDEEF6", "profile_text_color": "333333", "protected": false, "screen_name": "famblog", "statuses_count": 16117, "time_zone": "Pacific Time (US & Canada)", "url": "http://t.co/mA63eehzk0", "utc_offset": -28800}}
{"created_at": "Wed Sep 16 20:33:20 +0000 2015", "favorited": false, "id": 644247721180704768, "lang": "en", "retweeted": false, "source": "<a href=\"http://twitter.com\" rel=\"nofollow\">Twitter Web Client</a>", "text": "Obama breaks out Satanist Aleister Crowley t-shirt http://t.co/QE1HvDdaZK via @famblog", "truncated": false, "urls": {"http://t.co/QE1HvDdaZK": "http://www.fireandreamitchell.com/2015/09/16/obama-breaks-out-satanist-aleister-crowley-t-shirt/"}, "user": {"created_at": "Fri Apr 27 20:28:56 +0000 2007", "description": "The Lord,Mt Everest,Ocean Liners,Oceans,Politics,Movies, Broadway,Respect 4 all  creatures,Football,NBA,40's,50's & 60's music,NASA,outer space,Dinosaurs", "favourites_count": 148, "followers_count": 843, "friends_count": 2094, "id": 5565722, "lang": "en", "listed_count": 39, "location": "Pacific N.W. Oregon", "name": "blazerfan", "profile_background_color": "131516", "profile_background_image_url": "http://abs.twimg.com/images/themes/theme14/bg.gif", "profile_background_tile": true, "profile_banner_url": "https://pbs.twimg.com/profile_banners/5565722/1431889544", "profile_image_url": "https://pbs.twimg.com/profile_images/565364199144964096/a_-9dPUT_normal.png", "profile_link_color": "0829CC", "profile_sidebar_fill_color": "EFEFEF", "profile_text_color": "333333", "protected": false, "screen_name": "blazerfan", "statuses_count": 38365, "time_zone": "Mountain Time (US & Canada)", "utc_offset": -25200}, "user_mentions": [{"id": 260562061, "name": "FAM Blog", "screen_name": "famblog"}]}
{"created_at": "Wed Sep 16 22:12:52 +0000 2015", "favorited": false, "id": 644272769648209920, "lang": "en", "retweeted": false, "source": "<a href=\"http://twitter.com\" rel=\"nofollow\">Twitter Web Client</a>", "text": "Obama breaks out Satanist Aleister Crowley t-shirt http://t.co/4QqSrxpoTl via @famblog", "truncated": false, "urls": {"http://t.co/4QqSrxpoTl": "http://www.fireandreamitchell.com/2015/09/16/obama-breaks-out-satanist-aleister-crowley-t-shirt/"}, "user": {"created_at": "Wed Jun 22 14:46:51 +0000 2011", "description": "You Will Learn About The World From Trevor Holtzworth.\r\nBorn and Educated on the Lower Eastside,NYC 10009\r\nOn any subject.All your Questions will be Answered", "favourites_count": 129, "followers_count": 1538, "friends_count": 1405, "id": 322031788, "lang": "en", "listed_count": 24, "location": "NYC,10009", "name": "Trevor Holtzworth", "profile_background_color": "C0DEED", "profile_background_image_url": "http://pbs.twimg.com/profile_background_images/559314937/incommon-1081848617.jpg", "profile_background_tile": false, "profile_image_url": "https://pbs.twimg.com/profile_images/1407932930/Picture_064_normal.jpg", "profile_link_color": "0084B4", "profile_sidebar_fill_color": "DDEEF6", "profile_text_color": "333333", "protected": false, "screen_name": "Mr_Holtzworth", "statuses_count": 53973, "time_zone": "Eastern Time (US & Canada)", "utc_offset": -18000}, "user_mentions": [{"id": 260562061, "name": "FAM Blog", "screen_name": "famblog"}]}
{"created_at": "Wed Sep 16 23:53:05 +0000 2015", "favorite_count": 2, "favorited": false, "id": 644297988332875776, "lang": "en", "retweet_count": 9, "retweeted": false, "source": "<a href=\"http://twitter.com\" rel=\"nofollow\">Twitter Web Client</a>", "text": "Obama breaks out Satanist Aleister Crowley t-shirt http://t.co/iXglfPK128 via @famblog", "truncated": false, "urls": {"http://t.co/iXglfPK128": "http://www.fireandreamitchell.com/2015/09/16/obama-breaks-out-satanist-aleister-crowley-t-shirt/"}, "user": {"created_at": "Tue Apr 24 02:22:06 +0000 2012", "default_profile": true, "description": "Conservative, Constitutionalist, Pro Gun, Pro Life, States' Rights, Freedom Lover and Father. #right #donttreadonme #MOLONLABE #Nobama,#LNYHBT #tcot,#ctot,#TGDN", "favourites_count": 36942, "followers_count": 50471, "friends_count": 53798, "geo_enabled": true, "id": 561654065, "lang": "en", "listed_count": 617, "name": "Phx Ken", "profile_background_color": "C0DEED", "profile_background_image_url": "http://abs.twimg.com/images/themes/theme1/bg.png", "profile_background_tile": false, "profile_image_url": "https://pbs.twimg.com/profile_images/2164181889/Rising_Phoenix_normal.jpg", "profile_link_color": "0084B4", "profile_sidebar_fill_color": "DDEEF6", "profile_text_color": "333333", "protected": false, "screen_name": "PhxKen", "statuses_count": 163514, "time_zone": "Arizona", "utc_offset": -25200}, "user_mentions": [{"id": 260562061, "name": "FAM Blog", "screen_name": "famblog"}]}
{"created_at": "Thu Sep 17 00:12:16 +0000 2015", "favorited": false, "id": 644302816207618048, "lang": "en", "retweet_count": 1, "retweeted": false, "source": "<a href=\"http://twitter.com\" rel=\"nofollow\">Twitter Web Client</a>", "text": "Obama breaks out Satanist Aleister Crowley t-shirt http://t.co/NZttbvhC3Q @DNC @CNN @MSNBC @FoxNews", "truncated": false, "urls": {"http://t.co/NZttbvhC3Q": "http://www.fireandreamitchell.com/2015/09/16/obama-breaks-out-satanist-aleister-crowley-t-shirt/"}, "user": {"created_at": "Wed Jul 15 00:33:03 +0000 2009", "default_profile": true, "description": "Right-wing extremist in the tradition of Jefferson, Madison, Adams, Franklin, and Washington.", "favourites_count": 285, "followers_count": 743, "friends_count": 1321, "id": 56869779, "lang": "en", "listed_count": 7, "location": "Birmingham, AL", "name": "Curtis Armstrong", "profile_background_color": "C0DEED", "profile_background_image_url": "http://abs.twimg.com/images/themes/theme1/bg.png", "profile_background_tile": false, "profile_banner_url": "https://pbs.twimg.com/profile_banners/56869779/1353378480", "profile_image_url": "https://pbs.twimg.com/profile_images/2696935330/92a2ae3b9e5bbe38b5471db88cd60a55_normal.jpeg", "profile_link_color": "0084B4", "profile_sidebar_fill_color": "DDEEF6", "profile_text_color": "333333", "protected": false, "screen_name": "soylentgreen13", "statuses_count": 2282}, "user_mentions": [{"id": 388353999, "name": "DNC", "screen_name": "DNC"}, {"id": 759251, "name": "CNN", "screen_name": "CNN"}, {"id": 2836421, "name": "MSNBC", "screen_name": "MSNBC"}, {"id": 1367531, "name": "Fox News", "screen_name": "FoxNews"}]}
{"created_at": "Thu Sep 17 01:28:45 +0000 2015", "favorited": false, "id": 644322064795439104, "lang": "en", "retweeted": false, "source": "<a href=\"http://twitter.com\" rel=\"nofollow\">Twitter Web Client</a>", "text": "Obama breaks out Satanist Aleister Crowley t-shirt http://t.co/MqVAYCg0GP", "truncated": false, "urls": {"http://t.co/MqVAYCg0GP": "http://feedproxy.google.com/~r/FireAndreaMitchell/~3/UdFruL0Ljy0/"}, "user": {"created_at": "Thu Aug 29 15:51:46 +0000 2013", "default_profile": true, "description": "Politics=Bullshit \r\nI am the Trogg King !", "favourites_count": 1411, "followers_count": 92, "friends_count": 157, "id": 1710388525, "lang": "en", "listed_count": 7, "name": "Open Your Eye's", "profile_background_color": "C0DEED", "profile_background_image_url": "http://abs.twimg.com/images/themes/theme1/bg.png", "profile_background_tile": false, "profile_image_url": "https://pbs.twimg.com/profile_images/378800000380341227/acbe35fcaa77283da5cc4eb834769fa6_normal.jpeg", "profile_link_color": "0084B4", "profile_sidebar_fill_color": "DDEEF6", "profile_text_color": "333333", "protected": false, "screen_name": "TroggKing", "statuses_count": 11322}}
{"created_at": "Thu Sep 17 01:36:56 +0000 2015", "favorited": false, "id": 644324121711505408, "lang": "en", "retweeted": false, "source": "<a href=\"http://twitterfeed.com\" rel=\"nofollow\">twitterfeed</a>", "text": "Obama breaks out Satanist Aleister Crowley t-shirt: [http://t.co/nGY2p3pG1M: 1875] http://t.co/Gx5u6KZCPi", "truncated": false, "urls": {"http://t.co/Gx5u6KZCPi": "http://bit.ly/1Ye1XqH", "http://t.co/nGY2p3pG1M": "http://fireandreamitchell.com"}, "user": {"created_at": "Wed Jun 24 23:24:01 +0000 2009", "description": "I am Christian, Patriot, Conservative, and sick of what is going on. Does that scare you?", "followers_count": 8738, "friends_count": 4220, "id": 50477823, "lang": "en", "listed_count": 339, "location": "In God's Hands", "name": "Roger", "profile_background_color": "C0DEED", "profile_background_image_url": "http://pbs.twimg.com/profile_background_images/93464332/DSC02873.JPG", "profile_background_tile": true, "profile_banner_url": "https://pbs.twimg.com/profile_banners/50477823/1437341314", "profile_image_url": "https://pbs.twimg.com/profile_images/639893305799647233/yfsRk1qI_normal.jpg", "profile_link_color": "0084B4", "profile_sidebar_fill_color": "DDEEF6", "profile_text_color": "333333", "protected": false, "screen_name": "wiskey1249", "statuses_count": 506188, "time_zone": "Central Time (US & Canada)", "url": "http://t.co/Zxlbexe70w", "utc_offset": -21600}}
{"created_at": "Thu Sep 17 01:36:56 +0000 2015", "favorited": false, "id": 644324122697187328, "lang": "en", "retweeted": false, "source": "<a href=\"http://twitterfeed.com\" rel=\"nofollow\">twitterfeed</a>", "text": "Obama breaks out Satanist Aleister Crowley t-shirt http://t.co/swgGa13nXo", "truncated": false, "urls": {"http://t.co/swgGa13nXo": "http://bit.ly/1Ye1XqH"}, "user": {"created_at": "Fri Dec 30 17:53:24 +0000 2011", "default_profile": true, "description": "BadBlue publishes the news as it happens: the controversial, the titillating, the unvarnished truth, i.e., everything antique media tries to hide from you.", "followers_count": 1107, "friends_count": 73, "id": 450812542, "lang": "en", "listed_count": 90, "location": "The Internets", "name": "BadBlue News", "profile_background_color": "C0DEED", "profile_background_image_url": "http://abs.twimg.com/images/themes/theme1/bg.png", "profile_background_tile": false, "profile_banner_url": "https://pbs.twimg.com/profile_banners/450812542/1357580946", "profile_image_url": "https://pbs.twimg.com/profile_images/1724381431/badblue-twitter-icon_normal.jpg", "profile_link_color": "0084B4", "profile_sidebar_fill_color": "DDEEF6", "profile_text_color": "333333", "protected": false, "screen_name": "BadBlueNews", "statuses_count": 82302, "url": "http://t.co/dTOzyu0cOK"}}
{"created_at": "Thu Sep 17 02:40:16 +0000 2015", "favorite_count": 1, "favorited": false, "hashtags": ["Obama"], "id": 644340060259794949, "lang": "en", "retweet_count": 1, "retweeted": false, "source": "<a href=\"http://linkis.com\" rel=\"nofollow\">Linkis.com</a>", "text": "#Obama breaks out Satanist Aleister Crowley t-shirt http://t.co/NZE0sfJuEt via @famblog", "truncated": false, "urls": {"http://t.co/NZE0sfJuEt": "http://ln.is/com/rpJUA"}, "user": {"created_at": "Mon Mar 16 19:57:53 +0000 2009", "description": "Christian ~ Conservative ~ Tea Party ~ Thinks liberal DemocRATS Are Morons ~ In GOD I Trust ~ God Bless America!!   #TCOT #PATRIOT #TGDN \n\u039c\u039f\u039b\u03a9\u039d \u039b\u0391\u0392\u0395", "favourites_count": 14548, "followers_count": 20542, "friends_count": 7928, "geo_enabled": true, "id": 24756899, "lang": "en", "listed_count": 173, "location": "Florida, USA", "name": "Mishel", "profile_background_color": "1A1B1F", "profile_background_image_url": "http://abs.twimg.com/images/themes/theme9/bg.gif", "profile_background_tile": false, "profile_banner_url": "https://pbs.twimg.com/profile_banners/24756899/1411062679", "profile_image_url": "https://pbs.twimg.com/profile_images/512659621580783617/POFf179d_normal.jpeg", "profile_link_color": "2FC2EF", "profile_sidebar_fill_color": "252429", "profile_text_color": "666666", "protected": false, "screen_name": "Faith4Mishel", "statuses_count": 55276, "time_zone": "Eastern Time (US & Canada)", "url": "https://t.co/niWFAhFply", "utc_offset": -18000}, "user_mentions": [{"id": 260562061, "name": "FAM Blog", "screen_name": "famblog"}]}
{"created_at": "Thu Sep 17 04:28:06 +0000 2015", "favorited": false, "hashtags": ["mcgnews"], "id": 644367199658901504, "lang": "en", "retweeted": false, "source": "<a href=\"http://dlvr.it\" rel=\"nofollow\">dlvr.it</a>", "text": "Obama breaks out Satanist Aleister Crowley t-shirt http://t.co/NdcB0zZhQ0 #mcgnews", "truncated": false, "urls": {"http://t.co/NdcB0zZhQ0": "http://dlvr.it/C9rkTj"}, "user": {"created_at": "Thu Jan 21 14:30:15 +0000 2010", "description": "Geeked and Addicted  - Knowledge is the Universal Currency! Don't be Knowledge Poor!   http://t.co/ofxLVHeYjo", "favourites_count": 20, "followers_count": 1416, "friends_count": 953, "id": 107087730, "lang": "en", "listed_count": 689, "location": "Maryland", "name": "George McGMaryland", "profile_background_color": "131516", "profile_background_image_url": "http://abs.twimg.com/images/themes/theme14/bg.gif", "profile_background_tile": true, "profile_banner_url": "https://pbs.twimg.com/profile_banners/107087730/1379320082", "profile_image_url": "https://pbs.twimg.com/profile_images/419157114582347776/4Ldw2P_k_normal.jpeg", "profile_link_color": "009999", "profile_sidebar_fill_color": "EFEFEF", "profile_text_color": "333333", "protected": false, "screen_name": "McGMaryland", "statuses_count": 349040, "time_zone": "Eastern Time (US & Canada)", "url": "https://t.co/qAI4kAMEBp", "utc_offset": -18000}}
{"created_at": "Thu Sep 17 08:01:53 +0000 2015", "favorite_count": 3, "favorited": false, "hashtags": ["tcot", "tlot", "tgdn"], "id": 644421000734580736, "lang": "en", "media": [{"display_url": "pic.twitter.com/slTXmdFKxW", "expanded_url": "https://twitter.com/ricknick59/status/607826425945546752/photo/1", "id": 607826421860298753, "id_str": "607826421860298753", "indices": [92, 114], "media_url": "http://pbs.twimg.com/media/CG9u6QgUcAEOIKF.jpg", "media_url_https": "https://pbs.twimg.com/media/CG9u6QgUcAEOIKF.jpg", "sizes": {"large": {"h": 773, "resize": "fit", "w": 632}, "medium": {"h": 733, "resize": "fit", "w": 600}, "small": {"h": 415, "resize": "fit", "w": 340}, "thumb": {"h": 150, "resize": "crop", "w": 150}}, "source_status_id": 607826425945546752, "source_status_id_str": "607826425945546752", "source_user_id": 111356099, "source_user_id_str": "111356099", "type": "photo", "url": "http://t.co/slTXmdFKxW"}], "retweet_count": 2, "retweeted": false, "source": "<a href=\"https://www.socialoomph.com\" rel=\"nofollow\">SocialOomph</a>", "text": "Obama breaks out Satanist Aleister Crowley t-shirt http://t.co/sBMm31k2XE #tcot #tlot #tgdn http://t.co/slTXmdFKxW", "truncated": false, "urls": {"http://t.co/sBMm31k2XE": "http://bit.ly/1OZpyFe"}, "user": {"created_at": "Mon Feb 23 23:33:25 +0000 2009", "description": "Conservative w/libertarian leanings. Animal lover, L.A. Sports homer. Progressives are parasites regardless of race/gender. #tcot #tgdn \u039c\u039f\u039b\u03a9\u039d \u039b\u0391\u0392\u0395! NO DMs!", "favourites_count": 190, "followers_count": 99483, "friends_count": 91182, "geo_enabled": true, "id": 21707592, "lang": "en", "listed_count": 2498, "location": "Los Angeles - USSA", "name": "\u250c\u041f\u2510(\u2022_\u2022)", "profile_background_color": "9AE4E8", "profile_background_image_url": "http://pbs.twimg.com/profile_background_images/715631892/8cee59be3899d6110edf1d7d92517c98.jpeg", "profile_background_tile": true, "profile_banner_url": "https://pbs.twimg.com/profile_banners/21707592/1379137739", "profile_image_url": "https://pbs.twimg.com/profile_images/687793708683649024/zQK8uBz8_normal.jpg", "profile_link_color": "0084B4", "profile_sidebar_fill_color": "DDFFCC", "profile_text_color": "333333", "protected": false, "screen_name": "exposeliberals", "statuses_count": 151265, "time_zone": "Pacific Time (US & Canada)", "url": "http://t.co/YE9KnBu7mX", "utc_offset": -28800}}
{"created_at": "Thu Sep 17 08:43:23 +0000 2015", "favorite_count": 1, "favorited": false, "id": 644431441405833216, "lang": "en", "retweeted": false, "source": "<a href=\"http://twitter.com\" rel=\"nofollow\">Twitter Web Client</a>", "text": "Obama breaks out Satanist Aleister Crowley t-shirt http://t.co/nLARaKv0Oi via @famblog", "truncated": false, "urls": {"http://t.co/nLARaKv0Oi": "http://www.fireandreamitchell.com/2015/09/16/obama-breaks-out-satanist-aleister-crowley-t-shirt/"}, "user": {"created_at": "Wed Oct 06 09:35:49 +0000 2010", "description": "In accordance with Title 17 U.S.C. Section 107,material here is distributed without profit for research and educational purposes. REAL NEWS HERE.", "favourites_count": 18215, "followers_count": 4796, "friends_count": 3653, "geo_enabled": true, "id": 199216714, "lang": "en", "listed_count": 414, "location": "ANYWHERE I WANT TO BE", "name": "The Goodman Report", "profile_background_color": "0B5735", "profile_background_image_url": "http://abs.twimg.com/images/themes/theme4/bg.gif", "profile_background_tile": false, "profile_banner_url": "https://pbs.twimg.com/profile_banners/199216714/1408658203", "profile_image_url": "https://pbs.twimg.com/profile_images/1240079110/broadcast_normal.gif", "profile_link_color": "0099B9", "profile_sidebar_fill_color": "95E8EC", "profile_text_color": "3C3940", "protected": false, "screen_name": "TheaGood", "statuses_count": 636305, "time_zone": "Jerusalem", "utc_offset": 7200}, "user_mentions": [{"id": 260562061, "name": "FAM Blog", "screen_name": "famblog"}]}
{"created_at": "Thu Sep 17 11:40:38 +0000 2015", "favorited": false, "id": 644476047279419392, "lang": "en", "retweeted": false, "source": "<a href=\"http://twitter.com\" rel=\"nofollow\">Twitter Web Client</a>", "text": "Obama breaks out Satanist Aleister Crowley t-shirt |  http://t.co/IZPwK2x45p", "truncated": false, "urls": {"http://t.co/IZPwK2x45p": "http://www.fireandreamitchell.com/2015/09/16/obama-breaks-out-satanist-aleister-crowley-t-shirt/?utm_source=twitterfeed&utm_medium=twitter&utm_campaign=Feed%3A+FireAndreaMitchell+%28Fire+Andrea+Mitchell%21+Exposing+Liberal+bias+cause+the+MSM+doesn%27t+have+to.%29"}, "user": {"created_at": "Thu Aug 27 10:29:19 +0000 2009", "description": "Freedom loving American Conservative. Veteran. Support our military! Limited  government. No Leftists allowed. \u039c\u039f\u039b\u03a9\u039d \u039b\u0391\u0392\u0395", "favourites_count": 51, "followers_count": 5854, "friends_count": 5718, "id": 69256645, "lang": "en", "listed_count": 191, "location": "Southeastern USA", "name": "EJ", "profile_background_color": "1A1B1F", "profile_background_image_url": "http://pbs.twimg.com/profile_background_images/130220611/h155.jpg", "profile_background_tile": true, "profile_banner_url": "https://pbs.twimg.com/profile_banners/69256645/1398601556", "profile_image_url": "https://pbs.twimg.com/profile_images/671837493486948354/exfMLlBh_normal.jpg", "profile_link_color": "3B94D9", "profile_sidebar_fill_color": "252429", "profile_text_color": "666666", "protected": false, "screen_name": "NCHornet", "statuses_count": 61266, "time_zone": "Quito", "utc_offset": -18000}}
{"created_at": "Thu Sep 17 15:15:26 +0000 2015", "favorited": false, "hashtags": ["tcot", "teaparty", "gop"], "id": 644530106061471744, "lang": "en", "retweeted": false, "source": "<a href=\"http://www.google.com/\" rel=\"nofollow\">Google</a>", "text": "Obama breaks out Satanist Aleister Crowley t-shirt http://t.co/vKOOJ4Z3w7 #tcot #teaparty #gop", "truncated": false, "urls": {"http://t.co/vKOOJ4Z3w7": "http://goo.gl/fb/23uLe3"}, "user": {"created_at": "Wed Jan 30 02:06:58 +0000 2013", "description": "A Retired, Conservative, Detroit and U. of Mich. sports fan. Doing what I love, promoting Conservatism. #PJNET #TCOT #Conservative", "favourites_count": 9054, "followers_count": 14726, "friends_count": 14467, "id": 1132678628, "lang": "en", "listed_count": 159, "location": "U.S.", "name": "Charles Watson", "profile_background_color": "022330", "profile_background_image_url": "http://pbs.twimg.com/profile_background_images/459739157527412736/w3FWSnf-.jpeg", "profile_background_tile": true, "profile_banner_url": "https://pbs.twimg.com/profile_banners/1132678628/1398445683", "profile_image_url": "https://pbs.twimg.com/profile_images/3181908140/7d516619b45a25647b5c6e5930ddb5f7_normal.jpeg", "profile_link_color": "0084B4", "profile_sidebar_fill_color": "DDEEF6", "profile_text_color": "0084B4", "protected": false, "screen_name": "cwatson34", "statuses_count": 53411, "url": "http://t.co/7dFIPc6vWt"}}
{"created_at": "Thu Sep 17 17:20:42 +0000 2015", "favorited": false, "id": 644561630135775232, "lang": "en", "retweeted": false, "source": "<a href=\"http://mobile.twitter.com\" rel=\"nofollow\">Mobile Web</a>", "text": "Obama breaks out Satanist Aleister Crowley t-shirt http://t.co/uKaBajz6q7 via @famblog", "truncated": false, "urls": {"http://t.co/uKaBajz6q7": "http://www.fireandreamitchell.com/2015/09/16/obama-breaks-out-satanist-aleister-crowley-t-shirt/"}, "user": {"created_at": "Tue Jul 05 02:48:16 +0000 2011", "default_profile": true, "default_profile_image": true, "favourites_count": 1933, "followers_count": 375, "friends_count": 667, "id": 329443798, "lang": "en", "listed_count": 24, "name": "Jennifer Barket", "profile_background_color": "C0DEED", "profile_background_image_url": "http://abs.twimg.com/images/themes/theme1/bg.png", "profile_background_tile": false, "profile_image_url": "https://abs.twimg.com/sticky/default_profile_images/default_profile_5_normal.png", "profile_link_color": "0084B4", "profile_sidebar_fill_color": "DDEEF6", "profile_text_color": "333333", "protected": false, "screen_name": "JenniferBarket", "statuses_count": 22249}, "user_mentions": [{"id": 260562061, "name": "FAM Blog", "screen_name": "famblog"}]}
{"created_at": "Thu Sep 17 20:01:25 +0000 2015", "favorite_count": 1, "favorited": false, "hashtags": ["tcot", "tlot", "tgdn"], "id": 644602073120702464, "lang": "en", "media": [{"display_url": "pic.twitter.com/slTXmdFKxW", "expanded_url": "https://twitter.com/ricknick59/status/607826425945546752/photo/1", "id": 607826421860298753, "id_str": "607826421860298753", "indices": [92, 114], "media_url": "http://pbs.twimg.com/media/CG9u6QgUcAEOIKF.jpg", "media_url_https": "https://pbs.twimg.com/media/CG9u6QgUcAEOIKF.jpg", "sizes": {"large": {"h": 773, "resize": "fit", "w": 632}, "medium": {"h": 733, "resize": "fit", "w": 600}, "small": {"h": 415, "resize": "fit", "w": 340}, "thumb": {"h": 150, "resize": "crop", "w": 150}}, "source_status_id": 607826425945546752, "source_status_id_str": "607826425945546752", "source_user_id": 111356099, "source_user_id_str": "111356099", "type": "photo", "url": "http://t.co/slTXmdFKxW"}], "retweet_count": 11, "retweeted": false, "source": "<a href=\"https://www.socialoomph.com\" rel=\"nofollow\">SocialOomph</a>", "text": "Obama breaks out Satanist Aleister Crowley t-shirt http://t.co/sBMm31k2XE #tcot #tlot #tgdn http://t.co/slTXmdFKxW", "truncated": false, "urls": {"http://t.co/sBMm31k2XE": "http://bit.ly/1OZpyFe"}, "user": {"created_at": "Mon Feb 23 23:33:25 +0000 2009", "description": "Conservative w/libertarian leanings. Animal lover, L.A. Sports homer. Progressives are parasites regardless of race/gender. #tcot #tgdn \u039c\u039f\u039b\u03a9\u039d \u039b\u0391\u0392\u0395! NO DMs!", "favourites_count": 190, "followers_count": 99483, "friends_count": 91182, "geo_enabled": true, "id": 21707592, "lang": "en", "listed_count": 2498, "location": "Los Angeles - USSA", "name": "\u250c\u041f\u2510(\u2022_\u2022)", "profile_background_color": "9AE4E8", "profile_background_image_url": "http://pbs.twimg.com/profile_background_images/715631892/8cee59be3899d6110edf1d7d92517c98.jpeg", "profile_background_tile": true, "profile_banner_url": "https://pbs.twimg.com/profile_banners/21707592/1379137739", "profile_image_url": "https://pbs.twimg.com/profile_images/687793708683649024/zQK8uBz8_normal.jpg", "profile_link_color": "0084B4", "profile_sidebar_fill_color": "DDFFCC", "profile_text_color": "333333", "protected": false, "screen_name": "exposeliberals", "statuses_count": 151265, "time_zone": "Pacific Time (US & Canada)", "url": "http://t.co/YE9KnBu7mX", "utc_offset": -28800}}
{"created_at": "Fri Sep 18 15:19:04 +0000 2015", "favorite_count": 1, "favorited": false, "id": 644893409258311680, "lang": "en", "retweet_count": 1, "retweeted": false, "source": "<a href=\"http://twitterfeed.com\" rel=\"nofollow\">twitterfeed</a>", "text": "Snopes: Magic Shirt: FACT CHECK: Does a photograph show President Obama wearing an Aleister Crowley t-shirt? http://t.co/5cDt4Ay1me", "truncated": false, "urls": {"http://t.co/5cDt4Ay1me": "http://bit.ly/1YkgoJQ"}, "user": {"created_at": "Thu Oct 09 17:37:27 +0000 2008", "description": "Let's make critical thinking easy (and fun).", "favourites_count": 4, "followers_count": 3837, "friends_count": 677, "id": 16669742, "lang": "en", "listed_count": 272, "location": "Everywhere", "name": "Skeptic Network", "profile_background_color": "000000", "profile_background_image_url": "http://pbs.twimg.com/profile_background_images/4759267/fractile_dk.jpg", "profile_background_tile": true, "profile_banner_url": "https://pbs.twimg.com/profile_banners/16669742/1360552274", "profile_image_url": "https://pbs.twimg.com/profile_images/90185083/fractile_sing_SN3_normal.jpg", "profile_link_color": "B00B07", "profile_sidebar_fill_color": "EBECEF", "profile_text_color": "15377E", "protected": false, "screen_name": "SkepNet", "statuses_count": 18334, "time_zone": "Eastern Time (US & Canada)", "utc_offset": -18000}}
{"created_at": "Fri Sep 18 15:19:06 +0000 2015", "favorited": false, "id": 644893417361702912, "lang": "en", "retweeted": false, "source": "<a href=\"http://twitterfeed.com\" rel=\"nofollow\">twitterfeed</a>", "text": "IS IT TRUE? Magic Shirt: FACT CHECK: Does a photograph show President Obama wearing an Aleister Crowley t-shirt? http://t.co/DixgqjmsxK", "truncated": false, "urls": {"http://t.co/DixgqjmsxK": "http://bit.ly/1P8bFEQ"}, "user": {"created_at": "Tue Nov 03 07:16:37 +0000 2009", "description": "Keeping the Internet safe by exposing online scams and hoaxes.", "followers_count": 152, "friends_count": 13, "id": 87130129, "lang": "en", "listed_count": 6, "location": "Tubes", "name": "Internet Scam", "profile_background_color": "000000", "profile_background_image_url": "http://pbs.twimg.com/profile_background_images/50465684/internetscam.jpg", "profile_background_tile": false, "profile_image_url": "https://pbs.twimg.com/profile_images/506278879/internetscam-id_normal.jpg", "profile_link_color": "2FC2EF", "profile_sidebar_fill_color": "000000", "profile_text_color": "666666", "protected": false, "screen_name": "InternetScam", "statuses_count": 2732, "time_zone": "Central Time (US & Canada)", "utc_offset": -21600}}
{"created_at": "Fri Sep 18 15:19:09 +0000 2015", "favorited": false, "id": 644893426496835584, "lang": "en", "retweeted": false, "source": "<a href=\"http://twitterfeed.com\" rel=\"nofollow\">twitterfeed</a>", "text": "Magic Shirt: FACT CHECK: Does a photograph show President Obama wearing an Aleister Crowley t-shirt? http://t.co/kQcfCAJEcG", "truncated": false, "urls": {"http://t.co/kQcfCAJEcG": "http://bit.ly/1YkgoJQ"}, "user": {"created_at": "Tue Nov 09 09:35:42 +0000 2010", "favourites_count": 9, "followers_count": 875, "friends_count": 1639, "id": 213594945, "lang": "en", "listed_count": 5, "location": "New Jersey", "name": "Tammy Stein", "profile_background_color": "131516", "profile_background_image_url": "http://abs.twimg.com/images/themes/theme14/bg.gif", "profile_background_tile": true, "profile_image_url": "https://pbs.twimg.com/profile_images/1163133789/Tammy_Stein_normal.jpg", "profile_link_color": "009999", "profile_sidebar_fill_color": "EFEFEF", "profile_text_color": "333333", "protected": false, "screen_name": "Legal_101HQ", "statuses_count": 3250}}
{"created_at": "Fri Sep 18 15:19:09 +0000 2015", "favorited": false, "hashtags": ["factorfiction"], "id": 644893429235748864, "lang": "en", "retweeted": false, "source": "<a href=\"http://twitterfeed.com\" rel=\"nofollow\">twitterfeed</a>", "text": "Magic Shirt: FACT CHECK: Does a photograph show President Obama wearing an Aleister Crowley t-shirt? http://t.co/rFOo2HFebA #factorfiction", "truncated": false, "urls": {"http://t.co/rFOo2HFebA": "http://bit.ly/1YkgoJQ"}, "user": {"created_at": "Tue Jun 17 15:05:55 +0000 2008", "description": "Professional photographer for many years, graduate of Brooks Institute, but now working in healthcare!  The advertising game got to be a drag...", "favourites_count": 209, "followers_count": 961, "friends_count": 1902, "id": 15146527, "lang": "en", "listed_count": 21, "location": "Tampa Bay, FL", "name": "Ted Wade", "profile_background_color": "B2DFDA", "profile_background_image_url": "http://pbs.twimg.com/profile_background_images/321056501/Inside_the_Melk_Abbey_-_can_you_spot_me_in_the_pho.jpg", "profile_background_tile": true, "profile_image_url": "https://pbs.twimg.com/profile_images/82775180/080124_Me_0005_normal.jpg", "profile_link_color": "93A644", "profile_sidebar_fill_color": "FFFFFF", "profile_text_color": "333333", "protected": false, "screen_name": "tedlw", "statuses_count": 47152, "time_zone": "Quito", "utc_offset": -18000}}
{"created_at": "Fri Sep 18 15:19:10 +0000 2015", "favorited": false, "id": 644893434340225024, "lang": "en", "retweeted": false, "source": "<a href=\"http://twitterfeed.com\" rel=\"nofollow\">twitterfeed</a>", "text": "Magic Shirt: FACT CHECK: Does a photograph show President Obama wearing an Aleister Crowley t-shirt? http://t.co/xqRD2BZMj8", "truncated": false, "urls": {"http://t.co/xqRD2BZMj8": "http://bit.ly/1P8bFEQ"}, "user": {"created_at": "Wed Jan 02 08:21:49 +0000 2013", "default_profile": true, "description": "Web designer. Computer tech. Like paranomal and mysteries.", "favourites_count": 1, "followers_count": 5113, "friends_count": 6494, "id": 1054540363, "lang": "en", "listed_count": 21, "name": "RMD.1", "profile_background_color": "C0DEED", "profile_background_image_url": "http://abs.twimg.com/images/themes/theme1/bg.png", "profile_background_tile": false, "profile_banner_url": "https://pbs.twimg.com/profile_banners/1054540363/1357115184", "profile_image_url": "https://pbs.twimg.com/profile_images/3062588092/156f982d0f6ea81a5e4eb08767adb86b_normal.jpeg", "profile_link_color": "0084B4", "profile_sidebar_fill_color": "DDEEF6", "profile_text_color": "333333", "protected": false, "screen_name": "rd_rmd1", "statuses_count": 3966, "time_zone": "New Caledonia", "utc_offset": 39600}}
{"created_at": "Fri Sep 18 17:28:54 +0000 2015", "favorited": false, "id": 644926079510011905, "lang": "en", "retweeted": false, "source": "<a href=\"http://twitterfeed.com\" rel=\"nofollow\">twitterfeed</a>", "text": "Magic Shirt: FACT CHECK: Does a photograph show President Obama wearing an Aleister Crowley t-shirt? http://t.co/KsHQgVk9QS", "truncated": false, "urls": {"http://t.co/KsHQgVk9QS": "http://bit.ly/1YkgrFm"}, "user": {"created_at": "Mon May 16 17:15:31 +0000 2011", "description": "Imperfection is beauty, madness is genius and it's better to be absolutely ridiculous than absolutely boring.", "favourites_count": 91, "followers_count": 2401, "friends_count": 2151, "id": 299774695, "lang": "en", "listed_count": 104, "location": "Chicago, IL", "name": "Claire Brooks", "profile_background_color": "FFFFFF", "profile_background_image_url": "http://pbs.twimg.com/profile_background_images/448914235171418112/O6etbApY.png", "profile_background_tile": true, "profile_banner_url": "https://pbs.twimg.com/profile_banners/299774695/1395864769", "profile_image_url": "https://pbs.twimg.com/profile_images/448916115519840256/qto38nWs_normal.jpeg", "profile_link_color": "000000", "profile_sidebar_fill_color": "E0ECF8", "profile_text_color": "606060", "protected": false, "screen_name": "violentdaylight", "statuses_count": 197320, "time_zone": "Central Time (US & Canada)", "url": "http://t.co/8gPJ5tHMMj", "utc_offset": -21600}}
{"created_at": "Sat Sep 19 00:01:23 +0000 2015", "favorite_count": 11, "favorited": false, "hashtags": ["tcot", "tlot", "tgdn"], "id": 645024854488559616, "lang": "en", "media": [{"display_url": "pic.twitter.com/slTXmdFKxW", "expanded_url": "https://twitter.com/ricknick59/status/607826425945546752/photo/1", "id": 607826421860298753, "id_str": "607826421860298753", "indices": [92, 114], "media_url": "http://pbs.twimg.com/media/CG9u6QgUcAEOIKF.jpg", "media_url_https": "https://pbs.twimg.com/media/CG9u6QgUcAEOIKF.jpg", "sizes": {"large": {"h": 773, "resize": "fit", "w": 632}, "medium": {"h": 733, "resize": "fit", "w": 600}, "small": {"h": 415, "resize": "fit", "w": 340}, "thumb": {"h": 150, "resize": "crop", "w": 150}}, "source_status_id": 607826425945546752, "source_status_id_str": "607826425945546752", "source_user_id": 111356099, "source_user_id_str": "111356099", "type": "photo", "url": "http://t.co/slTXmdFKxW"}], "retweet_count": 36, "retweeted": false, "source": "<a href=\"https://www.socialoomph.com\" rel=\"nofollow\">SocialOomph</a>", "text": "Obama breaks out Satanist Aleister Crowley t-shirt http://t.co/sBMm31k2XE #tcot #tlot #tgdn http://t.co/slTXmdFKxW", "truncated": false, "urls": {"http://t.co/sBMm31k2XE": "http://bit.ly/1OZpyFe"}, "user": {"created_at": "Mon Feb 23 23:33:25 +0000 2009", "description": "Conservative w/libertarian leanings. Animal lover, L.A. Sports homer. Progressives are parasites regardless of race/gender. #tcot #tgdn \u039c\u039f\u039b\u03a9\u039d \u039b\u0391\u0392\u0395! NO DMs!", "favourites_count": 190, "followers_count": 99483, "friends_count": 91182, "geo_enabled": true, "id": 21707592, "lang": "en", "listed_count": 2498, "location": "Los Angeles - USSA", "name": "\u250c\u041f\u2510(\u2022_\u2022)", "profile_background_color": "9AE4E8", "profile_background_image_url": "http://pbs.twimg.com/profile_background_images/715631892/8cee59be3899d6110edf1d7d92517c98.jpeg", "profile_background_tile": true, "profile_banner_url": "https://pbs.twimg.com/profile_banners/21707592/1379137739", "profile_image_url": "https://pbs.twimg.com/profile_images/687793708683649024/zQK8uBz8_normal.jpg", "profile_link_color": "0084B4", "profile_sidebar_fill_color": "DDFFCC", "profile_text_color": "333333", "protected": false, "screen_name": "exposeliberals", "statuses_count": 151265, "time_zone": "Pacific Time (US & Canada)", "url": "http://t.co/YE9KnBu7mX", "utc_offset": -28800}}
{"created_at": "Fri Sep 25 00:02:49 +0000 2015", "favorited": false, "id": 647199540697800704, "lang": "en", "retweeted": false, "source": "<a href=\"http://mobile.twitter.com\" rel=\"nofollow\">Mobile Web</a>", "text": "Obama breaks out Satanist Aleister Crowley t-shirt http://t.co/2LzqK3PlCo via @famblog", "truncated": false, "urls": {"http://t.co/2LzqK3PlCo": "http://www.fireandreamitchell.com/2015/09/16/obama-breaks-out-satanist-aleister-crowley-t-shirt/"}, "user": {"created_at": "Fri Nov 18 02:18:35 +0000 2011", "description": "#Trump2016 Conservative Pro-Israel I've been in politics in various capacities. Officially invited to & attended a Republican Presidential Inauguration.", "favourites_count": 1904, "followers_count": 1256, "friends_count": 1978, "id": 415228744, "lang": "en", "listed_count": 18, "location": "USA", "name": "RepublicanCleopattra", "profile_background_color": "FF6699", "profile_background_image_url": "http://abs.twimg.com/images/themes/theme11/bg.gif", "profile_background_tile": true, "profile_image_url": "https://pbs.twimg.com/profile_images/1717885710/Tulips_normal.jpg", "profile_link_color": "9266CC", "profile_sidebar_fill_color": "E5507E", "profile_text_color": "362720", "protected": false, "screen_name": "CleopattraUSA", "statuses_count": 8664, "time_zone": "Eastern Time (US & Canada)", "utc_offset": -18000}, "user_mentions": [{"id": 260562061, "name": "FAM Blog", "screen_name": "famblog"}]}
{"created_at": "Sun Oct 04 04:01:23 +0000 2015", "favorited": false, "id": 650521066549473280, "lang": "en", "retweeted": false, "source": "<a href=\"http://twitter.com\" rel=\"nofollow\">Twitter Web Client</a>", "text": "Obama breaks out Satanist Aleister Crowley t-shirt http://t.co/cVbdLgCgrp via @famblog", "truncated": false, "urls": {"http://t.co/cVbdLgCgrp": "http://www.fireandreamitchell.com/2015/09/16/obama-breaks-out-satanist-aleister-crowley-t-shirt/"}, "user": {"created_at": "Mon Apr 20 16:55:34 +0000 2009", "description": "Freedom Warrior Princess. \nPreserve, Protect & Defend the U. S. Constitution.  \nCat Lives Matter!", "favourites_count": 567, "followers_count": 1128, "friends_count": 2008, "id": 33579246, "lang": "en", "listed_count": 10, "name": "Sheasma", "profile_background_color": "000000", "profile_background_image_url": "http://abs.twimg.com/images/themes/theme19/bg.gif", "profile_background_tile": false, "profile_banner_url": "https://pbs.twimg.com/profile_banners/33579246/1414255467", "profile_image_url": "https://pbs.twimg.com/profile_images/428354984992702464/SNSJs87R_normal.jpeg", "profile_link_color": "4A913C", "profile_sidebar_fill_color": "000000", "profile_text_color": "000000", "protected": false, "screen_name": "Sheasma", "statuses_count": 6467, "time_zone": "Eastern Time (US & Canada)", "utc_offset": -18000}, "user_mentions": [{"id": 260562061, "name": "FAM Blog", "screen_name": "famblog"}]}
