{"created_at": "Mon Sep 14 16:07:43 +0000 2015", "favorited": false, "id": 643456097303588864, "in_reply_to_screen_name": "RealAlexJones", "in_reply_to_status_id": 643168117619752960, "in_reply_to_user_id": 109065990, "lang": "en", "retweeted": false, "source": "<a href=\"https://mobile.twitter.com\" rel=\"nofollow\">Mobile Web (M5)</a>", "text": "@RealAlexJones is it true that Greek customs captured 14 containers full of weapons &amp;ammo, disguised as plastic furniture going 2 ref camps?", "truncated": false, "user": {"created_at": "Fri Dec 30 04:52:34 +0000 2011", "default_profile": true, "default_profile_image": true, "description": "Fun loving!  Getting ready to remake and redo my life!!", "favourites_count": 13614, "followers_count": 422, "friends_count": 2242, "geo_enabled": true, "id": 450361974, "lang": "en", "listed_count": 10, "location": "San Antonio Tx....For now", "name": "mark lingerfelt", "profile_background_color": "C0DEED", "profile_background_image_url": "http://abs.twimg.com/images/themes/theme1/bg.png", "profile_background_tile": false, "profile_image_url": "https://abs.twimg.com/sticky/default_profile_images/default_profile_6_normal.png", "profile_link_color": "0084B4", "profile_sidebar_fill_color": "DDEEF6", "profile_text_color": "333333", "protected": false, "screen_name": "marklingerfelt", "statuses_count": 6922, "time_zone": "Eastern Time (US & Canada)", "utc_offset": -18000}, "user_mentions": [{"id": 109065990, "name": "Alex Jones", "screen_name": "RealAlexJones"}]}
{"created_at": "Mon Sep 14 20:16:35 +0000 2015", "favorited": false, "id": 643518726785093632, "lang": "en", "retweeted": false, "source": "<a href=\"http://mobile.twitter.com\" rel=\"nofollow\">Mobile Web</a>", "text": "Greek customs personnel &amp; police have captured 14 containers full of weapons &amp; ammunition destined for refugee camps http://t.co/o4ch5taO7X", "truncated": false, "urls": {"http://t.co/o4ch5taO7X": "http://tmblr.co/ZCyHAn1uDJPOP"}, "user": {"created_at": "Fri Jul 22 16:47:00 +0000 2011", "favourites_count": 136, "followers_count": 69, "friends_count": 268, "id": 340396769, "lang": "en", "listed_count": 3, "name": "Leigh Tucker", "profile_background_color": "9AE4E8", "profile_background_image_url": "http://abs.twimg.com/images/themes/theme16/bg.gif", "profile_background_tile": false, "profile_banner_url": "https://pbs.twimg.com/profile_banners/340396769/1410131362", "profile_image_url": "https://pbs.twimg.com/profile_images/508753924594339840/IQOVH-fY_normal.jpeg", "profile_link_color": "0084B4", "profile_sidebar_fill_color": "DDFFCC", "profile_text_color": "333333", "protected": false, "screen_name": "LeighTux", "statuses_count": 477, "time_zone": "London"}}
{"created_at": "Tue Sep 15 10:02:38 +0000 2015", "favorited": false, "id": 643726609556631552, "lang": "en", "retweeted": false, "source": "<a href=\"http://www.twitter.com\" rel=\"nofollow\">Twitter for BlackBerry</a>", "text": "Greek customs discovered containers full of weapons disguised as plastic furniture items to refugee camps in Europe.", "truncated": false, "user": {"created_at": "Sun Jul 12 23:49:52 +0000 2009", "description": "A Doodlebugger", "favourites_count": 65, "followers_count": 423, "friends_count": 582, "geo_enabled": true, "id": 56226898, "lang": "en", "listed_count": 3, "location": "Here", "name": "T-Royal Sobambo CFRN", "profile_background_color": "978D83", "profile_background_image_url": "http://pbs.twimg.com/profile_background_images/378800000108863468/e2ca9286622420f449f249019a430ba1.jpeg", "profile_background_tile": true, "profile_image_url": "https://pbs.twimg.com/profile_images/435332424885874688/fc49Y9H7_normal.jpeg", "profile_link_color": "843EB9", "profile_sidebar_fill_color": "82970A", "profile_text_color": "2E044F", "protected": false, "screen_name": "royalgulf", "statuses_count": 9402, "url": "http://t.co/lW3VAJkrEm"}}
{"created_at": "Tue Sep 15 14:25:04 +0000 2015", "favorite_count": 43, "favorited": false, "id": 643792655386738688, "lang": "en", "media": [{"display_url": "pic.twitter.com/EiAlEuvC5Y", "expanded_url": "http://twitter.com/marymauldin/status/643792655386738688/photo/1", "id": 643792578916126720, "id_str": "643792578916126720", "indices": [105, 127], "media_url": "http://pbs.twimg.com/media/CO818IdUEAA35-i.jpg", "media_url_https": "https://pbs.twimg.com/media/CO818IdUEAA35-i.jpg", "sizes": {"large": {"h": 433, "resize": "fit", "w": 650}, "medium": {"h": 399, "resize": "fit", "w": 600}, "small": {"h": 226, "resize": "fit", "w": 340}, "thumb": {"h": 150, "resize": "crop", "w": 150}}, "type": "photo", "url": "http://t.co/EiAlEuvC5Y"}, {"display_url": "pic.twitter.com/EiAlEuvC5Y", "expanded_url": "http://twitter.com/marymauldin/status/643792655386738688/photo/1", "id": 643792579348201472, "id_str": "643792579348201472", "indices": [105, 127], "media_url": "http://pbs.twimg.com/media/CO818KEVAAAxP7d.jpg", "media_url_https": "https://pbs.twimg.com/media/CO818KEVAAAxP7d.jpg", "sizes": {"large": {"h": 433, "resize": "fit", "w": 650}, "medium": {"h": 399, "resize": "fit", "w": 600}, "small": {"h": 226, "resize": "fit", "w": 340}, "thumb": {"h": 150, "resize": "crop", "w": 150}}, "type": "photo", "url": "http://t.co/EiAlEuvC5Y"}, {"display_url": "pic.twitter.com/EiAlEuvC5Y", "expanded_url": "http://twitter.com/marymauldin/status/643792655386738688/photo/1", "id": 643792579650174976, "id_str": "643792579650174976", "indices": [105, 127], "media_url": "http://pbs.twimg.com/media/CO818LMUwAA9_u5.jpg", "media_url_https": "https://pbs.twimg.com/media/CO818LMUwAA9_u5.jpg", "sizes": {"large": {"h": 481, "resize": "fit", "w": 720}, "medium": {"h": 400, "resize": "fit", "w": 600}, "small": {"h": 227, "resize": "fit", "w": 340}, "thumb": {"h": 150, "resize": "crop", "w": 150}}, "type": "photo", "url": "http://t.co/EiAlEuvC5Y"}], "retweet_count": 125, "retweeted": false, "source": "<a href=\"http://twitter.com/download/iphone\" rel=\"nofollow\">Twitter for iPhone</a>", "text": "Greek custom/ police capture 14 containers of weapons &amp; ammunition headed to refugee camps in Europe http://t.co/EiAlEuvC5Y", "truncated": false, "user": {"created_at": "Tue Jan 26 00:10:43 +0000 2010", "description": "Love my boy, dogs & country. I hope to live an honorable life & someday be remembered as an ardent follower of my Lord, Jesus Christ. Pray for Awakening #Israel", "favourites_count": 12288, "followers_count": 9917, "friends_count": 8813, "id": 108450607, "lang": "en", "listed_count": 257, "name": "Mary Mauldin", "profile_background_color": "B2DFDA", "profile_background_image_url": "http://pbs.twimg.com/profile_background_images/441555972/ive1.jpg", "profile_background_tile": false, "profile_image_url": "https://pbs.twimg.com/profile_images/378800000148188324/1f64dc3f372b5390234bbaff6b194fb8_normal.jpeg", "profile_link_color": "ED82D6", "profile_sidebar_fill_color": "0FF7FF", "profile_text_color": "000000", "protected": false, "screen_name": "marymauldin", "statuses_count": 95081, "time_zone": "Central Time (US & Canada)", "utc_offset": -21600}}
{"created_at": "Tue Sep 15 16:09:21 +0000 2015", "favorited": false, "id": 643818897095831553, "in_reply_to_screen_name": "gatewaypundit", "in_reply_to_user_id": 19211550, "lang": "en", "retweeted": false, "source": "<a href=\"http://twitter.com\" rel=\"nofollow\">Twitter Web Client</a>", "text": "@gatewaypundit Greek Coast Guard uncover \"refugee aid\" boxes containing weapons &amp; ammo headed for 'refugee' camps http://t.co/wUD4M7dbZx", "truncated": false, "urls": {"http://t.co/wUD4M7dbZx": "http://tinyurl.com/o7hjr6d"}, "user": {"created_at": "Tue Apr 09 09:17:21 +0000 2013", "default_profile": true, "favourites_count": 4925, "followers_count": 462, "friends_count": 62, "id": 1338726002, "lang": "en", "listed_count": 28, "name": "Teeveez AlBundi", "profile_background_color": "C0DEED", "profile_background_image_url": "http://abs.twimg.com/images/themes/theme1/bg.png", "profile_background_tile": false, "profile_image_url": "https://pbs.twimg.com/profile_images/3497780260/45bc4bc49711dec2ec1de46f9d72eef7_normal.jpeg", "profile_link_color": "0084B4", "profile_sidebar_fill_color": "DDEEF6", "profile_text_color": "333333", "protected": false, "screen_name": "TeeveezAlBundi", "statuses_count": 11170}, "user_mentions": [{"id": 19211550, "name": "Jim Hoft", "screen_name": "gatewaypundit"}]}
{"created_at": "Tue Sep 15 21:48:38 +0000 2015", "favorite_count": 6, "favorited": false, "id": 643904280727044096, "lang": "en", "media": [{"display_url": "pic.twitter.com/uTepqAigUp", "expanded_url": "http://twitter.com/snopes/status/643904280727044096/photo/1", "id": 643904280047431680, "id_str": "643904280047431680", "indices": [114, 136], "media_url": "http://pbs.twimg.com/media/CO-bh_mUsAAMLr9.png", "media_url_https": "https://pbs.twimg.com/media/CO-bh_mUsAAMLr9.png", "sizes": {"large": {"h": 305, "resize": "fit", "w": 648}, "medium": {"h": 282, "resize": "fit", "w": 600}, "small": {"h": 160, "resize": "fit", "w": 340}, "thumb": {"h": 150, "resize": "crop", "w": 150}}, "type": "photo", "url": "http://t.co/uTepqAigUp"}], "retweet_count": 11, "retweeted": false, "source": "<a href=\"http://twitter.com\" rel=\"nofollow\">Twitter Web Client</a>", "text": "The Coast Guard in Greece didn't seize guns disguised as furniture sent to refugee camps:\n\nhttp://t.co/xYZhXxNtzW http://t.co/uTepqAigUp", "truncated": false, "urls": {"http://t.co/xYZhXxNtzW": "http://m.snopes.com/greek-customs-weapons-refugees-furniture/"}, "user": {"created_at": "Thu Apr 03 17:00:11 +0000 2008", "description": "The definitive Internet reference source for urban legends, folklore, myths, rumors, and misinformation.", "favourites_count": 12, "followers_count": 118540, "id": 14294848, "lang": "en", "listed_count": 3234, "name": "snopes.com", "profile_background_color": "C7F2B1", "profile_background_image_url": "http://pbs.twimg.com/profile_background_images/840081271/d90db0daf7c81f75aea62d88c084e755.png", "profile_background_tile": false, "profile_banner_url": "https://pbs.twimg.com/profile_banners/14294848/1365714336", "profile_image_url": "https://pbs.twimg.com/profile_images/3507964197/be9d1840411bca2d8101382340f58957_normal.png", "profile_link_color": "81D159", "profile_sidebar_fill_color": "DDEEF6", "profile_text_color": "333333", "protected": false, "screen_name": "snopes", "statuses_count": 4852, "time_zone": "Pacific Time (US & Canada)", "url": "http://t.co/10Or8rl3ff", "utc_offset": -28800, "verified": true}}
{"created_at": "Tue Sep 15 21:52:14 +0000 2015", "favorited": false, "id": 643905186457628672, "lang": "en", "media": [{"display_url": "pic.twitter.com/w1pGPl6k2f", "expanded_url": "http://twitter.com/snopes/status/643904280727044096/photo/1", "id": 643904280047431680, "id_str": "643904280047431680", "indices": [114, 136], "media_url": "http://pbs.twimg.com/media/CO-bh_mUsAAMLr9.png", "media_url_https": "https://pbs.twimg.com/media/CO-bh_mUsAAMLr9.png", "sizes": {"large": {"h": 305, "resize": "fit", "w": 648}, "medium": {"h": 282, "resize": "fit", "w": 600}, "small": {"h": 160, "resize": "fit", "w": 340}, "thumb": {"h": 150, "resize": "crop", "w": 150}}, "source_status_id": 643904280727044096, "source_status_id_str": "643904280727044096", "source_user_id": 14294848, "source_user_id_str": "14294848", "type": "photo", "url": "http://t.co/w1pGPl6k2f"}], "retweeted": false, "source": "<a href=\"http://ifttt.com\" rel=\"nofollow\">IFTTT</a>", "text": "The Coast Guard in Greece didn't seize guns disguised as furniture sent to refugee camps:\n\nhttp://t.co/TVhSpwMIxs http://t.co/w1pGPl6k2f", "truncated": false, "urls": {"http://t.co/TVhSpwMIxs": "http://m.snopes.com/greek-customs-weapons-refugees-furniture/"}, "user": {"created_at": "Mon Jan 28 14:40:52 +0000 2013", "default_profile": true, "description": "I tweet about all things in Cape Town. #CapeFact The Mother City. For info in events: #CapeEvents. Also #capetownfairy me for any quests", "favourites_count": 661, "followers_count": 2622, "friends_count": 2736, "id": 1128255048, "lang": "en", "listed_count": 89, "location": "Cape Town", "name": "Cape Town Fairy", "profile_background_color": "C0DEED", "profile_background_image_url": "http://abs.twimg.com/images/themes/theme1/bg.png", "profile_background_tile": false, "profile_banner_url": "https://pbs.twimg.com/profile_banners/1128255048/1359385361", "profile_image_url": "https://pbs.twimg.com/profile_images/3175089990/ddcec258fe970be63266d343dc094577_normal.png", "profile_link_color": "0084B4", "profile_sidebar_fill_color": "DDEEF6", "profile_text_color": "333333", "protected": false, "screen_name": "CapeTownFairy", "statuses_count": 72931, "time_zone": "Athens", "utc_offset": 7200}}
{"created_at": "Tue Sep 15 23:18:58 +0000 2015", "favorited": false, "hashtags": ["Snopes"], "id": 643927012533510144, "lang": "en", "retweeted": false, "source": "<a href=\"http://momknowsshopping.com/UFOParanormal\" rel=\"nofollow\">UFOParanormalNews</a>", "text": "#Snopes  Fact Check: Do photographs show a cache of weapons uncovered by the Coast Guard http://t.co/rhZvnA4MxM", "truncated": false, "urls": {"http://t.co/rhZvnA4MxM": "http://goo.gl/7ChUve"}, "user": {"created_at": "Wed Oct 01 13:34:46 +0000 2014", "description": "We provide the latest news on #UFO's, #Paranormal, #Ghosts and everything that is strange or weird. Plus #Software, #Camera's and #Computer items.", "favourites_count": 3, "followers_count": 12319, "friends_count": 11490, "geo_enabled": true, "id": 2797963749, "lang": "en", "listed_count": 413, "name": "UFO Paranormal", "profile_background_color": "000000", "profile_background_image_url": "http://abs.twimg.com/images/themes/theme1/bg.png", "profile_background_tile": false, "profile_banner_url": "https://pbs.twimg.com/profile_banners/2797963749/1419626990", "profile_image_url": "https://pbs.twimg.com/profile_images/517311356198858753/OkOTy-q6_normal.jpeg", "profile_link_color": "FA743E", "profile_sidebar_fill_color": "000000", "profile_text_color": "000000", "protected": false, "screen_name": "UFOParanormNews", "statuses_count": 76951, "url": "https://t.co/I4rmVNErYQ"}}
{"created_at": "Wed Sep 16 00:50:59 +0000 2015", "favorited": false, "id": 643950170590330880, "lang": "en", "retweeted": false, "source": "<a href=\"http://www.facebook.com/twitter\" rel=\"nofollow\">Facebook</a>", "text": "FALSE: Greece Seizes Weapons Headed for Refugee Camps http://t.co/guzdX36jOg", "truncated": false, "urls": {"http://t.co/guzdX36jOg": "http://fb.me/7qSvQZ72A"}, "user": {"created_at": "Thu Oct 09 19:55:59 +0000 2008", "description": "Fangirl geek, cat owner, Sci-Fi/Fantasy oriented, unappologetic liberal.  There may very well be more, but you'll have to discover that yourself.  Cheers.", "favourites_count": 1328, "followers_count": 232, "friends_count": 548, "geo_enabled": true, "id": 16672654, "lang": "en", "listed_count": 6, "location": "Boones Mill, VA", "name": "Mary Davis", "profile_background_color": "F2EEEF", "profile_background_image_url": "http://pbs.twimg.com/profile_background_images/623956419/xd95c7fc91d4729bc65d792df401c425.jpg", "profile_background_tile": false, "profile_banner_url": "https://pbs.twimg.com/profile_banners/16672654/1439666328", "profile_image_url": "https://pbs.twimg.com/profile_images/662090378997334016/BfeFi-jP_normal.jpg", "profile_link_color": "7B8894", "profile_sidebar_fill_color": "FAFAFA", "profile_text_color": "8F2E2E", "protected": false, "screen_name": "Imzadimylove", "statuses_count": 19557, "time_zone": "Eastern Time (US & Canada)", "utc_offset": -18000}}
{"created_at": "Wed Sep 16 03:35:10 +0000 2015", "favorited": false, "id": 643991488678879232, "lang": "en", "retweeted": false, "source": "<a href=\"http://twitterfeed.com\" rel=\"nofollow\">twitterfeed</a>", "text": "Trojan Discourse: Fact Check: Do photographs show a cache of weapons uncovered by the Coast Guard in Greece, d... http://t.co/KOZphDxEZ4", "truncated": false, "urls": {"http://t.co/KOZphDxEZ4": "http://bit.ly/1UUcKqV"}, "user": {"created_at": "Fri Jul 09 20:06:00 +0000 2010", "description": "Mother, Cleaner and Wife. I kiss my child's boo-boo, regardless of where it is. My feet stick to the kitchen floor and I don't care.", "followers_count": 1379, "friends_count": 1862, "id": 164801854, "lang": "en", "listed_count": 25, "location": "Springfield, MA", "name": "Maddison Foster", "profile_background_color": "1A213D", "profile_background_image_url": "http://pbs.twimg.com/profile_background_images/162921629/mqbeachplay_1.br.jpg", "profile_background_tile": false, "profile_image_url": "https://pbs.twimg.com/profile_images/1065898269/n757108587_824998_9871_normal.jpg", "profile_link_color": "AD2A25", "profile_sidebar_fill_color": "E7A3A0", "profile_text_color": "1A213D", "protected": false, "screen_name": "maddisonfoster", "statuses_count": 10624, "time_zone": "Eastern Time (US & Canada)", "utc_offset": -18000}}
{"created_at": "Wed Sep 16 15:36:10 +0000 2015", "favorited": false, "id": 644172935796817920, "in_reply_to_screen_name": "bmainian", "in_reply_to_status_id": 644162613455269888, "in_reply_to_user_id": 483002865, "lang": "en", "retweeted": false, "source": "<a href=\"http://twitter.com/#!/download/ipad\" rel=\"nofollow\">Twitter for iPad</a>", "text": "@bmainian @gavtheukip http://t.co/CWfIOY69Yv The original report was slightly different.", "truncated": false, "urls": {"http://t.co/CWfIOY69Yv": "http://m.snopes.com/greek-customs-weapons-refugees-furniture/"}, "user": {"created_at": "Sun Mar 16 09:32:10 +0000 2014", "default_profile": true, "description": "Retired IT consultant, chef and musician. Piss-takes a speciality. Observer of life's stupidities. Ads get blocked. NOT a parody account!", "favourites_count": 22636, "followers_count": 536, "friends_count": 376, "id": 2392430371, "lang": "en", "listed_count": 35, "location": "UK", "name": "The Saint", "profile_background_color": "C0DEED", "profile_background_image_url": "http://abs.twimg.com/images/themes/theme1/bg.png", "profile_background_tile": false, "profile_banner_url": "https://pbs.twimg.com/profile_banners/2392430371/1439555276", "profile_image_url": "https://pbs.twimg.com/profile_images/674978489926295552/qwAk9hY4_normal.jpg", "profile_link_color": "0084B4", "profile_sidebar_fill_color": "DDEEF6", "profile_text_color": "333333", "protected": false, "screen_name": "PaulReadST", "statuses_count": 26275, "time_zone": "London", "url": "https://t.co/kvWUzIGOwo"}, "user_mentions": [{"id": 483002865, "name": "Bill Main-Ian", "screen_name": "bmainian"}]}
{"created_at": "Wed Sep 16 17:01:08 +0000 2015", "favorite_count": 1, "favorited": false, "id": 644194318853500928, "lang": "en", "retweeted": false, "source": "<a href=\"http://twitter.com\" rel=\"nofollow\">Twitter Web Client</a>", "text": "Greek customs discover containers full of weapons marked as aid and destined for refugee camps in europe\nhttps://t.co/r7ai2Wofxr", "truncated": false, "urls": {"https://t.co/r7ai2Wofxr": "https://www.youtube.com/watch?v=xn-UCR5p0y0"}, "user": {"created_at": "Wed Feb 18 13:43:03 +0000 2015", "default_profile": true, "description": "Hate politicians,Nair do well's parasites that I have to pay for \nWorked for43 years never been unemployed,only have two children as that is all we could afford", "favourites_count": 11810, "followers_count": 712, "friends_count": 142, "geo_enabled": true, "id": 3044648764, "lang": "en-gb", "listed_count": 14, "name": "BEN E FITS", "profile_background_color": "C0DEED", "profile_background_image_url": "http://abs.twimg.com/images/themes/theme1/bg.png", "profile_background_tile": false, "profile_banner_url": "https://pbs.twimg.com/profile_banners/3044648764/1443901570", "profile_image_url": "https://pbs.twimg.com/profile_images/597539306383769603/8VZtP5Cf_normal.jpg", "profile_link_color": "0084B4", "profile_sidebar_fill_color": "DDEEF6", "profile_text_color": "333333", "protected": false, "screen_name": "andyjonesKipper", "statuses_count": 10021, "time_zone": "Pacific Time (US & Canada)", "utc_offset": -28800}}
{"created_at": "Wed Sep 16 17:57:07 +0000 2015", "favorited": false, "id": 644208404538462208, "lang": "en", "retweeted": false, "source": "<a href=\"http://twitter.com/download/android\" rel=\"nofollow\">Twitter for Android</a>", "text": "14 containers full of weapons destined for REFUGEE camps in EUROPE have been intercepted at greek customs...This is Really whats happening.", "truncated": false, "user": {"created_at": "Wed Jul 06 18:02:26 +0000 2011", "default_profile": true, "description": "(ex)lead vocals for SKAband @TheROUGHKUTZ .Skinhead,loverOf2tone and skinhead reg/ska,MUFC,no politics,no religion,no bullshit.OFFENSIVE", "favourites_count": 1376, "followers_count": 942, "friends_count": 1161, "geo_enabled": true, "id": 330488182, "lang": "en", "listed_count": 23, "location": "stoke on trent ENGLAND ", "name": "BRIGGA/STRANGE FACTS", "profile_background_color": "C0DEED", "profile_background_image_url": "http://abs.twimg.com/images/themes/theme1/bg.png", "profile_background_tile": false, "profile_banner_url": "https://pbs.twimg.com/profile_banners/330488182/1370510230", "profile_image_url": "https://pbs.twimg.com/profile_images/3760567584/ec598a87ff1b87d0cb5a91ea2f39962c_normal.jpeg", "profile_link_color": "0084B4", "profile_sidebar_fill_color": "DDEEF6", "profile_text_color": "333333", "protected": false, "screen_name": "briggakutz", "statuses_count": 34721, "time_zone": "London", "url": "https://t.co/oWVcQ6KZp2"}}
{"created_at": "Wed Sep 16 19:20:29 +0000 2015", "favorite_count": 47, "favorited": false, "id": 644229386149888001, "lang": "en", "media": [{"display_url": "pic.twitter.com/4USZMmtNMg", "expanded_url": "http://twitter.com/Maxicat/status/644229386149888001/photo/1", "id": 644229385449422848, "id_str": "644229385449422848", "indices": [116, 138], "media_url": "http://pbs.twimg.com/media/CPDDNnmUwAA8_RG.jpg", "media_url_https": "https://pbs.twimg.com/media/CPDDNnmUwAA8_RG.jpg", "sizes": {"large": {"h": 433, "resize": "fit", "w": 650}, "medium": {"h": 399, "resize": "fit", "w": 600}, "small": {"h": 226, "resize": "fit", "w": 340}, "thumb": {"h": 150, "resize": "crop", "w": 150}}, "type": "photo", "url": "http://t.co/4USZMmtNMg"}], "retweet_count": 109, "retweeted": false, "source": "<a href=\"http://twitter.com\" rel=\"nofollow\">Twitter Web Client</a>", "text": "Greek customs captured containers of weapons and ammunition going to refugee camps in Europe as \"plastic furniture\" http://t.co/4USZMmtNMg", "truncated": false, "user": {"created_at": "Sun Dec 21 14:27:45 +0000 2008", "description": "Georgia native and former liberal with eyes wide open. Blocked by several notable libtards including @DWStweets @TheRealRoseanne @OccupyOakland", "favourites_count": 26082, "followers_count": 14578, "friends_count": 15383, "id": 18284815, "lang": "en", "listed_count": 179, "location": "Oakland, Taxifornia", "name": "Sherri C", "profile_background_color": "FF6699", "profile_background_image_url": "http://abs.twimg.com/images/themes/theme11/bg.gif", "profile_background_tile": true, "profile_banner_url": "https://pbs.twimg.com/profile_banners/18284815/1451771367", "profile_image_url": "https://pbs.twimg.com/profile_images/666059297420238848/nh_B1c9B_normal.png", "profile_link_color": "B40B43", "profile_sidebar_fill_color": "E5507E", "profile_text_color": "362720", "protected": false, "screen_name": "Maxicat", "statuses_count": 47662, "time_zone": "America/Los_Angeles", "url": "https://t.co/baO8CEh1W7", "utc_offset": -28800}}
{"created_at": "Wed Sep 16 19:54:44 +0000 2015", "favorited": false, "hashtags": ["TheLead", "nyc"], "id": 644238004534517760, "lang": "en", "media": [{"display_url": "pic.twitter.com/r2F1duIUSs", "expanded_url": "http://twitter.com/Maxicat/status/644229386149888001/photo/1", "id": 644229385449422848, "id_str": "644229385449422848", "indices": [101, 123], "media_url": "http://pbs.twimg.com/media/CPDDNnmUwAA8_RG.jpg", "media_url_https": "https://pbs.twimg.com/media/CPDDNnmUwAA8_RG.jpg", "sizes": {"large": {"h": 433, "resize": "fit", "w": 650}, "medium": {"h": 399, "resize": "fit", "w": 600}, "small": {"h": 226, "resize": "fit", "w": 340}, "thumb": {"h": 150, "resize": "crop", "w": 150}}, "source_status_id": 644229386149888001, "source_status_id_str": "644229386149888001", "source_user_id": 18284815, "source_user_id_str": "18284815", "type": "photo", "url": "http://t.co/r2F1duIUSs"}], "possibly_sensitive": true, "retweeted": false, "source": "<a href=\"http://twitter.com\" rel=\"nofollow\">Twitter Web Client</a>", "text": "Greek customs captured containers of weapons going to refugee camps in Europe as \"plastic furniture\" http://t.co/r2F1duIUSs #TheLead #nyc", "truncated": false, "user": {"created_at": "Wed Apr 01 18:04:24 +0000 2009", "default_profile": true, "description": "I love America. I love our Constitution. I hope we return to our LIBERTARIAN values!", "favourites_count": 1452, "followers_count": 8135, "friends_count": 3295, "geo_enabled": true, "id": 28156710, "lang": "en", "listed_count": 514, "location": "Corrupt City of Chicago", "name": "Truth Tweeter", "profile_background_color": "C0DEED", "profile_background_image_url": "http://abs.twimg.com/images/themes/theme1/bg.png", "profile_background_tile": false, "profile_image_url": "https://pbs.twimg.com/profile_images/661208289/get_fileCA9BVO04_normal.jpg", "profile_link_color": "0084B4", "profile_sidebar_fill_color": "DDEEF6", "profile_text_color": "333333", "protected": false, "screen_name": "redostoneage", "statuses_count": 406998, "time_zone": "Central Time (US & Canada)", "utc_offset": -21600}}
{"created_at": "Wed Sep 16 20:04:08 +0000 2015", "favorite_count": 1, "favorited": false, "id": 644240369966710784, "in_reply_to_screen_name": "realDonaldTrump", "in_reply_to_user_id": 25073877, "lang": "en", "retweet_count": 2, "retweeted": false, "source": "<a href=\"http://twitter.com\" rel=\"nofollow\">Twitter Web Client</a>", "text": "@realDonaldTrump Greek customs captured weapons and ammunition going to refugee camps in Europe as plastic furniture\nhttps://t.co/6zlhx4ruwP", "truncated": false, "urls": {"https://t.co/6zlhx4ruwP": "https://twitter.com/Maxicat/status/644229386149888001"}, "user": {"created_at": "Thu Apr 16 00:46:23 +0000 2009", "description": "American Constitutional Traditional Conservative-  \u201cThose who control the present, control the past and those who control the past control the future.\u201d", "favourites_count": 242, "followers_count": 1570, "friends_count": 1797, "id": 31579226, "lang": "en", "listed_count": 81, "location": "Portland Oregon", "name": "Vhalen", "profile_background_color": "152029", "profile_background_image_url": "http://abs.twimg.com/images/themes/theme9/bg.gif", "profile_background_tile": false, "profile_banner_url": "https://pbs.twimg.com/profile_banners/31579226/1386806650", "profile_image_url": "https://pbs.twimg.com/profile_images/378800000859810670/DXPO0w7w_normal.jpeg", "profile_link_color": "3B94D9", "profile_sidebar_fill_color": "24210E", "profile_text_color": "89B5A2", "protected": false, "screen_name": "VaughnVhalen", "statuses_count": 37785, "time_zone": "Pacific Time (US & Canada)", "url": "http://t.co/kaIcLqnG2l", "utc_offset": -28800}, "user_mentions": [{"id": 25073877, "name": "Donald J. Trump", "screen_name": "realDonaldTrump"}]}
{"created_at": "Wed Sep 16 20:05:07 +0000 2015", "favorited": false, "id": 644240618982539264, "in_reply_to_screen_name": "marklevinshow", "in_reply_to_user_id": 38495835, "lang": "en", "retweeted": false, "source": "<a href=\"http://twitter.com\" rel=\"nofollow\">Twitter Web Client</a>", "text": "@marklevinshow https://t.co/6zlhx4ruwP  Greek customs captured weapons and ammunition going to refugee camps in Europe as plastic furniture", "truncated": false, "urls": {"https://t.co/6zlhx4ruwP": "https://twitter.com/Maxicat/status/644229386149888001"}, "user": {"created_at": "Thu Apr 16 00:46:23 +0000 2009", "description": "American Constitutional Traditional Conservative-  \u201cThose who control the present, control the past and those who control the past control the future.\u201d", "favourites_count": 242, "followers_count": 1570, "friends_count": 1797, "id": 31579226, "lang": "en", "listed_count": 81, "location": "Portland Oregon", "name": "Vhalen", "profile_background_color": "152029", "profile_background_image_url": "http://abs.twimg.com/images/themes/theme9/bg.gif", "profile_background_tile": false, "profile_banner_url": "https://pbs.twimg.com/profile_banners/31579226/1386806650", "profile_image_url": "https://pbs.twimg.com/profile_images/378800000859810670/DXPO0w7w_normal.jpeg", "profile_link_color": "3B94D9", "profile_sidebar_fill_color": "24210E", "profile_text_color": "89B5A2", "protected": false, "screen_name": "VaughnVhalen", "statuses_count": 37785, "time_zone": "Pacific Time (US & Canada)", "url": "http://t.co/kaIcLqnG2l", "utc_offset": -28800}, "user_mentions": [{"id": 38495835, "name": "Mark R. Levin", "screen_name": "marklevinshow"}]}
{"created_at": "Wed Sep 16 20:05:13 +0000 2015", "favorited": false, "id": 644240643850526720, "in_reply_to_screen_name": "IngrahamAngle", "in_reply_to_user_id": 50769180, "lang": "en", "retweeted": false, "source": "<a href=\"http://twitter.com\" rel=\"nofollow\">Twitter Web Client</a>", "text": "@IngrahamAngle https://t.co/6zlhx4ruwP  Greek customs captured weapons and ammunition going to refugee camps in Europe as plastic furniture", "truncated": false, "urls": {"https://t.co/6zlhx4ruwP": "https://twitter.com/Maxicat/status/644229386149888001"}, "user": {"created_at": "Thu Apr 16 00:46:23 +0000 2009", "description": "American Constitutional Traditional Conservative-  \u201cThose who control the present, control the past and those who control the past control the future.\u201d", "favourites_count": 242, "followers_count": 1570, "friends_count": 1797, "id": 31579226, "lang": "en", "listed_count": 81, "location": "Portland Oregon", "name": "Vhalen", "profile_background_color": "152029", "profile_background_image_url": "http://abs.twimg.com/images/themes/theme9/bg.gif", "profile_background_tile": false, "profile_banner_url": "https://pbs.twimg.com/profile_banners/31579226/1386806650", "profile_image_url": "https://pbs.twimg.com/profile_images/378800000859810670/DXPO0w7w_normal.jpeg", "profile_link_color": "3B94D9", "profile_sidebar_fill_color": "24210E", "profile_text_color": "89B5A2", "protected": false, "screen_name": "VaughnVhalen", "statuses_count": 37785, "time_zone": "Pacific Time (US & Canada)", "url": "http://t.co/kaIcLqnG2l", "utc_offset": -28800}, "user_mentions": [{"id": 50769180, "name": "Laura Ingraham", "screen_name": "IngrahamAngle"}]}
{"created_at": "Wed Sep 16 20:05:17 +0000 2015", "favorited": false, "id": 644240661189799936, "in_reply_to_screen_name": "ASavageNation", "in_reply_to_user_id": 66019768, "lang": "en", "retweeted": false, "source": "<a href=\"http://twitter.com\" rel=\"nofollow\">Twitter Web Client</a>", "text": "@ASavageNation https://t.co/6zlhx4ruwP  Greek customs captured weapons and ammunition going to refugee camps in Europe as plastic furniture", "truncated": false, "urls": {"https://t.co/6zlhx4ruwP": "https://twitter.com/Maxicat/status/644229386149888001"}, "user": {"created_at": "Thu Apr 16 00:46:23 +0000 2009", "description": "American Constitutional Traditional Conservative-  \u201cThose who control the present, control the past and those who control the past control the future.\u201d", "favourites_count": 242, "followers_count": 1570, "friends_count": 1797, "id": 31579226, "lang": "en", "listed_count": 81, "location": "Portland Oregon", "name": "Vhalen", "profile_background_color": "152029", "profile_background_image_url": "http://abs.twimg.com/images/themes/theme9/bg.gif", "profile_background_tile": false, "profile_banner_url": "https://pbs.twimg.com/profile_banners/31579226/1386806650", "profile_image_url": "https://pbs.twimg.com/profile_images/378800000859810670/DXPO0w7w_normal.jpeg", "profile_link_color": "3B94D9", "profile_sidebar_fill_color": "24210E", "profile_text_color": "89B5A2", "protected": false, "screen_name": "VaughnVhalen", "statuses_count": 37785, "time_zone": "Pacific Time (US & Canada)", "url": "http://t.co/kaIcLqnG2l", "utc_offset": -28800}, "user_mentions": [{"id": 66019768, "name": "Michael Savage", "screen_name": "ASavageNation"}]}
{"created_at": "Wed Sep 16 20:05:22 +0000 2015", "favorited": false, "id": 644240683088285696, "in_reply_to_screen_name": "TomiLahren", "in_reply_to_user_id": 468646961, "lang": "en", "retweet_count": 1, "retweeted": false, "source": "<a href=\"http://twitter.com\" rel=\"nofollow\">Twitter Web Client</a>", "text": "@TomiLahren https://t.co/6zlhx4ruwP  Greek customs captured weapons and ammunition going to refugee camps in Europe as plastic furniture", "truncated": false, "urls": {"https://t.co/6zlhx4ruwP": "https://twitter.com/Maxicat/status/644229386149888001"}, "user": {"created_at": "Thu Apr 16 00:46:23 +0000 2009", "description": "American Constitutional Traditional Conservative-  \u201cThose who control the present, control the past and those who control the past control the future.\u201d", "favourites_count": 242, "followers_count": 1570, "friends_count": 1797, "id": 31579226, "lang": "en", "listed_count": 81, "location": "Portland Oregon", "name": "Vhalen", "profile_background_color": "152029", "profile_background_image_url": "http://abs.twimg.com/images/themes/theme9/bg.gif", "profile_background_tile": false, "profile_banner_url": "https://pbs.twimg.com/profile_banners/31579226/1386806650", "profile_image_url": "https://pbs.twimg.com/profile_images/378800000859810670/DXPO0w7w_normal.jpeg", "profile_link_color": "3B94D9", "profile_sidebar_fill_color": "24210E", "profile_text_color": "89B5A2", "protected": false, "screen_name": "VaughnVhalen", "statuses_count": 37785, "time_zone": "Pacific Time (US & Canada)", "url": "http://t.co/kaIcLqnG2l", "utc_offset": -28800}, "user_mentions": [{"id": 468646961, "name": "Tomi Lahren", "screen_name": "TomiLahren"}]}
{"created_at": "Wed Sep 16 20:05:33 +0000 2015", "favorited": false, "id": 644240725719158784, "in_reply_to_screen_name": "JaySekulow", "in_reply_to_user_id": 171632862, "lang": "en", "retweeted": false, "source": "<a href=\"http://twitter.com\" rel=\"nofollow\">Twitter Web Client</a>", "text": "@JaySekulow https://t.co/6zlhx4ruwP  Greek customs captured weapons and ammunition going to refugee camps in Europe as plastic furniture", "truncated": false, "urls": {"https://t.co/6zlhx4ruwP": "https://twitter.com/Maxicat/status/644229386149888001"}, "user": {"created_at": "Thu Apr 16 00:46:23 +0000 2009", "description": "American Constitutional Traditional Conservative-  \u201cThose who control the present, control the past and those who control the past control the future.\u201d", "favourites_count": 242, "followers_count": 1570, "friends_count": 1797, "id": 31579226, "lang": "en", "listed_count": 81, "location": "Portland Oregon", "name": "Vhalen", "profile_background_color": "152029", "profile_background_image_url": "http://abs.twimg.com/images/themes/theme9/bg.gif", "profile_background_tile": false, "profile_banner_url": "https://pbs.twimg.com/profile_banners/31579226/1386806650", "profile_image_url": "https://pbs.twimg.com/profile_images/378800000859810670/DXPO0w7w_normal.jpeg", "profile_link_color": "3B94D9", "profile_sidebar_fill_color": "24210E", "profile_text_color": "89B5A2", "protected": false, "screen_name": "VaughnVhalen", "statuses_count": 37785, "time_zone": "Pacific Time (US & Canada)", "url": "http://t.co/kaIcLqnG2l", "utc_offset": -28800}, "user_mentions": [{"id": 171632862, "name": "Jay Sekulow", "screen_name": "JaySekulow"}]}
{"created_at": "Thu Sep 17 01:58:59 +0000 2015", "favorited": false, "id": 644329672461815808, "lang": "en", "retweeted": false, "source": "<a href=\"http://www.facebook.com/twitter\" rel=\"nofollow\">Facebook</a>", "text": "Destined for refugee camps.....\nGreek customs personnel and police have captured 14 containers full of weapons and... http://t.co/Ivvxdiwj8e", "truncated": false, "urls": {"http://t.co/Ivvxdiwj8e": "http://fb.me/F5sr7G5w"}, "user": {"created_at": "Sat Mar 14 18:06:18 +0000 2009", "favourites_count": 4, "followers_count": 70, "friends_count": 111, "geo_enabled": true, "id": 24404612, "lang": "en", "listed_count": 5, "location": "washington", "name": "Alexander York", "profile_background_color": "EBEBEB", "profile_background_image_url": "http://abs.twimg.com/images/themes/theme7/bg.gif", "profile_background_tile": false, "profile_banner_url": "https://pbs.twimg.com/profile_banners/24404612/1452134782", "profile_image_url": "https://pbs.twimg.com/profile_images/684928574827020289/a9LMqY7p_normal.jpg", "profile_link_color": "990000", "profile_sidebar_fill_color": "F3F3F3", "profile_text_color": "333333", "protected": false, "screen_name": "Cherep", "statuses_count": 3873, "time_zone": "Pacific Time (US & Canada)", "url": "https://t.co/6ZniZ27hUb", "utc_offset": -28800}}
{"created_at": "Thu Sep 17 08:43:57 +0000 2015", "favorite_count": 2, "favorited": false, "hashtags": ["wrightstuff"], "id": 644431586461634560, "lang": "en", "media": [{"display_url": "pic.twitter.com/HX3K3IMzVD", "expanded_url": "http://twitter.com/Maxicat/status/644229386149888001/photo/1", "id": 644229385449422848, "id_str": "644229385449422848", "indices": [115, 137], "media_url": "http://pbs.twimg.com/media/CPDDNnmUwAA8_RG.jpg", "media_url_https": "https://pbs.twimg.com/media/CPDDNnmUwAA8_RG.jpg", "sizes": {"large": {"h": 433, "resize": "fit", "w": 650}, "medium": {"h": 399, "resize": "fit", "w": 600}, "small": {"h": 226, "resize": "fit", "w": 340}, "thumb": {"h": 150, "resize": "crop", "w": 150}}, "source_status_id": 644229386149888001, "source_status_id_str": "644229386149888001", "source_user_id": 18284815, "source_user_id_str": "18284815", "type": "photo", "url": "http://t.co/HX3K3IMzVD"}], "retweet_count": 3, "retweeted": false, "source": "<a href=\"http://twitter.com/download/android\" rel=\"nofollow\">Twitter for Android</a>", "text": "Now Greek customs captured weapons/ammunition going to refugee camps in Europe as \"plastic furniture\" #wrightstuff http://t.co/HX3K3IMzVD", "truncated": false, "user": {"created_at": "Thu Dec 19 06:11:44 +0000 2013", "default_profile": true, "description": "Fool me once-shame you...Ya fooled me,can't get fooled again...\n\n200mph club,let the insanity continue pro immigration,not mass immigration", "favourites_count": 132, "followers_count": 258, "friends_count": 564, "geo_enabled": true, "id": 2232795580, "lang": "en", "listed_count": 4, "name": "SP33D_STORM", "profile_background_color": "C0DEED", "profile_background_image_url": "http://abs.twimg.com/images/themes/theme1/bg.png", "profile_background_tile": false, "profile_banner_url": "https://pbs.twimg.com/profile_banners/2232795580/1438347341", "profile_image_url": "https://pbs.twimg.com/profile_images/627100319940509696/OWvTVy9W_normal.jpg", "profile_link_color": "0084B4", "profile_sidebar_fill_color": "DDEEF6", "profile_text_color": "333333", "protected": false, "screen_name": "SP33D_STORM", "statuses_count": 4103}}
{"created_at": "Thu Sep 17 18:31:47 +0000 2015", "favorited": false, "id": 644579519471439872, "lang": "en", "retweeted": false, "source": "<a href=\"http://www.facebook.com/twitter\" rel=\"nofollow\">Facebook</a>", "text": "FALSE: Greece Seizes Weapons Headed for Refugee Camps http://t.co/LgQkr9LisT", "truncated": false, "urls": {"http://t.co/LgQkr9LisT": "http://fb.me/7w7QeBdSk"}, "user": {"created_at": "Thu Jan 13 15:34:32 +0000 2011", "description": "Freelance photographer based in the Canary Islands Love to shoot Portraits Weddings Models Couples  Photojournalism Still life Landscape Interiors 1on1 tuition", "favourites_count": 14, "followers_count": 356, "friends_count": 713, "geo_enabled": true, "id": 237761706, "lang": "en", "listed_count": 20, "location": "Tenerife", "name": "Phil Crean", "profile_background_color": "352726", "profile_background_image_url": "http://pbs.twimg.com/profile_background_images/201390636/SJAbrilDusk002TWT.jpg", "profile_background_tile": true, "profile_banner_url": "https://pbs.twimg.com/profile_banners/237761706/1398250224", "profile_image_url": "https://pbs.twimg.com/profile_images/458921393690644481/578cxdO3_normal.jpeg", "profile_link_color": "D02B55", "profile_sidebar_fill_color": "99CC33", "profile_text_color": "3E4415", "protected": false, "screen_name": "PhilTCrean", "statuses_count": 1903, "time_zone": "Dublin", "url": "http://t.co/TnNpSYdbCl"}}
{"created_at": "Sat Sep 19 11:20:01 +0000 2015", "favorited": false, "id": 645195636074266624, "lang": "en", "retweeted": false, "source": "<a href=\"http://twitter.com\" rel=\"nofollow\">Twitter Web Client</a>", "text": "Trojan Discourse http://t.co/r8YlLcTf9I via @po_st", "truncated": false, "urls": {"http://t.co/r8YlLcTf9I": "http://po.st/RkYPzN"}, "user": {"created_at": "Tue Jan 26 21:13:32 +0000 2010", "favourites_count": 142, "followers_count": 76, "friends_count": 207, "geo_enabled": true, "id": 108718968, "lang": "en", "listed_count": 2, "name": "Heather Meacham", "profile_background_color": "012413", "profile_background_image_url": "http://pbs.twimg.com/profile_background_images/289278720/IMG_0105_1.JPG", "profile_background_tile": true, "profile_banner_url": "https://pbs.twimg.com/profile_banners/108718968/1433636929", "profile_image_url": "https://pbs.twimg.com/profile_images/607343411717402625/jjG3TVwL_normal.jpg", "profile_link_color": "2D7504", "profile_sidebar_fill_color": "FCF5C5", "profile_text_color": "043D0B", "protected": false, "screen_name": "HMeacham", "statuses_count": 686}, "user_mentions": [{"id": 386270039, "name": "Po.st", "screen_name": "Po_st"}]}
