{"created_at": "Sun Sep 13 22:42:22 +0000 2015", "favorited": false, "id": 643193026836205569, "lang": "en", "retweeted": false, "source": "<a href=\"http://www.facebook.com/twitter\" rel=\"nofollow\">Facebook</a>", "text": "Dunkin Donuts Declares Bankruptcy: Closing all Stores by Late November http://t.co/RgsuYeqmdq", "truncated": false, "urls": {"http://t.co/RgsuYeqmdq": "http://fb.me/7CvaTN46Q"}, "user": {"created_at": "Sun Mar 18 21:26:12 +0000 2012", "default_profile": true, "favourites_count": 44, "followers_count": 95, "friends_count": 435, "geo_enabled": true, "id": 528863332, "lang": "en", "location": "Arlington, VA", "name": "Jonathan K. Fields", "profile_background_color": "C0DEED", "profile_background_image_url": "http://abs.twimg.com/images/themes/theme1/bg.png", "profile_background_tile": false, "profile_banner_url": "https://pbs.twimg.com/profile_banners/528863332/1361325587", "profile_image_url": "https://pbs.twimg.com/profile_images/3280524648/5a0167449b05f1a15f686fb6bd80c9ce_normal.jpeg", "profile_link_color": "0084B4", "profile_sidebar_fill_color": "DDEEF6", "profile_text_color": "333333", "protected": false, "screen_name": "JFieldsFoto", "statuses_count": 2735, "time_zone": "Eastern Time (US & Canada)", "url": "http://t.co/HWichc2Nkv", "utc_offset": -18000}}
{"created_at": "Mon Sep 14 00:55:31 +0000 2015", "favorited": false, "id": 643226535407783936, "lang": "en", "retweeted": false, "source": "<a href=\"http://www.facebook.com/twitter\" rel=\"nofollow\">Facebook</a>", "text": "Dunkin Donuts Declares Bankruptcy: Closing all Stores by Late November http://t.co/FTONqGwvU9", "truncated": false, "urls": {"http://t.co/FTONqGwvU9": "http://fb.me/2FuMkyohU"}, "user": {"created_at": "Sun Jun 19 05:10:02 +0000 2011", "default_profile": true, "favourites_count": 23, "followers_count": 90, "friends_count": 366, "id": 320027313, "lang": "en", "listed_count": 4, "location": "Philadelphia", "name": "JohnTrasser", "profile_background_color": "C0DEED", "profile_background_image_url": "http://abs.twimg.com/images/themes/theme1/bg.png", "profile_background_tile": false, "profile_image_url": "https://pbs.twimg.com/profile_images/572940850356879360/UeeN139m_normal.jpeg", "profile_link_color": "0084B4", "profile_sidebar_fill_color": "DDEEF6", "profile_text_color": "333333", "protected": false, "screen_name": "JTrasser", "statuses_count": 4771}}
{"created_at": "Mon Sep 14 01:29:52 +0000 2015", "favorited": false, "id": 643235182644891648, "lang": "en", "retweeted": false, "source": "<a href=\"http://www.facebook.com/twitter\" rel=\"nofollow\">Facebook</a>", "text": "Dunkin Donuts Declares Bankruptcy: Closing all Stores by Late November http://t.co/tiLPHWCWPo", "truncated": false, "urls": {"http://t.co/tiLPHWCWPo": "http://fb.me/BAaTXu7R"}, "user": {"created_at": "Mon Jul 27 09:27:59 +0000 2009", "description": "18; Imma boss; Young nigga out here getting it", "favourites_count": 15, "followers_count": 63, "friends_count": 198, "id": 60547206, "lang": "en", "listed_count": 1, "name": "Im_$w\u20ac\u00aev\u20ac_nIgg@", "profile_background_color": "1A1B1F", "profile_background_image_url": "http://abs.twimg.com/images/themes/theme9/bg.gif", "profile_background_tile": false, "profile_banner_url": "https://pbs.twimg.com/profile_banners/60547206/1386528777", "profile_image_url": "https://pbs.twimg.com/profile_images/378800000846842248/75b144ac847f8c286e80d1f71136ff86_normal.jpeg", "profile_link_color": "2FC2EF", "profile_sidebar_fill_color": "252429", "profile_text_color": "666666", "protected": false, "screen_name": "Ka5p3r25", "statuses_count": 3502, "url": "http://t.co/0pqT7hqDBW"}}
{"created_at": "Mon Sep 14 04:05:30 +0000 2015", "favorited": false, "id": 643274349177372672, "lang": "en", "retweeted": false, "source": "<a href=\"http://www.facebook.com/twitter\" rel=\"nofollow\">Facebook</a>", "text": "Dunkin Donuts Declares Bankruptcy: Closing all Stores by Late November http://t.co/DlwcbB4Quu", "truncated": false, "urls": {"http://t.co/DlwcbB4Quu": "http://fb.me/6MInZk3WO"}, "user": {"created_at": "Thu Nov 03 03:48:58 +0000 2011", "default_profile": true, "favourites_count": 5, "followers_count": 77, "friends_count": 236, "id": 403878327, "lang": "en", "listed_count": 11, "name": "Marie andothers", "profile_background_color": "C0DEED", "profile_background_image_url": "http://abs.twimg.com/images/themes/theme1/bg.png", "profile_background_tile": false, "profile_image_url": "https://pbs.twimg.com/profile_images/463347728664117249/lKPdLLUf_normal.jpeg", "profile_link_color": "0084B4", "profile_sidebar_fill_color": "DDEEF6", "profile_text_color": "333333", "protected": false, "screen_name": "TsunaSawada7", "statuses_count": 76488}}
{"created_at": "Mon Sep 14 05:29:50 +0000 2015", "favorited": false, "id": 643295570887634944, "lang": "en", "retweeted": false, "source": "<a href=\"http://www.facebook.com/twitter\" rel=\"nofollow\">Facebook</a>", "text": "Dunkin Donuts Declares Bankruptcy: Closing all Stores by Late November http://t.co/4CvzozmGzD", "truncated": false, "urls": {"http://t.co/4CvzozmGzD": "http://fb.me/7QoFfMxfO"}, "user": {"created_at": "Mon Apr 27 18:54:54 +0000 2009", "default_profile": true, "favourites_count": 576, "followers_count": 56, "friends_count": 683, "geo_enabled": true, "id": 35824341, "lang": "en", "name": "dayla cherry", "profile_background_color": "C0DEED", "profile_background_image_url": "http://abs.twimg.com/images/themes/theme1/bg.png", "profile_background_tile": false, "profile_image_url": "https://pbs.twimg.com/profile_images/1257432296/2123855382_normal.jpg", "profile_link_color": "0084B4", "profile_sidebar_fill_color": "DDEEF6", "profile_text_color": "333333", "protected": false, "screen_name": "wordlife1975", "statuses_count": 13935, "time_zone": "Pacific Time (US & Canada)", "utc_offset": -28800}}
{"created_at": "Mon Sep 14 06:23:47 +0000 2015", "favorited": false, "id": 643309147123875840, "lang": "en", "retweeted": false, "source": "<a href=\"http://www.facebook.com/twitter\" rel=\"nofollow\">Facebook</a>", "text": "Dunkin Donuts Declares Bankruptcy: Closing all Stores by Late November http://t.co/RGN8pHUp0z", "truncated": false, "urls": {"http://t.co/RGN8pHUp0z": "http://fb.me/If0OqSmR"}, "user": {"created_at": "Wed Jan 20 20:33:12 +0000 2010", "default_profile": true, "description": "Union Delegate, Certified Nurses Assistant, Certified Funeral Technician, Certified Sous Chef, Ordained Charismatic Minister, Trained Brick Masonry Attendant,", "favourites_count": 790, "followers_count": 614, "friends_count": 1747, "geo_enabled": true, "id": 106826569, "lang": "en", "listed_count": 14, "location": "Brighton/Boston, Massachusetts", "name": "Gerald E. Grooms", "profile_background_color": "C0DEED", "profile_background_image_url": "http://abs.twimg.com/images/themes/theme1/bg.png", "profile_background_tile": false, "profile_banner_url": "https://pbs.twimg.com/profile_banners/106826569/1434669077", "profile_image_url": "https://pbs.twimg.com/profile_images/637814859191726080/eZHScPfC_normal.jpg", "profile_link_color": "0084B4", "profile_sidebar_fill_color": "DDEEF6", "profile_text_color": "333333", "protected": false, "screen_name": "PlatinumChef", "statuses_count": 7549}}
{"created_at": "Mon Sep 14 11:02:40 +0000 2015", "favorited": false, "id": 643379332669313024, "lang": "en", "retweeted": false, "source": "<a href=\"http://www.facebook.com/twitter\" rel=\"nofollow\">Facebook</a>", "text": "Dunkin Donuts Declares Bankruptcy: Closing all Stores by Late November http://t.co/uBdHvatvTq", "truncated": false, "urls": {"http://t.co/uBdHvatvTq": "http://fb.me/3PxMsBm13"}, "user": {"created_at": "Fri Apr 24 19:07:11 +0000 2009", "description": "I'm 100% right, 19.7% of the time. Lord save me. (https://t.co/U3TJnuZbV6). In God we trust!", "favourites_count": 201, "followers_count": 263, "friends_count": 1026, "geo_enabled": true, "id": 35008206, "lang": "en", "listed_count": 3, "location": "Lowell, MA.", "name": "Doughlas Taylor", "profile_background_color": "1A1B1F", "profile_background_image_url": "http://pbs.twimg.com/profile_background_images/34379639/doug.jpg", "profile_background_tile": false, "profile_banner_url": "https://pbs.twimg.com/profile_banners/35008206/1434757252", "profile_image_url": "https://pbs.twimg.com/profile_images/654063220722954240/Knkil_GY_normal.jpg", "profile_link_color": "2FC2EF", "profile_sidebar_fill_color": "252429", "profile_text_color": "666666", "protected": false, "screen_name": "doughlas", "statuses_count": 7149, "url": "https://t.co/THonj524jF"}}
{"created_at": "Mon Sep 14 13:27:58 +0000 2015", "favorited": false, "id": 643415897093246976, "lang": "en", "retweeted": false, "source": "<a href=\"http://www.facebook.com/twitter\" rel=\"nofollow\">Facebook</a>", "text": "Dunkin Donuts Declares Bankruptcy: Closing all Stores by Late November http://t.co/dzsKVQfEZN", "truncated": false, "urls": {"http://t.co/dzsKVQfEZN": "http://fb.me/1XgRN2DrC"}, "user": {"created_at": "Wed Jun 13 08:07:38 +0000 2012", "description": "Front porch swing operator...", "favourites_count": 151, "followers_count": 182, "friends_count": 497, "id": 607002176, "lang": "en", "listed_count": 9, "location": "Pennsylvania, US", "name": "Lynette Davis", "profile_background_color": "463E3C", "profile_background_image_url": "http://pbs.twimg.com/profile_background_images/378800000181038665/FrZfel5B.jpeg", "profile_background_tile": true, "profile_banner_url": "https://pbs.twimg.com/profile_banners/607002176/1391475579", "profile_image_url": "https://pbs.twimg.com/profile_images/641959280250372097/5csC84nY_normal.jpg", "profile_link_color": "89F1C0", "profile_sidebar_fill_color": "C3F291", "profile_text_color": "B4F8BD", "protected": false, "screen_name": "LynetteDavis5", "statuses_count": 28040, "time_zone": "Eastern Time (US & Canada)", "url": "https://t.co/tO8N33Fs1P", "utc_offset": -18000}}
{"created_at": "Mon Sep 14 13:48:58 +0000 2015", "favorited": false, "id": 643421182625054720, "lang": "en", "retweeted": false, "source": "<a href=\"http://www.facebook.com/twitter\" rel=\"nofollow\">Facebook</a>", "text": "Dunkin Donuts Declares Bankruptcy: Closing all Stores by Late November http://t.co/twQLf7x4HW", "truncated": false, "urls": {"http://t.co/twQLf7x4HW": "http://fb.me/3JY3bb94G"}, "user": {"created_at": "Thu Apr 23 07:54:12 +0000 2009", "description": "#Graeginator 26 years old! Autistic! #Vine & #Instagram! #YouTuber #BullsNation #Chicago #Chicagoan #NWI #SignHolder / #SignWaver for @JodisIce & @SportClips", "favourites_count": 2996, "followers_count": 1590, "friends_count": 2083, "geo_enabled": true, "id": 34563848, "lang": "en", "listed_count": 32, "location": "Chicago, IL / Northwest, IN", "name": "Matthew Graegin", "profile_background_color": "022330", "profile_background_image_url": "http://pbs.twimg.com/profile_background_images/790041764/cbcd0baae5738f4307f55ae13c24e839.png", "profile_background_tile": true, "profile_banner_url": "https://pbs.twimg.com/profile_banners/34563848/1391483864", "profile_image_url": "https://pbs.twimg.com/profile_images/675184358370734081/SaaGNalT_normal.jpg", "profile_link_color": "0084B4", "profile_sidebar_fill_color": "DDEEF6", "profile_text_color": "333333", "protected": false, "screen_name": "Graeginator", "statuses_count": 59874, "time_zone": "Central Time (US & Canada)", "url": "https://t.co/7Oasum6igX", "utc_offset": -21600}}
{"created_at": "Mon Sep 14 17:01:58 +0000 2015", "favorited": false, "id": 643469749565808641, "lang": "en", "retweeted": false, "source": "<a href=\"http://www.facebook.com/twitter\" rel=\"nofollow\">Facebook</a>", "text": "Dunkin Donuts Declares Bankruptcy: Closing all Stores by Late November http://t.co/pxzmvBEVq5", "truncated": false, "urls": {"http://t.co/pxzmvBEVq5": "http://fb.me/4K779Zz9W"}, "user": {"created_at": "Sun Apr 06 00:05:26 +0000 2014", "description": "Family is Forever, at Oh-Mara's you're not just a customer you are family. Most pieces are handmade with a lot of tlc.", "followers_count": 31, "friends_count": 156, "id": 2429613121, "lang": "en", "name": "Oh-Mara's Jewelry", "profile_background_color": "000000", "profile_background_image_url": "http://abs.twimg.com/images/themes/theme1/bg.png", "profile_background_tile": false, "profile_banner_url": "https://pbs.twimg.com/profile_banners/2429613121/1421254553", "profile_image_url": "https://pbs.twimg.com/profile_images/544299277892087808/4r1BY0I8_normal.jpeg", "profile_link_color": "9266CC", "profile_sidebar_fill_color": "000000", "profile_text_color": "000000", "protected": false, "screen_name": "ohmaras", "statuses_count": 2409, "time_zone": "Eastern Time (US & Canada)", "url": "http://t.co/AmDgJSYuzP", "utc_offset": -18000}}
{"created_at": "Mon Sep 14 17:41:02 +0000 2015", "favorited": false, "id": 643479582474170368, "lang": "en", "retweeted": false, "source": "<a href=\"http://www.facebook.com/twitter\" rel=\"nofollow\">Facebook</a>", "text": "Dunkin Donuts Declares Bankruptcy: Closing all Stores by Late November http://t.co/Lh3ykbIPUG", "truncated": false, "urls": {"http://t.co/Lh3ykbIPUG": "http://fb.me/4cCtR38Y0"}, "user": {"created_at": "Sat Sep 28 00:12:48 +0000 2013", "description": "FOLLOW ME ON ALL SOCIALMEDIA! #SupportLocalMusik #80HD #BonannoRhymeFamily 2015 #EyeOfTheStorm MixTape coming June 2015!!!", "favourites_count": 405, "followers_count": 325, "friends_count": 1971, "id": 1912612404, "lang": "en", "listed_count": 2, "location": "www.Facebook.com/amilazzo1", "name": "Milly Bonanno", "profile_background_color": "000000", "profile_background_image_url": "http://abs.twimg.com/images/themes/theme1/bg.png", "profile_background_tile": false, "profile_banner_url": "https://pbs.twimg.com/profile_banners/1912612404/1429445942", "profile_image_url": "https://pbs.twimg.com/profile_images/589667333724971008/YlQTLMUv_normal.png", "profile_link_color": "94D487", "profile_sidebar_fill_color": "000000", "profile_text_color": "000000", "protected": false, "screen_name": "DocTones", "statuses_count": 3272, "time_zone": "Eastern Time (US & Canada)", "url": "http://t.co/EOwrFPTxBa", "utc_offset": -18000}}
{"created_at": "Mon Sep 14 17:44:35 +0000 2015", "favorited": false, "id": 643480477555253249, "lang": "en", "retweeted": false, "source": "<a href=\"http://www.facebook.com/twitter\" rel=\"nofollow\">Facebook</a>", "text": "Dunkin Donuts Declares Bankruptcy: Closing all Stores by Late November http://t.co/Onygqvi4nz", "truncated": false, "urls": {"http://t.co/Onygqvi4nz": "http://fb.me/3uiLFuULK"}, "user": {"created_at": "Sun Mar 25 23:36:02 +0000 2012", "default_profile_image": true, "followers_count": 16, "friends_count": 30, "geo_enabled": true, "id": 536739404, "lang": "en", "name": "Rachael Huntley", "profile_background_color": "8B542B", "profile_background_image_url": "http://abs.twimg.com/images/themes/theme8/bg.gif", "profile_background_tile": false, "profile_image_url": "https://abs.twimg.com/sticky/default_profile_images/default_profile_5_normal.png", "profile_link_color": "9D582E", "profile_sidebar_fill_color": "EADEAA", "profile_text_color": "333333", "protected": false, "screen_name": "RachaelHuntley1", "statuses_count": 2346, "time_zone": "Eastern Time (US & Canada)", "utc_offset": -18000}}
{"created_at": "Mon Sep 14 17:46:07 +0000 2015", "favorited": false, "id": 643480862655426561, "in_reply_to_screen_name": "UACoachMurphy", "in_reply_to_user_id": 42958895, "lang": "en", "retweeted": false, "source": "<a href=\"http://twitter.com/download/iphone\" rel=\"nofollow\">Twitter for iPhone</a>", "text": "@UACoachMurphy oh no!!\nhttp://t.co/i1AzpNZcgm", "truncated": false, "urls": {"http://t.co/i1AzpNZcgm": "http://fcxnewsonline.com/220/dunkin-donuts-declares-bankruptcy-closing-all-stores-by-late-november"}, "user": {"created_at": "Thu Jun 14 17:47:06 +0000 2012", "default_profile": true, "favourites_count": 560, "followers_count": 22, "friends_count": 95, "id": 608344102, "lang": "en", "listed_count": 1, "location": "Boston, MA", "name": "William Swymer", "profile_background_color": "C0DEED", "profile_background_image_url": "http://abs.twimg.com/images/themes/theme1/bg.png", "profile_background_tile": false, "profile_banner_url": "https://pbs.twimg.com/profile_banners/608344102/1429151731", "profile_image_url": "https://pbs.twimg.com/profile_images/608649524282818561/ryTR5pTM_normal.jpg", "profile_link_color": "0084B4", "profile_sidebar_fill_color": "DDEEF6", "profile_text_color": "333333", "protected": false, "screen_name": "billswymer", "statuses_count": 521}, "user_mentions": [{"id": 42958895, "name": "Patrick Murphy", "screen_name": "UACoachMurphy"}]}
{"created_at": "Mon Sep 14 18:02:07 +0000 2015", "favorited": false, "id": 643484890491658240, "lang": "en", "retweeted": false, "source": "<a href=\"http://www.facebook.com/twitter\" rel=\"nofollow\">Facebook</a>", "text": "Dunkin Donuts Declares Bankruptcy: Closing all Stores by Late November http://t.co/1Cm6WAGuwW", "truncated": false, "urls": {"http://t.co/1Cm6WAGuwW": "http://fb.me/3KBg6IWC1"}, "user": {"created_at": "Tue Jan 20 22:53:22 +0000 2009", "default_profile": true, "favourites_count": 20, "followers_count": 504, "friends_count": 737, "id": 19262944, "lang": "en", "listed_count": 21, "name": "Tequila Mockingbird", "profile_background_color": "C0DEED", "profile_background_image_url": "http://abs.twimg.com/images/themes/theme1/bg.png", "profile_background_tile": false, "profile_banner_url": "https://pbs.twimg.com/profile_banners/19262944/1398393092", "profile_image_url": "https://pbs.twimg.com/profile_images/279352409/over_the_rainbow_normal.jpg", "profile_link_color": "0084B4", "profile_sidebar_fill_color": "DDEEF6", "profile_text_color": "333333", "protected": false, "screen_name": "Tequilatattoo", "statuses_count": 63350}}
{"created_at": "Mon Sep 14 18:20:35 +0000 2015", "favorited": false, "id": 643489534265700352, "lang": "en", "retweeted": false, "source": "<a href=\"http://www.facebook.com/twitter\" rel=\"nofollow\">Facebook</a>", "text": "Dunkin Donuts Declares Bankruptcy: Closing all Stores by Late November http://t.co/2wIxKgnY9b", "truncated": false, "urls": {"http://t.co/2wIxKgnY9b": "http://fb.me/1PDymUTmu"}, "user": {"created_at": "Tue Aug 30 17:17:45 +0000 2011", "description": "28 yr. old South Korean whom has a T.B.I. Also who loves the NEW YORK YANKEES....", "favourites_count": 21, "followers_count": 45, "friends_count": 380, "id": 364975853, "lang": "en", "listed_count": 5, "location": "DelMar, NY", "name": "Bart Goldstein", "profile_background_color": "131516", "profile_background_image_url": "http://abs.twimg.com/images/themes/theme14/bg.gif", "profile_background_tile": true, "profile_image_url": "https://pbs.twimg.com/profile_images/3574501732/38bc3582f19f6f20b15490dbd6f7b0bb_normal.jpeg", "profile_link_color": "009999", "profile_sidebar_fill_color": "EFEFEF", "profile_text_color": "333333", "protected": false, "screen_name": "xbza006", "statuses_count": 9886, "url": "http://t.co/6eFH3PiLgZ"}}
{"created_at": "Mon Sep 14 19:04:48 +0000 2015", "favorited": false, "id": 643500663410966528, "lang": "en", "retweeted": false, "source": "<a href=\"http://www.facebook.com/twitter\" rel=\"nofollow\">Facebook</a>", "text": "Dunkin Donuts Declares Bankruptcy: Closing all Stores by Late November http://t.co/R8fiJr8XeM", "truncated": false, "urls": {"http://t.co/R8fiJr8XeM": "http://fb.me/4JZctHBcr"}, "user": {"created_at": "Mon Oct 08 15:10:35 +0000 2012", "default_profile": true, "favourites_count": 29, "followers_count": 268, "friends_count": 1251, "geo_enabled": true, "id": 868144224, "lang": "en", "name": "Sonya Parks", "profile_background_color": "C0DEED", "profile_background_image_url": "http://abs.twimg.com/images/themes/theme1/bg.png", "profile_background_tile": false, "profile_banner_url": "https://pbs.twimg.com/profile_banners/868144224/1361325555", "profile_image_url": "https://pbs.twimg.com/profile_images/3280527892/738b4d853ebe3138730ae5d44b393e05_normal.jpeg", "profile_link_color": "0084B4", "profile_sidebar_fill_color": "DDEEF6", "profile_text_color": "333333", "protected": false, "screen_name": "SonyaParks4166", "statuses_count": 4337, "url": "http://t.co/LsyjIg15Sx"}}
{"created_at": "Mon Sep 14 19:36:44 +0000 2015", "favorited": false, "id": 643508698963443713, "lang": "en", "retweeted": false, "source": "<a href=\"http://www.facebook.com/twitter\" rel=\"nofollow\">Facebook</a>", "text": "Oh hell no!!! http://t.co/nGOwGkzns3", "truncated": false, "urls": {"http://t.co/nGOwGkzns3": "http://fb.me/4qUrOsQB2"}, "user": {"created_at": "Thu Aug 05 19:47:59 +0000 2010", "description": "20yrs old. Pisces. I'm a gay guy...deal with it or move along! Blog: https://t.co/ed5cqoTgJG", "favourites_count": 2063, "followers_count": 858, "friends_count": 1993, "geo_enabled": true, "id": 175155964, "lang": "en", "listed_count": 7, "location": "Cape Cod, MA", "name": "Gabe Trinidad", "profile_background_color": "9AB4B4", "profile_background_image_url": "http://pbs.twimg.com/profile_background_images/510093153970311168/S_wtFbEz.jpeg", "profile_background_tile": true, "profile_banner_url": "https://pbs.twimg.com/profile_banners/175155964/1449412965", "profile_image_url": "https://pbs.twimg.com/profile_images/673513966438625280/Vcbd_3dn_normal.jpg", "profile_link_color": "ABB8C2", "profile_sidebar_fill_color": "111111", "profile_text_color": "FFF1CA", "protected": false, "screen_name": "GabeTrinidad", "statuses_count": 6590, "time_zone": "Pacific Time (US & Canada)", "url": "https://t.co/kHiJB25e0S", "utc_offset": -28800}}
{"created_at": "Mon Sep 14 20:21:39 +0000 2015", "favorited": false, "id": 643520002574970880, "lang": "en", "retweeted": false, "source": "<a href=\"http://www.facebook.com/twitter\" rel=\"nofollow\">Facebook</a>", "text": "Dunkin Donuts Declares Bankruptcy: Closing all Stores by Late November http://t.co/orDCJfVWPQ", "truncated": false, "urls": {"http://t.co/orDCJfVWPQ": "http://fb.me/6JOXEimCl"}, "user": {"created_at": "Sun Sep 05 11:47:11 +0000 2010", "description": "like cooking anything to do with the out doors", "favourites_count": 8069, "followers_count": 445, "friends_count": 491, "geo_enabled": true, "id": 187145932, "lang": "en", "listed_count": 2, "location": "bethany ct", "name": "jose quinones 111", "profile_background_color": "1A1B1F", "profile_background_image_url": "http://abs.twimg.com/images/themes/theme9/bg.gif", "profile_background_tile": false, "profile_banner_url": "https://pbs.twimg.com/profile_banners/187145932/1398701436", "profile_image_url": "https://pbs.twimg.com/profile_images/460813337295466499/MdAx6d4t_normal.jpeg", "profile_link_color": "2FC2EF", "profile_sidebar_fill_color": "252429", "profile_text_color": "666666", "protected": false, "screen_name": "joseaquinones11", "statuses_count": 34593}}
{"created_at": "Mon Sep 14 20:37:03 +0000 2015", "favorited": false, "id": 643523880259350528, "lang": "en", "retweeted": false, "source": "<a href=\"http://www.facebook.com/twitter\" rel=\"nofollow\">Facebook</a>", "text": "Dunkin Donuts Declares Bankruptcy: Closing all Stores by Late November http://t.co/HWKfbsdrO8", "truncated": false, "urls": {"http://t.co/HWKfbsdrO8": "http://fb.me/27YqMhegj"}, "user": {"created_at": "Wed Jun 27 23:07:42 +0000 2012", "default_profile": true, "description": "Waffle House. Tattoos. Music.  Movies.  Netflix. Friends. Family.  Love.  Cats.", "followers_count": 4, "id": 620424269, "lang": "en", "location": "Asheville , NC", "name": "Sam Homan", "profile_background_color": "C0DEED", "profile_background_image_url": "http://abs.twimg.com/images/themes/theme1/bg.png", "profile_background_tile": false, "profile_image_url": "https://pbs.twimg.com/profile_images/555071139610107905/X8EkzdZY_normal.jpeg", "profile_link_color": "0084B4", "profile_sidebar_fill_color": "DDEEF6", "profile_text_color": "333333", "protected": false, "screen_name": "xO_sNh_Ox", "statuses_count": 3731, "time_zone": "Atlantic Time (Canada)", "utc_offset": -14400}}
{"created_at": "Mon Sep 14 20:50:49 +0000 2015", "favorite_count": 1, "favorited": false, "id": 643527343303196672, "lang": "en", "retweeted": false, "source": "<a href=\"http://twitter.com/download/iphone\" rel=\"nofollow\">Twitter for iPhone</a>", "text": "Dunkin Donuts Declares Bankruptcy: Closing all Stores by Late November http://t.co/shygyrUOYQ", "truncated": false, "urls": {"http://t.co/shygyrUOYQ": "http://fb.me/6JOXEimCl"}, "user": {"created_at": "Thu Feb 23 20:33:25 +0000 2012", "default_profile": true, "description": "Waiting on my moment... John 3:16    #CowboysNation", "favourites_count": 2175, "followers_count": 438, "friends_count": 230, "geo_enabled": true, "id": 501126329, "lang": "en", "listed_count": 4, "location": "New Castle PA", "name": "Joey \u303d\ufe0forgan", "profile_background_color": "C0DEED", "profile_background_image_url": "http://abs.twimg.com/images/themes/theme1/bg.png", "profile_background_tile": false, "profile_banner_url": "https://pbs.twimg.com/profile_banners/501126329/1448906361", "profile_image_url": "https://pbs.twimg.com/profile_images/686551159679660033/RzxzoZTx_normal.jpg", "profile_link_color": "0084B4", "profile_sidebar_fill_color": "DDEEF6", "profile_text_color": "333333", "protected": false, "screen_name": "Jo_Mo15", "statuses_count": 6638}}
{"created_at": "Mon Sep 14 21:13:29 +0000 2015", "favorited": false, "id": 643533048554909701, "lang": "en", "retweeted": false, "source": "<a href=\"http://www.facebook.com/twitter\" rel=\"nofollow\">Facebook</a>", "text": "Dunkin Donuts Declares Bankruptcy: Closing all Stores by Late November http://t.co/ZF9Ezkj6sz", "truncated": false, "urls": {"http://t.co/ZF9Ezkj6sz": "http://fb.me/3eJVOQCKu"}, "user": {"created_at": "Mon Mar 28 00:36:40 +0000 2011", "default_profile": true, "description": "Whaddup doe.... Its RB im bout 23 and work like crazy  just so i can get that  u know that wat im about", "favourites_count": 14, "followers_count": 39, "friends_count": 91, "id": 273183342, "lang": "en", "name": "Robert Smith", "profile_background_color": "C0DEED", "profile_background_image_url": "http://abs.twimg.com/images/themes/theme1/bg.png", "profile_background_tile": false, "profile_image_url": "https://pbs.twimg.com/profile_images/3442904323/4d4aad0d8bd68892b18b7f04a79156c3_normal.jpeg", "profile_link_color": "0084B4", "profile_sidebar_fill_color": "DDEEF6", "profile_text_color": "333333", "protected": false, "screen_name": "DJMRSMIHT", "statuses_count": 1009, "time_zone": "Pacific Time (US & Canada)", "utc_offset": -28800}}
{"created_at": "Mon Sep 14 21:26:01 +0000 2015", "favorited": false, "id": 643536201765515264, "lang": "en", "retweeted": false, "source": "<a href=\"http://www.facebook.com/twitter\" rel=\"nofollow\">Facebook</a>", "text": "Dunkin Donuts Declares Bankruptcy: Closing all Stores by Late November http://t.co/bsZ3yjpUVV", "truncated": false, "urls": {"http://t.co/bsZ3yjpUVV": "http://fb.me/46hd3CBOx"}, "user": {"created_at": "Wed Jan 21 22:35:54 +0000 2009", "description": "I made it!!! Eleanor S. Cynamon-Julian, PhD", "followers_count": 31, "friends_count": 89, "geo_enabled": true, "id": 19312404, "lang": "en", "listed_count": 2, "location": "Los Angeles CA", "name": "Dr. Ellie C-J", "profile_background_color": "9F22D1", "profile_background_image_url": "http://pbs.twimg.com/profile_background_images/378800000130883795/fkqOWOAS.jpeg", "profile_background_tile": false, "profile_banner_url": "https://pbs.twimg.com/profile_banners/19312404/1447181352", "profile_image_url": "https://pbs.twimg.com/profile_images/664152249543725056/Eq0ZElnO_normal.jpg", "profile_link_color": "9266CC", "profile_sidebar_fill_color": "DED1D5", "profile_text_color": "000000", "protected": false, "screen_name": "elliej021958", "statuses_count": 2873, "time_zone": "Pacific Time (US & Canada)", "url": "https://t.co/ayJY9ILC1U", "utc_offset": -28800}}
{"created_at": "Mon Sep 14 21:54:50 +0000 2015", "favorited": false, "id": 643543454975459328, "lang": "en", "retweeted": false, "source": "<a href=\"http://www.facebook.com/twitter\" rel=\"nofollow\">Facebook</a>", "text": "Dunkin Donuts Declares Bankruptcy: Closing all Stores by Late November http://t.co/N0viqO1YJJ", "truncated": false, "urls": {"http://t.co/N0viqO1YJJ": "http://fb.me/46gYgC0OV"}, "user": {"created_at": "Sat Aug 27 06:46:28 +0000 2011", "favourites_count": 23, "followers_count": 21, "friends_count": 41, "geo_enabled": true, "id": 362930994, "lang": "en", "name": "james merithew", "profile_background_color": "000000", "profile_background_image_url": "http://abs.twimg.com/images/themes/theme6/bg.gif", "profile_background_tile": false, "profile_banner_url": "https://pbs.twimg.com/profile_banners/362930994/1421345445", "profile_image_url": "https://pbs.twimg.com/profile_images/555986227216646144/KkhsitBE_normal.jpeg", "profile_link_color": "FA743E", "profile_sidebar_fill_color": "000000", "profile_text_color": "000000", "protected": false, "screen_name": "MerithewJames", "statuses_count": 539, "time_zone": "Eastern Time (US & Canada)", "url": "http://t.co/SAyp7qUITb", "utc_offset": -18000}}
{"created_at": "Mon Sep 14 22:33:12 +0000 2015", "favorited": false, "id": 643553107490701313, "lang": "en", "retweeted": false, "source": "<a href=\"http://www.facebook.com/twitter\" rel=\"nofollow\">Facebook</a>", "text": "Dunkin Donuts Declares Bankruptcy: Closing all Stores by Late November http://t.co/ErULTcmDnt", "truncated": false, "urls": {"http://t.co/ErULTcmDnt": "http://fb.me/6QUlyTBxV"}, "user": {"created_at": "Sat Aug 28 22:53:00 +0000 2010", "favourites_count": 192, "followers_count": 326, "friends_count": 569, "geo_enabled": true, "id": 184188944, "lang": "en", "listed_count": 2, "location": "New York City, New York ", "name": "JoeyStyles", "profile_background_color": "131516", "profile_background_image_url": "http://abs.twimg.com/images/themes/theme14/bg.gif", "profile_background_tile": true, "profile_banner_url": "https://pbs.twimg.com/profile_banners/184188944/1406922862", "profile_image_url": "https://pbs.twimg.com/profile_images/680980641656209409/4IiEH31f_normal.jpg", "profile_link_color": "009999", "profile_sidebar_fill_color": "EFEFEF", "profile_text_color": "333333", "protected": false, "screen_name": "JoeyStylesNY", "statuses_count": 3361, "time_zone": "Quito", "url": "https://t.co/ALtqBJf38v", "utc_offset": -18000}}
{"created_at": "Mon Sep 14 22:53:33 +0000 2015", "favorited": false, "id": 643558231122444288, "lang": "en", "retweeted": false, "source": "<a href=\"http://www.facebook.com/twitter\" rel=\"nofollow\">Facebook</a>", "text": "Dunkin Donuts Declares Bankruptcy: Closing all Stores by Late November http://t.co/uSHD6PV5WX", "truncated": false, "urls": {"http://t.co/uSHD6PV5WX": "http://fb.me/6K34WOJV0"}, "user": {"created_at": "Tue Sep 15 06:10:46 +0000 2009", "favourites_count": 6, "followers_count": 26, "friends_count": 250, "id": 74381167, "lang": "en", "name": "Kristin Conway", "profile_background_color": "460D14", "profile_background_image_url": "http://pbs.twimg.com/profile_background_images/168719597/x6418ac77137d3cdba1a0eb668e4e1b4.jpg", "profile_background_tile": false, "profile_image_url": "https://pbs.twimg.com/profile_images/2371268559/image_normal.jpg", "profile_link_color": "B36E32", "profile_sidebar_fill_color": "4A131B", "profile_text_color": "B5903F", "protected": false, "screen_name": "Krisl31", "statuses_count": 1674, "time_zone": "Atlantic Time (Canada)", "utc_offset": -14400}}
{"created_at": "Tue Sep 15 00:19:37 +0000 2015", "favorited": false, "id": 643579891049345025, "lang": "en", "retweeted": false, "source": "<a href=\"http://www.facebook.com/twitter\" rel=\"nofollow\">Facebook</a>", "text": "Dunkin Donuts Declares Bankruptcy: Closing all Stores by Late November http://t.co/euTg45MBM2", "truncated": false, "urls": {"http://t.co/euTg45MBM2": "http://fb.me/yXQv2kAr"}, "user": {"created_at": "Thu Apr 30 18:36:26 +0000 2009", "default_profile": true, "favourites_count": 6, "followers_count": 68, "friends_count": 125, "geo_enabled": true, "id": 36735927, "lang": "en", "listed_count": 3, "name": "Charles Evans", "profile_background_color": "C0DEED", "profile_background_image_url": "http://abs.twimg.com/images/themes/theme1/bg.png", "profile_background_tile": false, "profile_image_url": "https://pbs.twimg.com/profile_images/3508237514/e1f60df41ca5a82997a27ff2cdf2e56b_normal.jpeg", "profile_link_color": "0084B4", "profile_sidebar_fill_color": "DDEEF6", "profile_text_color": "333333", "protected": false, "screen_name": "charles1950", "statuses_count": 29973}}
{"created_at": "Tue Sep 15 01:06:27 +0000 2015", "favorited": false, "id": 643591674657132544, "lang": "en", "retweeted": false, "source": "<a href=\"http://www.facebook.com/twitter\" rel=\"nofollow\">Facebook</a>", "text": "Dunkin Donuts Declares Bankruptcy: Closing all Stores by Late November http://t.co/4cUChvM3pI", "truncated": false, "urls": {"http://t.co/4cUChvM3pI": "http://fb.me/IoJt7Vh5"}, "user": {"created_at": "Mon Jan 28 06:56:57 +0000 2013", "default_profile": true, "favourites_count": 42, "followers_count": 90, "friends_count": 116, "id": 1127230692, "lang": "en", "name": "Caelin Fagerstrom", "profile_background_color": "C0DEED", "profile_background_image_url": "http://abs.twimg.com/images/themes/theme1/bg.png", "profile_background_tile": false, "profile_banner_url": "https://pbs.twimg.com/profile_banners/1127230692/1359359832", "profile_image_url": "https://pbs.twimg.com/profile_images/617170390432022528/ePELSLQ3_normal.jpg", "profile_link_color": "0084B4", "profile_sidebar_fill_color": "DDEEF6", "profile_text_color": "333333", "protected": false, "screen_name": "Cayslay24", "statuses_count": 1005}}
{"created_at": "Tue Sep 15 01:07:07 +0000 2015", "favorited": false, "id": 643591844371152896, "lang": "en", "retweeted": false, "source": "<a href=\"http://www.facebook.com/twitter\" rel=\"nofollow\">Facebook</a>", "text": "Dunkin Donuts Declares Bankruptcy: Closing all Stores by Late November http://t.co/isfymgWsM0", "truncated": false, "urls": {"http://t.co/isfymgWsM0": "http://fb.me/7JOKGfxnr"}, "user": {"created_at": "Fri Oct 05 01:42:14 +0000 2012", "default_profile": true, "favourites_count": 16, "followers_count": 10, "friends_count": 22, "id": 862342831, "lang": "en", "location": "Texas", "name": "Renne", "profile_background_color": "C0DEED", "profile_background_image_url": "http://abs.twimg.com/images/themes/theme1/bg.png", "profile_background_tile": false, "profile_image_url": "https://pbs.twimg.com/profile_images/440349191319994368/F97khmMO_normal.jpeg", "profile_link_color": "0084B4", "profile_sidebar_fill_color": "DDEEF6", "profile_text_color": "333333", "protected": false, "screen_name": "renneparlato", "statuses_count": 1907, "url": "http://t.co/Q1Yo4vEvuz"}}
{"created_at": "Tue Sep 15 01:09:26 +0000 2015", "favorited": false, "id": 643592424867020800, "lang": "en", "retweeted": false, "source": "<a href=\"http://www.facebook.com/twitter\" rel=\"nofollow\">Facebook</a>", "text": "Dunkin Donuts Declares Bankruptcy: Closing all Stores by Late November http://t.co/K6HNVh5ySN", "truncated": false, "urls": {"http://t.co/K6HNVh5ySN": "http://fb.me/2jHLmJ68s"}, "user": {"created_at": "Thu Mar 08 03:12:33 +0000 2012", "description": "http://t.co/FxfIgUrUOw", "favourites_count": 51, "followers_count": 2626, "friends_count": 2660, "id": 518153742, "lang": "en", "listed_count": 52, "location": "New Jersey", "name": "Robin Gudrian.Dilks", "profile_background_color": "ABB8C2", "profile_background_image_url": "http://pbs.twimg.com/profile_background_images/574293812975030272/emQ6260E.jpeg", "profile_background_tile": true, "profile_banner_url": "https://pbs.twimg.com/profile_banners/518153742/1423507189", "profile_image_url": "https://pbs.twimg.com/profile_images/417867714330251265/OeSUNxDl_normal.jpeg", "profile_link_color": "088253", "profile_sidebar_fill_color": "C0DFEC", "profile_text_color": "333333", "protected": false, "screen_name": "DilksRobin", "statuses_count": 3462, "time_zone": "Atlantic Time (Canada)", "url": "http://t.co/PeNm1FwQh8", "utc_offset": -14400}}
{"created_at": "Tue Sep 15 01:17:46 +0000 2015", "favorited": false, "id": 643594524200173572, "lang": "en", "retweeted": false, "source": "<a href=\"http://www.facebook.com/twitter\" rel=\"nofollow\">Facebook</a>", "text": "Dunkin Donuts Declares Bankruptcy: Closing all Stores by Late November http://t.co/DY6anpC0VL", "truncated": false, "urls": {"http://t.co/DY6anpC0VL": "http://fb.me/6HqJjqiW6"}, "user": {"created_at": "Fri Dec 05 02:42:01 +0000 2008", "default_profile": true, "description": "Vehicle Wraps And Custom Signage. Any size!", "favourites_count": 66, "followers_count": 245, "friends_count": 450, "geo_enabled": true, "id": 17887721, "lang": "en", "listed_count": 8, "location": "30.332079,-97.686757", "name": "capitalsigns", "profile_background_color": "C0DEED", "profile_background_image_url": "http://abs.twimg.com/images/themes/theme1/bg.png", "profile_background_tile": false, "profile_image_url": "https://pbs.twimg.com/profile_images/629065602649337856/JkkhTSEz_normal.jpg", "profile_link_color": "0084B4", "profile_sidebar_fill_color": "DDEEF6", "profile_text_color": "333333", "protected": false, "screen_name": "capitalsigns", "statuses_count": 6671, "time_zone": "Central Time (US & Canada)", "url": "http://t.co/Wf2wdEFS", "utc_offset": -21600}}
{"created_at": "Tue Sep 15 02:25:24 +0000 2015", "favorited": false, "id": 643611545797308416, "lang": "en", "retweeted": false, "source": "<a href=\"http://www.facebook.com/twitter\" rel=\"nofollow\">Facebook</a>", "text": "Dunkin Donuts Declares Bankruptcy: Closing all Stores by Late November http://t.co/skrh8wEK6b", "truncated": false, "urls": {"http://t.co/skrh8wEK6b": "http://fb.me/22sHC0BqS"}, "user": {"created_at": "Tue Jun 10 02:26:17 +0000 2014", "default_profile": true, "description": "I love gaming, drivig fast anything, eating good food, and hanging with friends.", "followers_count": 17, "friends_count": 43, "id": 2557992674, "lang": "en", "location": "Enigma, Georgia", "name": "Brandon BMONEY Rock", "profile_background_color": "C0DEED", "profile_background_image_url": "http://abs.twimg.com/images/themes/theme1/bg.png", "profile_background_tile": false, "profile_banner_url": "https://pbs.twimg.com/profile_banners/2557992674/1402373927", "profile_image_url": "https://pbs.twimg.com/profile_images/476189799280156673/0EFQ_yVS_normal.jpeg", "profile_link_color": "0084B4", "profile_sidebar_fill_color": "DDEEF6", "profile_text_color": "333333", "protected": false, "screen_name": "Bmoney_Blitz", "statuses_count": 580}}
{"created_at": "Tue Sep 15 02:27:39 +0000 2015", "favorited": false, "id": 643612112057561088, "lang": "en", "retweeted": false, "source": "<a href=\"http://www.facebook.com/twitter\" rel=\"nofollow\">Facebook</a>", "text": "Dunkin Donuts Declares Bankruptcy: Closing all Stores by Late November http://t.co/gttxJjc6hj", "truncated": false, "urls": {"http://t.co/gttxJjc6hj": "http://fb.me/7Bpfhnv69"}, "user": {"created_at": "Fri Feb 27 18:04:33 +0000 2009", "description": "If you follow me you are following a fighter.", "favourites_count": 982, "followers_count": 876, "friends_count": 2068, "geo_enabled": true, "id": 22168173, "lang": "en", "listed_count": 9, "location": "Pittston PA", "name": "CathieCats", "profile_background_color": "FF6699", "profile_background_image_url": "http://pbs.twimg.com/profile_background_images/378800000026470305/ee189dadc4fa47556003472984516828.jpeg", "profile_background_tile": true, "profile_banner_url": "https://pbs.twimg.com/profile_banners/22168173/1448934962", "profile_image_url": "https://pbs.twimg.com/profile_images/683389891980427264/eFClndIR_normal.jpg", "profile_link_color": "B40B43", "profile_sidebar_fill_color": "E5507E", "profile_text_color": "362720", "protected": false, "screen_name": "CathieCats", "statuses_count": 25999, "time_zone": "America/New_York", "utc_offset": -18000}}
{"created_at": "Tue Sep 15 02:55:58 +0000 2015", "favorited": false, "id": 643619238108901377, "lang": "en", "retweeted": false, "source": "<a href=\"http://www.facebook.com/twitter\" rel=\"nofollow\">Facebook</a>", "text": "Dunkin Donuts Declares Bankruptcy: Closing all Stores by Late November http://t.co/Y3DJ7wq9Dj", "truncated": false, "urls": {"http://t.co/Y3DJ7wq9Dj": "http://fb.me/7CUoQ3sWT"}, "user": {"created_at": "Wed Jul 17 12:52:47 +0000 2013", "description": "Full time Real Estate agent with over 15 years experience, servicing the South Eastern Massachusetts areas, Bristol, Plymouth and Norfolk Counties.", "favourites_count": 9, "followers_count": 81, "friends_count": 159, "id": 1600917835, "lang": "en", "listed_count": 1, "location": "Plymouth & Bristol Counties ", "name": "Steinberg Realty", "profile_background_color": "000000", "profile_background_image_url": "http://abs.twimg.com/images/themes/theme1/bg.png", "profile_background_tile": false, "profile_banner_url": "https://pbs.twimg.com/profile_banners/1600917835/1447703393", "profile_image_url": "https://pbs.twimg.com/profile_images/666341557746831360/fPQ5xs7o_normal.jpg", "profile_link_color": "DD2E44", "profile_sidebar_fill_color": "000000", "profile_text_color": "000000", "protected": false, "screen_name": "Mass1REALTOR", "statuses_count": 3965, "time_zone": "Eastern Time (US & Canada)", "url": "https://t.co/ELdPb302sD", "utc_offset": -18000}}
{"created_at": "Tue Sep 15 03:02:43 +0000 2015", "favorited": false, "id": 643620936562819072, "lang": "en", "retweeted": false, "source": "<a href=\"http://www.facebook.com/twitter\" rel=\"nofollow\">Facebook</a>", "text": "Dunkin Donuts Declares Bankruptcy: Closing all Stores by Late November http://t.co/rwjcb9Wyxf", "truncated": false, "urls": {"http://t.co/rwjcb9Wyxf": "http://fb.me/4AfIUJTIf"}, "user": {"created_at": "Mon Jul 02 14:28:32 +0000 2012", "description": "loading...", "favourites_count": 1524, "followers_count": 180, "friends_count": 357, "id": 624712522, "lang": "en", "name": "PRINCESS MANDA", "profile_background_color": "F8C7DA", "profile_background_image_url": "http://pbs.twimg.com/profile_background_images/597850784/xfef4552d5cfb55ce66783c17ec711cd.png", "profile_background_tile": false, "profile_banner_url": "https://pbs.twimg.com/profile_banners/624712522/1415570081", "profile_image_url": "https://pbs.twimg.com/profile_images/667149120394690560/yR5GhYin_normal.jpg", "profile_link_color": "AA2A75", "profile_sidebar_fill_color": "F8C7DA", "profile_text_color": "D77FB2", "protected": false, "screen_name": "bellefille188", "statuses_count": 4470}}
{"created_at": "Tue Sep 15 03:13:58 +0000 2015", "favorited": false, "id": 643623765734068225, "lang": "en", "retweeted": false, "source": "<a href=\"http://www.facebook.com/twitter\" rel=\"nofollow\">Facebook</a>", "text": "What??? http://t.co/DHabwhF7oz", "truncated": false, "urls": {"http://t.co/DHabwhF7oz": "http://fb.me/7LCfIIr74"}, "user": {"created_at": "Sun Jun 23 21:13:05 +0000 2013", "default_profile": true, "description": "Hi we are Colossal Groove from Palmer,ma. We are a straight up rock n roll band and were here to play some great music! \\m/", "favourites_count": 474, "followers_count": 140, "friends_count": 310, "geo_enabled": true, "id": 1541840154, "lang": "en", "name": "Colossal Groove", "profile_background_color": "C0DEED", "profile_background_image_url": "http://abs.twimg.com/images/themes/theme1/bg.png", "profile_background_tile": false, "profile_banner_url": "https://pbs.twimg.com/profile_banners/1541840154/1436707955", "profile_image_url": "https://pbs.twimg.com/profile_images/620223996303421444/qev-wIHj_normal.jpg", "profile_link_color": "0084B4", "profile_sidebar_fill_color": "DDEEF6", "profile_text_color": "333333", "protected": false, "screen_name": "colossal_groove", "statuses_count": 3931, "time_zone": "Atlantic Time (Canada)", "utc_offset": -14400}}
{"created_at": "Tue Sep 15 03:35:21 +0000 2015", "favorited": false, "id": 643629145801363456, "lang": "en", "retweeted": false, "source": "<a href=\"http://www.facebook.com/twitter\" rel=\"nofollow\">Facebook</a>", "text": "Tragedy! http://t.co/5PnJJCe43N", "truncated": false, "urls": {"http://t.co/5PnJJCe43N": "http://fb.me/7s36WkOnU"}, "user": {"created_at": "Fri Feb 20 17:01:13 +0000 2009", "description": "Author of Le Suite Gesu", "favourites_count": 24, "followers_count": 11007, "friends_count": 11176, "id": 21412870, "lang": "en", "listed_count": 71, "location": "Miami FL", "name": "david greg taylor", "profile_background_color": "23549E", "profile_background_image_url": "http://pbs.twimg.com/profile_background_images/378800000158152462/Zswr9wvd.jpeg", "profile_background_tile": true, "profile_banner_url": "https://pbs.twimg.com/profile_banners/21412870/1398389354", "profile_image_url": "https://pbs.twimg.com/profile_images/416686804595511296/3keCXTz1_normal.jpeg", "profile_link_color": "020B45", "profile_sidebar_fill_color": "2554DE", "profile_text_color": "000000", "protected": false, "screen_name": "davidgregtaylor", "statuses_count": 5490, "time_zone": "Eastern Time (US & Canada)", "url": "http://t.co/oEeddtLH6C", "utc_offset": -18000}}
{"created_at": "Tue Sep 15 03:37:14 +0000 2015", "favorited": false, "id": 643629619548045312, "lang": "en", "retweeted": false, "source": "<a href=\"http://www.facebook.com/twitter\" rel=\"nofollow\">Facebook</a>", "text": "Amy Feick http://t.co/NaxLh0EwlO", "truncated": false, "urls": {"http://t.co/NaxLh0EwlO": "http://fb.me/3O5UpaGpA"}, "user": {"created_at": "Fri Aug 07 19:33:53 +0000 2009", "description": "Independent Professional Wrestler", "favourites_count": 31, "followers_count": 207, "friends_count": 496, "id": 63807575, "lang": "en", "listed_count": 1, "location": "PA", "name": "Nathaniel Feick", "profile_background_color": "400711", "profile_background_image_url": "http://abs.twimg.com/images/themes/theme1/bg.png", "profile_background_tile": false, "profile_banner_url": "https://pbs.twimg.com/profile_banners/63807575/1408549149", "profile_image_url": "https://pbs.twimg.com/profile_images/502117406148292609/_uulbNCH_normal.jpeg", "profile_link_color": "326575", "profile_sidebar_fill_color": "252429", "profile_text_color": "754F48", "protected": false, "screen_name": "krasvantasel", "statuses_count": 1909, "time_zone": "Eastern Time (US & Canada)", "utc_offset": -18000}}
{"created_at": "Tue Sep 15 03:56:40 +0000 2015", "favorited": false, "id": 643634510861504512, "lang": "en", "retweeted": false, "source": "<a href=\"http://www.facebook.com/twitter\" rel=\"nofollow\">Facebook</a>", "text": "Dunkin Donuts Declares Bankruptcy: Closing all Stores by Late November http://t.co/iGXwigHbQG", "truncated": false, "urls": {"http://t.co/iGXwigHbQG": "http://fb.me/25X9mbpcH"}, "user": {"created_at": "Tue Apr 21 13:09:24 +0000 2009", "description": "Michael loves my son Bobby", "favourites_count": 11, "followers_count": 753, "friends_count": 1929, "id": 33897155, "lang": "en", "listed_count": 3, "location": "Massachusetts", "name": "Michael Wallace", "profile_background_color": "0099B9", "profile_background_image_url": "http://abs.twimg.com/images/themes/theme4/bg.gif", "profile_background_tile": false, "profile_banner_url": "https://pbs.twimg.com/profile_banners/33897155/1434611795", "profile_image_url": "https://pbs.twimg.com/profile_images/721535976/michael_2001_normal.jpg", "profile_link_color": "0099B9", "profile_sidebar_fill_color": "95E8EC", "profile_text_color": "3C3940", "protected": false, "screen_name": "michaelmalibu", "statuses_count": 11915, "time_zone": "Eastern Time (US & Canada)", "utc_offset": -18000}}
{"created_at": "Tue Sep 15 04:45:06 +0000 2015", "favorited": false, "id": 643646700142202880, "lang": "en", "retweeted": false, "source": "<a href=\"http://www.facebook.com/twitter\" rel=\"nofollow\">Facebook</a>", "text": "Dunkin Donuts Declares Bankruptcy: Closing all Stores by Late November http://t.co/8ivgLECJqh", "truncated": false, "urls": {"http://t.co/8ivgLECJqh": "http://fb.me/1PwId0Hxw"}, "user": {"created_at": "Tue Nov 17 20:31:18 +0000 2009", "favourites_count": 27, "followers_count": 32, "friends_count": 176, "geo_enabled": true, "id": 90712312, "lang": "en", "name": "EM", "profile_background_color": "131516", "profile_background_image_url": "http://pbs.twimg.com/profile_background_images/742946898/3ed5ce82fdf665f7e4249b1626d8e56b.jpeg", "profile_background_tile": true, "profile_banner_url": "https://pbs.twimg.com/profile_banners/90712312/1393908623", "profile_image_url": "https://pbs.twimg.com/profile_images/495226530138951680/h2z7mIiN_normal.jpeg", "profile_link_color": "009999", "profile_sidebar_fill_color": "EFEFEF", "profile_text_color": "333333", "protected": false, "screen_name": "Pory27", "statuses_count": 6119}}
{"created_at": "Tue Sep 15 07:20:04 +0000 2015", "favorited": false, "id": 643685701238657024, "lang": "en", "retweeted": false, "source": "<a href=\"http://www.facebook.com/twitter\" rel=\"nofollow\">Facebook</a>", "text": "Dunkin Donuts Declares Bankruptcy: Closing all Stores by Late November http://t.co/mNlZdy8t4c", "truncated": false, "urls": {"http://t.co/mNlZdy8t4c": "http://fb.me/7lMKH7wLi"}, "user": {"created_at": "Mon Dec 06 15:23:33 +0000 2010", "description": "Phoenix, Az  I Rep My City  #Salute2ThaStreetz #CashvilleRecords #GUnitSouth   @YoungBuck has the Hardest Squad Out and  They Ain't  Even  Went  Mainstream They", "favourites_count": 332, "followers_count": 304, "friends_count": 1575, "geo_enabled": true, "id": 223498761, "lang": "en", "listed_count": 5, "location": "phoenix, az", "name": "Phillip Hernandez", "profile_background_color": "383535", "profile_background_image_url": "http://pbs.twimg.com/profile_background_images/434138708/Dudley.jpg", "profile_background_tile": true, "profile_image_url": "https://pbs.twimg.com/profile_images/474042367948095488/le-dYF5X_normal.jpeg", "profile_link_color": "ED0909", "profile_sidebar_fill_color": "DDEEF6", "profile_text_color": "333333", "protected": false, "screen_name": "Flipy602", "statuses_count": 14660, "time_zone": "Pacific Time (US & Canada)", "utc_offset": -28800}}
{"created_at": "Tue Sep 15 10:05:08 +0000 2015", "favorited": false, "id": 643727241239769088, "lang": "en", "retweeted": false, "source": "<a href=\"http://www.facebook.com/twitter\" rel=\"nofollow\">Facebook</a>", "text": "Say it isn't so http://t.co/67fpll8GdI", "truncated": false, "urls": {"http://t.co/67fpll8GdI": "http://fb.me/6Pov459cd"}, "user": {"created_at": "Tue Jan 07 02:25:55 +0000 2014", "default_profile": true, "followers_count": 15, "friends_count": 35, "id": 2279883804, "lang": "en", "name": "Jenn Stuber", "profile_background_color": "C0DEED", "profile_background_image_url": "http://abs.twimg.com/images/themes/theme1/bg.png", "profile_background_tile": false, "profile_image_url": "https://pbs.twimg.com/profile_images/558085447398993920/jdGAFkVO_normal.jpeg", "profile_link_color": "0084B4", "profile_sidebar_fill_color": "DDEEF6", "profile_text_color": "333333", "protected": false, "screen_name": "JennStuber", "statuses_count": 1366}}
{"created_at": "Tue Sep 15 12:08:21 +0000 2015", "favorited": false, "id": 643758249242529792, "lang": "en", "retweeted": false, "source": "<a href=\"http://www.facebook.com/twitter\" rel=\"nofollow\">Facebook</a>", "text": "Dunkin Donuts Declares Bankruptcy: Closing all Stores by Late November http://t.co/cjBu66e106", "truncated": false, "urls": {"http://t.co/cjBu66e106": "http://fb.me/CgYcbENP"}, "user": {"created_at": "Fri May 28 17:18:24 +0000 2010", "favourites_count": 5, "followers_count": 99, "friends_count": 248, "geo_enabled": true, "id": 149194677, "lang": "en", "listed_count": 1, "name": "Travis Pyle", "profile_background_color": "131516", "profile_background_image_url": "http://abs.twimg.com/images/themes/theme14/bg.gif", "profile_background_tile": true, "profile_banner_url": "https://pbs.twimg.com/profile_banners/149194677/1421957700", "profile_image_url": "https://pbs.twimg.com/profile_images/660946093258252288/aKbyw8z3_normal.jpg", "profile_link_color": "009999", "profile_sidebar_fill_color": "EFEFEF", "profile_text_color": "333333", "protected": false, "screen_name": "tpyle76", "statuses_count": 1931, "time_zone": "Central Time (US & Canada)", "utc_offset": -21600}}
{"created_at": "Tue Sep 15 12:12:52 +0000 2015", "favorited": false, "id": 643759385278312448, "lang": "en", "retweeted": false, "source": "<a href=\"http://www.facebook.com/twitter\" rel=\"nofollow\">Facebook</a>", "text": "Dunkin Donuts Declares Bankruptcy: Closing all Stores by Late November http://t.co/tFvBUbqvOf", "truncated": false, "urls": {"http://t.co/tFvBUbqvOf": "http://fb.me/2fjyAaLaK"}, "user": {"created_at": "Fri Jan 21 02:33:59 +0000 2011", "default_profile": true, "favourites_count": 9, "followers_count": 80, "friends_count": 256, "id": 240938494, "lang": "en", "listed_count": 1, "name": "Joseph Celentano", "profile_background_color": "C0DEED", "profile_background_image_url": "http://abs.twimg.com/images/themes/theme1/bg.png", "profile_background_tile": false, "profile_banner_url": "https://pbs.twimg.com/profile_banners/240938494/1397084291", "profile_image_url": "https://pbs.twimg.com/profile_images/454030541822885888/1pIT8Bxc_normal.jpeg", "profile_link_color": "0084B4", "profile_sidebar_fill_color": "DDEEF6", "profile_text_color": "333333", "protected": false, "screen_name": "bearamerica", "statuses_count": 4356}}
{"created_at": "Tue Sep 15 12:52:05 +0000 2015", "favorited": false, "id": 643769256174317569, "lang": "en", "retweeted": false, "source": "<a href=\"http://www.facebook.com/twitter\" rel=\"nofollow\">Facebook</a>", "text": "Dunkin Donuts Declares Bankruptcy: Closing all Stores by Late November http://t.co/xoJ9Q6HKBn", "truncated": false, "urls": {"http://t.co/xoJ9Q6HKBn": "http://fb.me/4kO6Gzfps"}, "user": {"created_at": "Sat Feb 02 14:49:19 +0000 2013", "default_profile": true, "favourites_count": 3, "followers_count": 44, "friends_count": 356, "geo_enabled": true, "id": 1142629429, "lang": "en", "listed_count": 4, "location": "boston", "name": "james N", "profile_background_color": "C0DEED", "profile_background_image_url": "http://abs.twimg.com/images/themes/theme1/bg.png", "profile_background_tile": false, "profile_banner_url": "https://pbs.twimg.com/profile_banners/1142629429/1367019048", "profile_image_url": "https://pbs.twimg.com/profile_images/3578777417/cce9e626396ab7ed693e2183d97bc274_normal.jpeg", "profile_link_color": "0084B4", "profile_sidebar_fill_color": "DDEEF6", "profile_text_color": "333333", "protected": false, "screen_name": "jimbo02351", "statuses_count": 6831, "time_zone": "Eastern Time (US & Canada)", "utc_offset": -18000}}
{"created_at": "Tue Sep 15 13:16:35 +0000 2015", "favorited": false, "id": 643775420119166977, "lang": "en", "retweeted": false, "source": "<a href=\"http://www.facebook.com/twitter\" rel=\"nofollow\">Facebook</a>", "text": "And again.... http://t.co/ql7nneO6oF", "truncated": false, "urls": {"http://t.co/ql7nneO6oF": "http://fb.me/50wKrhi8S"}, "user": {"created_at": "Tue Feb 18 08:23:09 +0000 2014", "default_profile": true, "favourites_count": 17, "followers_count": 43, "friends_count": 306, "id": 2350183119, "lang": "en", "name": "Kara Lee", "profile_background_color": "C0DEED", "profile_background_image_url": "http://abs.twimg.com/images/themes/theme1/bg.png", "profile_background_tile": false, "profile_image_url": "https://pbs.twimg.com/profile_images/474900484164419584/7fiunPqo_normal.jpeg", "profile_link_color": "0084B4", "profile_sidebar_fill_color": "DDEEF6", "profile_text_color": "333333", "protected": false, "screen_name": "krbills1021", "statuses_count": 6137, "url": "http://t.co/3j77XrIC4M"}}
{"created_at": "Tue Sep 15 13:20:34 +0000 2015", "favorited": false, "id": 643776420393668608, "lang": "en", "retweeted": false, "source": "<a href=\"http://www.facebook.com/twitter\" rel=\"nofollow\">Facebook</a>", "text": "Dunkin Donuts Declares Bankruptcy: Closing all Stores by Late November http://t.co/Z9KR9AzZ4q", "truncated": false, "urls": {"http://t.co/Z9KR9AzZ4q": "http://fb.me/2pSeDE0zQ"}, "user": {"created_at": "Thu Dec 06 02:42:46 +0000 2012", "default_profile": true, "description": "I am dyin from cirrhosis of liver an need a transplant...I am a man of God. an love jesus an wish I could meet john cena. I wanna inspire donate life", "favourites_count": 589, "followers_count": 450, "friends_count": 1389, "geo_enabled": true, "id": 992244872, "lang": "en", "listed_count": 12, "location": "Pennsylvania", "name": "matthew carothers420", "profile_background_color": "C0DEED", "profile_background_image_url": "http://abs.twimg.com/images/themes/theme1/bg.png", "profile_background_tile": false, "profile_banner_url": "https://pbs.twimg.com/profile_banners/992244872/1444806923", "profile_image_url": "https://pbs.twimg.com/profile_images/654193770746019841/RjnfKUvl_normal.jpg", "profile_link_color": "0084B4", "profile_sidebar_fill_color": "DDEEF6", "profile_text_color": "333333", "protected": false, "screen_name": "Matthewc315", "statuses_count": 36966, "url": "http://t.co/HUgjxvziwt"}}
{"created_at": "Tue Sep 15 13:26:59 +0000 2015", "favorited": false, "id": 643778035112525825, "lang": "en", "possibly_sensitive": true, "retweeted": false, "source": "<a href=\"http://www.facebook.com/twitter\" rel=\"nofollow\">Facebook</a>", "text": "OH NO http://t.co/cfFc1mhyrI", "truncated": false, "urls": {"http://t.co/cfFc1mhyrI": "http://fb.me/7tbxgr0n2"}, "user": {"created_at": "Wed Sep 01 16:34:03 +0000 2010", "description": "My real name is Kandy Benjamin aka Lady Bat or Batwoman aka Labella from Jamica Queens NY. Haitian/Italian 50 years young that LOVES all nationalities and food.", "favourites_count": 1, "followers_count": 40, "friends_count": 360, "geo_enabled": true, "id": 185698885, "lang": "en", "listed_count": 1, "location": "Harlem Ny", "name": "Kandy Benjamin", "profile_background_color": "000000", "profile_background_image_url": "http://abs.twimg.com/images/themes/theme10/bg.gif", "profile_background_tile": false, "profile_banner_url": "https://pbs.twimg.com/profile_banners/185698885/1367454341", "profile_image_url": "https://pbs.twimg.com/profile_images/2651399780/77c306370eac4c455d136c418fbde12c_normal.jpeg", "profile_link_color": "9266CC", "profile_sidebar_fill_color": "000000", "profile_text_color": "000000", "protected": false, "screen_name": "Ladybatwoman", "statuses_count": 15507, "time_zone": "Eastern Time (US & Canada)", "utc_offset": -18000}}
{"created_at": "Tue Sep 15 13:29:37 +0000 2015", "favorited": false, "id": 643778699230248961, "lang": "en", "retweeted": false, "source": "<a href=\"http://www.facebook.com/twitter\" rel=\"nofollow\">Facebook</a>", "text": "Dunkin Donuts Declares Bankruptcy: Closing all Stores by Late November http://t.co/IaMmzkZwUe", "truncated": false, "urls": {"http://t.co/IaMmzkZwUe": "http://fb.me/5ta7TixnE"}, "user": {"created_at": "Sat Oct 03 16:18:44 +0000 2009", "description": "I'm writing about behavior modification using words.  I'm founder of The Round Table Discussion Group and co-organzier of Writers Write Right on Meetup and FB.", "favourites_count": 23, "followers_count": 98, "friends_count": 165, "id": 79500727, "lang": "en", "listed_count": 8, "location": "Central Florida ", "name": "Natalie", "profile_background_color": "BADFCD", "profile_background_image_url": "http://abs.twimg.com/images/themes/theme12/bg.gif", "profile_background_tile": false, "profile_image_url": "https://pbs.twimg.com/profile_images/2337439905/wfcq59hrpwalh3vhgl5f_normal.jpeg", "profile_link_color": "FF0000", "profile_sidebar_fill_color": "FFF7CC", "profile_text_color": "0C3E53", "protected": false, "screen_name": "Nisi50", "statuses_count": 23489, "time_zone": "Eastern Time (US & Canada)", "utc_offset": -18000}}
{"created_at": "Tue Sep 15 13:56:00 +0000 2015", "favorited": false, "id": 643785338176077824, "lang": "en", "possibly_sensitive": true, "retweeted": false, "source": "<a href=\"http://www.facebook.com/twitter\" rel=\"nofollow\">Facebook</a>", "text": "Dunkin Donuts Declares Bankruptcy: Closing all Stores by Late November http://t.co/cyuBXDlXQm", "truncated": false, "urls": {"http://t.co/cyuBXDlXQm": "http://fb.me/2yliYxEXQ"}, "user": {"created_at": "Sun Jan 06 16:20:49 +0000 2013", "description": "Yea,  baby!  Rock On!!!", "favourites_count": 12, "followers_count": 175, "friends_count": 1306, "geo_enabled": true, "id": 1066076850, "lang": "en", "listed_count": 11, "location": "NYC", "name": "JoeySpex", "profile_background_color": "0099B9", "profile_background_image_url": "http://abs.twimg.com/images/themes/theme4/bg.gif", "profile_background_tile": false, "profile_banner_url": "https://pbs.twimg.com/profile_banners/1066076850/1360361693", "profile_image_url": "https://pbs.twimg.com/profile_images/3074815864/aedae37d934cf8a5686ae1018f6814ab_normal.jpeg", "profile_link_color": "0099B9", "profile_sidebar_fill_color": "95E8EC", "profile_text_color": "3C3940", "protected": false, "screen_name": "JoeySpex", "statuses_count": 15517, "time_zone": "Eastern Time (US & Canada)", "url": "https://t.co/3bxjMjSGd2", "utc_offset": -18000}}
{"created_at": "Tue Sep 15 13:58:22 +0000 2015", "favorite_count": 1, "favorited": false, "id": 643785935675633664, "lang": "en", "retweet_count": 1, "retweeted": false, "source": "<a href=\"http://www.facebook.com/twitter\" rel=\"nofollow\">Facebook</a>", "text": "Dunkin Donuts Declares Bankruptcy: Closing all Stores by Late November http://t.co/6uP9Ait9yQ", "truncated": false, "urls": {"http://t.co/6uP9Ait9yQ": "http://fb.me/7lnzBgyHn"}, "user": {"created_at": "Fri May 15 00:41:43 +0000 2009", "default_profile": true, "description": "99% of the time my brain is thinking rapping, going to the gym, coffee, redbull, blah, meh, why, huh, WTF, food and computers. The other 1% I'm usually asleep.", "favourites_count": 2, "followers_count": 74, "friends_count": 57, "id": 40132460, "lang": "en", "location": "Ronkonkoma, NY", "name": "Jay Muller", "profile_background_color": "C0DEED", "profile_background_image_url": "http://abs.twimg.com/images/themes/theme1/bg.png", "profile_background_tile": false, "profile_banner_url": "https://pbs.twimg.com/profile_banners/40132460/1366379098", "profile_image_url": "https://pbs.twimg.com/profile_images/3543431712/6d631a8246942b9cf16a06f30fa2f5cc_normal.jpeg", "profile_link_color": "0084B4", "profile_sidebar_fill_color": "DDEEF6", "profile_text_color": "333333", "protected": false, "screen_name": "TheJayMuller", "statuses_count": 4633, "time_zone": "Eastern Time (US & Canada)", "url": "http://t.co/aBYEvtfYEN", "utc_offset": -18000}}
{"created_at": "Tue Sep 15 14:23:13 +0000 2015", "favorited": false, "id": 643792187860254720, "lang": "en", "retweeted": false, "source": "<a href=\"http://www.facebook.com/twitter\" rel=\"nofollow\">Facebook</a>", "text": "Is this true? http://t.co/dQN6Sn2ZEY", "truncated": false, "urls": {"http://t.co/dQN6Sn2ZEY": "http://fb.me/7GrfNvpJG"}, "user": {"created_at": "Wed Dec 14 19:34:25 +0000 2011", "description": "CEO of Brenda Milhomme Realty Group and Realtor Keller Williams Realty Greater Hartford", "favourites_count": 230, "followers_count": 846, "friends_count": 1454, "geo_enabled": true, "id": 436944854, "lang": "en", "listed_count": 46, "location": "Mansfield, CT", "name": "Brenda K. Milhomme", "profile_background_color": "C5E1EB", "profile_background_image_url": "http://pbs.twimg.com/profile_background_images/378800000019121045/8d1b703e4991f679fcf73e2eac4cc005.jpeg", "profile_background_tile": false, "profile_banner_url": "https://pbs.twimg.com/profile_banners/436944854/1442238451", "profile_image_url": "https://pbs.twimg.com/profile_images/378800000784045086/77ec3b36a20f17caaa62cf78f27542ca_normal.jpeg", "profile_link_color": "0084B4", "profile_sidebar_fill_color": "DDEEF6", "profile_text_color": "333333", "protected": false, "screen_name": "BrendaKMilhomme", "statuses_count": 23196, "url": "http://t.co/CyRBPYsmxw"}}
{"created_at": "Tue Sep 15 14:33:59 +0000 2015", "favorited": false, "id": 643794898756329472, "lang": "en", "retweeted": false, "source": "<a href=\"http://www.facebook.com/twitter\" rel=\"nofollow\">Facebook</a>", "text": "Dunkin Donuts Declares Bankruptcy: Closing all Stores by Late November http://t.co/ryR3GJNFuX", "truncated": false, "urls": {"http://t.co/ryR3GJNFuX": "http://fb.me/7wy3A4FJv"}, "user": {"created_at": "Sat Aug 06 20:36:24 +0000 2011", "default_profile_image": true, "favourites_count": 6, "followers_count": 3, "friends_count": 28, "id": 349860746, "lang": "en", "location": "baltimore", "name": "barbara", "profile_background_color": "642D8B", "profile_background_image_url": "http://abs.twimg.com/images/themes/theme10/bg.gif", "profile_background_tile": true, "profile_image_url": "https://abs.twimg.com/sticky/default_profile_images/default_profile_4_normal.png", "profile_link_color": "FF0000", "profile_sidebar_fill_color": "7AC3EE", "profile_text_color": "3D1957", "protected": false, "screen_name": "barbara51873", "statuses_count": 5421}}
{"created_at": "Tue Sep 15 14:57:14 +0000 2015", "favorited": false, "id": 643800748841570304, "lang": "en", "retweeted": false, "source": "<a href=\"http://www.facebook.com/twitter\" rel=\"nofollow\">Facebook</a>", "text": "Dunkin Donuts Declares Bankruptcy: Closing all Stores by Late November http://t.co/z0RWPuMxra", "truncated": false, "urls": {"http://t.co/z0RWPuMxra": "http://fb.me/6IEfrHrdz"}, "user": {"created_at": "Sat Sep 01 18:28:11 +0000 2012", "description": "Having over 27+ years in the airline industry, I have developed an expertise in my field, ensuring superb Traveling Services and rental available with RelayRide", "favourites_count": 62, "followers_count": 503, "friends_count": 1981, "geo_enabled": true, "id": 796621411, "lang": "en", "listed_count": 22, "location": "Fort Lauderdale, FL", "name": "PointMeToThePlane", "profile_background_color": "C0DEED", "profile_background_image_url": "http://pbs.twimg.com/profile_background_images/648686700/ihgwtanbkzp2fg0cn24t.png", "profile_background_tile": true, "profile_banner_url": "https://pbs.twimg.com/profile_banners/796621411/1445606917", "profile_image_url": "https://pbs.twimg.com/profile_images/558837456808591360/ufvg8mU__normal.jpeg", "profile_link_color": "89C9FA", "profile_sidebar_fill_color": "DDEEF6", "profile_text_color": "333333", "protected": false, "screen_name": "Alreadybookedit", "statuses_count": 4967, "time_zone": "Eastern Time (US & Canada)", "utc_offset": -18000}}
{"created_at": "Tue Sep 15 15:20:36 +0000 2015", "favorited": false, "id": 643806629956182017, "lang": "en", "retweeted": false, "source": "<a href=\"http://www.facebook.com/twitter\" rel=\"nofollow\">Facebook</a>", "text": "Dunkin Donuts Declares Bankruptcy: Closing all Stores by Late November http://t.co/HfZ6f8kN22", "truncated": false, "urls": {"http://t.co/HfZ6f8kN22": "http://fb.me/6IZNOf1hc"}, "user": {"created_at": "Tue Feb 09 03:44:41 +0000 2010", "favourites_count": 18, "followers_count": 205, "friends_count": 214, "geo_enabled": true, "id": 112613208, "lang": "en", "listed_count": 2, "location": "New Jersey", "name": "P.T. Entertainment", "profile_background_color": "022330", "profile_background_image_url": "http://abs.twimg.com/images/themes/theme15/bg.png", "profile_background_tile": false, "profile_image_url": "https://pbs.twimg.com/profile_images/450389614709452801/vM0-zT8F_normal.jpeg", "profile_link_color": "0084B4", "profile_sidebar_fill_color": "C0DFEC", "profile_text_color": "333333", "protected": false, "screen_name": "DJ__Pete", "statuses_count": 4957, "time_zone": "Eastern Time (US & Canada)", "url": "http://t.co/jM7cDq4GoZ", "utc_offset": -18000}}
{"created_at": "Tue Sep 15 16:01:20 +0000 2015", "favorited": false, "id": 643816878679453696, "lang": "en", "retweeted": false, "source": "<a href=\"http://www.facebook.com/twitter\" rel=\"nofollow\">Facebook</a>", "text": "Dunkin Donuts Declares Bankruptcy: Closing all Stores by Late November http://t.co/sHYMyrmOtE", "truncated": false, "urls": {"http://t.co/sHYMyrmOtE": "http://fb.me/42r7mD3xy"}, "user": {"created_at": "Thu Aug 28 14:55:02 +0000 2008", "favourites_count": 90, "followers_count": 43, "friends_count": 206, "geo_enabled": true, "id": 16027762, "lang": "en", "location": "Charlottesville, VA, USA", "name": "los626", "profile_background_color": "352726", "profile_background_image_url": "http://abs.twimg.com/images/themes/theme5/bg.gif", "profile_background_tile": false, "profile_banner_url": "https://pbs.twimg.com/profile_banners/16027762/1399658554", "profile_image_url": "https://pbs.twimg.com/profile_images/464828004762263553/R1v2THHv_normal.jpeg", "profile_link_color": "D02B55", "profile_sidebar_fill_color": "99CC33", "profile_text_color": "3E4415", "protected": false, "screen_name": "los626", "statuses_count": 1522, "time_zone": "Eastern Time (US & Canada)", "url": "https://t.co/Yef5pUeZI8", "utc_offset": -18000}}
{"created_at": "Tue Sep 15 16:45:43 +0000 2015", "favorited": false, "id": 643828051718049793, "lang": "en", "retweeted": false, "source": "<a href=\"http://www.facebook.com/twitter\" rel=\"nofollow\">Facebook</a>", "text": "Dunkin Donuts Declares Bankruptcy: Closing all Stores by Late November http://t.co/6wQvlsOnfx", "truncated": false, "urls": {"http://t.co/6wQvlsOnfx": "http://fb.me/6HfBq51n0"}, "user": {"created_at": "Wed Oct 20 23:32:46 +0000 2010", "description": "Owner of Everlasting Entertainment based out of Connecticut. we specialize in DJ services, lighting, video & photobooths for Weddings and all other occasions.", "favourites_count": 15, "followers_count": 200, "friends_count": 876, "geo_enabled": true, "id": 205470634, "lang": "en", "listed_count": 4, "location": "Connecticut", "name": "DJ Chris", "profile_background_color": "642D8B", "profile_background_image_url": "http://pbs.twimg.com/profile_background_images/164411247/-dj.jpg", "profile_background_tile": true, "profile_banner_url": "https://pbs.twimg.com/profile_banners/205470634/1427742114", "profile_image_url": "https://pbs.twimg.com/profile_images/582618769543065600/ZH2IIqC9_normal.jpg", "profile_link_color": "FF0000", "profile_sidebar_fill_color": "7AC3EE", "profile_text_color": "3D1957", "protected": false, "screen_name": "DjChrisCT", "statuses_count": 4272, "time_zone": "Eastern Time (US & Canada)", "url": "http://t.co/j6wyc7SFRI", "utc_offset": -18000}}
{"created_at": "Tue Sep 15 16:47:54 +0000 2015", "favorited": false, "id": 643828597614972928, "lang": "en", "retweeted": false, "source": "<a href=\"http://www.facebook.com/twitter\" rel=\"nofollow\">Facebook</a>", "text": "Dunkin Donuts Declares Bankruptcy: Closing all Stores by Late November http://t.co/LvNQeOaVOV", "truncated": false, "urls": {"http://t.co/LvNQeOaVOV": "http://fb.me/1JGnJUO1R"}, "user": {"created_at": "Wed Dec 23 03:50:16 +0000 2009", "default_profile": true, "default_profile_image": true, "favourites_count": 1, "followers_count": 33, "friends_count": 75, "id": 98787998, "lang": "en", "listed_count": 2, "name": "Mandy Jones", "profile_background_color": "C0DEED", "profile_background_image_url": "http://abs.twimg.com/images/themes/theme1/bg.png", "profile_background_tile": false, "profile_image_url": "https://abs.twimg.com/sticky/default_profile_images/default_profile_1_normal.png", "profile_link_color": "0084B4", "profile_sidebar_fill_color": "DDEEF6", "profile_text_color": "333333", "protected": false, "screen_name": "PinkChick30", "statuses_count": 6330}}
{"created_at": "Tue Sep 15 17:41:56 +0000 2015", "favorited": false, "id": 643842197088022529, "lang": "en", "retweeted": false, "source": "<a href=\"http://www.facebook.com/twitter\" rel=\"nofollow\">Facebook</a>", "text": "Dunkin Donuts Declares Bankruptcy: Closing all Stores by Late November http://t.co/5u088rPRRY", "truncated": false, "urls": {"http://t.co/5u088rPRRY": "http://fb.me/7JkkM7o6d"}, "user": {"created_at": "Thu May 02 18:18:34 +0000 2013", "default_profile": true, "favourites_count": 11, "followers_count": 140, "friends_count": 724, "geo_enabled": true, "id": 1397849953, "lang": "en", "listed_count": 2, "name": "m", "profile_background_color": "C0DEED", "profile_background_image_url": "http://abs.twimg.com/images/themes/theme1/bg.png", "profile_background_tile": false, "profile_banner_url": "https://pbs.twimg.com/profile_banners/1397849953/1403125047", "profile_image_url": "https://pbs.twimg.com/profile_images/530126896340959232/XMA_QCYI_normal.jpeg", "profile_link_color": "0084B4", "profile_sidebar_fill_color": "DDEEF6", "profile_text_color": "333333", "protected": false, "screen_name": "MatthewWeyand", "statuses_count": 3725}}
{"created_at": "Tue Sep 15 19:04:39 +0000 2015", "favorited": false, "id": 643863011908784128, "lang": "en", "retweeted": false, "source": "<a href=\"http://www.facebook.com/twitter\" rel=\"nofollow\">Facebook</a>", "text": "Dunkin Donuts Declares Bankruptcy: Closing all Stores by Late November http://t.co/GYtmuYUsol", "truncated": false, "urls": {"http://t.co/GYtmuYUsol": "http://fb.me/2oCnduNmq"}, "user": {"created_at": "Wed May 30 05:00:16 +0000 2012", "description": "CEO MOBSTAR ENT$$$ ARTIST   #FRESH ##DMV #DON", "favourites_count": 586, "followers_count": 758, "friends_count": 2001, "geo_enabled": true, "id": 594314128, "lang": "en", "listed_count": 5, "location": "frederick  MD", "name": "Fresh 1% FUCK A WOE", "profile_background_color": "2B2816", "profile_background_image_url": "http://pbs.twimg.com/profile_background_images/855700475/cb13a893d6832352b3c00b58e993080d.jpeg", "profile_background_tile": true, "profile_banner_url": "https://pbs.twimg.com/profile_banners/594314128/1390878105", "profile_image_url": "https://pbs.twimg.com/profile_images/592821305814167552/DpHTxji6_normal.jpg", "profile_link_color": "2B2816", "profile_sidebar_fill_color": "24210E", "profile_text_color": "89B5A2", "protected": false, "screen_name": "FreshMobstar", "statuses_count": 12632, "time_zone": "Atlantic Time (Canada)", "url": "http://t.co/gP88zEBx88", "utc_offset": -14400}}
{"created_at": "Tue Sep 15 19:14:49 +0000 2015", "favorited": false, "id": 643865571419926528, "lang": "en", "possibly_sensitive": true, "retweeted": false, "source": "<a href=\"http://www.facebook.com/twitter\" rel=\"nofollow\">Facebook</a>", "text": "Dunkin Donuts Declares Bankruptcy: Closing all Stores by Late November http://t.co/9NTYrKEvYS", "truncated": false, "urls": {"http://t.co/9NTYrKEvYS": "http://fb.me/7DS1MTacp"}, "user": {"created_at": "Thu Aug 23 22:56:10 +0000 2012", "description": "First Dance, Ballroom, Latin, Country, Salsa, Swing, Tango dance instruction for Weddings, Nightclubs & Formal Events.", "favourites_count": 22, "followers_count": 781, "friends_count": 2023, "geo_enabled": true, "id": 776925666, "lang": "en", "listed_count": 5, "location": "5098 66th St N, St Pete, FL", "name": "1st Dance Studio", "profile_background_color": "0099B9", "profile_background_image_url": "http://abs.twimg.com/images/themes/theme4/bg.gif", "profile_background_tile": false, "profile_image_url": "https://pbs.twimg.com/profile_images/2551242075/s8kvoeg0hwzjxg40mmvy_normal.jpeg", "profile_link_color": "0099B9", "profile_sidebar_fill_color": "95E8EC", "profile_text_color": "3C3940", "protected": false, "screen_name": "1stDanceStPete", "statuses_count": 1531, "time_zone": "Eastern Time (US & Canada)", "url": "https://t.co/0pLv4AzKIb", "utc_offset": -18000}}
{"created_at": "Tue Sep 15 20:23:47 +0000 2015", "favorited": false, "id": 643882927433089026, "lang": "en", "retweeted": false, "source": "<a href=\"http://www.facebook.com/twitter\" rel=\"nofollow\">Facebook</a>", "text": "Dunkin Donuts Declares Bankruptcy: Closing all Stores by Late November http://t.co/LXBLtVwDLy", "truncated": false, "urls": {"http://t.co/LXBLtVwDLy": "http://fb.me/4dLap23JV"}, "user": {"created_at": "Tue Jun 03 03:40:11 +0000 2014", "default_profile": true, "description": "I love skinny fiber so much that I became a distributor! I  have lost 15 pounds in 2 months and feeling great!", "favourites_count": 103, "followers_count": 18, "friends_count": 22, "id": 2542697600, "lang": "en", "listed_count": 1, "location": "Pennsylvania", "name": "Freda Dax", "profile_background_color": "C0DEED", "profile_background_image_url": "http://abs.twimg.com/images/themes/theme1/bg.png", "profile_background_tile": false, "profile_banner_url": "https://pbs.twimg.com/profile_banners/2542697600/1417405900", "profile_image_url": "https://pbs.twimg.com/profile_images/539262854285623296/U7WEmQJZ_normal.jpeg", "profile_link_color": "0084B4", "profile_sidebar_fill_color": "DDEEF6", "profile_text_color": "333333", "protected": false, "screen_name": "DaxFreda", "statuses_count": 1740, "time_zone": "Eastern Time (US & Canada)", "url": "http://t.co/KW4TBY485Y", "utc_offset": -18000}}
{"created_at": "Tue Sep 15 20:34:20 +0000 2015", "favorited": false, "id": 643885582905643009, "lang": "en", "retweeted": false, "source": "<a href=\"http://www.facebook.com/twitter\" rel=\"nofollow\">Facebook</a>", "text": "Dunkin Donuts Declares Bankruptcy: Closing all Stores by Late November http://t.co/wdxDWoLL15", "truncated": false, "urls": {"http://t.co/wdxDWoLL15": "http://fb.me/1YXIfE5tW"}, "user": {"created_at": "Tue Feb 26 19:20:19 +0000 2013", "default_profile": true, "followers_count": 1, "friends_count": 40, "id": 1222779445, "lang": "en", "name": "chris hawe", "profile_background_color": "C0DEED", "profile_background_image_url": "http://abs.twimg.com/images/themes/theme1/bg.png", "profile_background_tile": false, "profile_banner_url": "https://pbs.twimg.com/profile_banners/1222779445/1361909649", "profile_image_url": "https://pbs.twimg.com/profile_images/3311949106/7a15c23c46f7b6782c34ad22610b093d_normal.jpeg", "profile_link_color": "0084B4", "profile_sidebar_fill_color": "DDEEF6", "profile_text_color": "333333", "protected": false, "screen_name": "hatersheartme1", "statuses_count": 623, "time_zone": "Eastern Time (US & Canada)", "utc_offset": -18000}}
{"created_at": "Tue Sep 15 20:58:21 +0000 2015", "favorited": false, "id": 643891628239798272, "lang": "en", "retweeted": false, "source": "<a href=\"http://www.facebook.com/twitter\" rel=\"nofollow\">Facebook</a>", "text": "Lol. Prank. http://t.co/35T4aQ1Kjw", "truncated": false, "urls": {"http://t.co/35T4aQ1Kjw": "http://fb.me/HHp5q8PS"}, "user": {"created_at": "Tue Feb 08 12:46:54 +0000 2011", "description": "Life isn't about finding yourself. It's about creating yourself.", "favourites_count": 12, "followers_count": 91, "friends_count": 87, "geo_enabled": true, "id": 249132135, "lang": "en", "listed_count": 1, "location": "Imus, Cavite - Philippines", "name": "Carl Hendrik Vargas", "profile_background_color": "131516", "profile_background_image_url": "http://abs.twimg.com/images/themes/theme14/bg.gif", "profile_background_tile": true, "profile_image_url": "https://pbs.twimg.com/profile_images/534137821724815363/MR82QYaS_normal.jpeg", "profile_link_color": "009999", "profile_sidebar_fill_color": "EFEFEF", "profile_text_color": "333333", "protected": false, "screen_name": "carlhendrik", "statuses_count": 2831, "time_zone": "Hong Kong", "url": "http://t.co/uV96rIo3zX", "utc_offset": 28800}}
{"created_at": "Tue Sep 15 23:02:21 +0000 2015", "favorited": false, "id": 643922833223974912, "lang": "en", "retweeted": false, "source": "<a href=\"http://www.facebook.com/twitter\" rel=\"nofollow\">Facebook</a>", "text": "Dunkin Donuts Declares Bankruptcy: Closing all Stores by Late November http://t.co/VuIgP2HD7o", "truncated": false, "urls": {"http://t.co/VuIgP2HD7o": "http://fb.me/43Oc5R7rt"}, "user": {"created_at": "Sun Aug 31 15:12:05 +0000 2008", "default_profile": true, "description": "I am making a documentary about three generations of Tibetan women in exile. I am also a teacher, traveler, animal lover and passionate  people person", "favourites_count": 310, "followers_count": 626, "friends_count": 2041, "geo_enabled": true, "id": 16067221, "lang": "en", "listed_count": 24, "location": "Boston, MA, USA", "name": "TheWayHomeFilm", "profile_background_color": "C0DEED", "profile_background_image_url": "http://abs.twimg.com/images/themes/theme1/bg.png", "profile_background_tile": false, "profile_banner_url": "https://pbs.twimg.com/profile_banners/16067221/1419891037", "profile_image_url": "https://pbs.twimg.com/profile_images/548735983437377536/MX5cr1P2_normal.jpeg", "profile_link_color": "0084B4", "profile_sidebar_fill_color": "DDEEF6", "profile_text_color": "333333", "protected": false, "screen_name": "pennellm", "statuses_count": 8326, "time_zone": "Quito", "url": "https://t.co/ThWCiCMaKQ", "utc_offset": -18000}}
{"created_at": "Wed Sep 16 02:05:29 +0000 2015", "favorited": false, "id": 643968920173461504, "lang": "en", "retweeted": false, "source": "<a href=\"http://www.facebook.com/twitter\" rel=\"nofollow\">Facebook</a>", "text": "Dunkin Donuts Declares Bankruptcy: Closing all Stores by Late November http://t.co/tCKdnbqYT1", "truncated": false, "urls": {"http://t.co/tCKdnbqYT1": "http://fb.me/2JxEY9Iit"}, "user": {"created_at": "Thu Jun 23 17:43:01 +0000 2011", "description": "Instagram @junaidalamna", "favourites_count": 6772, "followers_count": 837, "friends_count": 581, "geo_enabled": true, "id": 322748066, "lang": "en", "listed_count": 1, "name": "JU NA ID", "profile_background_color": "050304", "profile_background_image_url": "http://pbs.twimg.com/profile_background_images/378800000174484792/K2WtTgBw.png", "profile_background_tile": true, "profile_banner_url": "https://pbs.twimg.com/profile_banners/322748066/1414122879", "profile_image_url": "https://pbs.twimg.com/profile_images/621317453226774529/EufgMP6K_normal.jpg", "profile_link_color": "DD2E44", "profile_sidebar_fill_color": "1F211C", "profile_text_color": "30FFC4", "protected": false, "screen_name": "JunaidAlamNa", "statuses_count": 38259, "time_zone": "Alaska", "utc_offset": -32400}}
{"created_at": "Wed Sep 16 04:04:20 +0000 2015", "favorited": false, "id": 643998831315562496, "lang": "en", "retweeted": false, "source": "<a href=\"http://www.facebook.com/twitter\" rel=\"nofollow\">Facebook</a>", "text": "Dunkin Donuts Declares Bankruptcy: Closing all Stores by Late November http://t.co/1onB1lFSRm", "truncated": false, "urls": {"http://t.co/1onB1lFSRm": "http://fb.me/1RdCcdakG"}, "user": {"created_at": "Fri Jun 19 00:06:58 +0000 2009", "description": "Life doesn't get easier, you just get stronger. 23. Halloween baby. Follow me on Instagram: worldssweetestsin", "favourites_count": 1168, "followers_count": 630, "friends_count": 1986, "geo_enabled": true, "id": 48543481, "lang": "en", "listed_count": 13, "location": "Florida, USA", "name": "Kayla Melville", "profile_background_color": "000000", "profile_background_image_url": "http://abs.twimg.com/images/themes/theme18/bg.gif", "profile_background_tile": false, "profile_banner_url": "https://pbs.twimg.com/profile_banners/48543481/1438753988", "profile_image_url": "https://pbs.twimg.com/profile_images/638856513134661632/PKTM6bVS_normal.jpg", "profile_link_color": "F5ABB5", "profile_sidebar_fill_color": "000000", "profile_text_color": "000000", "protected": false, "screen_name": "StunningKayla", "statuses_count": 39631, "time_zone": "Eastern Time (US & Canada)", "utc_offset": -18000}}
{"created_at": "Wed Sep 16 07:57:28 +0000 2015", "favorited": false, "id": 644057500845670401, "lang": "en", "retweeted": false, "source": "<a href=\"http://www.facebook.com/twitter\" rel=\"nofollow\">Facebook</a>", "text": "Dunkin Donuts Declares Bankruptcy: Closing all Stores by Late November http://t.co/rG9YlgQBFe", "truncated": false, "urls": {"http://t.co/rG9YlgQBFe": "http://fb.me/1YC2hD4ug"}, "user": {"created_at": "Thu Aug 26 15:55:11 +0000 2010", "favourites_count": 185, "followers_count": 72, "friends_count": 428, "geo_enabled": true, "id": 183270216, "lang": "en", "name": "Noel M. Enriquez Jr", "profile_background_color": "C0DEED", "profile_background_image_url": "http://pbs.twimg.com/profile_background_images/319498077/images.jpg", "profile_background_tile": false, "profile_image_url": "https://pbs.twimg.com/profile_images/3080571120/def0cd1fdd2862f107f0f09304eb419a_normal.jpeg", "profile_link_color": "0084B4", "profile_sidebar_fill_color": "DDEEF6", "profile_text_color": "333333", "protected": false, "screen_name": "jon_jtapo09", "statuses_count": 963, "time_zone": "Taipei", "utc_offset": 28800}}
{"created_at": "Wed Sep 16 12:54:06 +0000 2015", "favorited": false, "id": 644132148107190272, "lang": "en", "retweeted": false, "source": "<a href=\"http://www.facebook.com/twitter\" rel=\"nofollow\">Facebook</a>", "text": "Dunkin Donuts Declares Bankruptcy: Closing all Stores by Late November http://t.co/8bmkmtF6P3", "truncated": false, "urls": {"http://t.co/8bmkmtF6P3": "http://fb.me/7Crs4aQCy"}, "user": {"created_at": "Thu Dec 26 18:02:26 +0000 2013", "description": "Genuine Designs, Creator, Puzzle Lights & Vapor Koozies", "favourites_count": 2, "followers_count": 155, "friends_count": 676, "id": 2245147684, "lang": "en", "listed_count": 3, "location": "Bristol, TN USA", "name": "Genuine Designs", "profile_background_color": "000000", "profile_background_image_url": "http://abs.twimg.com/images/themes/theme1/bg.png", "profile_background_tile": false, "profile_banner_url": "https://pbs.twimg.com/profile_banners/2245147684/1409630487", "profile_image_url": "https://pbs.twimg.com/profile_images/506653107666055168/ZNQpZAxC_normal.jpeg", "profile_link_color": "B3005F", "profile_sidebar_fill_color": "000000", "profile_text_color": "000000", "protected": false, "screen_name": "DunzKaden", "statuses_count": 15550, "url": "http://t.co/yHERNYP2Qy"}}
{"created_at": "Wed Sep 16 16:44:07 +0000 2015", "favorite_count": 1, "favorited": false, "id": 644190034178867201, "lang": "en", "retweeted": false, "source": "<a href=\"http://twitter.com/download/iphone\" rel=\"nofollow\">Twitter for iPhone</a>", "text": "\"Dunkin Donuts Declares Bankruptcy: Closing all Stores by Late November\"\n\nHOW TRUE IS THIS? \ud83d\ude2d", "truncated": false, "user": {"created_at": "Sat Dec 18 22:41:48 +0000 2010", "description": "ViceGandaFever since April '11", "favourites_count": 926, "followers_count": 10781, "friends_count": 222, "geo_enabled": true, "id": 228164375, "lang": "en", "listed_count": 17, "location": "Koronadal City", "name": "/jee-nee/", "profile_background_color": "1391F2", "profile_background_image_url": "http://pbs.twimg.com/profile_background_images/648180351857070080/6JyWhYh7.jpg", "profile_background_tile": true, "profile_banner_url": "https://pbs.twimg.com/profile_banners/228164375/1451616989", "profile_image_url": "https://pbs.twimg.com/profile_images/685730471867584512/akqsu6Jw_normal.jpg", "profile_link_color": "3EC5D4", "profile_sidebar_fill_color": "EFEFEF", "profile_text_color": "333333", "protected": false, "screen_name": "jeanielovesvice", "statuses_count": 165668, "time_zone": "London", "url": "http://www.viceganda.ph"}}
{"created_at": "Wed Sep 16 17:19:25 +0000 2015", "favorited": false, "id": 644198917521973248, "lang": "en", "retweeted": false, "source": "<a href=\"http://www.facebook.com/twitter\" rel=\"nofollow\">Facebook</a>", "text": "Oh my f-ing god. http://t.co/NAymH8Z2V0", "truncated": false, "urls": {"http://t.co/NAymH8Z2V0": "http://fb.me/7pyyQCZY6"}, "user": {"created_at": "Wed Sep 22 12:54:53 +0000 2010", "description": "My Official Twitter\r\nAO: Adult Only\r\nMagnificent,, Fierce,, Brilliant,,\r\nMC at Bitchy Anywhere, Actor, Traveler.\r\nOrdinary boy in Extraordinary world.", "favourites_count": 2, "followers_count": 250, "friends_count": 126, "id": 193682305, "lang": "en", "listed_count": 4, "location": "\u00dcT: 41.890049, -87.630384", "name": "Banky Rachvudhi", "profile_background_color": "0F0F0F", "profile_background_image_url": "http://pbs.twimg.com/profile_background_images/370919879/26_4_2a15a3f2adea5cf.jpg", "profile_background_tile": true, "profile_banner_url": "https://pbs.twimg.com/profile_banners/193682305/1380452923", "profile_image_url": "https://pbs.twimg.com/profile_images/650861266739822592/NfP5hnUj_normal.jpg", "profile_link_color": "EB17A1", "profile_sidebar_fill_color": "050505", "profile_text_color": "DAF50C", "protected": false, "screen_name": "imBanky", "statuses_count": 15246, "time_zone": "Central Time (US & Canada)", "url": "http://t.co/Bl8KZArbgC", "utc_offset": -21600}}
{"created_at": "Wed Sep 16 19:18:35 +0000 2015", "favorited": false, "id": 644228909563707392, "lang": "en", "retweeted": false, "source": "<a href=\"http://www.facebook.com/twitter\" rel=\"nofollow\">Facebook</a>", "text": "Got eem http://t.co/EOaCHtILw3", "truncated": false, "urls": {"http://t.co/EOaCHtILw3": "http://fb.me/2gGNMDwcm"}, "user": {"created_at": "Mon Feb 11 05:39:51 +0000 2013", "default_profile": true, "favourites_count": 4, "followers_count": 212, "friends_count": 600, "id": 1167951026, "lang": "en", "listed_count": 5, "name": "david dilligaf", "profile_background_color": "C0DEED", "profile_background_image_url": "http://abs.twimg.com/images/themes/theme1/bg.png", "profile_background_tile": false, "profile_image_url": "https://pbs.twimg.com/profile_images/3237729029/5784268293b1425ef84dd527308caf19_normal.jpeg", "profile_link_color": "0084B4", "profile_sidebar_fill_color": "DDEEF6", "profile_text_color": "333333", "protected": false, "screen_name": "DilligafDavid", "statuses_count": 30135}}
{"created_at": "Thu Sep 17 04:17:51 +0000 2015", "favorited": false, "id": 644364620669423616, "lang": "en", "retweeted": false, "source": "<a href=\"http://www.facebook.com/twitter\" rel=\"nofollow\">Facebook</a>", "text": "Dunkin Donuts Declares Bankruptcy: Closing all Stores by Late November http://t.co/44kgbWQyll", "truncated": false, "urls": {"http://t.co/44kgbWQyll": "http://fb.me/45RNPmAbC"}, "user": {"created_at": "Fri Nov 28 21:13:12 +0000 2014", "description": "I'm a fucking unicorn. Fight me.", "favourites_count": 302, "followers_count": 153, "friends_count": 443, "id": 2896449803, "lang": "en", "location": "Somersworth, NH", "name": "Mikayla Bashore", "profile_background_color": "000000", "profile_background_image_url": "http://abs.twimg.com/images/themes/theme1/bg.png", "profile_background_tile": false, "profile_banner_url": "https://pbs.twimg.com/profile_banners/2896449803/1440110571", "profile_image_url": "https://pbs.twimg.com/profile_images/634495840564985856/yqOoLwQ__normal.jpg", "profile_link_color": "9266CC", "profile_sidebar_fill_color": "000000", "profile_text_color": "000000", "protected": false, "screen_name": "killerpenguins3", "statuses_count": 818}}
{"created_at": "Thu Sep 17 05:05:56 +0000 2015", "favorited": false, "id": 644376718246027265, "lang": "en", "retweeted": false, "source": "<a href=\"http://www.facebook.com/twitter\" rel=\"nofollow\">Facebook</a>", "text": "Dunkin Donuts Declares Bankruptcy: Closing all Stores by Late November http://t.co/6CH6C9OZcH", "truncated": false, "urls": {"http://t.co/6CH6C9OZcH": "http://fb.me/2kMbqqgy4"}, "user": {"created_at": "Sat Jan 26 16:18:55 +0000 2013", "description": "Screenwriter, director, blogger and a professional jab talker.  Midwestern transplant in the San Fran area with dreams of writing movies for the stars!", "favourites_count": 12, "followers_count": 178, "friends_count": 742, "id": 1122467233, "lang": "en", "listed_count": 7, "location": "San Francisco, CA", "name": "Jessica Brown", "profile_background_color": "000000", "profile_background_image_url": "http://abs.twimg.com/images/themes/theme5/bg.gif", "profile_background_tile": false, "profile_banner_url": "https://pbs.twimg.com/profile_banners/1122467233/1417763505", "profile_image_url": "https://pbs.twimg.com/profile_images/615366392422924288/NBrYj84Y_normal.jpg", "profile_link_color": "ABB8C2", "profile_sidebar_fill_color": "000000", "profile_text_color": "000000", "protected": false, "screen_name": "JB_Media", "statuses_count": 5273, "time_zone": "Pacific Time (US & Canada)", "url": "http://t.co/QH0vSHPjyG", "utc_offset": -28800}}
{"created_at": "Thu Sep 17 10:39:40 +0000 2015", "favorited": false, "id": 644460705400262656, "lang": "en", "retweeted": false, "source": "<a href=\"http://www.facebook.com/twitter\" rel=\"nofollow\">Facebook</a>", "text": "munchkins... http://t.co/tFfSYVxRJa", "truncated": false, "urls": {"http://t.co/tFfSYVxRJa": "http://fb.me/NuPrNdu9"}, "user": {"created_at": "Sun Mar 16 02:49:19 +0000 2014", "description": "It's the heart that really matters in the end.", "favourites_count": 7598, "followers_count": 257, "friends_count": 287, "geo_enabled": true, "id": 2391963914, "lang": "en", "listed_count": 2, "location": "Manila", "name": "KL Fernandez \u2693", "profile_background_color": "000000", "profile_background_image_url": "http://pbs.twimg.com/profile_background_images/606425269017018368/QfpA8LCw.jpg", "profile_background_tile": true, "profile_banner_url": "https://pbs.twimg.com/profile_banners/2391963914/1436180275", "profile_image_url": "https://pbs.twimg.com/profile_images/681344979071979520/KaBFHdct_normal.jpg", "profile_link_color": "F2111C", "profile_sidebar_fill_color": "DDEEF6", "profile_text_color": "333333", "protected": false, "screen_name": "fernandez_kl", "statuses_count": 8019, "time_zone": "Beijing", "url": "https://t.co/pAzj129RMr", "utc_offset": 28800}}
{"created_at": "Thu Sep 17 12:22:06 +0000 2015", "favorite_count": 11, "favorited": false, "id": 644486483978485760, "lang": "en", "retweeted": false, "source": "<a href=\"http://twitter.com/download/iphone\" rel=\"nofollow\">Twitter for iPhone</a>", "text": "\"Dunkin Donuts Declared Bankruptcy: Closing all stores by late November.\"\n\nAng sakit sakit sakit sakit sakit \ud83d\ude22", "truncated": false, "user": {"created_at": "Sat Dec 21 10:41:10 +0000 2013", "description": "nap queen", "favourites_count": 27755, "followers_count": 446, "friends_count": 343, "geo_enabled": true, "id": 2256310825, "lang": "en", "name": "Ea", "profile_background_color": "FFFFFF", "profile_background_image_url": "http://abs.twimg.com/images/themes/theme1/bg.png", "profile_background_tile": false, "profile_banner_url": "https://pbs.twimg.com/profile_banners/2256310825/1451325240", "profile_image_url": "https://pbs.twimg.com/profile_images/681358303373332480/UcGlr1hU_normal.jpg", "profile_link_color": "BEC0C2", "profile_sidebar_fill_color": "DDEEF6", "profile_text_color": "333333", "protected": false, "screen_name": "e_frnndz", "statuses_count": 17422, "time_zone": "Pacific Time (US & Canada)", "utc_offset": -28800}}
{"created_at": "Thu Sep 17 18:28:37 +0000 2015", "favorited": false, "id": 644578722302033920, "lang": "en", "retweeted": false, "source": "<a href=\"http://www.facebook.com/twitter\" rel=\"nofollow\">Facebook</a>", "text": "Dunkin Donuts Declares Bankruptcy: Closing all Stores by Late November http://t.co/SA6uMc0I6G", "truncated": false, "urls": {"http://t.co/SA6uMc0I6G": "http://fb.me/1Ar3xzgBQ"}, "user": {"created_at": "Tue Feb 02 03:01:04 +0000 2010", "default_profile": true, "description": "FSU 1998 graduate.", "favourites_count": 11, "followers_count": 469, "friends_count": 2132, "id": 110594276, "lang": "en", "listed_count": 37, "location": "Tallahassee, FL", "name": "Dawn Ganey", "profile_background_color": "C0DEED", "profile_background_image_url": "http://abs.twimg.com/images/themes/theme1/bg.png", "profile_background_tile": false, "profile_image_url": "https://pbs.twimg.com/profile_images/1616631843/100_0004_normal.jpg", "profile_link_color": "0084B4", "profile_sidebar_fill_color": "DDEEF6", "profile_text_color": "333333", "protected": false, "screen_name": "ddganey", "statuses_count": 46470}}
{"created_at": "Fri Sep 18 00:22:41 +0000 2015", "favorited": false, "id": 644667822984032256, "lang": "en", "retweeted": false, "source": "<a href=\"http://www.facebook.com/twitter\" rel=\"nofollow\">Facebook</a>", "text": "Dunkin Donuts Declares Bankruptcy: Closing all Stores by Late November http://t.co/2sE6fLVNOu", "truncated": false, "urls": {"http://t.co/2sE6fLVNOu": "http://fb.me/2k4RgtGAY"}, "user": {"created_at": "Fri Aug 19 05:11:15 +0000 2011", "description": "#TeamFollowback, #FamilyHisory short stories about our Ancestors and their Genealogical Brick walls.", "favourites_count": 222, "followers_count": 1303, "friends_count": 1883, "id": 357972485, "lang": "en", "listed_count": 7, "location": "New England", "name": "Kelly Waterman", "profile_background_color": "9AD4C4", "profile_background_image_url": "http://pbs.twimg.com/profile_background_images/453021403017510912/sLxOqEDL.png", "profile_background_tile": true, "profile_image_url": "https://pbs.twimg.com/profile_images/453022574499217408/mkwgdeOA_normal.jpeg", "profile_link_color": "AA9FAE", "profile_sidebar_fill_color": "291443", "profile_text_color": "6A6E91", "protected": false, "screen_name": "KellyWaterman22", "statuses_count": 7833, "time_zone": "Eastern Time (US & Canada)", "url": "http://t.co/XsJh0eFfLs", "utc_offset": -18000}}
{"created_at": "Fri Sep 18 21:47:47 +0000 2015", "favorited": false, "id": 644991231567732738, "lang": "en", "retweeted": false, "source": "<a href=\"http://mobile.twitter.com\" rel=\"nofollow\">Mobile Web</a>", "text": "Dunkin Donuts Declares Bankruptcy: Closing all Stores by Late November http://t.co/FmDAwCMkcK", "truncated": false, "urls": {"http://t.co/FmDAwCMkcK": "http://fcx.news/220/dunkin-donuts-declares-bankruptcy-closing-all-stores-by-late-november"}, "user": {"created_at": "Tue Dec 11 02:49:21 +0000 2012", "favourites_count": 36266, "followers_count": 1646, "friends_count": 1535, "geo_enabled": true, "id": 1003134618, "lang": "en", "listed_count": 20, "location": "Chicago, IL", "name": "Adan", "profile_background_color": "352726", "profile_background_image_url": "http://abs.twimg.com/images/themes/theme5/bg.gif", "profile_background_tile": false, "profile_banner_url": "https://pbs.twimg.com/profile_banners/1003134618/1452471661", "profile_image_url": "https://pbs.twimg.com/profile_images/683515109050855424/7nnL_weg_normal.jpg", "profile_link_color": "1B14CF", "profile_sidebar_fill_color": "99CC33", "profile_text_color": "3E4415", "protected": false, "screen_name": "AdanBITW", "statuses_count": 55827, "time_zone": "America/Chicago", "utc_offset": -21600}}
{"created_at": "Sat Oct 03 02:10:05 +0000 2015", "favorited": false, "id": 650130671546015744, "lang": "en", "retweeted": false, "source": "<a href=\"http://www.facebook.com/twitter\" rel=\"nofollow\">Facebook</a>", "text": "Dunkin Donuts Declares Bankruptcy: Closing all Stores by Late November http://t.co/UQXrYbijMH", "truncated": false, "urls": {"http://t.co/UQXrYbijMH": "http://fb.me/3Ql3jCmKo"}, "user": {"created_at": "Mon May 28 19:37:00 +0000 2012", "default_profile": true, "description": "16, love my family, an love gettin to know people, hmu lol... FOLLOW me hunny:-)", "favourites_count": 28, "followers_count": 149, "friends_count": 245, "id": 593000204, "lang": "en", "listed_count": 1, "location": "pittsburgh girl :-)  ", "name": "Brittney Vargo", "profile_background_color": "C0DEED", "profile_background_image_url": "http://abs.twimg.com/images/themes/theme1/bg.png", "profile_background_tile": false, "profile_banner_url": "https://pbs.twimg.com/profile_banners/593000204/1370373320", "profile_image_url": "https://pbs.twimg.com/profile_images/3755701186/51a7d925bfbdb141366c80c14b4194b9_normal.jpeg", "profile_link_color": "0084B4", "profile_sidebar_fill_color": "DDEEF6", "profile_text_color": "333333", "protected": false, "screen_name": "brittneyvargo1", "statuses_count": 3727}}
