{"created_at": "Wed Nov 18 10:06:18 +0000 2015", "favorited": false, "id": 666920355047444480, "lang": "en", "retweeted": false, "source": "<a href=\"http://www.facebook.com/twitter\" rel=\"nofollow\">Facebook</a>", "text": "President Obama Scores 102 On IQ Test, Lowest In Presidential History https://t.co/kZ76dMx5r0", "truncated": false, "urls": {"https://t.co/kZ76dMx5r0": "http://fb.me/7SDhBeCRC"}, "user": {"created_at": "Thu Jun 14 02:47:46 +0000 2012", "description": "Say, KY-selt ! -- Conservative Young Student Entrepreneur LEADERS for Tomorrow.", "followers_count": 147, "friends_count": 512, "id": 607761475, "lang": "en", "listed_count": 11, "location": "Minnetonka, Minnesota", "name": "CYSELT conservatives", "profile_background_color": "C0DEED", "profile_background_image_url": "http://pbs.twimg.com/profile_background_images/578599311/rz411dznu2qddeuzp0dn.jpeg", "profile_background_tile": false, "profile_image_url": "https://pbs.twimg.com/profile_images/2306328271/hi1_normal.JPG", "profile_link_color": "0084B4", "profile_sidebar_fill_color": "DDEEF6", "profile_text_color": "333333", "protected": false, "screen_name": "CYSELT", "statuses_count": 25959, "time_zone": "Central Time (US & Canada)", "url": "http://t.co/bBRei58bxs", "utc_offset": -21600}}
{"created_at": "Wed Nov 18 13:21:47 +0000 2015", "favorited": false, "id": 666969550097915905, "lang": "en", "retweeted": false, "source": "<a href=\"http://www.facebook.com/twitter\" rel=\"nofollow\">Facebook</a>", "text": "TRUMP 2016\nMAKE AMERICA GREAT AGAIN!\n\nLOL...  HIS MIND IS WARPED FROM ALL THE RADICAL L/ EXTREMIST ISLAMIC THEOLOGY https://t.co/K3TJoxow7q", "truncated": false, "urls": {"https://t.co/K3TJoxow7q": "http://fb.me/7Hov5mpUn"}, "user": {"created_at": "Fri Jul 17 01:47:16 +0000 2015", "description": "Entrepreneur, Life Member,Supporter For Donald Trump, #PatriotBrigade #SilentMajority #LEADERSHIP, #TRUTHTALKER. Creator of https://t.co/Wok3QB9yNM", "favourites_count": 300, "followers_count": 642, "friends_count": 629, "id": 3379672737, "lang": "en", "listed_count": 16, "location": "Naugatuck, CT", "name": "Antonio", "profile_background_color": "000000", "profile_background_image_url": "http://abs.twimg.com/images/themes/theme1/bg.png", "profile_background_tile": false, "profile_banner_url": "https://pbs.twimg.com/profile_banners/3379672737/1437464961", "profile_image_url": "https://pbs.twimg.com/profile_images/621859258921979904/oJy5gipH_normal.jpg", "profile_link_color": "3B94D9", "profile_sidebar_fill_color": "000000", "profile_text_color": "000000", "protected": false, "screen_name": "Antonio_96_Rose", "statuses_count": 10122}}
{"created_at": "Wed Nov 18 14:38:17 +0000 2015", "favorited": false, "id": 666988802532052993, "lang": "en", "retweeted": false, "source": "<a href=\"http://www.facebook.com/twitter\" rel=\"nofollow\">Facebook</a>", "text": "President Obama Scores 102 On IQ Test, Lowest In Presidential History https://t.co/6ss9Yj1hmf", "truncated": false, "urls": {"https://t.co/6ss9Yj1hmf": "http://fb.me/4t0rg5i6R"}, "user": {"created_at": "Mon Feb 13 11:09:06 +0000 2012", "default_profile": true, "description": "recording artist/composer/ crorec / ascap / ZAMP/ copyrights   http://t.co/lI7lhxkZQ3", "favourites_count": 31, "followers_count": 37, "friends_count": 103, "geo_enabled": true, "id": 491199880, "lang": "en", "location": "Slovenia", "name": "Dzo Maracic Maki", "profile_background_color": "C0DEED", "profile_background_image_url": "http://abs.twimg.com/images/themes/theme1/bg.png", "profile_background_tile": false, "profile_image_url": "https://pbs.twimg.com/profile_images/1825507264/image_normal.jpg", "profile_link_color": "0084B4", "profile_sidebar_fill_color": "DDEEF6", "profile_text_color": "333333", "protected": false, "screen_name": "dzomaki", "statuses_count": 1544, "time_zone": "West Central Africa", "url": "http://t.co/LpodboCm9R", "utc_offset": 3600}}
{"created_at": "Thu Nov 19 07:31:56 +0000 2015", "favorited": false, "id": 667243898914369536, "lang": "en", "retweeted": false, "source": "<a href=\"http://www.facebook.com/twitter\" rel=\"nofollow\">Facebook</a>", "text": "TRUMP 2016\nMake America Great Again ! ! ! \n\nAH,... WELL,AT LEAST THIS EXPLAINS  SOME OF OBAMA'S SCREW UPS. https://t.co/rEfakLbgXb", "truncated": false, "urls": {"https://t.co/rEfakLbgXb": "http://fb.me/DQ6qGtoz"}, "user": {"created_at": "Fri Jul 17 01:47:16 +0000 2015", "description": "Entrepreneur, Life Member,Supporter For Donald Trump, #PatriotBrigade #SilentMajority #LEADERSHIP, #TRUTHTALKER. Creator of https://t.co/Wok3QB9yNM", "favourites_count": 300, "followers_count": 642, "friends_count": 629, "id": 3379672737, "lang": "en", "listed_count": 16, "location": "Naugatuck, CT", "name": "Antonio", "profile_background_color": "000000", "profile_background_image_url": "http://abs.twimg.com/images/themes/theme1/bg.png", "profile_background_tile": false, "profile_banner_url": "https://pbs.twimg.com/profile_banners/3379672737/1437464961", "profile_image_url": "https://pbs.twimg.com/profile_images/621859258921979904/oJy5gipH_normal.jpg", "profile_link_color": "3B94D9", "profile_sidebar_fill_color": "000000", "profile_text_color": "000000", "protected": false, "screen_name": "Antonio_96_Rose", "statuses_count": 10122}}
{"created_at": "Tue Dec 01 12:53:49 +0000 2015", "favorited": false, "id": 671673557483544581, "lang": "en", "retweeted": false, "source": "<a href=\"http://www.facebook.com/twitter\" rel=\"nofollow\">Facebook</a>", "text": "President Obama Scores 102 On IQ Test, Lowest In Presidential History https://t.co/nK6I5a0FXH", "truncated": false, "urls": {"https://t.co/nK6I5a0FXH": "http://fb.me/6Zuvi01rQ"}, "user": {"created_at": "Fri Dec 12 23:10:02 +0000 2008", "default_profile": true, "favourites_count": 4, "followers_count": 52, "friends_count": 63, "id": 18088524, "lang": "en", "listed_count": 10, "location": "Florida", "name": "Pam Anderson", "profile_background_color": "C0DEED", "profile_background_image_url": "http://abs.twimg.com/images/themes/theme1/bg.png", "profile_background_tile": false, "profile_image_url": "https://pbs.twimg.com/profile_images/67262509/n502959372_306_normal.jpg", "profile_link_color": "0084B4", "profile_sidebar_fill_color": "DDEEF6", "profile_text_color": "333333", "protected": false, "screen_name": "Pam308", "statuses_count": 38899, "time_zone": "Central Time (US & Canada)", "url": "http://t.co/FJPLQHf1", "utc_offset": -21600}}
{"created_at": "Tue Dec 01 15:06:25 +0000 2015", "favorited": false, "id": 671706927252967425, "lang": "en", "retweeted": false, "source": "<a href=\"http://www.facebook.com/twitter\" rel=\"nofollow\">Facebook</a>", "text": "President Obama Scores 102 On IQ Test, Lowest In Presidential History https://t.co/9xpdbsCFno", "truncated": false, "urls": {"https://t.co/9xpdbsCFno": "http://fb.me/2sLeeocZR"}, "user": {"created_at": "Sun Sep 02 00:37:32 +0000 2012", "description": "SSG, Warrior, Leader, Lover of the American Way as it was intended in the Constitution  Memberships: Tea Party, NAGR Lifetime: American Legion, VFW, NRA, & PGA", "favourites_count": 7612, "followers_count": 2347, "friends_count": 2424, "id": 797183347, "lang": "en", "listed_count": 57, "location": "At Large", "name": "George Blackshear", "profile_background_color": "022330", "profile_background_image_url": "http://abs.twimg.com/images/themes/theme15/bg.png", "profile_background_tile": false, "profile_banner_url": "https://pbs.twimg.com/profile_banners/797183347/1438604800", "profile_image_url": "https://pbs.twimg.com/profile_images/615867143704281088/HYWANqX3_normal.jpg", "profile_link_color": "FA743E", "profile_sidebar_fill_color": "F6F6F6", "profile_text_color": "333333", "protected": false, "screen_name": "nightridercz5", "statuses_count": 26424, "time_zone": "Eastern Time (US & Canada)", "utc_offset": -18000}}
{"created_at": "Tue Dec 01 16:23:19 +0000 2015", "favorited": false, "id": 671726278400065536, "lang": "en", "retweeted": false, "source": "<a href=\"http://www.facebook.com/twitter\" rel=\"nofollow\">Facebook</a>", "text": "President Obama Scores 102 On IQ Test, Lowest In Presidential History https://t.co/RqzZGahbAk", "truncated": false, "urls": {"https://t.co/RqzZGahbAk": "http://fb.me/2Bdub9cmO"}, "user": {"created_at": "Thu Dec 29 23:38:24 +0000 2011", "description": "Habits determine your character, and character determines your destiny. Be truthful in all things", "favourites_count": 2, "followers_count": 89, "friends_count": 323, "id": 450175203, "lang": "en", "listed_count": 5, "location": "Hoover ,AL", "name": "Doug Edge Sr", "profile_background_color": "59BEE4", "profile_background_image_url": "http://abs.twimg.com/images/themes/theme1/bg.png", "profile_background_tile": false, "profile_image_url": "https://pbs.twimg.com/profile_images/635466893785063424/BwGhOP0R_normal.jpg", "profile_link_color": "8FCAE0", "profile_sidebar_fill_color": "191F22", "profile_text_color": "4BB7DF", "protected": false, "screen_name": "dedge1325", "statuses_count": 11127}}
{"created_at": "Tue Dec 01 16:24:37 +0000 2015", "favorited": false, "id": 671726605018996737, "lang": "en", "retweeted": false, "source": "<a href=\"http://www.facebook.com/twitter\" rel=\"nofollow\">Facebook</a>", "text": "President Obama Scores 102 On IQ Test, Lowest In Presidential History https://t.co/UFwroGwpYP", "truncated": false, "urls": {"https://t.co/UFwroGwpYP": "http://fb.me/6WVA890xJ"}, "user": {"created_at": "Mon Dec 17 04:51:34 +0000 2007", "favourites_count": 11, "followers_count": 9, "friends_count": 32, "id": 11245492, "lang": "en", "location": "Saulsbury, TN  38067", "name": "Rivers Wilkinson", "profile_background_color": "0099B9", "profile_background_image_url": "http://abs.twimg.com/images/themes/theme4/bg.gif", "profile_background_tile": false, "profile_image_url": "https://pbs.twimg.com/profile_images/3165652330/9fffbbaa7b668ba3f46699e717c7724b_normal.jpeg", "profile_link_color": "0099B9", "profile_sidebar_fill_color": "95E8EC", "profile_text_color": "3C3940", "protected": false, "screen_name": "Scarlettudc", "statuses_count": 4427, "time_zone": "Mountain Time (US & Canada)", "url": "http://t.co/uaDhofm2Yy", "utc_offset": -25200}}
{"created_at": "Tue Dec 01 16:27:53 +0000 2015", "favorited": false, "id": 671727426834186240, "lang": "en", "retweeted": false, "source": "<a href=\"http://www.facebook.com/twitter\" rel=\"nofollow\">Facebook</a>", "text": "President Obama Scores 102 On IQ Test, Lowest In Presidential History https://t.co/mfeQ0Q1sEC", "truncated": false, "urls": {"https://t.co/mfeQ0Q1sEC": "http://fb.me/4wlwm8jqT"}, "user": {"created_at": "Mon Dec 17 04:51:34 +0000 2007", "favourites_count": 11, "followers_count": 9, "friends_count": 32, "id": 11245492, "lang": "en", "location": "Saulsbury, TN  38067", "name": "Rivers Wilkinson", "profile_background_color": "0099B9", "profile_background_image_url": "http://abs.twimg.com/images/themes/theme4/bg.gif", "profile_background_tile": false, "profile_image_url": "https://pbs.twimg.com/profile_images/3165652330/9fffbbaa7b668ba3f46699e717c7724b_normal.jpeg", "profile_link_color": "0099B9", "profile_sidebar_fill_color": "95E8EC", "profile_text_color": "3C3940", "protected": false, "screen_name": "Scarlettudc", "statuses_count": 4427, "time_zone": "Mountain Time (US & Canada)", "url": "http://t.co/uaDhofm2Yy", "utc_offset": -25200}}
{"created_at": "Tue Dec 01 18:30:44 +0000 2015", "favorited": false, "id": 671758343590060033, "lang": "en", "retweeted": false, "source": "<a href=\"http://www.facebook.com/twitter\" rel=\"nofollow\">Facebook</a>", "text": "President Obama Scores 102 On IQ Test, Lowest In Presidential History https://t.co/hVD4W2fii1", "truncated": false, "urls": {"https://t.co/hVD4W2fii1": "http://fb.me/6QOFsgWTb"}, "user": {"created_at": "Sat Jan 14 23:27:10 +0000 2012", "description": "#Conservative #TEAParty #F2W #tcot #ccot #1A #TGDN #2A #10A #PJNet #movies Liberals: Looking to do FOR America what they've done TO Detroit - Destroy it", "favourites_count": 410, "followers_count": 3496, "friends_count": 3310, "geo_enabled": true, "id": 464189079, "lang": "en", "listed_count": 212, "location": "Wyandotte, MI", "name": "Joseph Lenard", "profile_background_color": "C0DEED", "profile_background_image_url": "http://abs.twimg.com/images/themes/theme1/bg.png", "profile_background_tile": true, "profile_banner_url": "https://pbs.twimg.com/profile_banners/464189079/1396829447", "profile_image_url": "https://pbs.twimg.com/profile_images/1755472371/911_Never_Forget_normal.JPG", "profile_link_color": "F70814", "profile_sidebar_fill_color": "DDEEF6", "profile_text_color": "333333", "protected": false, "screen_name": "JLenardDetroit", "statuses_count": 167916, "time_zone": "Eastern Time (US & Canada)", "url": "http://t.co/Kdik1ngQRs", "utc_offset": -18000}}
{"created_at": "Tue Dec 01 19:12:24 +0000 2015", "favorited": false, "id": 671768827617783808, "lang": "en", "retweeted": false, "source": "<a href=\"http://www.facebook.com/twitter\" rel=\"nofollow\">Facebook</a>", "text": "President Obama Scores 102 On IQ Test, Lowest In Presidential History https://t.co/kSulh48F7o", "truncated": false, "urls": {"https://t.co/kSulh48F7o": "http://fb.me/4eRaGShGU"}, "user": {"created_at": "Mon Oct 14 01:47:29 +0000 2013", "default_profile": true, "description": "NOTTFO - Nightmare on the 13th Floor Online", "favourites_count": 1, "followers_count": 11, "friends_count": 1, "id": 1959714794, "lang": "en", "listed_count": 4, "name": "nottfo", "profile_background_color": "C0DEED", "profile_background_image_url": "http://abs.twimg.com/images/themes/theme1/bg.png", "profile_background_tile": false, "profile_banner_url": "https://pbs.twimg.com/profile_banners/1959714794/1381715737", "profile_image_url": "https://pbs.twimg.com/profile_images/378800000607815411/0196aeb069cbb1699b2aca643e31c00a_normal.png", "profile_link_color": "0084B4", "profile_sidebar_fill_color": "DDEEF6", "profile_text_color": "333333", "protected": false, "screen_name": "nottfo", "statuses_count": 3993, "url": "http://t.co/z33yXFndzE"}}
{"created_at": "Tue Dec 01 20:03:25 +0000 2015", "favorited": false, "id": 671781669737746432, "lang": "en", "retweeted": false, "source": "<a href=\"http://www.facebook.com/twitter\" rel=\"nofollow\">Facebook</a>", "text": "President Obama Scores 102 On IQ Test, Lowest In Presidential History https://t.co/U7EWUXZ3gN", "truncated": false, "urls": {"https://t.co/U7EWUXZ3gN": "http://fb.me/4I76bwTFb"}, "user": {"created_at": "Fri Apr 17 13:05:06 +0000 2009", "default_profile": true, "description": "Consumer Advocate, Political muckraker", "favourites_count": 29, "followers_count": 10787, "friends_count": 226, "id": 32395592, "lang": "en", "listed_count": 4, "location": "Michigan", "name": "Bruce David", "profile_background_color": "C0DEED", "profile_background_image_url": "http://abs.twimg.com/images/themes/theme1/bg.png", "profile_background_tile": false, "profile_image_url": "https://pbs.twimg.com/profile_images/142371449/000_1967_normal.jpg", "profile_link_color": "0084B4", "profile_sidebar_fill_color": "DDEEF6", "profile_text_color": "333333", "protected": false, "screen_name": "poormansurvivor", "statuses_count": 4149, "time_zone": "Pacific Time (US & Canada)", "url": "http://t.co/tLgdPfy49U", "utc_offset": -28800}}
{"created_at": "Tue Dec 01 23:32:46 +0000 2015", "favorited": false, "id": 671834352167317504, "lang": "en", "retweeted": false, "source": "<a href=\"http://www.tumblr.com/\" rel=\"nofollow\">Tumblr</a>", "text": "President Obama Scores 102 On IQ Test, Lowest In Presidential History https://t.co/UtSV7L5LY4", "truncated": false, "urls": {"https://t.co/UtSV7L5LY4": "http://tmblr.co/Z0aWdx1z8WjkM"}, "user": {"created_at": "Mon Apr 06 17:06:56 +0000 2009", "description": ".The Founding Fathers gave us guidelines, why can't  the govt follow them? Do or do not, there is no try.", "favourites_count": 44, "followers_count": 226, "friends_count": 425, "geo_enabled": true, "id": 29242311, "lang": "en", "listed_count": 3, "location": "Waterford CT", "name": "Peter T Volkmar", "profile_background_color": "352726", "profile_background_image_url": "http://abs.twimg.com/images/themes/theme5/bg.gif", "profile_background_tile": false, "profile_banner_url": "https://pbs.twimg.com/profile_banners/29242311/1400593039", "profile_image_url": "https://pbs.twimg.com/profile_images/344513261570258762/45b518c7a8209d02c6f8bcc88be41d56_normal.jpeg", "profile_link_color": "FA743E", "profile_sidebar_fill_color": "99CC33", "profile_text_color": "3E4415", "protected": false, "screen_name": "ptvolkmar", "statuses_count": 4952, "time_zone": "Eastern Time (US & Canada)", "utc_offset": -18000}}
{"created_at": "Wed Dec 02 06:23:41 +0000 2015", "favorited": false, "id": 671937765660073984, "lang": "en", "retweeted": false, "source": "<a href=\"http://www.facebook.com/twitter\" rel=\"nofollow\">Facebook</a>", "text": "President Obama Scores 102 On IQ Test, Lowest In Presidential History https://t.co/iFgvnULP6z", "truncated": false, "urls": {"https://t.co/iFgvnULP6z": "http://fb.me/6ZEZ3m1Rh"}, "user": {"created_at": "Mon Oct 03 06:33:14 +0000 2011", "description": "I am 100% disabled and not willing to give up. I love God and my country. I like doing the right thing.", "favourites_count": 26, "followers_count": 99, "friends_count": 283, "geo_enabled": true, "id": 384177396, "lang": "en", "listed_count": 9, "location": "Montana", "name": "Steve Smith", "profile_background_color": "251810", "profile_background_image_url": "http://pbs.twimg.com/profile_background_images/646446519/x67a34a118861d4c17e49e3fad5a7baa.jpg", "profile_background_tile": false, "profile_banner_url": "https://pbs.twimg.com/profile_banners/384177396/1413435218", "profile_image_url": "https://pbs.twimg.com/profile_images/1572074016/sparis_normal.jpg", "profile_link_color": "A98E6F", "profile_sidebar_fill_color": "1D110A", "profile_text_color": "94A4AE", "protected": false, "screen_name": "Flameon1Steve", "statuses_count": 28256, "time_zone": "Mountain Time (US & Canada)", "url": "https://t.co/QUX7urqwaS", "utc_offset": -25200}}
{"created_at": "Wed Dec 02 07:54:36 +0000 2015", "favorited": false, "id": 671960644015538180, "lang": "en", "retweeted": false, "source": "<a href=\"http://www.facebook.com/twitter\" rel=\"nofollow\">Facebook</a>", "text": "Well DUH https://t.co/PYITyDLSEO", "truncated": false, "urls": {"https://t.co/PYITyDLSEO": "http://fb.me/3DOKdMpHW"}, "user": {"created_at": "Thu Sep 24 17:21:40 +0000 2009", "description": "#Nordic #Templar #Knights #Freemason #SUVCW #MinuteMen #Jesus #TEA #Honda #Tech #Niles #MI Home Of #TommyJames #TommyShaw #KateUpton #RyanNewman #BradBanhagel", "favourites_count": 6875, "followers_count": 3176, "friends_count": 2763, "id": 76992333, "lang": "en", "listed_count": 196, "location": "RIGHT Coast of Lake Michigan ", "name": "Davey Ho", "profile_background_color": "131516", "profile_background_image_url": "http://pbs.twimg.com/profile_background_images/768162165/079d026b4537d222d52277de75274857.jpeg", "profile_background_tile": true, "profile_banner_url": "https://pbs.twimg.com/profile_banners/76992333/1423158109", "profile_image_url": "https://pbs.twimg.com/profile_images/661361929303302145/WqoyknsH_normal.png", "profile_link_color": "009999", "profile_sidebar_fill_color": "EFEFEF", "profile_text_color": "333333", "protected": false, "screen_name": "DaveyHo69", "statuses_count": 51554, "time_zone": "Eastern Time (US & Canada)", "utc_offset": -18000}}
{"created_at": "Wed Dec 02 08:59:33 +0000 2015", "favorited": false, "id": 671976989792862208, "lang": "en", "retweeted": false, "source": "<a href=\"http://www.facebook.com/twitter\" rel=\"nofollow\">Facebook</a>", "text": "President Obama Scores 102 On IQ Test, Lowest In Presidential History https://t.co/VnDYOtZqpv", "truncated": false, "urls": {"https://t.co/VnDYOtZqpv": "http://fb.me/47JRNC915"}, "user": {"created_at": "Tue Jun 02 15:54:41 +0000 2009", "description": "I believe there are 2 important things in this world\r\n1 Is motorcycles\r\nThat other thing I like requires too much maintenance", "favourites_count": 21, "followers_count": 1095, "friends_count": 1980, "geo_enabled": true, "id": 44143714, "lang": "en", "listed_count": 14, "location": "Englewood, Florida USA", "name": "Prof. Kiergen", "profile_background_color": "1A1B1F", "profile_background_image_url": "http://abs.twimg.com/images/themes/theme9/bg.gif", "profile_background_tile": false, "profile_image_url": "https://pbs.twimg.com/profile_images/1479457470/082_normal.JPG", "profile_link_color": "2FC2EF", "profile_sidebar_fill_color": "252429", "profile_text_color": "666666", "protected": false, "screen_name": "dawino6260", "statuses_count": 86317, "time_zone": "Eastern Time (US & Canada)", "url": "http://t.co/IFwvLs8M3E", "utc_offset": -18000}}
{"created_at": "Wed Dec 02 10:18:35 +0000 2015", "favorited": false, "id": 671996879412989954, "lang": "en", "retweet_count": 1, "retweeted": false, "source": "<a href=\"http://www.facebook.com/twitter\" rel=\"nofollow\">Facebook</a>", "text": "President Obama Scores 102 On IQ Test, Lowest In Presidential History https://t.co/JHseSssmgU", "truncated": false, "urls": {"https://t.co/JHseSssmgU": "http://fb.me/7DfIqWA4M"}, "user": {"created_at": "Thu Jun 14 15:40:31 +0000 2012", "description": "Freelance writer at Breitbart, Daily Caller, reason, LA Times etc.  Also, to buy groceries and shoes, I develop property.    http://t.co/H3xbK0yJMu", "favourites_count": 3978, "followers_count": 1344, "friends_count": 2502, "geo_enabled": true, "id": 608243816, "lang": "en", "listed_count": 58, "location": "Liberty on the Rocks, DC", "name": "Bruce Majors", "profile_background_color": "022330", "profile_background_image_url": "http://pbs.twimg.com/profile_background_images/670676307668111360/72HzJpY0.jpg", "profile_background_tile": true, "profile_banner_url": "https://pbs.twimg.com/profile_banners/608243816/1447596203", "profile_image_url": "https://pbs.twimg.com/profile_images/665891308653953024/nnkNbTaf_normal.jpg", "profile_link_color": "4A913C", "profile_sidebar_fill_color": "DDEEF6", "profile_text_color": "333333", "protected": false, "screen_name": "BruceMajors4DC", "statuses_count": 22089, "time_zone": "Atlantic Time (Canada)", "url": "https://t.co/H3xbK0yJMu", "utc_offset": -14400}}
{"created_at": "Thu Dec 03 00:49:58 +0000 2015", "favorited": false, "id": 672216168959107073, "lang": "en", "retweeted": false, "source": "<a href=\"http://twitter.com\" rel=\"nofollow\">Twitter Web Client</a>", "text": "ICYMI: President Obama Scores 102 On IQ Test, Lowest In Presidential History https://t.co/TSWbmDnHHu", "truncated": false, "urls": {"https://t.co/TSWbmDnHHu": "http://empirenews.net/president-obama-scores-102-on-iq-test-lowest-in-presidential-history/"}, "user": {"created_at": "Thu Dec 30 15:17:39 +0000 2010", "description": "Christian, Conservative, Sick of Obama, Corrupt Govt, & wimps in Congress #NOAmnesty #Benghazi #Extortion17 #AbolishtheIRS #TermLimits #NOGMOs", "favourites_count": 65, "followers_count": 3092, "friends_count": 3333, "id": 232218349, "lang": "en", "listed_count": 88, "name": "Dee", "profile_background_color": "0099B9", "profile_background_image_url": "http://pbs.twimg.com/profile_background_images/448874072751865856/uDres4Hx.jpeg", "profile_background_tile": true, "profile_banner_url": "https://pbs.twimg.com/profile_banners/232218349/1449187098", "profile_image_url": "https://pbs.twimg.com/profile_images/672674280044236800/4ZaE0dLk_normal.jpg", "profile_link_color": "0099B9", "profile_sidebar_fill_color": "95E8EC", "profile_text_color": "3C3940", "protected": false, "screen_name": "DeeC748", "statuses_count": 80124, "time_zone": "Eastern Time (US & Canada)", "utc_offset": -18000}}
{"created_at": "Thu Dec 03 11:36:43 +0000 2015", "favorite_count": 3, "favorited": false, "id": 672378929152397313, "lang": "en", "retweet_count": 1, "retweeted": false, "source": "<a href=\"http://www.facebook.com/twitter\" rel=\"nofollow\">Facebook</a>", "text": "President Obama Scores 102 On IQ Test, Lowest In Presidential History https://t.co/kf1njKMP2J", "truncated": false, "urls": {"https://t.co/kf1njKMP2J": "http://fb.me/5AzbMQN9a"}, "user": {"created_at": "Thu Dec 15 23:38:16 +0000 2011", "description": "Disciple of Yahusha Messiah-Son of the Creator, YAHUAH-Who gave His only begotten Son, that whosoever is baptized and receives the Spirit of Elohim in Yahusha=L", "favourites_count": 5534, "followers_count": 959, "friends_count": 834, "id": 437895198, "lang": "en", "listed_count": 62, "location": "Northern California", "name": "Denny R", "profile_background_color": "570314", "profile_background_image_url": "http://abs.twimg.com/images/themes/theme10/bg.gif", "profile_background_tile": true, "profile_banner_url": "https://pbs.twimg.com/profile_banners/437895198/1442131219", "profile_image_url": "https://pbs.twimg.com/profile_images/642971337007362048/B9H7rrwy_normal.jpg", "profile_link_color": "700404", "profile_sidebar_fill_color": "4F022A", "profile_text_color": "030005", "protected": false, "screen_name": "777denny_", "statuses_count": 30358, "time_zone": "Pacific Time (US & Canada)", "url": "http://t.co/XLtGNZGhx2", "utc_offset": -28800}}
{"created_at": "Thu Dec 03 14:07:24 +0000 2015", "favorited": false, "id": 672416850626654208, "lang": "en", "retweeted": false, "source": "<a href=\"http://www.facebook.com/twitter\" rel=\"nofollow\">Facebook</a>", "text": "President Obama Scores 102 On IQ Test, Lowest In Presidential History https://t.co/QXNc0qAdGN", "truncated": false, "urls": {"https://t.co/QXNc0qAdGN": "http://fb.me/3ElgmZfPb"}, "user": {"created_at": "Fri Aug 05 16:01:08 +0000 2011", "description": "Mom, Teacher, Liberty Christian School Association, Mortuary Science, Literature, Biological Science, Dual BA Degrees, Troy University & USA", "favourites_count": 201, "followers_count": 512, "friends_count": 497, "geo_enabled": true, "id": 349126802, "lang": "en", "listed_count": 6, "location": "Heart of Dixie", "name": "~~C~~", "profile_background_color": "C0DEED", "profile_background_image_url": "http://pbs.twimg.com/profile_background_images/536419454/xbaad4b95ac7f1aca26122ae172cc98c.jpg", "profile_background_tile": false, "profile_banner_url": "https://pbs.twimg.com/profile_banners/349126802/1450802255", "profile_image_url": "https://pbs.twimg.com/profile_images/673721408904671233/6hqW9uEB_normal.jpg", "profile_link_color": "333333", "profile_sidebar_fill_color": "DDEEF6", "profile_text_color": "0084B4", "protected": false, "screen_name": "PrettyPoisond1", "statuses_count": 25322, "time_zone": "Central Time (US & Canada)", "utc_offset": -21600}}
{"created_at": "Fri Dec 04 03:22:25 +0000 2015", "favorited": false, "id": 672616921427279872, "lang": "en", "retweeted": false, "source": "<a href=\"http://www.facebook.com/twitter\" rel=\"nofollow\">Facebook</a>", "text": "President Obama Scores 102 On IQ Test, Lowest In Presidential History https://t.co/X3YGbtUN51", "truncated": false, "urls": {"https://t.co/X3YGbtUN51": "http://fb.me/2s0NlPMzY"}, "user": {"created_at": "Thu Apr 09 23:24:18 +0000 2009", "description": "Niche Sites Newsstand", "favourites_count": 2, "followers_count": 159, "friends_count": 230, "id": 30095498, "lang": "en", "listed_count": 10, "location": "Planet Earth", "name": "Roald C. Harr", "profile_background_color": "F5D349", "profile_background_image_url": "http://abs.twimg.com/images/themes/theme3/bg.gif", "profile_background_tile": false, "profile_image_url": "https://pbs.twimg.com/profile_images/320098391/package_editors_normal.png", "profile_link_color": "088253", "profile_sidebar_fill_color": "E3E2DE", "profile_text_color": "180DAB", "protected": false, "screen_name": "roaldc48", "statuses_count": 31152, "time_zone": "Central Time (US & Canada)", "url": "http://t.co/sVM0ZbSgIJ", "utc_offset": -21600}}
{"created_at": "Fri Dec 04 15:47:26 +0000 2015", "favorited": false, "id": 672804413644345344, "lang": "en", "retweeted": false, "source": "<a href=\"http://www.facebook.com/twitter\" rel=\"nofollow\">Facebook</a>", "text": "President Obama Scores 102 On IQ Test, Lowest In Presidential History https://t.co/plXy50isfu", "truncated": false, "urls": {"https://t.co/plXy50isfu": "http://fb.me/5hGk6gcoH"}, "user": {"created_at": "Thu Apr 30 14:33:16 +0000 2009", "description": "Freight Broker", "favourites_count": 16, "followers_count": 946, "friends_count": 2016, "geo_enabled": true, "id": 36675425, "lang": "en", "listed_count": 14, "location": "Ft Worth, TX", "name": "Ronnie L. Stapleton", "profile_background_color": "0099B9", "profile_background_image_url": "http://abs.twimg.com/images/themes/theme4/bg.gif", "profile_background_tile": false, "profile_banner_url": "https://pbs.twimg.com/profile_banners/36675425/1443754365", "profile_image_url": "https://pbs.twimg.com/profile_images/649779019320131585/h-EtSoOu_normal.jpg", "profile_link_color": "0099B9", "profile_sidebar_fill_color": "95E8EC", "profile_text_color": "3C3940", "protected": false, "screen_name": "RonnieStapleton", "statuses_count": 16401, "time_zone": "Central Time (US & Canada)", "url": "http://t.co/qAZBsZyyLC", "utc_offset": -21600}}
{"created_at": "Sun Dec 06 18:35:16 +0000 2015", "favorited": false, "id": 673571425911832576, "in_reply_to_screen_name": "HarryReid", "in_reply_to_status_id": 593807238159998976, "in_reply_to_user_id": 49615301, "lang": "en", "retweeted": false, "source": "<a href=\"http://twitter.com\" rel=\"nofollow\">Twitter Web Client</a>", "text": "@HarryReid President Obama Scores 102 On IQ Test, Lowest In Presidential History https://t.co/3nVlbpMnJQ", "truncated": false, "urls": {"https://t.co/3nVlbpMnJQ": "http://empirenews.net/president-obama-scores-102-on-iq-test-lowest-in-presidential-history/"}, "user": {"created_at": "Sun May 31 12:10:45 +0000 2009", "description": "Protective Gun Owner", "favourites_count": 9734, "followers_count": 1078, "friends_count": 2120, "geo_enabled": true, "id": 43679281, "lang": "en", "listed_count": 55, "name": "herself311", "profile_background_color": "C0DEED", "profile_background_image_url": "http://abs.twimg.com/images/themes/theme1/bg.png", "profile_background_tile": false, "profile_image_url": "https://pbs.twimg.com/profile_images/680140329907949568/7-oi29iq_normal.jpg", "profile_link_color": "DD2E44", "profile_sidebar_fill_color": "DDEEF6", "profile_text_color": "333333", "protected": false, "screen_name": "herself311", "statuses_count": 73723, "time_zone": "London", "url": "http://t.co/Jxob8zmJTh"}, "user_mentions": [{"id": 49615301, "name": "Senator Harry Reid", "screen_name": "HarryReid"}]}
{"created_at": "Fri Dec 11 23:31:03 +0000 2015", "favorited": false, "id": 675457798709370881, "lang": "en", "retweeted": false, "source": "<a href=\"http://www.facebook.com/twitter\" rel=\"nofollow\">Facebook</a>", "text": "President Obama Scores 102 On IQ Test, Lowest In Presidential History https://t.co/OhsQFilA0v", "truncated": false, "urls": {"https://t.co/OhsQFilA0v": "http://fb.me/45CppfE7z"}, "user": {"created_at": "Sun Mar 22 18:27:15 +0000 2009", "description": "Army vet -- Follow Austrian economics -- Libertarian viewpoint -- Proud member of the vast right wing conspiracy -- Friend of Israel", "favourites_count": 59, "followers_count": 3322, "friends_count": 3012, "geo_enabled": true, "id": 25855335, "lang": "en", "listed_count": 50, "location": "Southwest North America", "name": "Rick Shelby", "profile_background_color": "352726", "profile_background_image_url": "http://pbs.twimg.com/profile_background_images/59391503/twilk_background.jpg", "profile_background_tile": true, "profile_image_url": "https://pbs.twimg.com/profile_images/344513261573680764/3e57ee1dabb97cea16964d5865b6413d_normal.jpeg", "profile_link_color": "D02B55", "profile_sidebar_fill_color": "99CC33", "profile_text_color": "3E4415", "protected": false, "screen_name": "Stoccado", "statuses_count": 35648, "time_zone": "Mountain Time (US & Canada)", "url": "http://t.co/i7erbYslXk", "utc_offset": -25200}}
{"created_at": "Sat Dec 12 02:27:46 +0000 2015", "favorited": false, "hashtags": ["Trump", "DonaldTrumpForPresident", "Citizens4Trump"], "id": 675502273527607296, "lang": "en", "retweeted": false, "source": "<a href=\"http://www.facebook.com/twitter\" rel=\"nofollow\">Facebook</a>", "text": "TRUMP 2016\nMake America Great Again  ! ! ! \n#Trump \n#DonaldTrumpForPresident \n#Citizens4Trump https://t.co/HHfllyBzqs", "truncated": false, "urls": {"https://t.co/HHfllyBzqs": "http://fb.me/2gstqghkp"}, "user": {"created_at": "Fri Jul 17 01:47:16 +0000 2015", "description": "Entrepreneur, Life Member,Supporter For Donald Trump, #PatriotBrigade #SilentMajority #LEADERSHIP, #TRUTHTALKER. Creator of https://t.co/Wok3QB9yNM", "favourites_count": 300, "followers_count": 642, "friends_count": 629, "id": 3379672737, "lang": "en", "listed_count": 16, "location": "Naugatuck, CT", "name": "Antonio", "profile_background_color": "000000", "profile_background_image_url": "http://abs.twimg.com/images/themes/theme1/bg.png", "profile_background_tile": false, "profile_banner_url": "https://pbs.twimg.com/profile_banners/3379672737/1437464961", "profile_image_url": "https://pbs.twimg.com/profile_images/621859258921979904/oJy5gipH_normal.jpg", "profile_link_color": "3B94D9", "profile_sidebar_fill_color": "000000", "profile_text_color": "000000", "protected": false, "screen_name": "Antonio_96_Rose", "statuses_count": 10122}}
{"created_at": "Sat Dec 12 05:45:10 +0000 2015", "favorited": false, "id": 675551951258525696, "lang": "en", "possibly_sensitive": true, "retweeted": false, "source": "<a href=\"http://www.facebook.com/twitter\" rel=\"nofollow\">Facebook</a>", "text": "President Obama Scores 102 On IQ Test, Lowest In Presidential History https://t.co/nsA2lwU7vv", "truncated": false, "urls": {"https://t.co/nsA2lwU7vv": "http://fb.me/SbrW2KBx"}, "user": {"created_at": "Sat May 23 00:16:07 +0000 2009", "default_profile": true, "default_profile_image": true, "description": "please see my Facebook wall for further information relating to my soul scroll", "favourites_count": 39, "followers_count": 243, "friends_count": 1045, "geo_enabled": true, "id": 41934259, "lang": "en", "listed_count": 19, "name": "Melissa", "profile_background_color": "C0DEED", "profile_background_image_url": "http://abs.twimg.com/images/themes/theme1/bg.png", "profile_background_tile": false, "profile_banner_url": "https://pbs.twimg.com/profile_banners/41934259/1396315886", "profile_image_url": "https://abs.twimg.com/sticky/default_profile_images/default_profile_3_normal.png", "profile_link_color": "0084B4", "profile_sidebar_fill_color": "DDEEF6", "profile_text_color": "333333", "protected": false, "screen_name": "yourbestpunk", "statuses_count": 37213, "time_zone": "Eastern Time (US & Canada)", "url": "http://t.co/A03hxVa8X3", "utc_offset": -18000}}
{"created_at": "Sat Dec 12 06:33:02 +0000 2015", "favorited": false, "id": 675563997228171264, "lang": "en", "retweeted": false, "source": "<a href=\"http://www.facebook.com/twitter\" rel=\"nofollow\">Facebook</a>", "text": "President Obama Scores 102 On IQ Test, Lowest In Presidential History https://t.co/ko6SYRifNh", "truncated": false, "urls": {"https://t.co/ko6SYRifNh": "http://fb.me/4kzVkKhum"}, "user": {"created_at": "Wed Apr 01 04:44:05 +0000 2009", "description": "1Co 6:17  But he that is joined unto the Lord is one spirit.", "favourites_count": 11, "followers_count": 371, "friends_count": 67, "id": 28052578, "lang": "en", "listed_count": 23, "location": "Irvine CA", "name": "daryl lawson", "profile_background_color": "5399D6", "profile_background_image_url": "http://pbs.twimg.com/profile_background_images/378800000001295545/e8eaaba87753b63ae35035a130ba1cfa.jpeg", "profile_background_tile": false, "profile_banner_url": "https://pbs.twimg.com/profile_banners/28052578/1432960274", "profile_image_url": "https://pbs.twimg.com/profile_images/378800000280718982/e029a08ec7a6379dfe15b51a0c6456da_normal.jpeg", "profile_link_color": "D02B55", "profile_sidebar_fill_color": "CCD5FF", "profile_text_color": "1920A8", "protected": false, "screen_name": "daryllawson", "statuses_count": 93884, "time_zone": "Pacific Time (US & Canada)", "url": "http://t.co/i22CCp4wg4", "utc_offset": -28800}}
{"created_at": "Sat Dec 12 06:33:08 +0000 2015", "favorited": false, "id": 675564018858196992, "lang": "en", "retweet_count": 1, "retweeted": false, "source": "<a href=\"http://www.facebook.com/twitter\" rel=\"nofollow\">Facebook</a>", "text": "President Obama Scores 102 On IQ Test, Lowest In Presidential History https://t.co/YOBloJPnkz", "truncated": false, "urls": {"https://t.co/YOBloJPnkz": "http://fb.me/28HQifKmE"}, "user": {"created_at": "Wed Apr 01 04:44:05 +0000 2009", "description": "1Co 6:17  But he that is joined unto the Lord is one spirit.", "favourites_count": 11, "followers_count": 371, "friends_count": 67, "id": 28052578, "lang": "en", "listed_count": 23, "location": "Irvine CA", "name": "daryl lawson", "profile_background_color": "5399D6", "profile_background_image_url": "http://pbs.twimg.com/profile_background_images/378800000001295545/e8eaaba87753b63ae35035a130ba1cfa.jpeg", "profile_background_tile": false, "profile_banner_url": "https://pbs.twimg.com/profile_banners/28052578/1432960274", "profile_image_url": "https://pbs.twimg.com/profile_images/378800000280718982/e029a08ec7a6379dfe15b51a0c6456da_normal.jpeg", "profile_link_color": "D02B55", "profile_sidebar_fill_color": "CCD5FF", "profile_text_color": "1920A8", "protected": false, "screen_name": "daryllawson", "statuses_count": 93884, "time_zone": "Pacific Time (US & Canada)", "url": "http://t.co/i22CCp4wg4", "utc_offset": -28800}}
{"created_at": "Sat Dec 12 12:07:59 +0000 2015", "favorited": false, "id": 675648286867382273, "lang": "en", "retweeted": false, "source": "<a href=\"http://www.facebook.com/twitter\" rel=\"nofollow\">Facebook</a>", "text": "President Obama Scores 102 On IQ Test, Lowest In Presidential History https://t.co/JYQf5cZWYa", "truncated": false, "urls": {"https://t.co/JYQf5cZWYa": "http://fb.me/4OoCsrwaH"}, "user": {"created_at": "Wed Nov 18 21:41:20 +0000 2009", "description": "Experienced team of Israel tourism professionals dedicated to groups & individual travelers who seek the trip of a lifetime!", "favourites_count": 6, "followers_count": 451, "friends_count": 408, "id": 90965087, "lang": "en", "listed_count": 14, "location": "Livingston NJ, USA", "name": "IsraelTourConnection", "profile_background_color": "ACDED6", "profile_background_image_url": "http://pbs.twimg.com/profile_background_images/284643480/ITC_Template_Twitter.jpg", "profile_background_tile": false, "profile_banner_url": "https://pbs.twimg.com/profile_banners/90965087/1408739748", "profile_image_url": "https://pbs.twimg.com/profile_images/487247590241476608/tWSLIdNb_normal.jpeg", "profile_link_color": "038543", "profile_sidebar_fill_color": "F6F6F6", "profile_text_color": "333333", "protected": false, "screen_name": "IsraelToursLLC", "statuses_count": 1805, "time_zone": "Central Time (US & Canada)", "url": "http://t.co/0YTopZHr9K", "utc_offset": -21600}}
{"created_at": "Sat Dec 12 18:26:30 +0000 2015", "favorited": false, "id": 675743545353900032, "lang": "en", "retweeted": false, "source": "<a href=\"http://www.facebook.com/twitter\" rel=\"nofollow\">Facebook</a>", "text": "President Obama Scores 102 On IQ Test, Lowest In Presidential History https://t.co/HapPdZ7DEk", "truncated": false, "urls": {"https://t.co/HapPdZ7DEk": "http://fb.me/6T1bBAgWM"}, "user": {"created_at": "Sat May 18 04:42:09 +0000 2013", "default_profile": true, "followers_count": 6, "friends_count": 4, "id": 1437405542, "lang": "en", "listed_count": 1, "name": "GLEN TESAURO", "profile_background_color": "C0DEED", "profile_background_image_url": "http://abs.twimg.com/images/themes/theme1/bg.png", "profile_background_tile": false, "profile_banner_url": "https://pbs.twimg.com/profile_banners/1437405542/1368854211", "profile_image_url": "https://pbs.twimg.com/profile_images/3674989953/3a931639f24ff9b74aecd768749b4e48_normal.jpeg", "profile_link_color": "0084B4", "profile_sidebar_fill_color": "DDEEF6", "profile_text_color": "333333", "protected": false, "screen_name": "COUNTY1124", "statuses_count": 4620, "time_zone": "Atlantic Time (Canada)", "url": "http://t.co/T4sui7JOB6", "utc_offset": -14400}}
{"created_at": "Sat Dec 12 19:45:10 +0000 2015", "favorited": false, "id": 675763342271627264, "lang": "en", "retweeted": false, "source": "<a href=\"http://www.facebook.com/twitter\" rel=\"nofollow\">Facebook</a>", "text": "President Obama Scores 102 On IQ Test, Lowest In Presidential History https://t.co/hGHypTsaDV", "truncated": false, "urls": {"https://t.co/hGHypTsaDV": "http://fb.me/1xf3bKWxK"}, "user": {"created_at": "Sat May 18 05:46:38 +0000 2013", "description": "Ted Kieper Thrill Seeker. 1970's Death Riders Motorcycle Thrill Show Jumper/Pro Cycle Racer, Motordrome Performer, Commercial Pilot, Grandfather, Conservative.", "favourites_count": 3, "followers_count": 556, "friends_count": 896, "id": 1437477084, "lang": "en", "listed_count": 14, "location": "Milwaukee, Wisconsin", "name": "Ted Kieper", "profile_background_color": "131516", "profile_background_image_url": "http://abs.twimg.com/images/themes/theme14/bg.gif", "profile_background_tile": true, "profile_banner_url": "https://pbs.twimg.com/profile_banners/1437477084/1412214271", "profile_image_url": "https://pbs.twimg.com/profile_images/517489998128373760/RnMUC2vZ_normal.jpeg", "profile_link_color": "D47E0C", "profile_sidebar_fill_color": "DDEEF6", "profile_text_color": "333333", "protected": false, "screen_name": "tedkieper", "statuses_count": 15106, "time_zone": "Central Time (US & Canada)", "url": "http://t.co/rAv4hzoFvp", "utc_offset": -21600}}
{"created_at": "Sat Dec 12 22:34:19 +0000 2015", "favorite_count": 2, "favorited": false, "id": 675805909713625097, "lang": "en", "retweet_count": 1, "retweeted": false, "source": "<a href=\"http://www.facebook.com/twitter\" rel=\"nofollow\">Facebook</a>", "text": "President Obama Scores 102 On IQ Test, Lowest In Presidential History https://t.co/k2ZuURkBpQ", "truncated": false, "urls": {"https://t.co/k2ZuURkBpQ": "http://fb.me/71qMs9X6e"}, "user": {"created_at": "Wed Feb 01 15:30:50 +0000 2012", "description": "TRUMP ALL THE WAY 2016! Female, married, conservative, Christian, passionate about politics.\nhttps://t.co/itfPEOmfhU", "favourites_count": 1080, "followers_count": 2052, "friends_count": 2919, "id": 480500298, "lang": "en", "listed_count": 42, "name": "Patricia Bride", "profile_background_color": "C0DEED", "profile_background_image_url": "http://pbs.twimg.com/profile_background_images/414405040/_cid_4_2186417348_web110814_mail_gq1_yahoo.jpg", "profile_background_tile": false, "profile_banner_url": "https://pbs.twimg.com/profile_banners/480500298/1393940058", "profile_image_url": "https://pbs.twimg.com/profile_images/597049519801376768/1CNc7gfP_normal.jpg", "profile_link_color": "0084B4", "profile_sidebar_fill_color": "DDEEF6", "profile_text_color": "333333", "protected": false, "screen_name": "PatriciaBride", "statuses_count": 93337, "time_zone": "Eastern Time (US & Canada)", "url": "http://t.co/VrNjs6GXoQ", "utc_offset": -18000}}
{"created_at": "Sun Dec 13 15:30:11 +0000 2015", "favorited": false, "id": 676061560532557824, "lang": "en", "possibly_sensitive": true, "retweeted": false, "source": "<a href=\"http://www.facebook.com/twitter\" rel=\"nofollow\">Facebook</a>", "text": "President Obama Scores 102 On IQ Test, Lowest In Presidential History https://t.co/lAZPXkHDQf", "truncated": false, "urls": {"https://t.co/lAZPXkHDQf": "http://fb.me/4ijagn1u9"}, "user": {"created_at": "Tue Aug 03 22:08:32 +0000 2010", "description": "Father of three awesome kids! Husband to my lovely wife of 17 years. Just enjoying life.", "favourites_count": 3047, "followers_count": 220, "friends_count": 1218, "geo_enabled": true, "id": 174421835, "lang": "en", "listed_count": 5, "location": "Port Arthur, TX", "name": "John DuPuis", "profile_background_color": "131516", "profile_background_image_url": "http://pbs.twimg.com/profile_background_images/596347440682307584/cUTm_jH7.jpg", "profile_background_tile": true, "profile_banner_url": "https://pbs.twimg.com/profile_banners/174421835/1450810154", "profile_image_url": "https://pbs.twimg.com/profile_images/595718885061632001/2tjn7XCk_normal.jpg", "profile_link_color": "F50A1D", "profile_sidebar_fill_color": "DDEEF6", "profile_text_color": "333333", "protected": false, "screen_name": "Johntheasshole", "statuses_count": 17384, "time_zone": "Arizona", "utc_offset": -25200}}
{"created_at": "Sun Dec 13 23:07:35 +0000 2015", "favorited": false, "id": 676176670127075328, "lang": "en", "retweeted": false, "source": "<a href=\"http://twitterfeed.com\" rel=\"nofollow\">twitterfeed</a>", "text": "Snopes- FALSE: President Obama Scores 102 on IQ Test, Lowest in Presidential History https://t.co/GGPezMTGsw", "truncated": false, "urls": {"https://t.co/GGPezMTGsw": "http://bit.ly/1Qfa7NI"}, "user": {"created_at": "Wed Oct 29 14:35:02 +0000 2008", "default_profile": true, "description": "Random Headlines", "followers_count": 122, "friends_count": 13, "id": 17042353, "lang": "en", "listed_count": 3, "location": "Random", "name": "Headline Post", "profile_background_color": "C0DEED", "profile_background_image_url": "http://abs.twimg.com/images/themes/theme1/bg.png", "profile_background_tile": false, "profile_image_url": "https://pbs.twimg.com/profile_images/63101611/headline_normal.jpg", "profile_link_color": "0084B4", "profile_sidebar_fill_color": "DDEEF6", "profile_text_color": "333333", "protected": false, "screen_name": "headlinepost", "statuses_count": 15872, "time_zone": "Central Time (US & Canada)", "utc_offset": -21600}}
{"created_at": "Sun Dec 13 23:07:40 +0000 2015", "favorited": false, "id": 676176689454428160, "lang": "en", "retweeted": false, "source": "<a href=\"http://twitterfeed.com\" rel=\"nofollow\">twitterfeed</a>", "text": "FALSE: President Obama Scores 102 on IQ Test, Lowest in Presidential History https://t.co/02pwfQScMN", "truncated": false, "urls": {"https://t.co/02pwfQScMN": "http://bit.ly/1Qfa7NI"}, "user": {"created_at": "Thu Apr 30 17:23:18 +0000 2009", "description": "A modern day Don Quixote, the Knight of the Woeful Figure. Come with me through the trials of life and knight-errantry in this nasty world...", "followers_count": 91, "friends_count": 74, "id": 36717689, "lang": "en", "listed_count": 2, "location": "Spain and the World", "name": "Blog Quixote", "profile_background_color": "FFFFFF", "profile_background_image_url": "http://pbs.twimg.com/profile_background_images/10928963/BlogQuixote_Background.jpg", "profile_background_tile": false, "profile_image_url": "https://pbs.twimg.com/profile_images/192637077/QUIXOTE_normal.JPG", "profile_link_color": "9D582E", "profile_sidebar_fill_color": "EADEAA", "profile_text_color": "333333", "protected": false, "screen_name": "BlogQuixote", "statuses_count": 50426, "time_zone": "Madrid", "url": "http://t.co/nVpEhPQ0ft", "utc_offset": 3600}}
{"created_at": "Sun Dec 13 23:11:04 +0000 2015", "favorited": false, "id": 676177544576565248, "lang": "en", "media": [{"display_url": "pic.twitter.com/HsZ2qxad7P", "expanded_url": "http://twitter.com/vinnysgreen/status/676177544576565248/photo/1", "id": 676177544513585152, "id_str": "676177544513585152", "indices": [101, 124], "media_url": "http://pbs.twimg.com/media/CWJD5OnUAAAaTyg.jpg", "media_url_https": "https://pbs.twimg.com/media/CWJD5OnUAAAaTyg.jpg", "sizes": {"large": {"h": 338, "resize": "fit", "w": 600}, "medium": {"h": 338, "resize": "fit", "w": 600}, "small": {"h": 191, "resize": "fit", "w": 340}, "thumb": {"h": 150, "resize": "crop", "w": 150}}, "type": "photo", "url": "https://t.co/HsZ2qxad7P"}], "retweeted": false, "source": "<a href=\"http://dlvr.it\" rel=\"nofollow\">dlvr.it</a>", "text": "FALSE: President Obama Scores 102 on IQ Test, Lowest in Presidential History https://t.co/MsDATlNE6p https://t.co/HsZ2qxad7P", "truncated": false, "urls": {"https://t.co/MsDATlNE6p": "http://www.snopes.com/obama-iq-test/?utm_source=dlvr.it&utm_medium=twitter&utm_campaign=vinnysgreen"}, "user": {"created_at": "Tue Nov 11 20:09:34 +0000 2014", "description": "| https://t.co/Xt6XDiqOGc | https://t.co/SEI0Yy3IRo | https://t.co/Q7uZwoes2v | Marine Veteran, Ally, Political Junkie. Retweets are just retweets...", "favourites_count": 446, "followers_count": 414, "friends_count": 1738, "id": 2896866728, "lang": "en", "listed_count": 9, "location": "San Diego, CA", "name": "Vinny Green", "profile_background_color": "000000", "profile_background_image_url": "http://abs.twimg.com/images/themes/theme1/bg.png", "profile_background_tile": false, "profile_image_url": "https://pbs.twimg.com/profile_images/646510682989400064/53u-SeYI_normal.jpg", "profile_link_color": "3B94D9", "profile_sidebar_fill_color": "000000", "profile_text_color": "000000", "protected": false, "screen_name": "vinnysgreen", "statuses_count": 1676, "time_zone": "Pacific Time (US & Canada)", "url": "http://t.co/2ZoIAPUdGu", "utc_offset": -28800}}
{"created_at": "Sun Dec 13 23:13:11 +0000 2015", "favorited": false, "hashtags": ["Snopes"], "id": 676178077727203328, "lang": "en", "retweeted": false, "source": "<a href=\"http://momknowsshopping.com/UFOParanormal\" rel=\"nofollow\">UFOParanormalNews</a>", "text": "#Snopes  FALSE: President Obama Scores 102 on IQ Test, Lowest in Presidential History https://t.co/vh5kXmkhte", "truncated": false, "urls": {"https://t.co/vh5kXmkhte": "http://goo.gl/UY5AcK"}, "user": {"created_at": "Wed Oct 01 13:34:46 +0000 2014", "description": "We provide the latest news on #UFO's, #Paranormal, #Ghosts and everything that is strange or weird. Plus #Software, #Camera's and #Computer items.", "favourites_count": 3, "followers_count": 12252, "friends_count": 11447, "geo_enabled": true, "id": 2797963749, "lang": "en", "listed_count": 406, "name": "UFO Paranormal", "profile_background_color": "000000", "profile_background_image_url": "http://abs.twimg.com/images/themes/theme1/bg.png", "profile_background_tile": false, "profile_banner_url": "https://pbs.twimg.com/profile_banners/2797963749/1419626990", "profile_image_url": "https://pbs.twimg.com/profile_images/517311356198858753/OkOTy-q6_normal.jpeg", "profile_link_color": "FA743E", "profile_sidebar_fill_color": "000000", "profile_text_color": "000000", "protected": false, "screen_name": "UFOParanormNews", "statuses_count": 76563, "url": "https://t.co/I4rmVNErYQ"}}
{"created_at": "Mon Dec 14 04:47:59 +0000 2015", "favorited": false, "id": 676262332931006464, "lang": "en", "retweeted": false, "source": "<a href=\"http://twitter.com\" rel=\"nofollow\">Twitter Web Client</a>", "text": "FALSE: President Obama Scores 102 on IQ Test, Lowest in Presidential History https://t.co/CjCYu1wEby\nHello,Harvard grad.", "truncated": false, "urls": {"https://t.co/CjCYu1wEby": "http://www.snopes.com/obama-iq-test/"}, "user": {"created_at": "Wed Dec 07 06:00:27 +0000 2011", "description": "Jewish, Leveller, Friend, UU, Shaman, Poet, Prophet, Visionary and writer. \nLefty Crank and grouch. Will Block Reactionaries & Know-nothings. I Liked Ike!", "favourites_count": 25154, "followers_count": 1292, "friends_count": 1964, "id": 430459707, "lang": "en", "listed_count": 63, "location": "Sonoran Desert, AZ", "name": "ffransis ap ffransis", "profile_background_color": "2D358A", "profile_background_image_url": "http://pbs.twimg.com/profile_background_images/810905244/8f3c4848a8f350e9a1d600f0c6b462c4.jpeg", "profile_background_tile": true, "profile_banner_url": "https://pbs.twimg.com/profile_banners/430459707/1398360548", "profile_image_url": "https://pbs.twimg.com/profile_images/682376366969339904/gBnbdX7H_normal.jpg", "profile_link_color": "FF0000", "profile_sidebar_fill_color": "7AC3EE", "profile_text_color": "241957", "protected": false, "screen_name": "BranGoch", "statuses_count": 60384, "time_zone": "Arizona", "url": "http://t.co/oGKnWVwgXS", "utc_offset": -25200}}
{"created_at": "Mon Dec 14 04:52:03 +0000 2015", "favorited": false, "hashtags": ["snopes"], "id": 676263358719352832, "lang": "en", "retweeted": false, "source": "<a href=\"http://twitterfeed.com\" rel=\"nofollow\">twitterfeed</a>", "text": "FALSE: President Obama Scores 102 on IQ Test, Lowest in Presidential History https://t.co/84S90RaSg5 via @snopes #snopes", "truncated": false, "urls": {"https://t.co/84S90RaSg5": "http://ap236.ca/1Ye6d6C"}, "user": {"created_at": "Sun May 11 21:40:42 +0000 2008", "description": "President & CEO of Journey to Diversity Workplaces. Former Barrie Green Party President. Sci-fi fan.\r\nhttp://t.co/XIvT2nHlex", "favourites_count": 192, "followers_count": 849, "friends_count": 496, "id": 14737210, "lang": "en", "listed_count": 65, "location": "Barrie, Ontario, Canada", "name": "Peter V. Tretter", "profile_background_color": "000000", "profile_background_image_url": "http://pbs.twimg.com/profile_background_images/760525136/0c706c2e6268f6ffc8a8861f3bb3511d.jpeg", "profile_background_tile": true, "profile_banner_url": "https://pbs.twimg.com/profile_banners/14737210/1419116675", "profile_image_url": "https://pbs.twimg.com/profile_images/684597586318225408/jM95qqmC_normal.jpg", "profile_link_color": "95ACF9", "profile_sidebar_fill_color": "333333", "profile_text_color": "999999", "protected": false, "screen_name": "ap236", "statuses_count": 19368, "time_zone": "Eastern Time (US & Canada)", "url": "http://t.co/YcXyy379hb", "utc_offset": -18000}, "user_mentions": [{"id": 14294848, "name": "snopes.com", "screen_name": "snopes"}]}
{"created_at": "Mon Dec 14 05:28:14 +0000 2015", "favorited": false, "id": 676272463454593024, "lang": "en", "retweeted": false, "source": "<a href=\"http://twitter.com\" rel=\"nofollow\">Twitter Web Client</a>", "text": "FALSE: President Obama Scores 102 on IQ Test, Lowest in Presidential History https://t.co/xJZYJZjfZW", "truncated": false, "urls": {"https://t.co/xJZYJZjfZW": "http://www.snopes.com/obama-iq-test/"}, "user": {"created_at": "Wed Mar 04 00:39:31 +0000 2009", "default_profile": true, "description": "Prior to my party leaving me, I was raised by Uncle Walter and Murrow\u2019s Boys.", "favourites_count": 4542, "followers_count": 1169, "friends_count": 2041, "id": 22707692, "lang": "en", "listed_count": 74, "location": "Westchester County, NY", "name": "Jon Cohen", "profile_background_color": "C0DEED", "profile_background_image_url": "http://abs.twimg.com/images/themes/theme1/bg.png", "profile_background_tile": false, "profile_image_url": "https://pbs.twimg.com/profile_images/541451515831910400/jrl1-2VS_normal.png", "profile_link_color": "0084B4", "profile_sidebar_fill_color": "DDEEF6", "profile_text_color": "333333", "protected": false, "screen_name": "JonUPS_", "statuses_count": 128106, "time_zone": "Eastern Time (US & Canada)", "utc_offset": -18000}}
{"created_at": "Mon Dec 14 06:30:07 +0000 2015", "favorited": false, "id": 676288038264299524, "lang": "en", "retweeted": false, "source": "<a href=\"http://www.facebook.com/twitter\" rel=\"nofollow\">Facebook</a>", "text": "President Obama Scores 102 On IQ Test, Lowest In Presidential History https://t.co/KfzJQ6FEda", "truncated": false, "urls": {"https://t.co/KfzJQ6FEda": "http://fb.me/IHoARbXo"}, "user": {"created_at": "Fri Sep 25 07:01:17 +0000 2009", "favourites_count": 4, "followers_count": 185, "friends_count": 142, "geo_enabled": true, "id": 77155312, "lang": "en", "listed_count": 32, "location": "kissimmee,fl.", "name": "james collins", "profile_background_color": "C0DEED", "profile_background_image_url": "http://pbs.twimg.com/profile_background_images/39869412/142.JPG", "profile_background_tile": true, "profile_banner_url": "https://pbs.twimg.com/profile_banners/77155312/1398394510", "profile_image_url": "https://pbs.twimg.com/profile_images/459526405173170176/rrE1_Hxf_normal.jpeg", "profile_link_color": "A1204F", "profile_sidebar_fill_color": "DDEEF6", "profile_text_color": "333333", "protected": false, "screen_name": "kalel60", "statuses_count": 113048, "time_zone": "Eastern Time (US & Canada)", "utc_offset": -18000}}
{"created_at": "Mon Dec 14 11:01:50 +0000 2015", "favorited": false, "id": 676356417511555072, "lang": "en", "media": [{"display_url": "pic.twitter.com/yYzvkcS0eH", "expanded_url": "http://twitter.com/AlgieFlowersesq/status/676356417511555072/photo/1", "id": 676356417406701569, "id_str": "676356417406701569", "indices": [104, 127], "media_url": "http://pbs.twimg.com/media/CWLmlAEVEAEfT65.jpg", "media_url_https": "https://pbs.twimg.com/media/CWLmlAEVEAEfT65.jpg", "sizes": {"large": {"h": 338, "resize": "fit", "w": 600}, "medium": {"h": 338, "resize": "fit", "w": 600}, "small": {"h": 191, "resize": "fit", "w": 340}, "thumb": {"h": 150, "resize": "crop", "w": 150}}, "type": "photo", "url": "https://t.co/yYzvkcS0eH"}], "retweeted": false, "source": "<a href=\"http://www.algernonflowers.com\" rel=\"nofollow\">Algernon Flowers</a>", "text": "FALSE: President Obama Scores 102 on IQ Test, Lowest in Presidential History -  https://t.co/7e8VU9XOyt https://t.co/yYzvkcS0eH", "truncated": false, "urls": {"https://t.co/7e8VU9XOyt": "http://www.algernonflowers.com/false-president-obama-scores-102-on-iq-test-lowest-in-presidential-history/"}, "user": {"created_at": "Fri Nov 20 06:27:48 +0000 2015", "default_profile": true, "description": "SKEPTICISM, ATHIESM, SECULARISM AND POLITICS VIEWED FROM LONDON", "favourites_count": 2, "followers_count": 26, "friends_count": 197, "id": 4232373135, "lang": "en", "location": "London", "name": "Algernon Flowers", "profile_background_color": "C0DEED", "profile_background_image_url": "http://abs.twimg.com/images/themes/theme1/bg.png", "profile_background_tile": false, "profile_banner_url": "https://pbs.twimg.com/profile_banners/4232373135/1448116809", "profile_image_url": "https://pbs.twimg.com/profile_images/668029575583178756/xYR2FcLY_normal.jpg", "profile_link_color": "0084B4", "profile_sidebar_fill_color": "DDEEF6", "profile_text_color": "333333", "protected": false, "screen_name": "AlgieFlowersesq", "statuses_count": 872, "url": "https://t.co/efYWuCcN3U"}}
{"created_at": "Mon Dec 14 11:02:37 +0000 2015", "favorited": false, "id": 676356615549792256, "lang": "en", "media": [{"display_url": "pic.twitter.com/hDuvJi24ey", "expanded_url": "http://twitter.com/AlgieFlowersesq/status/676356615549792256/photo/1", "id": 676356614236987392, "id_str": "676356614236987392", "indices": [101, 124], "media_url": "http://pbs.twimg.com/media/CWLmwdUU4AAOQEW.jpg", "media_url_https": "https://pbs.twimg.com/media/CWLmwdUU4AAOQEW.jpg", "sizes": {"large": {"h": 338, "resize": "fit", "w": 600}, "medium": {"h": 338, "resize": "fit", "w": 600}, "small": {"h": 191, "resize": "fit", "w": 340}, "thumb": {"h": 150, "resize": "crop", "w": 150}}, "type": "photo", "url": "https://t.co/hDuvJi24ey"}], "retweeted": false, "source": "<a href=\"http://publicize.wp.com/\" rel=\"nofollow\">WordPress.com</a>", "text": "FALSE: President Obama Scores 102 on IQ Test, Lowest in Presidential\u00a0History https://t.co/7e8VU9XOyt https://t.co/hDuvJi24ey", "truncated": false, "urls": {"https://t.co/7e8VU9XOyt": "http://www.algernonflowers.com/false-president-obama-scores-102-on-iq-test-lowest-in-presidential-history/"}, "user": {"created_at": "Fri Nov 20 06:27:48 +0000 2015", "default_profile": true, "description": "SKEPTICISM, ATHIESM, SECULARISM AND POLITICS VIEWED FROM LONDON", "favourites_count": 2, "followers_count": 26, "friends_count": 197, "id": 4232373135, "lang": "en", "location": "London", "name": "Algernon Flowers", "profile_background_color": "C0DEED", "profile_background_image_url": "http://abs.twimg.com/images/themes/theme1/bg.png", "profile_background_tile": false, "profile_banner_url": "https://pbs.twimg.com/profile_banners/4232373135/1448116809", "profile_image_url": "https://pbs.twimg.com/profile_images/668029575583178756/xYR2FcLY_normal.jpg", "profile_link_color": "0084B4", "profile_sidebar_fill_color": "DDEEF6", "profile_text_color": "333333", "protected": false, "screen_name": "AlgieFlowersesq", "statuses_count": 872, "url": "https://t.co/efYWuCcN3U"}}
{"created_at": "Mon Dec 14 13:17:05 +0000 2015", "favorited": false, "id": 676390454699642881, "lang": "en", "media": [{"display_url": "pic.twitter.com/uM0HE7HFOR", "expanded_url": "http://twitter.com/luckkly/status/676390454699642881/photo/1", "id": 676390445832892416, "id_str": "676390445832892416", "indices": [102, 125], "media_url": "http://pbs.twimg.com/media/CWMFht1WcAAvvx6.jpg", "media_url_https": "https://pbs.twimg.com/media/CWMFht1WcAAvvx6.jpg", "sizes": {"large": {"h": 421, "resize": "fit", "w": 700}, "medium": {"h": 360, "resize": "fit", "w": 600}, "small": {"h": 204, "resize": "fit", "w": 340}, "thumb": {"h": 150, "resize": "crop", "w": 150}}, "type": "photo", "url": "https://t.co/uM0HE7HFOR"}], "retweeted": false, "source": "<a href=\"http://twitter.com/download/android\" rel=\"nofollow\">Twitter for Android</a>", "text": "FALSE: President Obama Scores 102 on IQ Test, Lowest in Presidential History\n\nhttps://t.co/JPHRcxjxSX https://t.co/uM0HE7HFOR", "truncated": false, "urls": {"https://t.co/JPHRcxjxSX": "http://flip.it/KHbta"}, "user": {"created_at": "Sat Mar 12 11:18:32 +0000 2011", "default_profile": true, "favourites_count": 2352, "followers_count": 479, "friends_count": 387, "geo_enabled": true, "id": 264737661, "lang": "en", "location": "Nepal", "name": "basanta sharma", "profile_background_color": "C0DEED", "profile_background_image_url": "http://abs.twimg.com/images/themes/theme1/bg.png", "profile_background_tile": false, "profile_image_url": "https://pbs.twimg.com/profile_images/676710153119506433/zGxAMf3d_normal.jpg", "profile_link_color": "0084B4", "profile_sidebar_fill_color": "DDEEF6", "profile_text_color": "333333", "protected": false, "screen_name": "luckkly", "statuses_count": 1367}}
{"created_at": "Mon Dec 14 14:00:04 +0000 2015", "favorited": false, "hashtags": ["lowest"], "id": 676401272430436356, "lang": "en", "retweeted": false, "source": "<a href=\"http://dragplus.com\" rel=\"nofollow\">DragPlus</a>", "text": "FALSE: President Obama Scores 102 on IQ Test, Lowest in Presidential History #lowest https://t.co/AbtWAPkO8d", "truncated": false, "urls": {"https://t.co/AbtWAPkO8d": "http://dragplus.com/post/id/32938749"}, "user": {"created_at": "Fri Jun 20 10:38:14 +0000 2014", "default_profile": true, "description": "rationality, Symbol,\r\nIrrationality,\r\nBounded Rationality,\r\nThought,\r\nThinking,\r\nLogical Thinking,", "followers_count": 527, "friends_count": 1915, "id": 2578431786, "lang": "en", "listed_count": 16, "name": "Rationality AGENT", "profile_background_color": "C0DEED", "profile_background_image_url": "http://abs.twimg.com/images/themes/theme1/bg.png", "profile_background_tile": false, "profile_image_url": "https://pbs.twimg.com/profile_images/481004180358713345/SRru4CWv_normal.jpeg", "profile_link_color": "0084B4", "profile_sidebar_fill_color": "DDEEF6", "profile_text_color": "333333", "protected": false, "screen_name": "rationality_age", "statuses_count": 4013, "url": "http://t.co/1qbV1uWj8Q"}}
{"created_at": "Mon Dec 14 14:57:36 +0000 2015", "favorite_count": 1, "favorited": false, "id": 676415748701446144, "lang": "en", "retweet_count": 1, "retweeted": false, "source": "<a href=\"http://twitter.com/#!/download/ipad\" rel=\"nofollow\">Twitter for iPad</a>", "text": "FALSE: President Obama Scores 102 on IQ Test, Lowest in Presidential History https://t.co/0CEBWsJoT3", "truncated": false, "urls": {"https://t.co/0CEBWsJoT3": "http://news360.com/article/326671215"}, "user": {"created_at": "Mon Apr 20 18:32:25 +0000 2009", "description": "Married to my best friend. Obama cares more about Muslims & Illegals than Americans! Obamas SUCK! Ban Muslim Brotherhood! #tcot #ProIsrael #prolife #CruzCrew", "favourites_count": 127304, "followers_count": 59894, "friends_count": 57387, "id": 33611715, "lang": "en", "listed_count": 615, "location": "Muslim Obama's AmeriKastan", "name": "Pat Peters, Ph.D.", "profile_background_color": "5B403A", "profile_background_image_url": "http://pbs.twimg.com/profile_background_images/378800000034894240/a814652273cdd4e95faa4c86cc8df41f.jpeg", "profile_background_tile": false, "profile_banner_url": "https://pbs.twimg.com/profile_banners/33611715/1420341303", "profile_image_url": "https://pbs.twimg.com/profile_images/681850501000908800/89b8LbGC_normal.png", "profile_link_color": "4A913C", "profile_sidebar_fill_color": "F48B87", "profile_text_color": "914850", "protected": false, "screen_name": "PatVPeters", "statuses_count": 295153, "time_zone": "Pacific Time (US & Canada)", "utc_offset": -28800}}
{"created_at": "Mon Dec 14 17:36:45 +0000 2015", "favorited": false, "id": 676455801691594752, "lang": "en", "retweeted": false, "source": "<a href=\"http://www.facebook.com/twitter\" rel=\"nofollow\">Facebook</a>", "text": "President Obama Scores 102 On IQ Test, Lowest In Presidential History https://t.co/wUMXxKVnqD", "truncated": false, "urls": {"https://t.co/wUMXxKVnqD": "http://fb.me/7r9ukRA3b"}, "user": {"created_at": "Sat Apr 04 18:58:03 +0000 2009", "description": "Talk Radio Host - Political & News Analyst - Christian  #tcot #TEAPARTY", "favourites_count": 28, "followers_count": 717, "friends_count": 540, "geo_enabled": true, "id": 28848523, "lang": "en", "listed_count": 29, "location": "Nationwide", "name": "Regular Guy", "profile_background_color": "131516", "profile_background_image_url": "http://pbs.twimg.com/profile_background_images/666318357218525184/OFEYLHWp.png", "profile_background_tile": true, "profile_banner_url": "https://pbs.twimg.com/profile_banners/28848523/1447697533", "profile_image_url": "https://pbs.twimg.com/profile_images/157493153/small_roger_ab_gray_normal.jpg", "profile_link_color": "009999", "profile_sidebar_fill_color": "EFEFEF", "profile_text_color": "333333", "protected": false, "screen_name": "Radioroger", "statuses_count": 11926, "time_zone": "Pacific Time (US & Canada)", "url": "https://t.co/S5NzjzWmrT", "utc_offset": -28800}}
{"created_at": "Mon Dec 14 17:38:16 +0000 2015", "favorited": false, "id": 676456183859830784, "lang": "en", "retweeted": false, "source": "<a href=\"http://www.facebook.com/twitter\" rel=\"nofollow\">Facebook</a>", "text": "President Obama Scores 102 On IQ Test, Lowest In Presidential History https://t.co/bASVVUlvw9", "truncated": false, "urls": {"https://t.co/bASVVUlvw9": "http://fb.me/7E5YOOrSa"}, "user": {"created_at": "Sat Apr 04 18:58:03 +0000 2009", "description": "Talk Radio Host - Political & News Analyst - Christian  #tcot #TEAPARTY", "favourites_count": 28, "followers_count": 717, "friends_count": 540, "geo_enabled": true, "id": 28848523, "lang": "en", "listed_count": 29, "location": "Nationwide", "name": "Regular Guy", "profile_background_color": "131516", "profile_background_image_url": "http://pbs.twimg.com/profile_background_images/666318357218525184/OFEYLHWp.png", "profile_background_tile": true, "profile_banner_url": "https://pbs.twimg.com/profile_banners/28848523/1447697533", "profile_image_url": "https://pbs.twimg.com/profile_images/157493153/small_roger_ab_gray_normal.jpg", "profile_link_color": "009999", "profile_sidebar_fill_color": "EFEFEF", "profile_text_color": "333333", "protected": false, "screen_name": "Radioroger", "statuses_count": 11926, "time_zone": "Pacific Time (US & Canada)", "url": "https://t.co/S5NzjzWmrT", "utc_offset": -28800}}
{"created_at": "Mon Dec 14 19:33:44 +0000 2015", "favorited": false, "id": 676485239661658113, "lang": "en", "retweeted": false, "source": "<a href=\"http://twitter.com\" rel=\"nofollow\">Twitter Web Client</a>", "text": "President Obama Scores 102 On IQ Test, Lowest In Presidential History https://t.co/SCfHOR7Dub", "truncated": false, "urls": {"https://t.co/SCfHOR7Dub": "http://empirenews.net/president-obama-scores-102-on-iq-test-lowest-in-presidential-history/"}, "user": {"created_at": "Sat Dec 20 17:41:56 +0000 2008", "description": "Politically Independent/Conservative sports loving, reality show watching girl, Tweets are mostly political in nature, but I random tweet about anything too.", "favourites_count": 3201, "followers_count": 9036, "friends_count": 9425, "geo_enabled": true, "id": 18269496, "lang": "en", "listed_count": 221, "location": "Texas", "name": "mzee26", "profile_background_color": "120E57", "profile_background_image_url": "http://pbs.twimg.com/profile_background_images/106749958/NYTwitter.png", "profile_background_tile": true, "profile_banner_url": "https://pbs.twimg.com/profile_banners/18269496/1354507875", "profile_image_url": "https://pbs.twimg.com/profile_images/642470685084815360/sLL686rX_normal.jpg", "profile_link_color": "082347", "profile_sidebar_fill_color": "9FA4AB", "profile_text_color": "000000", "protected": false, "screen_name": "mzee26", "statuses_count": 169117, "time_zone": "Central Time (US & Canada)", "utc_offset": -21600}}
{"created_at": "Wed Dec 16 00:22:51 +0000 2015", "favorite_count": 1, "favorited": false, "id": 676920386727124992, "lang": "en", "retweeted": false, "source": "<a href=\"http://www.facebook.com/twitter\" rel=\"nofollow\">Facebook</a>", "text": "President Obama Scores 102 On IQ Test, Lowest In Presidential History https://t.co/QDnIxpAm2A", "truncated": false, "urls": {"https://t.co/QDnIxpAm2A": "http://fb.me/11hIn3qSg"}, "user": {"created_at": "Sun May 03 13:33:23 +0000 2009", "default_profile": true, "description": "Follower of Christ, Father to the three greatest kids in the world, American Patriot, Biker.", "favourites_count": 291, "followers_count": 214, "friends_count": 419, "geo_enabled": true, "id": 37417195, "lang": "en", "listed_count": 4, "name": "Tony Anger", "profile_background_color": "C0DEED", "profile_background_image_url": "http://abs.twimg.com/images/themes/theme1/bg.png", "profile_background_tile": false, "profile_banner_url": "https://pbs.twimg.com/profile_banners/37417195/1435458467", "profile_image_url": "https://pbs.twimg.com/profile_images/675268493483184128/Pns50_3S_normal.jpg", "profile_link_color": "0084B4", "profile_sidebar_fill_color": "DDEEF6", "profile_text_color": "333333", "protected": false, "screen_name": "TBonetheBiker", "statuses_count": 14299, "time_zone": "Pacific Time (US & Canada)", "utc_offset": -28800}}
{"created_at": "Wed Dec 16 10:58:50 +0000 2015", "favorited": false, "id": 677080438993780736, "lang": "en", "retweeted": false, "source": "<a href=\"http://twitter.com\" rel=\"nofollow\">Twitter Web Client</a>", "text": "'FALSE: President Obama Scores 102 on IQ Test, Lowest in Presidential History' https://t.co/FIYzwsm70t (via https://t.co/Ku6fn92VSz)", "truncated": false, "urls": {"https://t.co/FIYzwsm70t": "http://www.snopes.com/obama-iq-test/", "https://t.co/Ku6fn92VSz": "http://www.opinieleiders.nl/wereldnieuws/neppers.php"}, "user": {"created_at": "Fri Nov 06 08:57:42 +0000 2015", "default_profile": true, "favourites_count": 4, "followers_count": 115, "friends_count": 99, "id": 4125749656, "lang": "nl", "listed_count": 14, "name": "Cpt. Iglo", "profile_background_color": "C0DEED", "profile_background_image_url": "http://abs.twimg.com/images/themes/theme1/bg.png", "profile_background_tile": false, "profile_image_url": "https://pbs.twimg.com/profile_images/673252152710578178/O0zHmzDl_normal.jpg", "profile_link_color": "0084B4", "profile_sidebar_fill_color": "DDEEF6", "profile_text_color": "333333", "protected": false, "screen_name": "Ben_Terug", "statuses_count": 8687}}
{"created_at": "Thu Dec 17 03:40:08 +0000 2015", "favorited": false, "id": 677332424695631872, "lang": "en", "retweeted": false, "source": "<a href=\"http://www.facebook.com/twitter\" rel=\"nofollow\">Facebook</a>", "text": "President Obama Scores 102 On IQ Test, Lowest In Presidential History https://t.co/sJ8jWUdxVJ", "truncated": false, "urls": {"https://t.co/sJ8jWUdxVJ": "http://fb.me/3Ij4QnmFK"}, "user": {"created_at": "Thu Jun 14 17:24:13 +0000 2012", "default_profile": true, "description": "Old, Grouchy, Gun and Bible Clutching Patriot.\r\nGot a problem with that?", "favourites_count": 5, "followers_count": 74, "friends_count": 202, "id": 608327410, "lang": "en", "listed_count": 9, "location": "Central PA, USA", "name": "Douglas D May", "profile_background_color": "C0DEED", "profile_background_image_url": "http://abs.twimg.com/images/themes/theme1/bg.png", "profile_background_tile": false, "profile_banner_url": "https://pbs.twimg.com/profile_banners/608327410/1354485134", "profile_image_url": "https://pbs.twimg.com/profile_images/2776167092/b627432ffcaa0b11289f18b2579136b1_normal.jpeg", "profile_link_color": "0084B4", "profile_sidebar_fill_color": "DDEEF6", "profile_text_color": "333333", "protected": false, "screen_name": "DouglasDMay", "statuses_count": 21526}}
{"created_at": "Fri Dec 18 14:40:30 +0000 2015", "favorited": false, "id": 677860998414340096, "lang": "en", "retweeted": false, "source": "<a href=\"http://www.facebook.com/twitter\" rel=\"nofollow\">Facebook</a>", "text": "FALSE: President Obama Scores 102 on IQ Test, Lowest in Presidential History https://t.co/Ee4jdi7zTj", "truncated": false, "urls": {"https://t.co/Ee4jdi7zTj": "http://fb.me/2wqhT0ndJ"}, "user": {"created_at": "Wed Sep 10 01:42:14 +0000 2014", "description": "El Heraldo es su principal fuente de noticias, pol\u00edtica, espect\u00e1culos, deportes y socials. Cubrimos lo que pasa en Am\u00e9rica y el resto del mundo.\n#ElHeraldo", "favourites_count": 175, "followers_count": 20509, "friends_count": 17491, "id": 2800879028, "lang": "en", "listed_count": 79, "location": "California", "name": "El Heraldo Int Ca", "profile_background_color": "EBEBEB", "profile_background_image_url": "http://abs.twimg.com/images/themes/theme7/bg.gif", "profile_background_tile": false, "profile_banner_url": "https://pbs.twimg.com/profile_banners/2800879028/1410316204", "profile_image_url": "https://pbs.twimg.com/profile_images/509541241055215617/l99ZFmhE_normal.jpeg", "profile_link_color": "990000", "profile_sidebar_fill_color": "F3F3F3", "profile_text_color": "333333", "protected": false, "screen_name": "El_Heraldo_Int", "statuses_count": 2684, "time_zone": "Pacific Time (US & Canada)", "url": "https://t.co/TNnqspkcXN", "utc_offset": -28800}}
{"created_at": "Sat Dec 19 02:19:58 +0000 2015", "favorited": false, "id": 678037021957296129, "lang": "en", "retweeted": false, "source": "<a href=\"http://twitter.com\" rel=\"nofollow\">Twitter Web Client</a>", "text": "President Obama Scores 102 On IQ Test, Lowest In Presidential History: https://t.co/YSCdjvfZpe", "truncated": false, "urls": {"https://t.co/YSCdjvfZpe": "http://empirenews.net/president-obama-scores-102-on-iq-test-lowest-in-presidential-history/"}, "user": {"created_at": "Wed Apr 03 07:49:34 +0000 2013", "description": "Christian, conservative, Pro GOD, pro Israel, pro gun, pro life, pro legal immigration, anti-illegal immigration, anti big gov.", "favourites_count": 6597, "followers_count": 3432, "friends_count": 3413, "id": 1324067964, "lang": "en", "listed_count": 81, "name": "American Citizen", "profile_background_color": "131516", "profile_background_image_url": "http://abs.twimg.com/images/themes/theme14/bg.gif", "profile_background_tile": true, "profile_image_url": "https://pbs.twimg.com/profile_images/671895905851822081/vwqechJ0_normal.jpg", "profile_link_color": "009999", "profile_sidebar_fill_color": "EFEFEF", "profile_text_color": "333333", "protected": false, "screen_name": "AmericanCitize5", "statuses_count": 19236, "time_zone": "Eastern Time (US & Canada)", "utc_offset": -18000}}
{"created_at": "Mon Dec 21 22:53:30 +0000 2015", "favorited": false, "id": 679072229284585472, "lang": "en", "retweeted": false, "source": "<a href=\"http://twitter.com\" rel=\"nofollow\">Twitter Web Client</a>", "text": "FALSE: President Obama Scores 102 on IQ Test, Lowest in Presidential History https://t.co/xJZYJZjfZW", "truncated": false, "urls": {"https://t.co/xJZYJZjfZW": "http://www.snopes.com/obama-iq-test/"}, "user": {"created_at": "Wed Mar 04 00:39:31 +0000 2009", "default_profile": true, "description": "Prior to my party leaving me, I was raised by Uncle Walter and Murrow\u2019s Boys.", "favourites_count": 4542, "followers_count": 1169, "friends_count": 2041, "id": 22707692, "lang": "en", "listed_count": 74, "location": "Westchester County, NY", "name": "Jon Cohen", "profile_background_color": "C0DEED", "profile_background_image_url": "http://abs.twimg.com/images/themes/theme1/bg.png", "profile_background_tile": false, "profile_image_url": "https://pbs.twimg.com/profile_images/541451515831910400/jrl1-2VS_normal.png", "profile_link_color": "0084B4", "profile_sidebar_fill_color": "DDEEF6", "profile_text_color": "333333", "protected": false, "screen_name": "JonUPS_", "statuses_count": 128106, "time_zone": "Eastern Time (US & Canada)", "utc_offset": -18000}}
