{"created_at": "Sun Sep 06 21:53:56 +0000 2015", "favorite_count": 1184, "favorited": false, "id": 640644123339431936, "lang": "en", "media": [{"display_url": "pic.twitter.com/n0DNHoyjHd", "expanded_url": "http://twitter.com/WorstFact/status/640644123339431936/photo/1", "id": 640644123255554048, "id_str": "640644123255554048", "indices": [96, 118], "media_url": "http://pbs.twimg.com/media/COQGb5IWwAAFzZ5.jpg", "media_url_https": "https://pbs.twimg.com/media/COQGb5IWwAAFzZ5.jpg", "sizes": {"large": {"h": 258, "resize": "fit", "w": 411}, "medium": {"h": 258, "resize": "fit", "w": 411}, "small": {"h": 213, "resize": "fit", "w": 340}, "thumb": {"h": 150, "resize": "crop", "w": 150}}, "type": "photo", "url": "http://t.co/n0DNHoyjHd"}], "retweet_count": 1419, "retweeted": false, "source": "<a href=\"http://bufferapp.com\" rel=\"nofollow\">Buffer</a>", "text": "Did you know that Microsoft actually uses dog noses for thumbsticks on the gamecube controller? http://t.co/n0DNHoyjHd", "truncated": false, "user": {"created_at": "Thu Jan 30 20:37:04 +0000 2014", "favourites_count": 31, "followers_count": 180871, "friends_count": 4478, "id": 2319494544, "lang": "en", "listed_count": 186, "name": "Sarcasm", "profile_background_color": "197536", "profile_background_image_url": "http://abs.twimg.com/images/themes/theme5/bg.gif", "profile_background_tile": false, "profile_banner_url": "https://pbs.twimg.com/profile_banners/2319494544/1409220934", "profile_image_url": "https://pbs.twimg.com/profile_images/673224235146457089/t3gqvv1C_normal.jpg", "profile_link_color": "000000", "profile_sidebar_fill_color": "DDEEF6", "profile_text_color": "333333", "protected": false, "screen_name": "WorstFact", "statuses_count": 391, "time_zone": "Eastern Time (US & Canada)", "utc_offset": -18000}}
{"created_at": "Sun Sep 06 22:25:53 +0000 2015", "favorited": false, "id": 640652163501457408, "in_reply_to_screen_name": "WorstFact", "in_reply_to_status_id": 640644123339431936, "in_reply_to_user_id": 2319494544, "lang": "en", "retweeted": false, "source": "<a href=\"http://twitter.com/#!/download/ipad\" rel=\"nofollow\">Twitter for iPad</a>", "text": "\u201c@MostObviousFact: Did you know that Microsoft actually uses dog noses for thumbsticks on the gamecube controller? \n@JoeHEATfan PS is bad.", "truncated": false, "user": {"created_at": "Sun Jun 29 21:56:02 +0000 2014", "default_profile": true, "description": "Too grateful to be hateful. Too blessed to be stressed.", "favourites_count": 8089, "followers_count": 147, "friends_count": 128, "id": 2654471675, "lang": "en", "listed_count": 3, "name": "Blessed", "profile_background_color": "C0DEED", "profile_background_image_url": "http://abs.twimg.com/images/themes/theme1/bg.png", "profile_background_tile": false, "profile_banner_url": "https://pbs.twimg.com/profile_banners/2654471675/1452132218", "profile_image_url": "https://pbs.twimg.com/profile_images/684918278582591488/5nFTdOvt_normal.jpg", "profile_link_color": "0084B4", "profile_sidebar_fill_color": "DDEEF6", "profile_text_color": "333333", "protected": false, "screen_name": "BrandonChap_", "statuses_count": 4683}}
{"created_at": "Mon Sep 07 15:45:11 +0000 2015", "favorited": false, "id": 640913711566225408, "lang": "en", "retweeted": false, "source": "<a href=\"http://twitterfeed.com\" rel=\"nofollow\">twitterfeed</a>", "text": "Internal Sony Documents Reveal Playstation Controllers Are Made of Dog Noses http://t.co/TThQ1BHI9W", "truncated": false, "urls": {"http://t.co/TThQ1BHI9W": "http://bit.ly/1XC3tm0"}, "user": {"created_at": "Fri Jun 06 00:38:11 +0000 2014", "description": "Because The News Is Better When We Write It", "followers_count": 79, "friends_count": 436, "id": 2548924272, "lang": "en", "listed_count": 3, "name": "Empire News", "profile_background_color": "000000", "profile_background_image_url": "http://abs.twimg.com/images/themes/theme14/bg.gif", "profile_background_tile": false, "profile_banner_url": "https://pbs.twimg.com/profile_banners/2548924272/1424233212", "profile_image_url": "https://pbs.twimg.com/profile_images/474712632574758912/q20Ur2bE_normal.jpeg", "profile_link_color": "3B94D9", "profile_sidebar_fill_color": "000000", "profile_text_color": "000000", "protected": false, "screen_name": "RealEmpireNews", "statuses_count": 669, "time_zone": "Eastern Time (US & Canada)", "url": "http://t.co/ogRj4kw3NN", "utc_offset": -18000}}
{"created_at": "Mon Sep 07 16:20:45 +0000 2015", "favorited": false, "id": 640922662026371072, "lang": "en", "retweeted": false, "source": "<a href=\"http://www.facebook.com/twitter\" rel=\"nofollow\">Facebook</a>", "text": "Internal Sony Documents Reveal Playstation Controllers Are Made of Dog Noses http://t.co/lKQNCskWc3", "truncated": false, "urls": {"http://t.co/lKQNCskWc3": "http://fb.me/7kptoWEoS"}, "user": {"created_at": "Fri Jun 06 00:38:11 +0000 2014", "description": "Because The News Is Better When We Write It", "followers_count": 79, "friends_count": 436, "id": 2548924272, "lang": "en", "listed_count": 3, "name": "Empire News", "profile_background_color": "000000", "profile_background_image_url": "http://abs.twimg.com/images/themes/theme14/bg.gif", "profile_background_tile": false, "profile_banner_url": "https://pbs.twimg.com/profile_banners/2548924272/1424233212", "profile_image_url": "https://pbs.twimg.com/profile_images/474712632574758912/q20Ur2bE_normal.jpeg", "profile_link_color": "3B94D9", "profile_sidebar_fill_color": "000000", "profile_text_color": "000000", "protected": false, "screen_name": "RealEmpireNews", "statuses_count": 669, "time_zone": "Eastern Time (US & Canada)", "url": "http://t.co/ogRj4kw3NN", "utc_offset": -18000}}
{"created_at": "Wed Sep 09 11:19:48 +0000 2015", "favorite_count": 1, "favorited": false, "id": 641571702346878976, "lang": "en", "retweeted": false, "source": "<a href=\"http://twitter.com\" rel=\"nofollow\">Twitter Web Client</a>", "text": "Did you know that Microsoft actually uses dog noses for thumbsticks on the gamecube controller?", "truncated": false, "user": {"created_at": "Tue Jun 16 08:44:40 +0000 2015", "description": "\u274ckharylle datu\u274c", "favourites_count": 635, "followers_count": 232, "friends_count": 158, "id": 3246580974, "lang": "en", "name": "bawal umihi dito", "profile_background_color": "131516", "profile_background_image_url": "http://pbs.twimg.com/profile_background_images/626684325816197121/6h9hx1tK.jpg", "profile_background_tile": true, "profile_banner_url": "https://pbs.twimg.com/profile_banners/3246580974/1450611293", "profile_image_url": "https://pbs.twimg.com/profile_images/679271307280691200/Rqasp9II_normal.jpg", "profile_link_color": "000000", "profile_sidebar_fill_color": "000000", "profile_text_color": "000000", "protected": false, "screen_name": "dirtybittah", "statuses_count": 3100}}
{"created_at": "Wed Sep 16 14:20:24 +0000 2015", "favorited": false, "id": 644153868654379008, "lang": "en", "retweeted": false, "source": "<a href=\"http://www.facebook.com/twitter\" rel=\"nofollow\">Facebook</a>", "text": "Internal Sony Documents Reveal Playstation Controllers Are Made of Dog Noses http://t.co/fT3OXaVxL0", "truncated": false, "urls": {"http://t.co/fT3OXaVxL0": "http://fb.me/6PLG46B2S"}, "user": {"created_at": "Fri May 01 06:19:38 +0000 2009", "description": "https://t.co/5s26bU1wqJ", "favourites_count": 2, "followers_count": 111, "friends_count": 158, "id": 36897431, "lang": "en", "listed_count": 10, "location": "roanoke, va", "name": "FunnyAssMemesPlus", "profile_background_color": "C0DEED", "profile_background_image_url": "http://abs.twimg.com/images/themes/theme1/bg.png", "profile_background_tile": false, "profile_banner_url": "https://pbs.twimg.com/profile_banners/36897431/1401581856", "profile_image_url": "https://pbs.twimg.com/profile_images/472894542937456643/pFJQ2DNN_normal.png", "profile_link_color": "E309D4", "profile_sidebar_fill_color": "DDEEF6", "profile_text_color": "333333", "protected": false, "screen_name": "FAssmemesplus", "statuses_count": 73409, "time_zone": "Atlantic Time (Canada)", "utc_offset": -14400}}
{"created_at": "Wed Sep 16 18:09:27 +0000 2015", "favorited": false, "id": 644211510814765056, "lang": "en", "retweeted": false, "source": "<a href=\"http://twitter.com\" rel=\"nofollow\">Twitter Web Client</a>", "text": "Internal Sony Documents Reveal Playstation Controllers Are Made of Dog Noses http://t.co/iqvSPzRqH5", "truncated": false, "urls": {"http://t.co/iqvSPzRqH5": "http://empirenews.net/internal-sony-documents-reveal-playstation-controllers-made-of-dog-noses/"}, "user": {"created_at": "Thu May 10 19:30:25 +0000 2007", "description": "I love buses, RFID Tags and QR Codes. Part time researcher, full time Sleeper. Socially inept, wants a firetruck. Spreading the Shrewsbury love since 2015.", "favourites_count": 3594, "followers_count": 1156, "friends_count": 284, "geo_enabled": true, "id": 5938472, "lang": "en", "listed_count": 92, "location": "Agarbatti Airstrip", "name": "Srikanth", "profile_background_color": "131516", "profile_background_image_url": "http://abs.twimg.com/images/themes/theme14/bg.gif", "profile_background_tile": true, "profile_banner_url": "https://pbs.twimg.com/profile_banners/5938472/1427996100", "profile_image_url": "https://pbs.twimg.com/profile_images/651004405433536512/d6s6SuSY_normal.jpg", "profile_link_color": "009999", "profile_sidebar_fill_color": "EFEFEF", "profile_text_color": "333333", "protected": false, "screen_name": "rsrikanth05", "statuses_count": 103685, "time_zone": "Mumbai", "url": "http://t.co/KVBiAofbiT", "utc_offset": 19800}}
{"created_at": "Thu Sep 17 21:45:53 +0000 2015", "favorited": false, "id": 644628364179963905, "lang": "en", "retweeted": false, "source": "<a href=\"http://www.hootsuite.com\" rel=\"nofollow\">Hootsuite</a>", "text": "Internal Sony Documents Reveal Playstation Controllers Are Made of Dog Noses", "truncated": false, "user": {"created_at": "Fri Apr 24 01:13:48 +0000 2015", "default_profile": true, "default_profile_image": true, "followers_count": 9, "friends_count": 41, "id": 3199619913, "lang": "en", "name": "kristi golden", "profile_background_color": "C0DEED", "profile_background_image_url": "http://abs.twimg.com/images/themes/theme1/bg.png", "profile_background_tile": false, "profile_image_url": "https://abs.twimg.com/sticky/default_profile_images/default_profile_0_normal.png", "profile_link_color": "0084B4", "profile_sidebar_fill_color": "DDEEF6", "profile_text_color": "333333", "protected": false, "screen_name": "kristikaygolden", "statuses_count": 6477}}
{"created_at": "Sun Sep 20 01:30:53 +0000 2015", "favorited": false, "id": 645409765200367616, "lang": "en", "retweeted": false, "source": "<a href=\"http://www.facebook.com/twitter\" rel=\"nofollow\">Facebook</a>", "text": "Internal Sony Documents Reveal Playstation Controllers Are Made of Dog Noses http://t.co/aTvADow85j", "truncated": false, "urls": {"http://t.co/aTvADow85j": "http://fb.me/EnGQ298F"}, "user": {"created_at": "Sat Apr 05 01:51:39 +0000 2014", "default_profile": true, "description": "I'm just another page owner tired of Facebook trying to monopolize on pages I work hard for so here I am!!", "favourites_count": 5, "followers_count": 295, "friends_count": 98, "id": 2428116398, "lang": "en", "listed_count": 60, "name": "Krazy8", "profile_background_color": "C0DEED", "profile_background_image_url": "http://abs.twimg.com/images/themes/theme1/bg.png", "profile_background_tile": false, "profile_banner_url": "https://pbs.twimg.com/profile_banners/2428116398/1397048803", "profile_image_url": "https://pbs.twimg.com/profile_images/453881759600361473/Vpt8DzRP_normal.jpeg", "profile_link_color": "0084B4", "profile_sidebar_fill_color": "DDEEF6", "profile_text_color": "333333", "protected": false, "screen_name": "sexwithhumor", "statuses_count": 713842}}
{"created_at": "Sun Sep 20 01:30:54 +0000 2015", "favorited": false, "id": 645409766462767105, "lang": "en", "retweeted": false, "source": "<a href=\"http://www.facebook.com/twitter\" rel=\"nofollow\">Facebook</a>", "text": "Internal Sony Documents Reveal Playstation Controllers Are Made of Dog Noses http://t.co/FfuBVhyEoe", "truncated": false, "urls": {"http://t.co/FfuBVhyEoe": "http://fb.me/4FN3n1nAr"}, "user": {"created_at": "Sat Apr 05 01:51:39 +0000 2014", "default_profile": true, "description": "I'm just another page owner tired of Facebook trying to monopolize on pages I work hard for so here I am!!", "favourites_count": 5, "followers_count": 295, "friends_count": 98, "id": 2428116398, "lang": "en", "listed_count": 60, "name": "Krazy8", "profile_background_color": "C0DEED", "profile_background_image_url": "http://abs.twimg.com/images/themes/theme1/bg.png", "profile_background_tile": false, "profile_banner_url": "https://pbs.twimg.com/profile_banners/2428116398/1397048803", "profile_image_url": "https://pbs.twimg.com/profile_images/453881759600361473/Vpt8DzRP_normal.jpeg", "profile_link_color": "0084B4", "profile_sidebar_fill_color": "DDEEF6", "profile_text_color": "333333", "protected": false, "screen_name": "sexwithhumor", "statuses_count": 713842}}
{"created_at": "Sun Sep 20 01:30:54 +0000 2015", "favorited": false, "id": 645409767955955712, "lang": "en", "retweeted": false, "source": "<a href=\"http://www.facebook.com/twitter\" rel=\"nofollow\">Facebook</a>", "text": "Internal Sony Documents Reveal Playstation Controllers Are Made of Dog Noses http://t.co/fXCizRpC7w", "truncated": false, "urls": {"http://t.co/fXCizRpC7w": "http://fb.me/KFcQfELW"}, "user": {"created_at": "Sat Apr 05 01:51:39 +0000 2014", "default_profile": true, "description": "I'm just another page owner tired of Facebook trying to monopolize on pages I work hard for so here I am!!", "favourites_count": 5, "followers_count": 295, "friends_count": 98, "id": 2428116398, "lang": "en", "listed_count": 60, "name": "Krazy8", "profile_background_color": "C0DEED", "profile_background_image_url": "http://abs.twimg.com/images/themes/theme1/bg.png", "profile_background_tile": false, "profile_banner_url": "https://pbs.twimg.com/profile_banners/2428116398/1397048803", "profile_image_url": "https://pbs.twimg.com/profile_images/453881759600361473/Vpt8DzRP_normal.jpeg", "profile_link_color": "0084B4", "profile_sidebar_fill_color": "DDEEF6", "profile_text_color": "333333", "protected": false, "screen_name": "sexwithhumor", "statuses_count": 713842}}
{"created_at": "Wed Sep 30 14:58:43 +0000 2015", "favorite_count": 7, "favorited": false, "id": 649236939070046208, "lang": "en", "media": [{"display_url": "pic.twitter.com/j80IEH6r21", "expanded_url": "http://twitter.com/mclee5150/status/649236939070046208/photo/1", "id": 649236934133309440, "id_str": "649236934133309440", "indices": [96, 118], "media_url": "http://pbs.twimg.com/media/CQKNjUIUYAASCEp.jpg", "media_url_https": "https://pbs.twimg.com/media/CQKNjUIUYAASCEp.jpg", "sizes": {"large": {"h": 258, "resize": "fit", "w": 411}, "medium": {"h": 258, "resize": "fit", "w": 411}, "small": {"h": 213, "resize": "fit", "w": 340}, "thumb": {"h": 150, "resize": "crop", "w": 150}}, "type": "photo", "url": "http://t.co/j80IEH6r21"}], "retweet_count": 1, "retweeted": false, "source": "<a href=\"http://twitter.com/download/iphone\" rel=\"nofollow\">Twitter for iPhone</a>", "text": "Did you know that Microsoft actually uses dog noses for thumbsticks on the gamecube controller? http://t.co/j80IEH6r21", "truncated": false, "user": {"created_at": "Fri Sep 21 05:00:13 +0000 2012", "description": "nostalgic vibes", "favourites_count": 1966, "followers_count": 242, "friends_count": 363, "geo_enabled": true, "id": 837022188, "lang": "en", "listed_count": 4, "location": "Los Angeles, CA", "name": "polymath", "profile_background_color": "000000", "profile_background_image_url": "http://abs.twimg.com/images/themes/theme1/bg.png", "profile_background_tile": false, "profile_banner_url": "https://pbs.twimg.com/profile_banners/837022188/1452568927", "profile_image_url": "https://pbs.twimg.com/profile_images/685545937259790336/vC3P5ir3_normal.jpg", "profile_link_color": "FA743E", "profile_sidebar_fill_color": "000000", "profile_text_color": "000000", "protected": false, "screen_name": "mclee5150", "statuses_count": 591, "time_zone": "Pacific Time (US & Canada)", "url": "https://t.co/XV31ZJIfj8", "utc_offset": -28800}}
{"created_at": "Wed Sep 30 16:24:41 +0000 2015", "favorited": false, "id": 649258575294955522, "lang": "en", "media": [{"display_url": "pic.twitter.com/GBDzxyBS3w", "expanded_url": "http://twitter.com/MostObviousFact/status/640644123339431936/photo/1", "id": 640644123255554048, "id_str": "640644123255554048", "indices": [115, 137], "media_url": "http://pbs.twimg.com/media/COQGb5IWwAAFzZ5.jpg", "media_url_https": "https://pbs.twimg.com/media/COQGb5IWwAAFzZ5.jpg", "sizes": {"large": {"h": 258, "resize": "fit", "w": 411}, "medium": {"h": 258, "resize": "fit", "w": 411}, "small": {"h": 213, "resize": "fit", "w": 340}, "thumb": {"h": 150, "resize": "crop", "w": 150}}, "source_status_id": 640644123339431936, "source_status_id_str": "640644123339431936", "source_user_id": 2319494544, "source_user_id_str": "2319494544", "type": "photo", "url": "http://t.co/GBDzxyBS3w"}], "retweeted": false, "source": "<a href=\"http://www.twitter.com\" rel=\"nofollow\">Twitter for BlackBerry</a>", "text": "Boonk \"@WorstFact: Did you know that Microsoft actually uses dog noses for thumbsticks on the gamecube controller? http://t.co/GBDzxyBS3w\"", "truncated": false, "user": {"created_at": "Tue Sep 08 08:23:31 +0000 2009", "description": "#PorosKelon", "favourites_count": 548, "followers_count": 3512, "friends_count": 880, "id": 72505039, "lang": "en", "listed_count": 12, "location": "Jakarta,Indonesia", "name": "Lenny", "profile_background_color": "0099B9", "profile_background_image_url": "http://pbs.twimg.com/profile_background_images/166984029/lenny.jpg", "profile_background_tile": false, "profile_banner_url": "https://pbs.twimg.com/profile_banners/72505039/1403191081", "profile_image_url": "https://pbs.twimg.com/profile_images/685893093439111168/2gp6c-BM_normal.jpg", "profile_link_color": "093E99", "profile_sidebar_fill_color": "95E8EC", "profile_text_color": "3C3940", "protected": false, "screen_name": "LennyLips", "statuses_count": 77967, "time_zone": "Jakarta", "utc_offset": 25200}, "user_mentions": [{"id": 2319494544, "name": "Sarcasm", "screen_name": "WorstFact"}]}
