{"created_at": "Mon Aug 31 03:32:37 +0000 2015", "favorited": false, "id": 638192643428581376, "lang": "en", "media": [{"display_url": "pic.twitter.com/Q62ROR3rpm", "expanded_url": "http://twitter.com/indyp8riot/status/638192643428581376/photo/1", "id": 638192643365711872, "id_str": "638192643365711872", "indices": [99, 121], "media_url": "http://pbs.twimg.com/media/CNtQ0-4UsAABGGZ.jpg", "media_url_https": "https://pbs.twimg.com/media/CNtQ0-4UsAABGGZ.jpg", "sizes": {"large": {"h": 150, "resize": "fit", "w": 200}, "medium": {"h": 150, "resize": "fit", "w": 200}, "small": {"h": 150, "resize": "fit", "w": 200}, "thumb": {"h": 150, "resize": "crop", "w": 150}}, "type": "photo", "url": "http://t.co/Q62ROR3rpm"}], "retweet_count": 2, "retweeted": false, "source": "<a href=\"http://dlvr.it\" rel=\"nofollow\">dlvr.it</a>", "text": "White House Says Obama\u2019s Gun Rules Would Not Have Blocked Virginia Shooting http://t.co/0d1xxRaFS3 http://t.co/Q62ROR3rpm", "truncated": false, "urls": {"http://t.co/0d1xxRaFS3": "http://j.mp/1hNE8FC"}, "user": {"created_at": "Sat Feb 28 10:24:53 +0000 2015", "description": "Follow for news, policies, & commentary on issues facing America. Passionate Christian & Conservative. #prolife #2a Retweets/Follow \u2260 Endorsements", "favourites_count": 361, "followers_count": 3653, "friends_count": 2277, "geo_enabled": true, "id": 3064752773, "lang": "en", "listed_count": 62, "location": "Indianapolis, IN", "name": "Indy Patriot", "profile_background_color": "000000", "profile_background_image_url": "http://abs.twimg.com/images/themes/theme1/bg.png", "profile_background_tile": false, "profile_banner_url": "https://pbs.twimg.com/profile_banners/3064752773/1425766807", "profile_image_url": "https://pbs.twimg.com/profile_images/583435802975334400/97b75Nxq_normal.jpg", "profile_link_color": "E91D0E", "profile_sidebar_fill_color": "000000", "profile_text_color": "000000", "protected": false, "screen_name": "indyp8riot", "statuses_count": 17783, "url": "http://t.co/lI5IVe74I2"}}
{"created_at": "Mon Aug 31 03:36:06 +0000 2015", "favorited": false, "id": 638193519656435714, "lang": "en", "retweeted": false, "source": "<a href=\"http://dlvr.it\" rel=\"nofollow\">dlvr.it</a>", "text": "White House Says Obama\u2019s Gun Rules Would Not Have Blocked Virginia Shooting http://t.co/5YCDzOgSm7", "truncated": false, "urls": {"http://t.co/5YCDzOgSm7": "http://dlvr.it/C1Cnv8"}, "user": {"created_at": "Thu Apr 01 19:00:44 +0000 2010", "description": "The Daily Rapid brings you breaking news coverage, live breaking video, & articles of trending news events of the day. https://t.co/zTOY3LOFJP", "favourites_count": 864, "followers_count": 3798, "friends_count": 898, "geo_enabled": true, "id": 128641320, "lang": "en", "listed_count": 213, "location": "Houston, TX", "name": "The Daily Rapid", "profile_background_color": "131516", "profile_background_image_url": "http://abs.twimg.com/images/themes/theme14/bg.gif", "profile_background_tile": true, "profile_banner_url": "https://pbs.twimg.com/profile_banners/128641320/1436130814", "profile_image_url": "https://pbs.twimg.com/profile_images/617800594820993024/d10FxdvT_normal.jpg", "profile_link_color": "009999", "profile_sidebar_fill_color": "EFEFEF", "profile_text_color": "333333", "protected": false, "screen_name": "dailyrapid", "statuses_count": 288740, "time_zone": "Eastern Time (US & Canada)", "url": "http://t.co/cWEG2WaFAr", "utc_offset": -18000}}
{"created_at": "Mon Aug 31 03:37:13 +0000 2015", "favorited": false, "hashtags": ["tcot", "lnyhbt"], "id": 638193800880324608, "lang": "en", "media": [{"display_url": "pic.twitter.com/Y0gbHlfLHx", "expanded_url": "http://twitter.com/keeplibertyorg/status/638193800880324608/photo/1", "id": 638193800821649408, "id_str": "638193800821649408", "indices": [113, 135], "media_url": "http://pbs.twimg.com/media/CNtR4WvUsAA7HuM.jpg", "media_url_https": "https://pbs.twimg.com/media/CNtR4WvUsAA7HuM.jpg", "sizes": {"large": {"h": 480, "resize": "fit", "w": 640}, "medium": {"h": 450, "resize": "fit", "w": 600}, "small": {"h": 255, "resize": "fit", "w": 340}, "thumb": {"h": 150, "resize": "crop", "w": 150}}, "type": "photo", "url": "http://t.co/Y0gbHlfLHx"}], "retweet_count": 1, "retweeted": false, "source": "<a href=\"http://dlvr.it\" rel=\"nofollow\">dlvr.it</a>", "text": "White House Says Obama\u2019s Gun Rules Would Not Have Blocked Virginia Shooting http://t.co/owDV4dT3Y1 #tcot #lnyhbt http://t.co/Y0gbHlfLHx", "truncated": false, "urls": {"http://t.co/owDV4dT3Y1": "http://dlvr.it/C1D0Mt"}, "user": {"created_at": "Wed Aug 13 15:00:22 +0000 2014", "default_profile": true, "favourites_count": 338, "followers_count": 6691, "friends_count": 6254, "id": 2729613672, "lang": "en", "listed_count": 77, "name": "keeplibertyorg", "profile_background_color": "C0DEED", "profile_background_image_url": "http://abs.twimg.com/images/themes/theme1/bg.png", "profile_background_tile": false, "profile_banner_url": "https://pbs.twimg.com/profile_banners/2729613672/1407942864", "profile_image_url": "https://pbs.twimg.com/profile_images/499574181936123905/xAKpqqZJ_normal.jpeg", "profile_link_color": "0084B4", "profile_sidebar_fill_color": "DDEEF6", "profile_text_color": "333333", "protected": false, "screen_name": "keeplibertyorg", "statuses_count": 17359, "time_zone": "Eastern Time (US & Canada)", "utc_offset": -18000}}
{"created_at": "Mon Aug 31 03:50:36 +0000 2015", "favorited": false, "id": 638197165928615936, "lang": "en", "retweeted": false, "source": "<a href=\"http://wtpcnews.com\" rel=\"nofollow\">WTPCNEWS XYZ Scripts</a>", "text": "White House Says Obama\u2019s Gun Rules Would Not Have Blocked Virginia Shooting -  http://t.co/s9NSFhWpgK", "truncated": false, "urls": {"http://t.co/s9NSFhWpgK": "http://wtpcnews.com/2015/08/white-house-says-obamas-gun-rules-would-not-have-blocked-virginia-shooting/"}, "user": {"created_at": "Wed Jun 24 04:06:38 +0000 2009", "description": "U.S. Army Veteran. Sharing Conservative Views From Across America, Politics, Guns, & More.. http://t.co/d8s7mHMBpd  #TCOT  #ProGun #ProIsrael #TGDN #WeThePeople", "favourites_count": 248, "followers_count": 1135, "friends_count": 2083, "geo_enabled": true, "id": 50209166, "lang": "en", "listed_count": 17, "location": "Florida", "name": "We the People", "profile_background_color": "1A1B1F", "profile_background_image_url": "http://pbs.twimg.com/profile_background_images/595008196269375488/H2v4rkMB.jpg", "profile_background_tile": false, "profile_banner_url": "https://pbs.twimg.com/profile_banners/50209166/1354587550", "profile_image_url": "https://pbs.twimg.com/profile_images/378800000320025397/144205f717af13f8aa56d20345ea8ff8_normal.jpeg", "profile_link_color": "2FC2EF", "profile_sidebar_fill_color": "252429", "profile_text_color": "C7C7C7", "protected": false, "screen_name": "wtpcnews", "statuses_count": 50530, "url": "http://t.co/Ots3T2kXCA"}}
{"created_at": "Mon Aug 31 03:53:18 +0000 2015", "favorited": false, "id": 638197846009708544, "lang": "en", "retweeted": false, "source": "<a href=\"http://publicize.wp.com/\" rel=\"nofollow\">WordPress.com</a>", "text": "White House Says Obama\u2019s Gun Rules Would Not Have Blocked Virginia\u00a0Shooting http://t.co/eISTU60t85", "truncated": false, "urls": {"http://t.co/eISTU60t85": "http://spiceupmagazine.com/white-house-says-obamas-gun-rules-would-not-have-blocked-virginia-shooting/"}, "user": {"created_at": "Fri Jun 28 06:23:31 +0000 2013", "default_profile": true, "description": "AFC", "favourites_count": 19, "followers_count": 256, "friends_count": 221, "id": 1552394185, "lang": "en", "listed_count": 7, "location": "Lagos.     IG:Godofskiillz", "name": "IG-Godofskiillz", "profile_background_color": "C0DEED", "profile_background_image_url": "http://abs.twimg.com/images/themes/theme1/bg.png", "profile_background_tile": false, "profile_banner_url": "https://pbs.twimg.com/profile_banners/1552394185/1440690833", "profile_image_url": "https://pbs.twimg.com/profile_images/643044869431291904/wn5E4EpR_normal.jpg", "profile_link_color": "0084B4", "profile_sidebar_fill_color": "DDEEF6", "profile_text_color": "333333", "protected": false, "screen_name": "drissking_", "statuses_count": 13593}}
{"created_at": "Mon Aug 31 03:56:03 +0000 2015", "favorited": false, "id": 638198540196442112, "lang": "en", "retweeted": false, "source": "<a href=\"http://mobile.twitter.com\" rel=\"nofollow\">Mobile Web</a>", "text": "White House Says Obama&amp;#039;s Gun Rules Would Not Have Blocked Virginia Shooting - Breitbart http://t.co/HegXLxiFT0", "truncated": false, "urls": {"http://t.co/HegXLxiFT0": "http://bit.ly/1hqA1P1"}, "user": {"created_at": "Fri Apr 23 21:49:45 +0000 2010", "description": "Born in Jonesboro, Arkansas-God, Family, Country,Christian,CONSERVATIVE, Wife, Mom of 2 sons- 26 years / 18 years old - a certified MLT(Medical Lab Tech)", "favourites_count": 25, "followers_count": 384, "friends_count": 401, "geo_enabled": true, "id": 136409768, "lang": "en", "listed_count": 28, "location": "Wimberley, Texas", "name": "Pam (Cox) Hill", "profile_background_color": "642D8B", "profile_background_image_url": "http://abs.twimg.com/images/themes/theme10/bg.gif", "profile_background_tile": true, "profile_banner_url": "https://pbs.twimg.com/profile_banners/136409768/1353646813", "profile_image_url": "https://pbs.twimg.com/profile_images/552137501616259073/PTwv99rZ_normal.jpeg", "profile_link_color": "FF0000", "profile_sidebar_fill_color": "7AC3EE", "profile_text_color": "3D1957", "protected": false, "screen_name": "pshill2010", "statuses_count": 71901, "time_zone": "Central Time (US & Canada)", "utc_offset": -21600}}
{"created_at": "Mon Aug 31 04:13:40 +0000 2015", "favorited": false, "id": 638202973106016256, "lang": "en", "retweeted": false, "source": "<a href=\"http://mobile.twitter.com\" rel=\"nofollow\">Mobile Web</a>", "text": "White House Says Obama's Gun Rules Would Not Have Blocked Virginia Shooting - Breitbart http://t.co/Y4JCAGgEQW via @BreitbartNews", "truncated": false, "urls": {"http://t.co/Y4JCAGgEQW": "http://bit.ly/1hqA1P1"}, "user": {"created_at": "Tue Mar 17 15:35:02 +0000 2009", "favourites_count": 17494, "followers_count": 695, "friends_count": 1013, "id": 24898961, "lang": "en", "listed_count": 48, "name": "Meowpuppy", "profile_background_color": "B2DFDA", "profile_background_image_url": "http://abs.twimg.com/images/themes/theme13/bg.gif", "profile_background_tile": false, "profile_banner_url": "https://pbs.twimg.com/profile_banners/24898961/1437849456", "profile_image_url": "https://pbs.twimg.com/profile_images/624719253560688641/u6o2ekP9_normal.jpg", "profile_link_color": "93A644", "profile_sidebar_fill_color": "FFFFFF", "profile_text_color": "333333", "protected": false, "screen_name": "meowpuppy", "statuses_count": 45515}, "user_mentions": [{"id": 457984599, "name": "Breitbart News", "screen_name": "BreitbartNews"}]}
{"created_at": "Mon Aug 31 05:42:21 +0000 2015", "favorited": false, "hashtags": ["news", "feedly"], "id": 638225289584242688, "lang": "en", "retweeted": false, "source": "<a href=\"http://twitter.com\" rel=\"nofollow\">Twitter Web Client</a>", "text": "White House Says Obama\u2019s Gun Rules Would Not Have Blocked Virginia Shooting http://t.co/QpWtPV2xHU #news #feedly", "truncated": false, "urls": {"http://t.co/QpWtPV2xHU": "http://www.breitbart.com/big-government/2015/08/30/white-house-says-obamas-gun-rules-would-not-have-blocked-virginia-shooting/"}, "user": {"created_at": "Tue Feb 10 20:11:12 +0000 2015", "description": "Nerd,love humor,American by birth and American by heart.", "favourites_count": 80, "followers_count": 358, "friends_count": 561, "id": 3028666935, "lang": "en", "listed_count": 5, "location": "Area 51", "name": "T.L.C.", "profile_background_color": "000000", "profile_background_image_url": "http://abs.twimg.com/images/themes/theme1/bg.png", "profile_background_tile": false, "profile_banner_url": "https://pbs.twimg.com/profile_banners/3028666935/1437203692", "profile_image_url": "https://pbs.twimg.com/profile_images/622301205553770496/YwC1oYl7_normal.jpg", "profile_link_color": "DD2E44", "profile_sidebar_fill_color": "000000", "profile_text_color": "000000", "protected": false, "screen_name": "Lawyrup1T", "statuses_count": 1699}}
{"created_at": "Mon Aug 31 07:33:19 +0000 2015", "favorite_count": 8, "favorited": false, "id": 638253215486619648, "lang": "en", "retweet_count": 14, "retweeted": false, "source": "<a href=\"http://twitter.com\" rel=\"nofollow\">Twitter Web Client</a>", "text": "White House Says Obama\u2019s Gun Rules Would Not Have Blocked Virginia Shooting http://t.co/A7qVsYsMfc", "truncated": false, "urls": {"http://t.co/A7qVsYsMfc": "http://www.breitbart.com/big-government/2015/08/30/white-house-says-obamas-gun-rules-would-not-have-blocked-virginia-shooting/"}, "user": {"created_at": "Sun Dec 09 14:57:08 +0000 2012", "description": "Bitter Clinger that's sick of the left shredding our constitution! #Israel #teaparty #tcot #TGDN #ORPUW #pjnet I am anti-Obama because he is anti-America.No DMs", "favourites_count": 250355, "followers_count": 53723, "friends_count": 38394, "id": 999453985, "lang": "en", "listed_count": 693, "location": "Glendale Arizona", "name": "Tabitha Bliss", "profile_background_color": "642D8B", "profile_background_image_url": "http://abs.twimg.com/images/themes/theme10/bg.gif", "profile_background_tile": true, "profile_banner_url": "https://pbs.twimg.com/profile_banners/999453985/1400796401", "profile_image_url": "https://pbs.twimg.com/profile_images/535536554555367424/kswt8kUV_normal.jpeg", "profile_link_color": "ED28C6", "profile_sidebar_fill_color": "7AC3EE", "profile_text_color": "3D1957", "protected": false, "screen_name": "BlissTabitha", "statuses_count": 353878, "time_zone": "Arizona", "url": "http://t.co/HD3SAnFCCn", "utc_offset": -25200}}
{"created_at": "Mon Aug 31 07:40:50 +0000 2015", "favorited": false, "hashtags": ["news", "feedly"], "id": 638255109156147200, "lang": "en", "retweeted": false, "source": "<a href=\"http://twitter.com\" rel=\"nofollow\">Twitter Web Client</a>", "text": "White House Says Obama\u2019s Gun Rules Would Not Have Blocked Virginia Shooting http://t.co/BfAmhKIGNF #news #feedly", "truncated": false, "urls": {"http://t.co/BfAmhKIGNF": "http://www.breitbart.com/big-government/2015/08/30/white-house-says-obamas-gun-rules-would-not-have-blocked-virginia-shooting/"}, "user": {"created_at": "Mon Jun 11 07:51:52 +0000 2007", "description": "life = God, family, business (coding & MMA), bass, jits / mma / football :)", "favourites_count": 220, "followers_count": 564, "friends_count": 564, "id": 6733412, "lang": "en", "listed_count": 28, "location": "USA", "name": "shan the man", "profile_background_color": "0099B9", "profile_background_image_url": "http://abs.twimg.com/images/themes/theme4/bg.gif", "profile_background_tile": false, "profile_banner_url": "https://pbs.twimg.com/profile_banners/6733412/1364434153", "profile_image_url": "https://pbs.twimg.com/profile_images/3440409583/16f91a785de5122474950f549df2f05c_normal.jpeg", "profile_link_color": "0099B9", "profile_sidebar_fill_color": "95E8EC", "profile_text_color": "3C3940", "protected": false, "screen_name": "shannonhorn", "statuses_count": 14341, "time_zone": "Arizona", "url": "http://t.co/nRnUrHbs3g", "utc_offset": -25200}}
{"created_at": "Mon Aug 31 10:52:02 +0000 2015", "favorited": false, "hashtags": ["Virginia", "va"], "id": 638303226534588418, "lang": "en", "retweeted": false, "source": "<a href=\"http://dlvr.it\" rel=\"nofollow\">dlvr.it</a>", "text": "#Virginia White House Says Obama's Gun Rules Would Not Have Blocked Virginia Shooting -\u2026 http://t.co/AeAkaUMBVb #va http://t.co/f5W70DzvFg", "truncated": false, "urls": {"http://t.co/AeAkaUMBVb": "http://dlvr.it/C1NWG6", "http://t.co/f5W70DzvFg": "http://FilAm.me"}, "user": {"created_at": "Sat Feb 25 16:06:18 +0000 2012", "description": "Blog with us @PinoyBuilt #FilipinoAmerican #FilipinoAmazing #Filipino #Filipina #FilAmNews #FilAm @FilipinoAmazing #UniteBlue", "favourites_count": 1, "followers_count": 221, "friends_count": 108, "geo_enabled": true, "id": 503201497, "lang": "en", "listed_count": 24, "location": "Virginia, USA", "name": "FilAm VA", "profile_background_color": "131516", "profile_background_image_url": "http://pbs.twimg.com/profile_background_images/704041227/4e467aff40b35f16269ae1c4382c6e24.jpeg", "profile_background_tile": true, "profile_banner_url": "https://pbs.twimg.com/profile_banners/503201497/1352197347", "profile_image_url": "https://pbs.twimg.com/profile_images/2815603140/6db9b5b6dce154c63ed596f47ae50b90_normal.jpeg", "profile_link_color": "009999", "profile_sidebar_fill_color": "EFEFEF", "profile_text_color": "333333", "protected": false, "screen_name": "FilAmVA", "statuses_count": 17454, "time_zone": "Eastern Time (US & Canada)", "url": "http://t.co/Yv3nKf96oH", "utc_offset": -18000}}
{"created_at": "Mon Aug 31 10:52:06 +0000 2015", "favorited": false, "hashtags": ["Virginia"], "id": 638303240119975937, "lang": "en", "retweeted": false, "source": "<a href=\"http://www.facebook.com/twitter\" rel=\"nofollow\">Facebook</a>", "text": "#Virginia White House Says Obama's Gun Rules Would Not Have Blocked Virginia Shooting -\u2026 http://t.co/AeAkaUMBVb... http://t.co/0gsHFwGumi", "truncated": false, "urls": {"http://t.co/0gsHFwGumi": "http://fb.me/7I8x4G4vB", "http://t.co/AeAkaUMBVb": "http://dlvr.it/C1NWG6"}, "user": {"created_at": "Sat Feb 25 16:06:18 +0000 2012", "description": "Blog with us @PinoyBuilt #FilipinoAmerican #FilipinoAmazing #Filipino #Filipina #FilAmNews #FilAm @FilipinoAmazing #UniteBlue", "favourites_count": 1, "followers_count": 221, "friends_count": 108, "geo_enabled": true, "id": 503201497, "lang": "en", "listed_count": 24, "location": "Virginia, USA", "name": "FilAm VA", "profile_background_color": "131516", "profile_background_image_url": "http://pbs.twimg.com/profile_background_images/704041227/4e467aff40b35f16269ae1c4382c6e24.jpeg", "profile_background_tile": true, "profile_banner_url": "https://pbs.twimg.com/profile_banners/503201497/1352197347", "profile_image_url": "https://pbs.twimg.com/profile_images/2815603140/6db9b5b6dce154c63ed596f47ae50b90_normal.jpeg", "profile_link_color": "009999", "profile_sidebar_fill_color": "EFEFEF", "profile_text_color": "333333", "protected": false, "screen_name": "FilAmVA", "statuses_count": 17454, "time_zone": "Eastern Time (US & Canada)", "url": "http://t.co/Yv3nKf96oH", "utc_offset": -18000}}
{"created_at": "Mon Aug 31 10:52:08 +0000 2015", "favorited": false, "hashtags": ["Virginia"], "id": 638303249297113088, "lang": "en", "retweeted": false, "source": "<a href=\"http://www.facebook.com/twitter\" rel=\"nofollow\">Facebook</a>", "text": "#Virginia White House Says Obama's Gun Rules Would Not Have Blocked Virginia Shooting -\u2026 http://t.co/AeAkaUMBVb... http://t.co/9AaWQ7D5fp", "truncated": false, "urls": {"http://t.co/9AaWQ7D5fp": "http://fb.me/1QyJW1Gbk", "http://t.co/AeAkaUMBVb": "http://dlvr.it/C1NWG6"}, "user": {"created_at": "Sat Feb 25 16:06:18 +0000 2012", "description": "Blog with us @PinoyBuilt #FilipinoAmerican #FilipinoAmazing #Filipino #Filipina #FilAmNews #FilAm @FilipinoAmazing #UniteBlue", "favourites_count": 1, "followers_count": 221, "friends_count": 108, "geo_enabled": true, "id": 503201497, "lang": "en", "listed_count": 24, "location": "Virginia, USA", "name": "FilAm VA", "profile_background_color": "131516", "profile_background_image_url": "http://pbs.twimg.com/profile_background_images/704041227/4e467aff40b35f16269ae1c4382c6e24.jpeg", "profile_background_tile": true, "profile_banner_url": "https://pbs.twimg.com/profile_banners/503201497/1352197347", "profile_image_url": "https://pbs.twimg.com/profile_images/2815603140/6db9b5b6dce154c63ed596f47ae50b90_normal.jpeg", "profile_link_color": "009999", "profile_sidebar_fill_color": "EFEFEF", "profile_text_color": "333333", "protected": false, "screen_name": "FilAmVA", "statuses_count": 17454, "time_zone": "Eastern Time (US & Canada)", "url": "http://t.co/Yv3nKf96oH", "utc_offset": -18000}}
{"created_at": "Mon Aug 31 10:55:18 +0000 2015", "favorite_count": 3, "favorited": false, "id": 638304046449848320, "lang": "en", "retweet_count": 9, "retweeted": false, "source": "<a href=\"http://www.apple.com\" rel=\"nofollow\">iOS</a>", "text": "White House Says Obama's Gun Rules Would Not Have Blocked Virginia Shooting - Breitbart http://t.co/UIqmMsFXV8", "truncated": false, "urls": {"http://t.co/UIqmMsFXV8": "http://www.breitbart.com/big-government/2015/08/30/white-house-says-obamas-gun-rules-would-not-have-blocked-virginia-shooting/"}, "user": {"created_at": "Wed Apr 06 23:55:58 +0000 2011", "default_profile": true, "description": "Conservative Christian #2A #prolife #NRA Endowment Mbr #CruzCrew  #Cruz2016 #MOLONLABE Pls follow @aflc_updates", "favourites_count": 4679, "followers_count": 8313, "friends_count": 7541, "geo_enabled": true, "id": 278279975, "lang": "en", "listed_count": 175, "location": "NJ", "name": "Jeanette", "profile_background_color": "C0DEED", "profile_background_image_url": "http://abs.twimg.com/images/themes/theme1/bg.png", "profile_background_tile": false, "profile_banner_url": "https://pbs.twimg.com/profile_banners/278279975/1431990726", "profile_image_url": "https://pbs.twimg.com/profile_images/600438514384293889/Qh_RAg3T_normal.jpg", "profile_link_color": "0084B4", "profile_sidebar_fill_color": "DDEEF6", "profile_text_color": "333333", "protected": false, "screen_name": "jbmesser53", "statuses_count": 134892}}
{"created_at": "Mon Aug 31 13:45:26 +0000 2015", "favorited": false, "hashtags": ["NRANews"], "id": 638346860470534144, "lang": "en", "retweet_count": 2, "retweeted": false, "source": "<a href=\"http://twitter.com\" rel=\"nofollow\">Twitter Web Client</a>", "text": "White House Says Obama's Gun Rules Would Not Have Blocked Virginia Shooting - Breitbart http://t.co/uk3Iq1hSxt via @BreitbartNews #NRANews", "truncated": false, "urls": {"http://t.co/uk3Iq1hSxt": "http://bit.ly/1hqA1P1"}, "user": {"created_at": "Mon Oct 10 22:47:44 +0000 2011", "description": "Truth seeker. Opposed to ideologues and leftists. Accustomed to living as a free man in a free country.", "favourites_count": 293, "followers_count": 4714, "friends_count": 826, "geo_enabled": true, "id": 388543577, "lang": "en", "listed_count": 145, "location": "USA", "name": "AWR Hawkins", "profile_background_color": "21C4A3", "profile_background_image_url": "http://pbs.twimg.com/profile_background_images/602982411341705216/WwHcgNUz.jpg", "profile_background_tile": true, "profile_banner_url": "https://pbs.twimg.com/profile_banners/388543577/1452955016", "profile_image_url": "https://pbs.twimg.com/profile_images/661333178884317184/-B6nrWdM_normal.jpg", "profile_link_color": "2055D9", "profile_sidebar_fill_color": "DDEEF6", "profile_text_color": "333333", "protected": false, "screen_name": "AWRHawkins", "statuses_count": 15570, "time_zone": "Arizona", "url": "http://t.co/xk2EUTqVWf", "utc_offset": -25200}, "user_mentions": [{"id": 457984599, "name": "Breitbart News", "screen_name": "BreitbartNews"}]}
{"created_at": "Mon Aug 31 14:05:20 +0000 2015", "favorited": false, "hashtags": ["WakeUpAmerica"], "id": 638351870646353921, "lang": "en", "retweeted": false, "source": "<a href=\"http://twitter.com\" rel=\"nofollow\">Twitter Web Client</a>", "text": "White House Says Obama\u2019s Gun Rules Would Not Have Blocked Virginia Shooting http://t.co/DqCpmDNmVf #WakeUpAmerica", "truncated": false, "urls": {"http://t.co/DqCpmDNmVf": "http://po.st/Z7QwxL"}, "user": {"created_at": "Sat Jul 21 02:27:01 +0000 2012", "description": "Left Coast Conservative and one Pissed-Off Patriot!  Libtards give our country back!", "favourites_count": 33, "followers_count": 1980, "friends_count": 2129, "id": 708199243, "lang": "en", "listed_count": 33, "location": "Sacramento-Reno/Tahoe", "name": "Craig Manoukian", "profile_background_color": "022330", "profile_background_image_url": "http://abs.twimg.com/images/themes/theme15/bg.png", "profile_background_tile": false, "profile_banner_url": "https://pbs.twimg.com/profile_banners/708199243/1353218356", "profile_image_url": "https://pbs.twimg.com/profile_images/2635351565/92d463830507de2419a17825314e3cd6_normal.jpeg", "profile_link_color": "0084B4", "profile_sidebar_fill_color": "C0DFEC", "profile_text_color": "333333", "protected": false, "screen_name": "CraigManoukian", "statuses_count": 25523, "time_zone": "Pacific Time (US & Canada)", "utc_offset": -28800}}
{"created_at": "Mon Aug 31 14:15:17 +0000 2015", "favorited": false, "id": 638354376168505344, "lang": "en", "retweeted": false, "source": "<a href=\"http://www.apple.com\" rel=\"nofollow\">iOS</a>", "text": "White House Says Obama's Gun Rules Would Not Have Blocked Virginia Shooting - Breitbart http://t.co/zHRL0lS7l9", "truncated": false, "urls": {"http://t.co/zHRL0lS7l9": "http://www.breitbart.com/big-government/2015/08/30/white-house-says-obamas-gun-rules-would-not-have-blocked-virginia-shooting/"}, "user": {"created_at": "Sun Mar 18 22:41:13 +0000 2012", "default_profile": true, "description": "Husband, father of two precious kids, orthopaedic sports medicine physician assistant, lover of conservativism, miami dolphins, single malt scotch", "favourites_count": 278, "followers_count": 52, "friends_count": 42, "geo_enabled": true, "id": 528907856, "lang": "en", "listed_count": 6, "location": "NC", "name": "RP PAC ATC", "profile_background_color": "C0DEED", "profile_background_image_url": "http://abs.twimg.com/images/themes/theme1/bg.png", "profile_background_tile": false, "profile_banner_url": "https://pbs.twimg.com/profile_banners/528907856/1419773161", "profile_image_url": "https://pbs.twimg.com/profile_images/560479361602965504/-Hl4aBZn_normal.jpeg", "profile_link_color": "0084B4", "profile_sidebar_fill_color": "DDEEF6", "profile_text_color": "333333", "protected": false, "screen_name": "RPowersPA", "statuses_count": 4307}}
{"created_at": "Mon Aug 31 14:29:10 +0000 2015", "favorited": false, "id": 638357869134528513, "lang": "en", "retweeted": false, "source": "<a href=\"http://twitter.com\" rel=\"nofollow\">Twitter Web Client</a>", "text": "White House Says Obama&amp;#039;s Gun Rules Would Not Have Blocked Virginia Shooting - Breitbart http://t.co/6HMzXleLQl", "truncated": false, "urls": {"http://t.co/6HMzXleLQl": "http://bit.ly/1hqA1P1"}, "user": {"created_at": "Sun Feb 26 23:31:15 +0000 2012", "description": "Conservative, Rightwing Extremist, NRA Patron Member, Christian. I know who Obama is and what he is going to do to America.", "favourites_count": 4, "followers_count": 299, "friends_count": 515, "geo_enabled": true, "id": 505128368, "lang": "en", "listed_count": 7, "location": "Hiram, Ga,", "name": "The CROSS & NAILS", "profile_background_color": "FFF04D", "profile_background_image_url": "http://abs.twimg.com/images/themes/theme19/bg.gif", "profile_background_tile": false, "profile_banner_url": "https://pbs.twimg.com/profile_banners/505128368/1409139441", "profile_image_url": "https://pbs.twimg.com/profile_images/676532279007715329/35HAEsx6_normal.jpg", "profile_link_color": "0099CC", "profile_sidebar_fill_color": "F6FFD1", "profile_text_color": "333333", "protected": false, "screen_name": "rdgarbo", "statuses_count": 8757}}
{"created_at": "Mon Aug 31 14:41:01 +0000 2015", "favorited": false, "id": 638360848348631040, "lang": "en", "retweeted": false, "source": "<a href=\"http://linkis.com\" rel=\"nofollow\">Linkis.com</a>", "text": "White House Says Obama\u2019s Gun Rules Would Not Have Blocked Virginia Shooting http://t.co/3g8KE3mfUl via @PatriotOutdoor", "truncated": false, "urls": {"http://t.co/3g8KE3mfUl": "http://ln.is/patriotoutdoornews.com/IdB1k"}, "user": {"created_at": "Mon Mar 23 22:48:57 +0000 2009", "favourites_count": 5, "followers_count": 1486, "friends_count": 2477, "geo_enabled": true, "id": 26111686, "lang": "en", "listed_count": 63, "location": "Florida", "name": "Joe Goldner", "profile_background_color": "642D8B", "profile_background_image_url": "http://abs.twimg.com/images/themes/theme10/bg.gif", "profile_background_tile": true, "profile_image_url": "https://pbs.twimg.com/profile_images/2294880926/xvarzmkk702f8zyydgup_normal.png", "profile_link_color": "FF0000", "profile_sidebar_fill_color": "7AC3EE", "profile_text_color": "3D1957", "protected": false, "screen_name": "JoeMGoldner", "statuses_count": 41833, "time_zone": "Eastern Time (US & Canada)", "url": "http://t.co/Lw0TLtoyWC", "utc_offset": -18000}, "user_mentions": [{"id": 540100041, "name": "Patriot Outdoor News", "screen_name": "PatriotOutdoor"}]}
{"created_at": "Mon Aug 31 15:01:54 +0000 2015", "favorited": false, "id": 638366104935526400, "lang": "en", "retweeted": false, "source": "<a href=\"http://mobile.twitter.com\" rel=\"nofollow\">Mobile Web</a>", "text": "White House Says Obama's Gun Rules Would Not Have Blocked Virginia Shooting - Breitbart http://t.co/RXx5nGUxu6 via @BreitbartNews", "truncated": false, "urls": {"http://t.co/RXx5nGUxu6": "http://bit.ly/1hqA1P1"}, "user": {"created_at": "Thu Mar 12 16:10:58 +0000 2009", "default_profile": true, "description": "A conservative who is frustrated by the free pass Obama is getting. The ability to interact and post on Twitter helps. A lot. Got a h/t from Twitchy once. #TGDN", "favourites_count": 5125, "followers_count": 6369, "friends_count": 6955, "id": 23974861, "lang": "en", "listed_count": 119, "location": "South FL/Western NC", "name": "Jennifer Tammaro", "profile_background_color": "C0DEED", "profile_background_image_url": "http://abs.twimg.com/images/themes/theme1/bg.png", "profile_background_tile": false, "profile_banner_url": "https://pbs.twimg.com/profile_banners/23974861/1355500481", "profile_image_url": "https://pbs.twimg.com/profile_images/378800000539620170/0754d385dc8c1288fbe566899932330b_normal.jpeg", "profile_link_color": "0084B4", "profile_sidebar_fill_color": "DDEEF6", "profile_text_color": "333333", "protected": false, "screen_name": "jennanjack", "statuses_count": 45318, "time_zone": "Eastern Time (US & Canada)", "utc_offset": -18000}, "user_mentions": [{"id": 457984599, "name": "Breitbart News", "screen_name": "BreitbartNews"}]}
{"created_at": "Mon Aug 31 15:02:01 +0000 2015", "favorite_count": 2, "favorited": false, "id": 638366136254492672, "lang": "en", "retweet_count": 4, "retweeted": false, "source": "<a href=\"http://www.hootsuite.com\" rel=\"nofollow\">Hootsuite</a>", "text": "White House Says Obama\u2019s Gun Rules Would Not Have Blocked Virginia Shooting http://t.co/xNNK5GmhUf", "truncated": false, "urls": {"http://t.co/xNNK5GmhUf": "http://ow.ly/Rzb5p"}, "user": {"created_at": "Sat Feb 27 22:00:43 +0000 2010", "description": "I'm a Christian, conservative, highly emotional, mildly sarcastic, very logical, slightly crazy person w/a dash of stoicism here and there.", "favourites_count": 2267, "followers_count": 96610, "friends_count": 61656, "id": 118190428, "lang": "en", "listed_count": 842, "location": "Not Of This World", "name": "Kelly Campagna", "profile_background_color": "C0DEED", "profile_background_image_url": "http://pbs.twimg.com/profile_background_images/79095010/039.jpg", "profile_background_tile": true, "profile_banner_url": "https://pbs.twimg.com/profile_banners/118190428/1401380642", "profile_image_url": "https://pbs.twimg.com/profile_images/688526584081285120/oVaMZvyt_normal.png", "profile_link_color": "0084B4", "profile_sidebar_fill_color": "DDEEF6", "profile_text_color": "333333", "protected": false, "screen_name": "warriorwoman91", "statuses_count": 59541, "time_zone": "Pacific Time (US & Canada)", "url": "http://t.co/5OCuzgQv6c", "utc_offset": -28800}}
{"created_at": "Mon Aug 31 15:29:36 +0000 2015", "favorited": false, "id": 638373077546479616, "lang": "en", "retweeted": false, "source": "<a href=\"http://twitter.com/download/iphone\" rel=\"nofollow\">Twitter for iPhone</a>", "text": "White House Says Obama's Gun Rules Would Not Have Blocked Virginia Shooting - Breitbart http://t.co/lF02RWLrwp via @BreitbartNews", "truncated": false, "urls": {"http://t.co/lF02RWLrwp": "http://bit.ly/1hqA1P1"}, "user": {"created_at": "Wed May 06 01:28:01 +0000 2009", "description": "Spent four years with the Marine Corps, later Retired from the US Army in 1990.", "favourites_count": 3681, "followers_count": 1506, "friends_count": 1971, "geo_enabled": true, "id": 38078125, "lang": "en", "listed_count": 42, "location": "Honolulu, Hawaii", "name": "Sabas Peralta, Jr", "profile_background_color": "8B542B", "profile_background_image_url": "http://abs.twimg.com/images/themes/theme8/bg.gif", "profile_background_tile": false, "profile_banner_url": "https://pbs.twimg.com/profile_banners/38078125/1416108226", "profile_image_url": "https://pbs.twimg.com/profile_images/675842078115364864/Iga9j-g5_normal.jpg", "profile_link_color": "9D582E", "profile_sidebar_fill_color": "EADEAA", "profile_text_color": "333333", "protected": false, "screen_name": "jumpmastere8", "statuses_count": 19965, "time_zone": "Hawaii", "utc_offset": -36000}, "user_mentions": [{"id": 457984599, "name": "Breitbart News", "screen_name": "BreitbartNews"}]}
{"created_at": "Mon Aug 31 16:26:58 +0000 2015", "favorited": false, "id": 638387513963511808, "lang": "en", "retweeted": false, "source": "<a href=\"http://linkis.com\" rel=\"nofollow\">Linkis.com</a>", "text": "White House Says Obama's Gun Rules Would Not Have Blocked Virginia Shooting - Breitbart http://t.co/ns4H5qJkyW via @BreitbartNews", "truncated": false, "urls": {"http://t.co/ns4H5qJkyW": "http://ln.is/www.breitbart.com/bi/gCCuO"}, "user": {"created_at": "Sun Jan 08 02:13:58 +0000 2012", "description": "Giant ass #StarWars fan and canon buff. Wanna-be Austrian economist and libertarian. Politically incorrect anti-Islamist. #JeSuisMilo", "favourites_count": 4078, "followers_count": 797, "friends_count": 664, "geo_enabled": true, "id": 457997085, "lang": "en", "listed_count": 78, "location": "Oklahoma, USA", "name": "StarWars Fan", "profile_background_color": "131516", "profile_background_image_url": "http://pbs.twimg.com/profile_background_images/640948258345385985/6dD6Czqa.jpg", "profile_background_tile": true, "profile_banner_url": "https://pbs.twimg.com/profile_banners/457997085/1450467947", "profile_image_url": "https://pbs.twimg.com/profile_images/687795405510148096/9vTl5TZx_normal.jpg", "profile_link_color": "ABB8C2", "profile_sidebar_fill_color": "DDEEF6", "profile_text_color": "333333", "protected": false, "screen_name": "superfanboy108", "statuses_count": 53807, "time_zone": "Central Time (US & Canada)", "url": "https://t.co/853vGPps9W", "utc_offset": -21600}, "user_mentions": [{"id": 457984599, "name": "Breitbart News", "screen_name": "BreitbartNews"}]}
{"created_at": "Mon Aug 31 16:33:20 +0000 2015", "favorite_count": 1, "favorited": false, "id": 638389116187480064, "lang": "en", "retweeted": false, "source": "<a href=\"http://twitter.com\" rel=\"nofollow\">Twitter Web Client</a>", "text": "White House Says Obama&amp;#039;s Gun Rules Would Not Have Blocked Virginia Shooting - Breitbart http://t.co/OVzAwcQi3G", "truncated": false, "urls": {"http://t.co/OVzAwcQi3G": "http://bit.ly/1hqA1P1"}, "user": {"created_at": "Wed Sep 10 00:09:36 +0000 2014", "description": "Bestselling Author, Renegade Capitalist, unapologetic Texas Patriot, Best Gov't is TINY Gov't, Tea Party, Technology CEO, Entrepreneur, Public Speaker.", "favourites_count": 846, "followers_count": 61499, "friends_count": 6816, "geo_enabled": true, "id": 2800771502, "lang": "en", "listed_count": 70, "location": "Montgomery, Texas", "name": "David Thomas Roberts", "profile_background_color": "000000", "profile_background_image_url": "http://abs.twimg.com/images/themes/theme1/bg.png", "profile_background_tile": false, "profile_banner_url": "https://pbs.twimg.com/profile_banners/2800771502/1427321412", "profile_image_url": "https://pbs.twimg.com/profile_images/509495693463937024/GJ2gCt4y_normal.jpeg", "profile_link_color": "3B94D9", "profile_sidebar_fill_color": "000000", "profile_text_color": "000000", "protected": false, "screen_name": "TexasAuthor", "statuses_count": 1447, "url": "http://t.co/POkZXTu0oz"}}
{"created_at": "Mon Aug 31 17:38:51 +0000 2015", "favorited": false, "id": 638405604617273344, "lang": "en", "retweeted": false, "source": "<a href=\"http://twitter.com\" rel=\"nofollow\">Twitter Web Client</a>", "text": "White House Says Obama's Gun Rules Would Not Have Blocked Virginia Shooting - Breitbart http://t.co/NJvd5Cl4Qy via @BreitbartNews", "truncated": false, "urls": {"http://t.co/NJvd5Cl4Qy": "http://bit.ly/1hqA1P1"}, "user": {"created_at": "Fri Nov 28 00:31:06 +0000 2008", "description": "You cannot legitimize evil by criminalizing good. #SNeverAgainIsNow #IStandWithisrael #AllLivesMatter #ConstitutionalConservative #CruzCountry #CruzCrew", "favourites_count": 100047, "followers_count": 5010, "friends_count": 5510, "id": 17694306, "lang": "en", "listed_count": 239, "name": "CruzWest2016", "profile_background_color": "1A1B1F", "profile_background_image_url": "http://abs.twimg.com/images/themes/theme9/bg.gif", "profile_background_tile": false, "profile_banner_url": "https://pbs.twimg.com/profile_banners/17694306/1452474328", "profile_image_url": "https://pbs.twimg.com/profile_images/642693276659638274/EgFTPr4S_normal.jpg", "profile_link_color": "2FC2EF", "profile_sidebar_fill_color": "252429", "profile_text_color": "666666", "protected": false, "screen_name": "MamaBear4Cruz", "statuses_count": 118282, "time_zone": "Pacific Time (US & Canada)", "utc_offset": -28800}, "user_mentions": [{"id": 457984599, "name": "Breitbart News", "screen_name": "BreitbartNews"}]}
{"created_at": "Mon Aug 31 19:40:03 +0000 2015", "favorited": false, "id": 638436105956794368, "lang": "en", "retweeted": false, "source": "<a href=\"http://twitter.com\" rel=\"nofollow\">Twitter Web Client</a>", "text": "White House Says Obama\u2019s Gun Rules Would Not Have Blocked Virginia Shooting http://t.co/6NT4eWJC28", "truncated": false, "urls": {"http://t.co/6NT4eWJC28": "http://dlvr.it/C1DMrf"}, "user": {"created_at": "Thu Mar 15 21:05:37 +0000 2012", "default_profile": true, "description": "Retired with 38 years active, reserve and civilian service to the Army and Air Force.", "favourites_count": 7, "followers_count": 236, "friends_count": 366, "id": 525750162, "lang": "en", "listed_count": 22, "name": "Richard Fawkes", "profile_background_color": "C0DEED", "profile_background_image_url": "http://abs.twimg.com/images/themes/theme1/bg.png", "profile_background_tile": false, "profile_image_url": "https://pbs.twimg.com/profile_images/439527133287690240/lObRUgy__normal.jpeg", "profile_link_color": "0084B4", "profile_sidebar_fill_color": "DDEEF6", "profile_text_color": "333333", "protected": false, "screen_name": "rafawkes", "statuses_count": 298710}}
{"created_at": "Mon Aug 31 20:08:19 +0000 2015", "favorited": false, "id": 638443218351222785, "lang": "en", "retweeted": false, "source": "<a href=\"http://twitter.com\" rel=\"nofollow\">Twitter Web Client</a>", "text": "White House Says Obama&amp;#039;s Gun Rules Would Not Have Blocked Virginia Shooting - Breitbart http://t.co/9H7uddDgXZ", "truncated": false, "urls": {"http://t.co/9H7uddDgXZ": "http://bit.ly/1hqA1P1"}, "user": {"created_at": "Sat Apr 07 14:33:57 +0000 2012", "description": "Strong Libertarian, Born in L.A. College at AZ State,lived in NYC, DC, and now Big D.", "favourites_count": 6, "followers_count": 41, "friends_count": 90, "id": 547733139, "lang": "en", "listed_count": 4, "location": "Dallas, TX", "name": "William Jay Nelson", "profile_background_color": "000000", "profile_background_image_url": "http://abs.twimg.com/images/themes/theme1/bg.png", "profile_background_tile": false, "profile_banner_url": "https://pbs.twimg.com/profile_banners/547733139/1450311965", "profile_image_url": "https://pbs.twimg.com/profile_images/677283521484816388/ebxI66ov_normal.jpg", "profile_link_color": "9266CC", "profile_sidebar_fill_color": "000000", "profile_text_color": "000000", "protected": false, "screen_name": "B1LLD0G", "statuses_count": 2595, "url": "http://t.co/t0SfiOL7WG"}}
{"created_at": "Mon Aug 31 20:26:12 +0000 2015", "favorite_count": 1, "favorited": false, "id": 638447719002955776, "lang": "en", "media": [{"display_url": "pic.twitter.com/txUU83HoBO", "expanded_url": "http://twitter.com/RTHTGakaRoland/status/638447719002955776/photo/1", "id": 638447711868485633, "id_str": "638447711868485633", "indices": [111, 133], "media_url": "http://pbs.twimg.com/media/CNw4z7GVAAEWpfV.jpg", "media_url_https": "https://pbs.twimg.com/media/CNw4z7GVAAEWpfV.jpg", "sizes": {"large": {"h": 803, "resize": "fit", "w": 699}, "medium": {"h": 688, "resize": "fit", "w": 600}, "small": {"h": 390, "resize": "fit", "w": 340}, "thumb": {"h": 150, "resize": "crop", "w": 150}}, "type": "photo", "url": "http://t.co/txUU83HoBO"}, {"display_url": "pic.twitter.com/txUU83HoBO", "expanded_url": "http://twitter.com/RTHTGakaRoland/status/638447719002955776/photo/1", "id": 638447717845348352, "id_str": "638447717845348352", "indices": [111, 133], "media_url": "http://pbs.twimg.com/media/CNw40RXUsAAVlim.jpg", "media_url_https": "https://pbs.twimg.com/media/CNw40RXUsAAVlim.jpg", "sizes": {"large": {"h": 1477, "resize": "fit", "w": 499}, "medium": {"h": 1200, "resize": "fit", "w": 406}, "small": {"h": 680, "resize": "fit", "w": 230}, "thumb": {"h": 150, "resize": "crop", "w": 150}}, "type": "photo", "url": "http://t.co/txUU83HoBO"}], "retweet_count": 2, "retweeted": false, "source": "<a href=\"http://twitter.com\" rel=\"nofollow\">Twitter Web Client</a>", "text": "White House Says Obama's Gun Rules Would Not Have Blocked Virginia Shooting - Breitbart http://t.co/HMKwbc9smx http://t.co/txUU83HoBO", "truncated": false, "urls": {"http://t.co/HMKwbc9smx": "http://bit.ly/1hqA1P1"}, "user": {"created_at": "Wed Mar 25 08:57:52 +0000 2009", "description": "Airplanes, Animals, Old Cars and Bikes, Rifles, Whisky, and Liberty by God", "favourites_count": 2625, "followers_count": 7849, "friends_count": 8582, "id": 26459660, "lang": "en", "listed_count": 215, "location": "#tcot #tlot #tgdn #nra #jpfo", "name": "Roland Thompson", "profile_background_color": "1A1B1F", "profile_background_image_url": "http://pbs.twimg.com/profile_background_images/401201140/Landy_and_float_plane.jpg", "profile_background_tile": true, "profile_banner_url": "https://pbs.twimg.com/profile_banners/26459660/1402878876", "profile_image_url": "https://pbs.twimg.com/profile_images/3218416470/ceec2dafdb3064c9896cf5f28e6e50d8_normal.png", "profile_link_color": "2FC2EF", "profile_sidebar_fill_color": "252429", "profile_text_color": "666666", "protected": false, "screen_name": "RTHTGakaRoland", "statuses_count": 108333, "time_zone": "Pacific Time (US & Canada)", "url": "http://t.co/IOILDcbC0c", "utc_offset": -28800}}
{"created_at": "Mon Aug 31 22:01:06 +0000 2015", "favorited": false, "id": 638471598996094976, "lang": "en", "retweeted": false, "source": "<a href=\"http://twitter.com\" rel=\"nofollow\">Twitter Web Client</a>", "text": "White House Says Obama's Gun Rules Would Not Have Blocked Virginia Shooting\n\nhttp://t.co/R5YoqfEpYl", "truncated": false, "urls": {"http://t.co/R5YoqfEpYl": "http://www.breitbart.com/big-government/2015/08/30/white-house-says-obamas-gun-rules-would-not-have-blocked-virginia-shooting/"}, "user": {"created_at": "Wed Mar 05 02:01:12 +0000 2014", "default_profile": true, "description": "2A  Advocate..Firearms Enthusiast.Supporter of Military & Law Enforcement... If i don't follow back,nothing personal..I DON'T BUY FOLLOWS..TROLLS = BLOCK", "favourites_count": 6085, "followers_count": 1165, "friends_count": 1109, "geo_enabled": true, "id": 2373008095, "lang": "en", "listed_count": 43, "location": "South Carolina", "name": "G John Smith", "profile_background_color": "C0DEED", "profile_background_image_url": "http://abs.twimg.com/images/themes/theme1/bg.png", "profile_background_tile": false, "profile_banner_url": "https://pbs.twimg.com/profile_banners/2373008095/1451870936", "profile_image_url": "https://pbs.twimg.com/profile_images/684392102940155904/opBeP1qM_normal.jpg", "profile_link_color": "0084B4", "profile_sidebar_fill_color": "DDEEF6", "profile_text_color": "333333", "protected": false, "screen_name": "GJohn60", "statuses_count": 13148, "time_zone": "Eastern Time (US & Canada)", "utc_offset": -18000}}
{"created_at": "Mon Aug 31 22:11:09 +0000 2015", "favorited": false, "hashtags": ["tcot"], "id": 638474128975114240, "lang": "en", "retweeted": false, "source": "<a href=\"http://twitter.com\" rel=\"nofollow\">Twitter Web Client</a>", "text": "WhHouse Says Obama's Gun Rules Would Not Have Blocked Virginia Shooting http://t.co/2aJXURnbIP #tcot", "truncated": false, "urls": {"http://t.co/2aJXURnbIP": "http://bit.ly/1hqA1P1"}, "user": {"created_at": "Sun Mar 01 03:51:31 +0000 2009", "description": "I am a blog that plays the piano. How can my Salsa be the best ever, time after time, much like athletes consistently breaking world records! Freedom!", "favourites_count": 397, "followers_count": 5301, "friends_count": 5807, "id": 22329038, "lang": "en", "listed_count": 232, "location": "MI - CA", "name": "super czar", "profile_background_color": "141D43", "profile_background_image_url": "http://pbs.twimg.com/profile_background_images/33345973/twitter95b.jpg", "profile_background_tile": false, "profile_banner_url": "https://pbs.twimg.com/profile_banners/22329038/1420864312", "profile_image_url": "https://pbs.twimg.com/profile_images/2571516168/0r99ueqorlxf87s9eqr4_normal.jpeg", "profile_link_color": "FFAA00", "profile_sidebar_fill_color": "0D0B3C", "profile_text_color": "186DCD", "protected": false, "screen_name": "Kristokoff", "statuses_count": 82793, "time_zone": "Pacific Time (US & Canada)", "url": "http://t.co/pimZ9mRNoR", "utc_offset": -28800}}
{"created_at": "Mon Aug 31 22:29:40 +0000 2015", "favorite_count": 3, "favorited": false, "id": 638478788142108672, "lang": "en", "retweet_count": 3, "retweeted": false, "source": "<a href=\"http://www.apple.com\" rel=\"nofollow\">iOS</a>", "text": "White House Says Obama's Gun Rules Would Not Have Blocked Virginia Shooting - Breitbart http://t.co/GMhlMnjS9w", "truncated": false, "urls": {"http://t.co/GMhlMnjS9w": "http://www.breitbart.com/big-government/2015/08/30/white-house-says-obamas-gun-rules-would-not-have-blocked-virginia-shooting/"}, "user": {"created_at": "Wed Jul 04 14:30:16 +0000 2012", "default_profile": true, "description": "Motorcycle builder, race car/Motorcycle frame designer, grow my own food, have bee hives, Farm Boy, guns, airbrush art, God Fearing man", "favourites_count": 466, "followers_count": 18751, "friends_count": 20398, "geo_enabled": true, "id": 626503046, "lang": "en", "listed_count": 297, "location": "Springfield Tn", "name": "David Jones", "profile_background_color": "C0DEED", "profile_background_image_url": "http://abs.twimg.com/images/themes/theme1/bg.png", "profile_background_tile": false, "profile_banner_url": "https://pbs.twimg.com/profile_banners/626503046/1353943150", "profile_image_url": "https://pbs.twimg.com/profile_images/378800000638510172/fd3b49a8edc324aa03a4a7957cbccb73_normal.jpeg", "profile_link_color": "0084B4", "profile_sidebar_fill_color": "DDEEF6", "profile_text_color": "333333", "protected": false, "screen_name": "davidjones720", "statuses_count": 548005, "time_zone": "Central Time (US & Canada)", "url": "http://t.co/K26O5EVOUd", "utc_offset": -21600}}
{"created_at": "Mon Aug 31 23:14:00 +0000 2015", "favorited": false, "id": 638489947519848448, "lang": "en", "retweeted": false, "source": "<a href=\"http://twitter.com\" rel=\"nofollow\">Twitter Web Client</a>", "text": "White House Says Obama's Gun Rules Would Not Have Blocked Virginia Shooting - Breitbart http://t.co/A7JIr2lJRh", "truncated": false, "urls": {"http://t.co/A7JIr2lJRh": "http://bit.ly/1hqA1P1"}, "user": {"created_at": "Mon May 07 19:55:56 +0000 2012", "default_profile": true, "description": "A Reagan Conservative, Independent of party affiliation, Tea Party Supporter, veteran, a professor of common sense.", "favourites_count": 54, "followers_count": 183, "friends_count": 254, "id": 574002156, "lang": "en", "listed_count": 28, "name": "Kenneth I Messmer", "profile_background_color": "C0DEED", "profile_background_image_url": "http://abs.twimg.com/images/themes/theme1/bg.png", "profile_background_tile": false, "profile_image_url": "https://pbs.twimg.com/profile_images/2199826496/Knot_normal.jpg", "profile_link_color": "0084B4", "profile_sidebar_fill_color": "DDEEF6", "profile_text_color": "333333", "protected": false, "screen_name": "knotintime", "statuses_count": 29288, "time_zone": "Pacific Time (US & Canada)", "utc_offset": -28800}}
{"created_at": "Tue Sep 01 00:07:07 +0000 2015", "favorited": false, "id": 638503312959127553, "lang": "en", "retweet_count": 2, "retweeted": false, "source": "<a href=\"http://twitter.com\" rel=\"nofollow\">Twitter Web Client</a>", "text": "White House Says Obama&amp;#039;s Gun Rules Would Not Have Blocked Virginia Shooting - Breitbart http://t.co/c5A9FHy8Ep", "truncated": false, "urls": {"http://t.co/c5A9FHy8Ep": "http://bit.ly/1hqA1P1"}, "user": {"created_at": "Wed Jun 26 20:55:29 +0000 2013", "default_profile": true, "description": "Born in the city, live in the country,  I served my country in The Marine Corps. I love my country, I took an oath to protect and defend the Constitution.", "favourites_count": 1119, "followers_count": 239, "friends_count": 316, "id": 1549084826, "lang": "en", "listed_count": 10, "location": "Aurora, IN", "name": "Vox Populi", "profile_background_color": "C0DEED", "profile_background_image_url": "http://abs.twimg.com/images/themes/theme1/bg.png", "profile_background_tile": false, "profile_image_url": "https://pbs.twimg.com/profile_images/378800000493097111/32d5c983b0adc5985c5ba7d246c3d47c_normal.jpeg", "profile_link_color": "0084B4", "profile_sidebar_fill_color": "DDEEF6", "profile_text_color": "333333", "protected": false, "screen_name": "dfink4432", "statuses_count": 7905}}
{"created_at": "Tue Sep 01 05:33:01 +0000 2015", "favorited": false, "id": 638585328757047296, "lang": "en", "retweeted": false, "source": "<a href=\"http://mobile.twitter.com\" rel=\"nofollow\">Mobile Web</a>", "text": "White House Says Obama&amp;#039;s Gun Rules Would Not Have Blocked Virginia Shooting - Breitbart http://t.co/zpISnB7oIb", "truncated": false, "urls": {"http://t.co/zpISnB7oIb": "http://bit.ly/1hqA1P1"}, "user": {"created_at": "Wed Feb 04 06:46:17 +0000 2009", "default_profile": true, "description": "Constitutional Conservative, Catholic, American - Veritas Liberabit Vos", "favourites_count": 207, "followers_count": 390, "friends_count": 856, "id": 20031586, "lang": "en", "listed_count": 6, "location": "New York, NY", "name": "Fate2Black", "profile_background_color": "C0DEED", "profile_background_image_url": "http://abs.twimg.com/images/themes/theme1/bg.png", "profile_background_tile": false, "profile_image_url": "https://pbs.twimg.com/profile_images/816268730/US_Constitution_normal.jpg", "profile_link_color": "0084B4", "profile_sidebar_fill_color": "DDEEF6", "profile_text_color": "333333", "protected": false, "screen_name": "kundun9", "statuses_count": 2718}}
{"created_at": "Tue Sep 01 14:48:03 +0000 2015", "favorited": false, "id": 638725009280622593, "lang": "en", "retweet_count": 1, "retweeted": false, "source": "<a href=\"http://www.apple.com\" rel=\"nofollow\">iOS</a>", "text": "White House Says Obama\u2019s Gun Rules Would Not Have Blocked Virginia Shooting http://t.co/3zlwC1Ayc8", "truncated": false, "urls": {"http://t.co/3zlwC1Ayc8": "http://www.breitbart.com/big-government/2015/08/30/white-house-says-obamas-gun-rules-would-not-have-blocked-virginia-shooting/"}, "user": {"created_at": "Sun Nov 22 04:17:08 +0000 2009", "description": "Trying to point out common sense reform, liberal hypocrisy, real racists (liberals) & SHUT DOWN THIS COMMUNIST POTUS. Bring America Back. She's Getting CRUSHED!", "favourites_count": 192, "followers_count": 841, "friends_count": 1597, "geo_enabled": true, "id": 91720971, "lang": "en", "listed_count": 19, "location": "Bay Area, CA", "name": "Francisco O'Donnell", "profile_background_color": "FFFFFF", "profile_background_image_url": "http://pbs.twimg.com/profile_background_images/561197012998033408/1y6D5oOT.jpeg", "profile_background_tile": false, "profile_banner_url": "https://pbs.twimg.com/profile_banners/91720971/1450115389", "profile_image_url": "https://pbs.twimg.com/profile_images/610603395779440640/XbudYjl__normal.jpg", "profile_link_color": "4A913C", "profile_sidebar_fill_color": "E3E2DE", "profile_text_color": "088253", "protected": false, "screen_name": "SF82l", "statuses_count": 8760, "time_zone": "Pacific Time (US & Canada)", "utc_offset": -28800}}
{"created_at": "Thu Sep 03 16:53:16 +0000 2015", "favorited": false, "id": 639481295723102208, "lang": "en", "retweeted": false, "source": "<a href=\"http://www.facebook.com/twitter\" rel=\"nofollow\">Facebook</a>", "text": "White House Says Obama's Gun Rules Would Not Have Blocked Virginia Shooting - Breitbart http://t.co/Z4T7x4UVcv", "truncated": false, "urls": {"http://t.co/Z4T7x4UVcv": "http://fb.me/6GBBZVnEx"}, "user": {"created_at": "Sat Jul 31 20:25:59 +0000 2010", "default_profile": true, "favourites_count": 27, "followers_count": 49, "friends_count": 116, "id": 173233875, "lang": "en", "listed_count": 10, "name": "Jeff Ely", "profile_background_color": "C0DEED", "profile_background_image_url": "http://abs.twimg.com/images/themes/theme1/bg.png", "profile_background_tile": false, "profile_image_url": "https://pbs.twimg.com/profile_images/2288995990/3w8qtio7vseueccxk31t_normal.jpeg", "profile_link_color": "0084B4", "profile_sidebar_fill_color": "DDEEF6", "profile_text_color": "333333", "protected": false, "screen_name": "doobiedoright", "statuses_count": 17192, "time_zone": "Central Time (US & Canada)", "utc_offset": -21600}}
