{"created_at": "Mon Jun 22 01:15:52 +0000 2015", "favorited": false, "id": 612791077259603968, "in_reply_to_screen_name": "kaaayyg_", "in_reply_to_status_id": 612790936993665024, "in_reply_to_user_id": 2464917627, "lang": "en", "retweet_count": 1, "retweeted": false, "source": "<a href=\"http://twitter.com/download/iphone\" rel=\"nofollow\">Twitter for iPhone</a>", "text": "@kaaayyg_ it has to look better \ud83d\ude24 I'll be tight if that shit doesn't. Closing down Wawa for no reason", "truncated": false, "user": {"created_at": "Mon Oct 01 21:57:36 +0000 2012", "default_profile": true, "description": "610 // pimped out butterfly.", "favourites_count": 5199, "followers_count": 813, "friends_count": 614, "geo_enabled": true, "id": 857087713, "lang": "en", "listed_count": 3, "name": "jadelyn", "profile_background_color": "C0DEED", "profile_background_image_url": "http://abs.twimg.com/images/themes/theme1/bg.png", "profile_background_tile": false, "profile_banner_url": "https://pbs.twimg.com/profile_banners/857087713/1439571396", "profile_image_url": "https://pbs.twimg.com/profile_images/656685500628148224/W09eR12A_normal.jpg", "profile_link_color": "0084B4", "profile_sidebar_fill_color": "DDEEF6", "profile_text_color": "333333", "protected": false, "screen_name": "_jvdelyn", "statuses_count": 22291, "time_zone": "Eastern Time (US & Canada)", "utc_offset": -18000}, "user_mentions": [{"id": 2464917627, "name": "KayG", "screen_name": "kaaayyg_"}]}
{"created_at": "Fri Jun 26 16:52:37 +0000 2015", "favorite_count": 4, "favorited": false, "id": 614476367980310529, "lang": "en", "retweeted": false, "source": "<a href=\"http://twitter.com/download/iphone\" rel=\"nofollow\">Twitter for iPhone</a>", "text": "Wawa closing for a month during hoagie fest is the most devastating thing that happened to me to date", "truncated": false, "user": {"created_at": "Thu Aug 30 04:40:53 +0000 2012", "description": "don't have high expectations I'm pretty mediocre lasalle '18", "favourites_count": 8955, "followers_count": 491, "friends_count": 468, "id": 790834681, "lang": "en", "listed_count": 3, "name": "Gteve Sibson", "profile_background_color": "022330", "profile_background_image_url": "http://abs.twimg.com/images/themes/theme15/bg.png", "profile_background_tile": false, "profile_banner_url": "https://pbs.twimg.com/profile_banners/790834681/1452515159", "profile_image_url": "https://pbs.twimg.com/profile_images/686524211364544512/pLPRA2pB_normal.jpg", "profile_link_color": "0084B4", "profile_sidebar_fill_color": "C0DFEC", "profile_text_color": "333333", "protected": false, "screen_name": "stevie_gibs", "statuses_count": 15915, "time_zone": "Eastern Time (US & Canada)", "utc_offset": -18000}}
{"created_at": "Wed Jul 01 02:54:18 +0000 2015", "favorite_count": 1, "favorited": false, "hashtags": ["IntoTheSun"], "id": 616077337768103936, "lang": "en", "retweeted": false, "source": "<a href=\"http://twitter.com/download/iphone\" rel=\"nofollow\">Twitter for iPhone</a>", "text": "Wawa is closing and I'm still working,\nYou know what that means!\nBlaring that #IntoTheSun all night\n\nHappy New Nectar day! \ud83c\udf89\ud83c\udf8a\ud83c\udf81", "truncated": false, "user": {"created_at": "Wed Jan 06 22:12:40 +0000 2010", "description": "~{ @humming_bass is the beat to my heart }~ A weirdo but I'm real doe \u270c\ufe0f #SharkSquad", "favourites_count": 12681, "followers_count": 659, "friends_count": 644, "id": 102495166, "lang": "en", "listed_count": 4, "location": "City of Brotherly Wubs", "name": "BurkeLights", "profile_background_color": "182329", "profile_background_image_url": "http://pbs.twimg.com/profile_background_images/796953232/b0b4cde1578cd460b2e63e7fb593a3d4.jpeg", "profile_background_tile": true, "profile_banner_url": "https://pbs.twimg.com/profile_banners/102495166/1450325277", "profile_image_url": "https://pbs.twimg.com/profile_images/605912783197044736/zkuLr0UN_normal.jpg", "profile_link_color": "080808", "profile_sidebar_fill_color": "DDEEF6", "profile_text_color": "333333", "protected": false, "screen_name": "ZomBurke", "statuses_count": 17954, "time_zone": "Eastern Time (US & Canada)", "utc_offset": -18000}}
{"created_at": "Thu Jul 02 17:57:32 +0000 2015", "favorited": false, "id": 616667032965283840, "lang": "en", "retweeted": false, "source": "<a href=\"http://twitter.com/download/iphone\" rel=\"nofollow\">Twitter for iPhone</a>", "text": "I'm tired of closing Wawa dawg \ud83d\ude29", "truncated": false, "user": {"created_at": "Sun Feb 12 16:07:58 +0000 2012", "description": "Peace. Love. & Positivity #MTPAlumni", "favourites_count": 6819, "followers_count": 1651, "friends_count": 819, "id": 490483353, "lang": "en", "listed_count": 8, "location": "TrapHouse767", "name": "SGuy\u27b0", "profile_background_color": "131516", "profile_background_image_url": "http://pbs.twimg.com/profile_background_images/786302309/d9351f2d9cb01fd043fc4edc40317feb.jpeg", "profile_background_tile": true, "profile_banner_url": "https://pbs.twimg.com/profile_banners/490483353/1449842460", "profile_image_url": "https://pbs.twimg.com/profile_images/675314761316311040/ShYMooEU_normal.jpg", "profile_link_color": "F5ABB5", "profile_sidebar_fill_color": "EFEFEF", "profile_text_color": "333333", "protected": false, "screen_name": "Nayomie_", "statuses_count": 66407, "time_zone": "Hawaii", "utc_offset": -36000}}
{"created_at": "Sat Jul 04 06:48:19 +0000 2015", "favorited": false, "id": 617223396481466369, "lang": "en", "retweeted": false, "source": "<a href=\"http://twitter.com/download/iphone\" rel=\"nofollow\">Twitter for iPhone</a>", "text": "closing time playing at wawa", "truncated": false, "user": {"created_at": "Sun Apr 19 00:58:24 +0000 2009", "default_profile": true, "description": "musician", "favourites_count": 4969, "followers_count": 197, "friends_count": 495, "geo_enabled": true, "id": 33074304, "lang": "en", "listed_count": 3, "location": "nj", "name": "Brooke", "profile_background_color": "C0DEED", "profile_background_image_url": "http://abs.twimg.com/images/themes/theme1/bg.png", "profile_background_tile": false, "profile_banner_url": "https://pbs.twimg.com/profile_banners/33074304/1450895279", "profile_image_url": "https://pbs.twimg.com/profile_images/675064256094670849/P5-P30_f_normal.jpg", "profile_link_color": "0084B4", "profile_sidebar_fill_color": "DDEEF6", "profile_text_color": "333333", "protected": false, "screen_name": "brookegirard", "statuses_count": 7607, "time_zone": "Quito", "url": "https://t.co/yDkXequC5j", "utc_offset": -18000}}
{"created_at": "Mon Jul 06 05:32:02 +0000 2015", "favorite_count": 1, "favorited": false, "id": 617928971808821248, "lang": "en", "retweet_count": 1, "retweeted": false, "source": "<a href=\"http://twitter.com/download/iphone\" rel=\"nofollow\">Twitter for iPhone</a>", "text": "Highlight of my night; laughing for like 5 mins straight for a midnight trip to wawa about me closing Olivia's arm in the window \ud83d\ude02\ud83d\ude02", "truncated": false, "user": {"created_at": "Mon Feb 06 12:26:28 +0000 2012", "description": "living life to the fullest", "favourites_count": 2545, "followers_count": 243, "friends_count": 736, "id": 484724477, "lang": "en", "listed_count": 1, "name": "Morgan Nicole", "profile_background_color": "C0DEED", "profile_background_image_url": "http://pbs.twimg.com/profile_background_images/482648249761681408/s7AcBs2y.jpeg", "profile_background_tile": true, "profile_banner_url": "https://pbs.twimg.com/profile_banners/484724477/1442193744", "profile_image_url": "https://pbs.twimg.com/profile_images/653350310728089600/Mdi9Yl0J_normal.jpg", "profile_link_color": "0084B4", "profile_sidebar_fill_color": "DDEEF6", "profile_text_color": "333333", "protected": false, "screen_name": "morgantransue", "statuses_count": 8592}}
{"created_at": "Tue Jul 07 02:11:47 +0000 2015", "favorited": false, "id": 618240967892692993, "lang": "en", "retweeted": false, "source": "<a href=\"http://twitter.com/download/iphone\" rel=\"nofollow\">Twitter for iPhone</a>", "text": "JUST FOUND OUT MY LOCAL WAWA IS CLOSING FOR RENOVATION WHAT DO I DO NOW", "truncated": false, "user": {"created_at": "Fri Aug 28 13:16:52 +0000 2009", "description": "ballin' on a budget. liam/////5", "favourites_count": 2608, "followers_count": 2582, "friends_count": 687, "id": 69584745, "lang": "en", "listed_count": 22, "location": "p h i l a d e l p h i a ", "name": "cool beans", "profile_background_color": "FAFAFA", "profile_background_image_url": "http://pbs.twimg.com/profile_background_images/797014214/6c90317ebec65370425b569f91217eef.jpeg", "profile_background_tile": false, "profile_banner_url": "https://pbs.twimg.com/profile_banners/69584745/1411600598", "profile_image_url": "https://pbs.twimg.com/profile_images/626997227127443456/_MhxvIW2_normal.jpg", "profile_link_color": "C95FCF", "profile_sidebar_fill_color": "95E8EC", "profile_text_color": "3C3940", "protected": false, "screen_name": "phillynarry", "statuses_count": 55136, "time_zone": "Eastern Time (US & Canada)", "url": "https://t.co/4mOSnPJLtl", "utc_offset": -18000}}
{"created_at": "Wed Jul 08 13:29:08 +0000 2015", "favorited": false, "id": 618773814198018048, "lang": "en", "retweeted": false, "source": "<a href=\"http://twitter.com/download/iphone\" rel=\"nofollow\">Twitter for iPhone</a>", "text": "Damn wawa in fox chase is closing to get remodeled fucking ruined my summer", "truncated": false, "user": {"created_at": "Mon Dec 17 00:10:48 +0000 2012", "default_profile": true, "description": "Roman Soccer#13 #26&Central SIC", "favourites_count": 2696, "followers_count": 456, "friends_count": 494, "geo_enabled": true, "id": 1016335548, "lang": "en", "listed_count": 2, "location": "Philadelphia, PA", "name": "kev", "profile_background_color": "C0DEED", "profile_background_image_url": "http://abs.twimg.com/images/themes/theme1/bg.png", "profile_background_tile": false, "profile_banner_url": "https://pbs.twimg.com/profile_banners/1016335548/1449547109", "profile_image_url": "https://pbs.twimg.com/profile_images/674075222253916160/DiJV66LF_normal.jpg", "profile_link_color": "0084B4", "profile_sidebar_fill_color": "DDEEF6", "profile_text_color": "333333", "protected": false, "screen_name": "kev_wallz", "statuses_count": 6544}}
{"created_at": "Thu Jul 09 02:51:58 +0000 2015", "favorite_count": 3, "favorited": false, "id": 618975856208314368, "lang": "en", "retweet_count": 3, "retweeted": false, "source": "<a href=\"http://twitter.com/download/iphone\" rel=\"nofollow\">Twitter for iPhone</a>", "text": "Wawa closing for renovations for the past month is probably the worst thing that's happened to me in a long time", "truncated": false, "user": {"created_at": "Sun Jul 07 04:13:02 +0000 2013", "default_profile": true, "description": "FJ '13 / AU '17", "favourites_count": 4560, "followers_count": 236, "friends_count": 328, "geo_enabled": true, "id": 1574292631, "lang": "en", "listed_count": 1, "location": "Lower Mayfair", "name": "Sean", "profile_background_color": "C0DEED", "profile_background_image_url": "http://abs.twimg.com/images/themes/theme1/bg.png", "profile_background_tile": false, "profile_image_url": "https://pbs.twimg.com/profile_images/572561757023154176/pULaf-bO_normal.jpeg", "profile_link_color": "0084B4", "profile_sidebar_fill_color": "DDEEF6", "profile_text_color": "333333", "protected": false, "screen_name": "sean_wrightt", "statuses_count": 2873, "time_zone": "Eastern Time (US & Canada)", "utc_offset": -18000}}
{"created_at": "Thu Jul 09 06:01:19 +0000 2015", "favorite_count": 1, "favorited": false, "id": 619023505376587777, "lang": "en", "retweeted": false, "source": "<a href=\"http://twitter.com/download/iphone\" rel=\"nofollow\">Twitter for iPhone</a>", "text": "Bruh yall remember when Wawa got robbed theeee weekends in a row so they started closing from like 1:30-3:30 am \ud83d\udc80\ud83d\udc80\ud83d\udc80\ud83d\udc80", "truncated": false, "user": {"created_at": "Thu Jul 30 19:13:41 +0000 2009", "description": "#VSU18 | 20 | Logistics Major | 6'1 | 2LT In Training | Photographer | Applying pressure from the tip to your hip.", "favourites_count": 16455, "followers_count": 2838, "friends_count": 2538, "geo_enabled": true, "id": 61571368, "lang": "en", "listed_count": 12, "location": "Nashville Born. GA/VA raised. ", "name": "Daddy Q.", "profile_background_color": "FFFFFF", "profile_background_image_url": "http://pbs.twimg.com/profile_background_images/378800000061487400/a5d67610e743e7e28490ecd95819ca90.jpeg", "profile_background_tile": true, "profile_banner_url": "https://pbs.twimg.com/profile_banners/61571368/1448455348", "profile_image_url": "https://pbs.twimg.com/profile_images/671930048002265088/pHdZl2ql_normal.jpg", "profile_link_color": "FA743E", "profile_sidebar_fill_color": "CDBAB5", "profile_text_color": "DAB7A3", "protected": false, "screen_name": "Dxmn_Rhamad", "statuses_count": 143746, "time_zone": "Pacific Time (US & Canada)", "utc_offset": -28800}}
{"created_at": "Fri Jul 10 00:28:51 +0000 2015", "favorite_count": 1, "favorited": false, "id": 619302225840611329, "lang": "en", "retweet_count": 2, "retweeted": false, "source": "<a href=\"http://twitter.com/download/iphone\" rel=\"nofollow\">Twitter for iPhone</a>", "text": "heartbreaking that the Wawa next to Rowan is closing\ud83d\ude14\ud83d\udc94", "truncated": false, "user": {"created_at": "Sat Aug 22 14:57:05 +0000 2009", "description": "Rowan \u03a3\u0394\u03a4", "favourites_count": 16560, "followers_count": 711, "friends_count": 1328, "id": 67904846, "lang": "en", "listed_count": 10, "name": "Sami Ray", "profile_background_color": "9AE4E8", "profile_background_image_url": "http://pbs.twimg.com/profile_background_images/331663177/IMG_9082.jpg", "profile_background_tile": true, "profile_banner_url": "https://pbs.twimg.com/profile_banners/67904846/1448040024", "profile_image_url": "https://pbs.twimg.com/profile_images/668616702335152128/RUjTTQ-g_normal.jpg", "profile_link_color": "0084B4", "profile_sidebar_fill_color": "DDFFCC", "profile_text_color": "333333", "protected": false, "screen_name": "sami_goldin", "statuses_count": 9663, "time_zone": "Alaska", "utc_offset": -32400}}
{"created_at": "Fri Jul 10 04:58:57 +0000 2015", "favorite_count": 6, "favorited": false, "id": 619370197493895168, "lang": "en", "place": {"attributes": {}, "bounding_box": {"coordinates": [[[-74.749703, 40.1482235], [-74.6606509, 40.1482235], [-74.6606509, 40.2200089], [-74.749703, 40.2200089]]], "type": "Polygon"}, "contained_within": [], "country": "United States", "country_code": "US", "full_name": "White Horse, NJ", "id": "001f79723d2f975e", "name": "White Horse", "place_type": "city", "url": "https://api.twitter.com/1.1/geo/id/001f79723d2f975e.json"}, "retweeted": false, "source": "<a href=\"http://twitter.com/download/iphone\" rel=\"nofollow\">Twitter for iPhone</a>", "text": "the wawa next to Rowan is closing?? where will I walk to when I'm smashed???", "truncated": false, "user": {"created_at": "Fri Jan 06 14:58:05 +0000 2012", "description": "choose kindness & laugh often | Rowan University.", "favourites_count": 23438, "followers_count": 780, "friends_count": 497, "geo_enabled": true, "id": 456689325, "lang": "en", "listed_count": 3, "location": "Glassboro, NJ", "name": "Trillz", "profile_background_color": "C0DEED", "profile_background_image_url": "http://pbs.twimg.com/profile_background_images/587797221/16ouqxnett1sbuqwi8w6.jpeg", "profile_background_tile": true, "profile_banner_url": "https://pbs.twimg.com/profile_banners/456689325/1440393771", "profile_image_url": "https://pbs.twimg.com/profile_images/687203661299216384/mPhB8Cjk_normal.jpg", "profile_link_color": "0084B4", "profile_sidebar_fill_color": "DDEEF6", "profile_text_color": "333333", "protected": false, "screen_name": "trilllllary", "statuses_count": 30093, "time_zone": "Atlantic Time (Canada)", "utc_offset": -14400}}
{"created_at": "Fri Jul 10 16:25:00 +0000 2015", "favorite_count": 2, "favorited": false, "id": 619542850892476416, "lang": "en", "retweeted": false, "source": "<a href=\"http://twitter.com/download/iphone\" rel=\"nofollow\">Twitter for iPhone</a>", "text": "Idc that the wawa near robo is closing. Shits whack that they were always closed at 2 am when my drunk ass wanted a hoagie", "truncated": false, "user": {"created_at": "Tue Sep 07 00:56:24 +0000 2010", "description": "send nudes", "favourites_count": 7612, "followers_count": 378, "friends_count": 403, "id": 187735253, "lang": "en", "listed_count": 2, "name": "Caroline", "profile_background_color": "9C5ACC", "profile_background_image_url": "http://pbs.twimg.com/profile_background_images/378800000056081215/b0fe829726a61b10840436b474e32de1.jpeg", "profile_background_tile": true, "profile_banner_url": "https://pbs.twimg.com/profile_banners/187735253/1440388577", "profile_image_url": "https://pbs.twimg.com/profile_images/681904818290556928/nz290ZzJ_normal.jpg", "profile_link_color": "F2B8F2", "profile_sidebar_fill_color": "FA69F5", "profile_text_color": "ED1DA4", "protected": false, "screen_name": "Caroline306", "statuses_count": 12691, "time_zone": "Quito", "utc_offset": -18000}}
{"created_at": "Sun Jul 12 22:11:19 +0000 2015", "favorited": false, "hashtags": ["wawa"], "id": 620354779273932801, "lang": "en", "retweeted": false, "source": "<a href=\"http://www.tweetcaster.com\" rel=\"nofollow\">TweetCaster for Android</a>", "text": "Semisonic - Closing Time #wawa @wawabangers @wawa in White Haven,  PA", "truncated": false, "user": {"created_at": "Wed Sep 17 17:52:04 +0000 2008", "description": "i like to draw things and dislike almost everything else. I rant here: http://t.co/8bEoFiXmqv and I draw here: http://t.co/1j0rVtV6MK", "favourites_count": 6083, "followers_count": 409, "friends_count": 334, "id": 16333273, "lang": "en", "listed_count": 25, "location": "near Philadelphia, PA, USA", "name": "joshpincus", "profile_background_color": "FF7D40", "profile_background_image_url": "http://pbs.twimg.com/profile_background_images/598186904249442305/dyfeisSI.jpg", "profile_background_tile": true, "profile_banner_url": "https://pbs.twimg.com/profile_banners/16333273/1435446371", "profile_image_url": "https://pbs.twimg.com/profile_images/614933070341210112/W5_7pX6e_normal.jpg", "profile_link_color": "FA743E", "profile_sidebar_fill_color": "FFC892", "profile_text_color": "000000", "protected": false, "screen_name": "joshpincus", "statuses_count": 37102, "time_zone": "Eastern Time (US & Canada)", "url": "http://t.co/IrGlLNSLS7", "utc_offset": -18000}, "user_mentions": [{"id": 2573988639, "name": "Wawa Bangers", "screen_name": "WawaBangers"}, {"id": 356866129, "name": "Wawa", "screen_name": "Wawa"}]}
{"created_at": "Sun Jul 12 22:12:21 +0000 2015", "favorited": false, "hashtags": ["wawa"], "id": 620355038574018560, "lang": "en", "retweeted": false, "source": "<a href=\"http://www.echofon.com/\" rel=\"nofollow\">Echofon</a>", "text": "http://t.co/jFsfaxYOTT RT @joshpincus: Semisonic - Closing Time #wawa @wawabangers @wawa in White Haven,  PA", "truncated": false, "urls": {"http://t.co/jFsfaxYOTT": "http://youtu.be/xGytDsqkQY8"}, "user": {"created_at": "Sat May 31 15:29:04 +0000 2014", "default_profile": true, "description": "Music heard at Wawas. The soundtrack of our lives.", "favourites_count": 272, "followers_count": 740, "friends_count": 456, "id": 2573988639, "lang": "en", "listed_count": 4, "location": "Philly, mostly. ", "name": "Wawa Bangers", "profile_background_color": "C0DEED", "profile_background_image_url": "http://abs.twimg.com/images/themes/theme1/bg.png", "profile_background_tile": false, "profile_banner_url": "https://pbs.twimg.com/profile_banners/2573988639/1401553125", "profile_image_url": "https://pbs.twimg.com/profile_images/472774804408266752/eZ9xVm02_normal.jpeg", "profile_link_color": "0084B4", "profile_sidebar_fill_color": "DDEEF6", "profile_text_color": "333333", "protected": false, "screen_name": "WawaBangers", "statuses_count": 1437, "url": "https://t.co/hPb8MvEdDE"}, "user_mentions": [{"id": 16333273, "name": "joshpincus", "screen_name": "joshpincus"}, {"id": 2573988639, "name": "Wawa Bangers", "screen_name": "WawaBangers"}, {"id": 356866129, "name": "Wawa", "screen_name": "Wawa"}]}
{"created_at": "Fri Jul 17 03:47:29 +0000 2015", "favorite_count": 1, "favorited": false, "id": 621888930590420992, "lang": "tl", "retweeted": false, "source": "<a href=\"http://twitter.com/download/iphone\" rel=\"nofollow\">Twitter for iPhone</a>", "text": "No to wawa closing at 12!!!!!", "truncated": false, "user": {"created_at": "Sun Feb 07 00:21:36 +0000 2010", "description": "i dont like having sex, I'm just a Whore (mentally). FOR MODEL INQUIRES: look at the moon and scream at 120 bpm. GWAPPY BOYZ | 135", "favourites_count": 37, "followers_count": 796, "friends_count": 1171, "id": 112019725, "lang": "en", "listed_count": 6, "location": "Phila.", "name": "HEY  Peen Ness, Hi", "profile_background_color": "C0DEED", "profile_background_image_url": "http://pbs.twimg.com/profile_background_images/378800000002405242/68bf5887fc1cc23400ad3782e2d090a3.jpeg", "profile_background_tile": true, "profile_banner_url": "https://pbs.twimg.com/profile_banners/112019725/1449268169", "profile_image_url": "https://pbs.twimg.com/profile_images/672905589597544448/3YAiwbio_normal.jpg", "profile_link_color": "1D81B3", "profile_sidebar_fill_color": "DDEEF6", "profile_text_color": "333333", "protected": false, "screen_name": "MIERxSONIC", "statuses_count": 46368, "time_zone": "Eastern Time (US & Canada)", "url": "https://t.co/a0b2pMbu3N", "utc_offset": -18000}}
{"created_at": "Fri Jul 17 11:37:04 +0000 2015", "favorited": false, "id": 622007101641068544, "lang": "en", "retweet_count": 1, "retweeted": false, "source": "<a href=\"http://dlvr.it\" rel=\"nofollow\">dlvr.it</a>", "text": "The Scoop: Fair time closing in; Pennsville's Super Wawa; we've moved; bumpy bridge http://t.co/7DYyh7wKyg", "truncated": false, "urls": {"http://t.co/7DYyh7wKyg": "http://dlvr.it/BYMhp5"}, "user": {"created_at": "Wed Feb 17 12:19:03 +0000 2010", "description": "South Jersey Times is a daily paper serving the southern counties of New Jersey including Camden, Gloucester, Salem and Cumberland.", "favourites_count": 19, "followers_count": 8425, "friends_count": 607, "geo_enabled": true, "id": 115039684, "lang": "en", "listed_count": 146, "location": "Woodbury and Salem, NJ.", "name": "South Jersey Times", "profile_background_color": "343E4A", "profile_background_image_url": "http://pbs.twimg.com/profile_background_images/668553146/f2e4ef961ed21a1e4815e1ed169eb153.gif", "profile_background_tile": false, "profile_image_url": "https://pbs.twimg.com/profile_images/2646047204/4ade75be3a71c8f551b7e1e8e2d1a171_normal.png", "profile_link_color": "0084B4", "profile_sidebar_fill_color": "DDEEF6", "profile_text_color": "333333", "protected": false, "screen_name": "TheSJTimes", "statuses_count": 16607, "time_zone": "Eastern Time (US & Canada)", "url": "http://t.co/2nKXnUMK", "utc_offset": -18000}}
{"created_at": "Sun Jul 19 16:12:50 +0000 2015", "favorite_count": 2, "favorited": false, "id": 622801279199350784, "lang": "en", "place": {"attributes": {}, "bounding_box": {"coordinates": [[[-75.280284, 39.871811], [-74.955712, 39.871811], [-74.955712, 40.13792], [-75.280284, 40.13792]]], "type": "Polygon"}, "contained_within": [], "country": "United States", "country_code": "US", "full_name": "Philadelphia, PA", "id": "e4a0d228eb6be76b", "name": "Philadelphia", "place_type": "city", "url": "https://api.twitter.com/1.1/geo/id/e4a0d228eb6be76b.json"}, "retweeted": false, "source": "<a href=\"http://twitter.com/download/iphone\" rel=\"nofollow\">Twitter for iPhone</a>", "text": "the wawa closing in fc for a month will be the death of me", "truncated": false, "user": {"created_at": "Fri Jul 05 13:59:13 +0000 2013", "default_profile": true, "description": "I dont think limits. -Usain Bolt", "favourites_count": 6532, "followers_count": 773, "friends_count": 529, "geo_enabled": true, "id": 1570585838, "lang": "en", "listed_count": 1, "name": "conor", "profile_background_color": "C0DEED", "profile_background_image_url": "http://abs.twimg.com/images/themes/theme1/bg.png", "profile_background_tile": false, "profile_banner_url": "https://pbs.twimg.com/profile_banners/1570585838/1437674852", "profile_image_url": "https://pbs.twimg.com/profile_images/624573788605296642/DStc4E81_normal.jpg", "profile_link_color": "0084B4", "profile_sidebar_fill_color": "DDEEF6", "profile_text_color": "333333", "protected": false, "screen_name": "comchugh68", "statuses_count": 10499}}
{"created_at": "Thu Jul 23 22:20:56 +0000 2015", "favorited": false, "id": 624343466227712000, "lang": "en", "retweeted": false, "source": "<a href=\"http://twitter.com/download/iphone\" rel=\"nofollow\">Twitter for iPhone</a>", "text": "All Wawa's closing at midnight.", "truncated": false, "user": {"created_at": "Thu Feb 19 15:59:31 +0000 2009", "description": "Teaching husk, as I revolve around Philly sports and an unbridaled love of zoos.", "favourites_count": 278, "followers_count": 166, "friends_count": 289, "id": 21310419, "lang": "en", "listed_count": 4, "location": "In Philadelphia.", "name": "Jameson McHusky", "profile_background_color": "141211", "profile_background_image_url": "http://abs.twimg.com/images/themes/theme14/bg.gif", "profile_background_tile": false, "profile_banner_url": "https://pbs.twimg.com/profile_banners/21310419/1446852904", "profile_image_url": "https://pbs.twimg.com/profile_images/662775106830225408/Ym542Tsm_normal.jpg", "profile_link_color": "FA743E", "profile_sidebar_fill_color": "EFEFEF", "profile_text_color": "333333", "protected": false, "screen_name": "JamMcHusk", "statuses_count": 10879, "time_zone": "Eastern Time (US & Canada)", "utc_offset": -18000}}
{"created_at": "Mon Jul 27 17:13:49 +0000 2015", "favorite_count": 1, "favorited": false, "id": 625715730298875904, "lang": "en", "retweet_count": 1, "retweeted": false, "source": "<a href=\"http://twitter.com/download/iphone\" rel=\"nofollow\">Twitter for iPhone</a>", "text": "@ route 77 wawa, thank you for closing for the next month and making my life 10x more difficult", "truncated": false, "user": {"created_at": "Sun Jan 29 22:29:57 +0000 2012", "favourites_count": 7336, "followers_count": 506, "friends_count": 446, "geo_enabled": true, "id": 478104317, "lang": "en", "listed_count": 1, "name": "Lex", "profile_background_color": "9AE4E8", "profile_background_image_url": "http://pbs.twimg.com/profile_background_images/378800000012220705/81b7d9c6a4361607c487d80944f964b1.jpeg", "profile_background_tile": true, "profile_banner_url": "https://pbs.twimg.com/profile_banners/478104317/1451261389", "profile_image_url": "https://pbs.twimg.com/profile_images/681264900744835072/uqxk_4xK_normal.jpg", "profile_link_color": "0084B4", "profile_sidebar_fill_color": "DDFFCC", "profile_text_color": "333333", "protected": false, "screen_name": "AlexaSherm", "statuses_count": 10480, "time_zone": "Eastern Time (US & Canada)", "url": "http://t.co/wtNxk4pWhV", "utc_offset": -18000}}
{"created_at": "Mon Jul 27 18:02:43 +0000 2015", "favorited": false, "id": 625728035405365252, "in_reply_to_screen_name": "The_STORCKSnest", "in_reply_to_status_id": 625717899358027777, "in_reply_to_user_id": 261473706, "lang": "en", "retweeted": false, "source": "<a href=\"http://twitter.com/download/iphone\" rel=\"nofollow\">Twitter for iPhone</a>", "text": "@The_STORCKSnest closing the wawa on Oxford was the 3rd worst thing to happen to me this summer", "truncated": false, "user": {"created_at": "Tue Aug 16 17:58:15 +0000 2011", "description": "You come at the king, you best not miss...", "favourites_count": 1711, "followers_count": 316, "friends_count": 296, "id": 356331533, "lang": "en", "location": "PSU 2016", "name": "Sean Somers", "profile_background_color": "173148", "profile_background_image_url": "http://pbs.twimg.com/profile_background_images/608576678/xe32829f4400f657cbbd2a4b7bd6e709.png", "profile_background_tile": true, "profile_banner_url": "https://pbs.twimg.com/profile_banners/356331533/1348681356", "profile_image_url": "https://pbs.twimg.com/profile_images/613345197922099200/1Xy1WPv3_normal.jpg", "profile_link_color": "2F6766", "profile_sidebar_fill_color": "B9DDAF", "profile_text_color": "81B29F", "protected": false, "screen_name": "Sean_Somers", "statuses_count": 8639, "time_zone": "Atlantic Time (Canada)", "utc_offset": -14400}, "user_mentions": [{"id": 261473706, "name": "Richie Storck", "screen_name": "The_STORCKSnest"}]}
{"created_at": "Thu Aug 20 18:50:54 +0000 2015", "favorited": false, "id": 634437467521843202, "lang": "en", "retweeted": false, "source": "<a href=\"http://twitter.com/download/iphone\" rel=\"nofollow\">Twitter for iPhone</a>", "text": "Is Wawa really closing next year.", "truncated": false, "user": {"created_at": "Sun Aug 07 19:28:52 +0000 2011", "favourites_count": 2877, "followers_count": 381, "friends_count": 422, "geo_enabled": true, "id": 350434661, "lang": "en", "listed_count": 2, "location": "hell", "name": "brian", "profile_background_color": "1A1B1F", "profile_background_image_url": "http://abs.twimg.com/images/themes/theme9/bg.gif", "profile_background_tile": false, "profile_banner_url": "https://pbs.twimg.com/profile_banners/350434661/1451542799", "profile_image_url": "https://pbs.twimg.com/profile_images/682446079959371776/ilfOR-ta_normal.jpg", "profile_link_color": "8A260E", "profile_sidebar_fill_color": "252429", "profile_text_color": "666666", "protected": false, "screen_name": "brian_smith101", "statuses_count": 6031}}
{"created_at": "Thu Aug 20 20:39:57 +0000 2015", "favorite_count": 2, "favorited": false, "id": 634464910575955968, "lang": "en", "retweeted": false, "source": "<a href=\"http://twitter.com/download/iphone\" rel=\"nofollow\">Twitter for iPhone</a>", "text": "If Wawa is actually closing all stores in January I'm gonna be pissed", "truncated": false, "user": {"created_at": "Fri Jun 17 02:59:32 +0000 2011", "description": "I'm Mr. Brightside.", "favourites_count": 4143, "followers_count": 483, "friends_count": 468, "geo_enabled": true, "id": 318816103, "lang": "en", "listed_count": 1, "location": "\u0394 \u2022 \u039a \u2022 \u0395   ROWAN", "name": "KEEGZ\u26a1", "profile_background_color": "C0DEED", "profile_background_image_url": "http://pbs.twimg.com/profile_background_images/711717978/67c29752d9dee0a71b0e7555725d115a.jpeg", "profile_background_tile": false, "profile_banner_url": "https://pbs.twimg.com/profile_banners/318816103/1446156968", "profile_image_url": "https://pbs.twimg.com/profile_images/681234449154048001/_VdCSsiw_normal.jpg", "profile_link_color": "0084B4", "profile_sidebar_fill_color": "DDEEF6", "profile_text_color": "333333", "protected": false, "screen_name": "T0mmyKeegan", "statuses_count": 5995, "time_zone": "Eastern Time (US & Canada)", "utc_offset": -18000}}
{"created_at": "Thu Aug 20 22:00:30 +0000 2015", "favorite_count": 1, "favorited": false, "id": 634485182817546240, "lang": "en", "retweeted": false, "source": "<a href=\"http://twitter.com/download/iphone\" rel=\"nofollow\">Twitter for iPhone</a>", "text": "I just saw a fake article about every wawa closing and almost had a heart attack.", "truncated": false, "user": {"created_at": "Thu Jul 16 01:03:21 +0000 2009", "description": "ambition: not to be a housewife.", "favourites_count": 337, "followers_count": 114, "friends_count": 106, "id": 57195776, "lang": "en", "location": "New York, New York", "name": "Cassie Wuest", "profile_background_color": "EDECE9", "profile_background_image_url": "http://pbs.twimg.com/profile_background_images/574444478506762240/LuH5QxD8.jpeg", "profile_background_tile": false, "profile_banner_url": "https://pbs.twimg.com/profile_banners/57195776/1434933438", "profile_image_url": "https://pbs.twimg.com/profile_images/619485067270823937/CdaGu8-U_normal.jpg", "profile_link_color": "088253", "profile_sidebar_fill_color": "FFFFFF", "profile_text_color": "000000", "protected": false, "screen_name": "cassiejoyyy", "statuses_count": 3305, "time_zone": "Eastern Time (US & Canada)", "url": "http://t.co/68zW7e3omo", "utc_offset": -18000}}
{"created_at": "Fri Aug 21 01:35:27 +0000 2015", "favorited": false, "id": 634539276013805569, "in_reply_to_screen_name": "Jessewelle", "in_reply_to_status_id": 634247372369960960, "in_reply_to_user_id": 37597184, "lang": "en", "retweeted": false, "source": "<a href=\"http://twitter.com/download/iphone\" rel=\"nofollow\">Twitter for iPhone</a>", "text": "@Jessewelle just read on face book all wawa stores are closing in 2016", "truncated": false, "user": {"created_at": "Sat Jul 11 01:16:58 +0000 2015", "default_profile": true, "description": "#juggies4life and my favorite youtuber is @mcjuggernuggets p.s. KEEP IT RIDGID", "favourites_count": 354, "followers_count": 12, "friends_count": 63, "id": 3274974120, "lang": "en", "name": "Devin Enkoff", "profile_background_color": "C0DEED", "profile_background_image_url": "http://abs.twimg.com/images/themes/theme1/bg.png", "profile_background_tile": false, "profile_image_url": "https://pbs.twimg.com/profile_images/648996265267757056/ML44feEO_normal.jpg", "profile_link_color": "0084B4", "profile_sidebar_fill_color": "DDEEF6", "profile_text_color": "333333", "protected": false, "screen_name": "DevinEnkoff1", "statuses_count": 523}, "user_mentions": [{"id": 37597184, "name": "Jesse Wellens", "screen_name": "Jessewelle"}]}
{"created_at": "Fri Aug 21 01:38:58 +0000 2015", "favorited": false, "id": 634540160219258881, "lang": "en", "retweeted": false, "source": "<a href=\"http://twitter.com\" rel=\"nofollow\">Twitter Web Client</a>", "text": "All these dumb people keep posting that Wawa is closing like gtfo", "truncated": false, "user": {"created_at": "Thu Apr 11 23:42:55 +0000 2013", "description": "\u2652. Happiness can be found even in the darkest of times, if one only remembers to turn on the light - Albus Dumbledore.", "favourites_count": 2133, "followers_count": 2167, "friends_count": 967, "id": 1345553827, "lang": "en", "listed_count": 19, "name": "Jersey Mess\u2660", "profile_background_color": "F50E99", "profile_background_image_url": "http://pbs.twimg.com/profile_background_images/636653688195420160/1Xs1bdOR.jpg", "profile_background_tile": true, "profile_banner_url": "https://pbs.twimg.com/profile_banners/1345553827/1446526086", "profile_image_url": "https://pbs.twimg.com/profile_images/678789845708328960/ZER4Zdy5_normal.jpg", "profile_link_color": "F50E99", "profile_sidebar_fill_color": "DDEEF6", "profile_text_color": "333333", "protected": false, "screen_name": "jersey_mess", "statuses_count": 18740, "time_zone": "Atlantic Time (Canada)", "utc_offset": -14400}}
{"created_at": "Fri Aug 21 01:53:45 +0000 2015", "favorite_count": 2, "favorited": false, "id": 634543883783925760, "lang": "en", "retweet_count": 2, "retweeted": false, "source": "<a href=\"http://twitter.com/download/iphone\" rel=\"nofollow\">Twitter for iPhone</a>", "text": "I keep hearing wawa is closing @__mvereen @Maiyaaa_here please tell me they lying", "truncated": false, "user": {"created_at": "Tue May 06 21:36:59 +0000 2014", "default_profile": true, "description": "track.", "favourites_count": 1761, "followers_count": 397, "friends_count": 292, "geo_enabled": true, "id": 2480465600, "lang": "en", "listed_count": 2, "location": "reaching my goals. ", "name": "kendall. ", "profile_background_color": "C0DEED", "profile_background_image_url": "http://abs.twimg.com/images/themes/theme1/bg.png", "profile_background_tile": false, "profile_banner_url": "https://pbs.twimg.com/profile_banners/2480465600/1452472810", "profile_image_url": "https://pbs.twimg.com/profile_images/687318173088149504/evbwcUAl_normal.jpg", "profile_link_color": "0084B4", "profile_sidebar_fill_color": "DDEEF6", "profile_text_color": "333333", "protected": false, "screen_name": "camiwami320", "statuses_count": 15068}, "user_mentions": [{"id": 357244680, "name": "princess mani\u2728", "screen_name": "__mvereen"}, {"id": 354086768, "name": "Maiya\u2601\ufe0f", "screen_name": "Maiyaaa_here"}]}
{"created_at": "Fri Aug 21 03:11:05 +0000 2015", "favorited": false, "id": 634563344968585216, "lang": "en", "retweeted": false, "source": "<a href=\"http://twitter.com/download/android\" rel=\"nofollow\">Twitter for Android</a>", "text": "Saw one claiming Chipotle is closing, just saw one claiming Wawa is closing. I'm sure it's a front for a scam, bot recruiter, or malware.", "truncated": false, "user": {"created_at": "Wed Nov 16 03:41:04 +0000 2011", "description": "Opto-Mechanical Engineer and nerd-generalist, interested in photography, fiber arts, music, and writing", "favourites_count": 1962, "followers_count": 262, "friends_count": 184, "id": 413656077, "lang": "en", "listed_count": 19, "name": "Robin", "profile_background_color": "ACDED6", "profile_background_image_url": "http://abs.twimg.com/images/themes/theme18/bg.gif", "profile_background_tile": false, "profile_banner_url": "https://pbs.twimg.com/profile_banners/413656077/1350186159", "profile_image_url": "https://pbs.twimg.com/profile_images/2279298498/image_normal.jpg", "profile_link_color": "FF6600", "profile_sidebar_fill_color": "F6F6F6", "profile_text_color": "333333", "protected": false, "screen_name": "robin_h_p", "statuses_count": 10356, "time_zone": "Central Time (US & Canada)", "url": "https://t.co/3ytZzU0Rgu", "utc_offset": -21600}}
{"created_at": "Fri Aug 21 13:47:15 +0000 2015", "favorited": false, "id": 634723441762017280, "lang": "en", "retweeted": false, "source": "<a href=\"http://twitter.com/download/iphone\" rel=\"nofollow\">Twitter for iPhone</a>", "text": "wawa is closing their store in media aka the first one ever built", "truncated": false, "user": {"created_at": "Sun Jan 29 00:01:01 +0000 2012", "description": "bbrs NU19", "favourites_count": 1436, "followers_count": 337, "friends_count": 345, "geo_enabled": true, "id": 477231003, "lang": "en", "listed_count": 3, "name": "Julia Edwards", "profile_background_color": "ACDED6", "profile_background_image_url": "http://abs.twimg.com/images/themes/theme18/bg.gif", "profile_background_tile": false, "profile_banner_url": "https://pbs.twimg.com/profile_banners/477231003/1452873845", "profile_image_url": "https://pbs.twimg.com/profile_images/688029161248698368/ScBUJxbh_normal.jpg", "profile_link_color": "038543", "profile_sidebar_fill_color": "F6F6F6", "profile_text_color": "333333", "protected": false, "screen_name": "juliiiaedwarrds", "statuses_count": 10869, "time_zone": "Eastern Time (US & Canada)", "utc_offset": -18000}}
{"created_at": "Fri Aug 21 18:49:20 +0000 2015", "favorited": false, "id": 634799463542988801, "lang": "en", "retweeted": false, "source": "<a href=\"http://twitter.com/download/iphone\" rel=\"nofollow\">Twitter for iPhone</a>", "text": "EVERy WAWA IS CLOSING NOOOOO", "truncated": false, "user": {"created_at": "Thu Aug 25 02:05:51 +0000 2011", "description": "i tweet about star wars and demi lovato a lot sorry in advance", "favourites_count": 48513, "followers_count": 1679, "friends_count": 895, "geo_enabled": true, "id": 361616952, "lang": "en", "listed_count": 12, "name": "taylor", "profile_background_color": "FFFFFF", "profile_background_image_url": "http://pbs.twimg.com/profile_background_images/378800000176358240/GW0Ndx8L.jpeg", "profile_background_tile": false, "profile_banner_url": "https://pbs.twimg.com/profile_banners/361616952/1452888152", "profile_image_url": "https://pbs.twimg.com/profile_images/686021323760484356/fx-uDpV1_normal.jpg", "profile_link_color": "F5ABB5", "profile_sidebar_fill_color": "DDEEF6", "profile_text_color": "333333", "protected": false, "screen_name": "nycdemi", "statuses_count": 57368, "time_zone": "Atlantic Time (Canada)", "utc_offset": -14400}}
{"created_at": "Fri Aug 21 20:49:28 +0000 2015", "favorite_count": 3, "favorited": false, "id": 634829695398318080, "lang": "en", "media": [{"display_url": "pic.twitter.com/US3OfYRuqD", "expanded_url": "http://twitter.com/snopes/status/634829695398318080/photo/1", "id": 634829694865510405, "id_str": "634829694865510405", "indices": [49, 71], "media_url": "http://pbs.twimg.com/media/CM9ePndUEAU34yh.jpg", "media_url_https": "https://pbs.twimg.com/media/CM9ePndUEAU34yh.jpg", "sizes": {"large": {"h": 480, "resize": "fit", "w": 704}, "medium": {"h": 409, "resize": "fit", "w": 600}, "small": {"h": 231, "resize": "fit", "w": 340}, "thumb": {"h": 150, "resize": "crop", "w": 150}}, "type": "photo", "url": "http://t.co/US3OfYRuqD"}], "retweet_count": 3, "retweeted": false, "source": "<a href=\"http://twitter.com\" rel=\"nofollow\">Twitter Web Client</a>", "text": "No, @Wawa isn't closing:\n\nhttp://t.co/yUDovqQF7d http://t.co/US3OfYRuqD", "truncated": false, "urls": {"http://t.co/yUDovqQF7d": "http://m.snopes.com/wawa-closing-2016/"}, "user": {"created_at": "Thu Apr 03 17:00:11 +0000 2008", "description": "The definitive Internet reference source for urban legends, folklore, myths, rumors, and misinformation.", "favourites_count": 12, "followers_count": 118932, "friends_count": 3, "id": 14294848, "lang": "en", "listed_count": 3241, "name": "snopes.com", "profile_background_color": "C7F2B1", "profile_background_image_url": "http://pbs.twimg.com/profile_background_images/840081271/d90db0daf7c81f75aea62d88c084e755.png", "profile_background_tile": false, "profile_banner_url": "https://pbs.twimg.com/profile_banners/14294848/1365714336", "profile_image_url": "https://pbs.twimg.com/profile_images/3507964197/be9d1840411bca2d8101382340f58957_normal.png", "profile_link_color": "81D159", "profile_sidebar_fill_color": "DDEEF6", "profile_text_color": "333333", "protected": false, "screen_name": "snopes", "statuses_count": 4886, "time_zone": "Pacific Time (US & Canada)", "url": "http://t.co/10Or8rl3ff", "utc_offset": -28800, "verified": true}, "user_mentions": [{"id": 356866129, "name": "Wawa", "screen_name": "Wawa"}]}
{"created_at": "Fri Aug 21 20:53:13 +0000 2015", "favorited": false, "id": 634830640756715520, "lang": "en", "media": [{"display_url": "pic.twitter.com/NomskXQ93H", "expanded_url": "http://twitter.com/snopes/status/634829695398318080/photo/1", "id": 634829694865510405, "id_str": "634829694865510405", "indices": [48, 70], "media_url": "http://pbs.twimg.com/media/CM9ePndUEAU34yh.jpg", "media_url_https": "https://pbs.twimg.com/media/CM9ePndUEAU34yh.jpg", "sizes": {"large": {"h": 480, "resize": "fit", "w": 704}, "medium": {"h": 409, "resize": "fit", "w": 600}, "small": {"h": 231, "resize": "fit", "w": 340}, "thumb": {"h": 150, "resize": "crop", "w": 150}}, "source_status_id": 634829695398318080, "source_status_id_str": "634829695398318080", "source_user_id": 14294848, "source_user_id_str": "14294848", "type": "photo", "url": "http://t.co/NomskXQ93H"}], "retweeted": false, "source": "<a href=\"http://ifttt.com\" rel=\"nofollow\">IFTTT</a>", "text": "No, Wawa isn't closing:\n\nhttp://t.co/NdhZZmSyW1 http://t.co/NomskXQ93H", "truncated": false, "urls": {"http://t.co/NdhZZmSyW1": "http://m.snopes.com/wawa-closing-2016/"}, "user": {"created_at": "Mon Jan 28 14:40:52 +0000 2013", "default_profile": true, "description": "I tweet about all things in Cape Town. #CapeFact The Mother City. For info in events: #CapeEvents. Also #capetownfairy me for any quests", "favourites_count": 663, "followers_count": 2633, "friends_count": 2747, "id": 1128255048, "lang": "en", "listed_count": 90, "location": "Cape Town", "name": "Cape Town Fairy", "profile_background_color": "C0DEED", "profile_background_image_url": "http://abs.twimg.com/images/themes/theme1/bg.png", "profile_background_tile": false, "profile_banner_url": "https://pbs.twimg.com/profile_banners/1128255048/1359385361", "profile_image_url": "https://pbs.twimg.com/profile_images/3175089990/ddcec258fe970be63266d343dc094577_normal.png", "profile_link_color": "0084B4", "profile_sidebar_fill_color": "DDEEF6", "profile_text_color": "333333", "protected": false, "screen_name": "CapeTownFairy", "statuses_count": 73720, "time_zone": "Athens", "utc_offset": 7200}}
{"created_at": "Fri Aug 21 21:04:24 +0000 2015", "favorite_count": 1, "favorited": false, "id": 634833454669041664, "lang": "en", "retweeted": false, "source": "<a href=\"http://twitter.com/download/iphone\" rel=\"nofollow\">Twitter for iPhone</a>", "text": "Deuces Wawa--I don't see Sheetz closing up shop", "truncated": false, "user": {"created_at": "Tue Feb 15 00:35:18 +0000 2011", "favourites_count": 529, "followers_count": 704, "friends_count": 651, "id": 252343593, "lang": "en", "listed_count": 5, "location": "VA", "name": "Hunter", "profile_background_color": "131516", "profile_background_image_url": "http://pbs.twimg.com/profile_background_images/884524511/b0d8a41799df0934e70d362b76cb893a.jpeg", "profile_background_tile": true, "profile_banner_url": "https://pbs.twimg.com/profile_banners/252343593/1390259100", "profile_image_url": "https://pbs.twimg.com/profile_images/425404266602573824/3y3UhkUE_normal.jpeg", "profile_link_color": "009999", "profile_sidebar_fill_color": "EFEFEF", "profile_text_color": "333333", "protected": false, "screen_name": "_hdot_", "statuses_count": 7954, "time_zone": "Eastern Time (US & Canada)", "utc_offset": -18000}}
{"created_at": "Fri Aug 21 21:55:45 +0000 2015", "favorited": false, "hashtags": ["snopes"], "id": 634846376766013440, "lang": "tl", "retweeted": false, "source": "<a href=\"http://twitterfeed.com\" rel=\"nofollow\">twitterfeed</a>", "text": "Wawa, Wait, What? http://t.co/fkT0sr5llo via @snopes #snopes", "truncated": false, "urls": {"http://t.co/fkT0sr5llo": "http://ap236.ca/1I0xLDE"}, "user": {"created_at": "Sun May 11 21:40:42 +0000 2008", "description": "President & CEO of Journey to Diversity Workplaces. Former Barrie Green Party President. Sci-fi fan.\r\nhttp://t.co/XIvT2nHlex", "favourites_count": 193, "followers_count": 848, "friends_count": 497, "id": 14737210, "lang": "en", "listed_count": 64, "location": "Barrie, Ontario, Canada", "name": "Peter V. Tretter", "profile_background_color": "000000", "profile_background_image_url": "http://pbs.twimg.com/profile_background_images/760525136/0c706c2e6268f6ffc8a8861f3bb3511d.jpeg", "profile_background_tile": true, "profile_banner_url": "https://pbs.twimg.com/profile_banners/14737210/1419116675", "profile_image_url": "https://pbs.twimg.com/profile_images/688476723311177728/paJvXwow_normal.jpg", "profile_link_color": "95ACF9", "profile_sidebar_fill_color": "333333", "profile_text_color": "999999", "protected": false, "screen_name": "ap236", "statuses_count": 19453, "time_zone": "Eastern Time (US & Canada)", "url": "http://t.co/YcXyy379hb", "utc_offset": -18000}, "user_mentions": [{"id": 14294848, "name": "snopes.com", "screen_name": "snopes"}]}
{"created_at": "Fri Aug 21 22:20:17 +0000 2015", "favorited": false, "id": 634852547669413888, "lang": "en", "retweeted": false, "source": "<a href=\"http://twitter.com/download/iphone\" rel=\"nofollow\">Twitter for iPhone</a>", "text": "A wawa closing...? No way https://t.co/jKbetiNUHx", "truncated": false, "urls": {"https://t.co/jKbetiNUHx": "https://twitter.com/yorxvn/status/634852072542736384"}, "user": {"created_at": "Sat May 02 02:39:34 +0000 2009", "description": "Beach raiseddd thisss Emperor/CEO #TOPSHOTTA #TN$ #TEAM6thSPLIFF #NEWVA #legalizeUS", "favourites_count": 28842, "followers_count": 1128, "friends_count": 1001, "id": 37118354, "lang": "en", "listed_count": 29, "location": "Kingston Beach, VA", "name": "CliffMarleyy", "profile_background_color": "8C8C8C", "profile_background_image_url": "http://pbs.twimg.com/profile_background_images/298974457/tumblr_lemti7QWbU1qcilufo1_500_large.jpg", "profile_background_tile": true, "profile_banner_url": "https://pbs.twimg.com/profile_banners/37118354/1425774666", "profile_image_url": "https://pbs.twimg.com/profile_images/679096960989708288/ZAtLTEtd_normal.jpg", "profile_link_color": "000000", "profile_sidebar_fill_color": "0D911C", "profile_text_color": "000000", "protected": false, "screen_name": "IMtruuCOKE", "statuses_count": 51462, "time_zone": "Quito", "url": "https://t.co/3P8ZIQvbmE", "utc_offset": -18000}}
{"created_at": "Fri Aug 21 22:56:39 +0000 2015", "favorited": false, "id": 634861703759536128, "in_reply_to_screen_name": "Jessewelle", "in_reply_to_user_id": 37597184, "lang": "en", "retweeted": false, "source": "<a href=\"http://twitter.com/download/android\" rel=\"nofollow\">Twitter for Android</a>", "text": "@Jessewelle JESSE AND @PhillyChic5 JUST FOUND OUT ALL WAWA STORES R GONNA BE CLOSING BY 2016 NO JOKE \ud83d\ude2d", "truncated": false, "user": {"created_at": "Fri Dec 07 18:12:22 +0000 2012", "default_profile": true, "description": "I want you to do what ever makes you happiest in the world - Harry Styles", "favourites_count": 2950, "followers_count": 62, "friends_count": 94, "id": 995587615, "lang": "en", "listed_count": 1, "name": "Samantha", "profile_background_color": "C0DEED", "profile_background_image_url": "http://abs.twimg.com/images/themes/theme1/bg.png", "profile_background_tile": false, "profile_banner_url": "https://pbs.twimg.com/profile_banners/995587615/1436177723", "profile_image_url": "https://pbs.twimg.com/profile_images/644722912939929600/UAKjCPpG_normal.jpg", "profile_link_color": "0084B4", "profile_sidebar_fill_color": "DDEEF6", "profile_text_color": "333333", "protected": false, "screen_name": "Samantha5545", "statuses_count": 3863}, "user_mentions": [{"id": 37597184, "name": "Jesse Wellens", "screen_name": "Jessewelle"}, {"id": 168566725, "name": "Jeana", "screen_name": "PhillyChic5"}]}
{"created_at": "Fri Aug 21 22:58:41 +0000 2015", "favorited": false, "id": 634862214315442176, "in_reply_to_screen_name": "Jessewelle", "in_reply_to_user_id": 37597184, "lang": "en", "retweeted": false, "source": "<a href=\"http://twitter.com/download/android\" rel=\"nofollow\">Twitter for Android</a>", "text": "@Jessewelle http://t.co/PQxVcId3P7 all wawa stores will be closing by 2016 \ud83d\ude2d", "truncated": false, "urls": {"http://t.co/PQxVcId3P7": "http://m.snopes.com/wawa-closing-2016/"}, "user": {"created_at": "Fri Dec 07 18:12:22 +0000 2012", "default_profile": true, "description": "I want you to do what ever makes you happiest in the world - Harry Styles", "favourites_count": 2950, "followers_count": 62, "friends_count": 94, "id": 995587615, "lang": "en", "listed_count": 1, "name": "Samantha", "profile_background_color": "C0DEED", "profile_background_image_url": "http://abs.twimg.com/images/themes/theme1/bg.png", "profile_background_tile": false, "profile_banner_url": "https://pbs.twimg.com/profile_banners/995587615/1436177723", "profile_image_url": "https://pbs.twimg.com/profile_images/644722912939929600/UAKjCPpG_normal.jpg", "profile_link_color": "0084B4", "profile_sidebar_fill_color": "DDEEF6", "profile_text_color": "333333", "protected": false, "screen_name": "Samantha5545", "statuses_count": 3863}, "user_mentions": [{"id": 37597184, "name": "Jesse Wellens", "screen_name": "Jessewelle"}]}
{"created_at": "Fri Aug 21 23:08:04 +0000 2015", "favorite_count": 1, "favorited": false, "id": 634864576039923712, "lang": "en", "retweeted": false, "source": "<a href=\"http://twitter.com/download/iphone\" rel=\"nofollow\">Twitter for iPhone</a>", "text": "So why they saying all wawa's closing down in January 2016\ud83d\ude29", "truncated": false, "user": {"created_at": "Sat Jul 30 05:47:59 +0000 2011", "description": "Had to say goodbye to the realest nigga I knew #RIPDAD", "favourites_count": 10539, "followers_count": 7010, "friends_count": 4023, "geo_enabled": true, "id": 345191326, "lang": "en", "listed_count": 5, "name": "TEAF", "profile_background_color": "ACDED6", "profile_background_image_url": "http://pbs.twimg.com/profile_background_images/649063476/65hde6dizg695coeb2fd.jpeg", "profile_background_tile": true, "profile_banner_url": "https://pbs.twimg.com/profile_banners/345191326/1426513133", "profile_image_url": "https://pbs.twimg.com/profile_images/617839536719183872/S0GAOYeh_normal.jpg", "profile_link_color": "038543", "profile_sidebar_fill_color": "DDFFCC", "profile_text_color": "333333", "protected": false, "screen_name": "TasteMy_TEAfah", "statuses_count": 78088, "time_zone": "Pacific Time (US & Canada)", "utc_offset": -28800}}
{"created_at": "Sat Aug 22 00:13:09 +0000 2015", "favorited": false, "hashtags": ["Snopes", "FactCheck", "closing"], "id": 634880953454739456, "lang": "en", "retweeted": false, "source": "<a href=\"http://momknowsshopping.com/UFOParanormal\" rel=\"nofollow\">UFOParanormalNews</a>", "text": "#Snopes #FactCheck Is Wawa #closing all its stores by January 2016? http://t.co/4ypS1IVr7Z", "truncated": false, "urls": {"http://t.co/4ypS1IVr7Z": "http://goo.gl/YiXYBz"}, "user": {"created_at": "Wed Oct 01 13:34:46 +0000 2014", "description": "We provide the latest news on #UFO's, #Paranormal, #Ghosts and everything that is strange or weird. Plus #Software, #Camera's and #Computer items.", "favourites_count": 3, "followers_count": 12437, "friends_count": 11604, "geo_enabled": true, "id": 2797963749, "lang": "en", "listed_count": 416, "name": "UFO Paranormal", "profile_background_color": "000000", "profile_background_image_url": "http://abs.twimg.com/images/themes/theme1/bg.png", "profile_background_tile": false, "profile_banner_url": "https://pbs.twimg.com/profile_banners/2797963749/1419626990", "profile_image_url": "https://pbs.twimg.com/profile_images/517311356198858753/OkOTy-q6_normal.jpeg", "profile_link_color": "FA743E", "profile_sidebar_fill_color": "000000", "profile_text_color": "000000", "protected": false, "screen_name": "UFOParanormNews", "statuses_count": 77556, "url": "https://t.co/I4rmVNErYQ"}}
{"created_at": "Sat Aug 22 01:58:48 +0000 2015", "favorited": false, "id": 634907539650408448, "lang": "en", "retweeted": false, "source": "<a href=\"http://www.facebook.com/twitter\" rel=\"nofollow\">Facebook</a>", "text": "IMPORTANT\n\nWAWA IS NOT CLOSING\n\nDON'T BELIEVE WHAT YOU READING", "truncated": false, "user": {"created_at": "Thu Mar 26 22:04:41 +0000 2009", "description": "Ticket Taker at Nazareth and Goodwill Ambassador for NAHS Theater Group and the Softball Team!!!!!", "favourites_count": 23, "followers_count": 1313, "friends_count": 2013, "geo_enabled": true, "id": 26865598, "lang": "en", "listed_count": 144, "location": "Nazareth PA", "name": "Andy Weaver", "profile_background_color": "3B94D9", "profile_background_image_url": "http://abs.twimg.com/images/themes/theme4/bg.gif", "profile_background_tile": false, "profile_banner_url": "https://pbs.twimg.com/profile_banners/26865598/1452392017", "profile_image_url": "https://pbs.twimg.com/profile_images/687744489788715009/Lnu_Jy2a_normal.jpg", "profile_link_color": "0099B9", "profile_sidebar_fill_color": "000000", "profile_text_color": "000000", "protected": false, "screen_name": "NazarethNo1Fan", "statuses_count": 33226, "time_zone": "Atlantic Time (Canada)", "utc_offset": -14400}}
{"created_at": "Sat Aug 22 03:50:18 +0000 2015", "favorited": false, "id": 634935601263980544, "lang": "en", "retweeted": false, "source": "<a href=\"http://twitter.com/download/iphone\" rel=\"nofollow\">Twitter for iPhone</a>", "text": "GET THE FUCK OUT. they aren't seriously closing all wawa's are they?", "truncated": false, "user": {"created_at": "Sun Apr 29 12:19:43 +0000 2012", "default_profile": true, "description": "23. Gemini. College Student. Daughter. Girlfriend. Friend. Stoner. FOB groupie. NYR fanatic. Queen Bee. Emo girl. Crazy bitch. Optimist. Narcissist. \u221eO9|O4|13\u221e", "favourites_count": 515, "followers_count": 264, "friends_count": 1291, "geo_enabled": true, "id": 566252905, "lang": "en", "listed_count": 1, "location": "New Jersey.", "name": "Brihanna", "profile_background_color": "C0DEED", "profile_background_image_url": "http://abs.twimg.com/images/themes/theme1/bg.png", "profile_background_tile": false, "profile_banner_url": "https://pbs.twimg.com/profile_banners/566252905/1432507376", "profile_image_url": "https://pbs.twimg.com/profile_images/675462639120728064/lC3s3tlk_normal.jpg", "profile_link_color": "0084B4", "profile_sidebar_fill_color": "DDEEF6", "profile_text_color": "333333", "protected": false, "screen_name": "brihanna_x_baby", "statuses_count": 6563}}
{"created_at": "Sat Aug 22 04:34:46 +0000 2015", "favorited": false, "id": 634946791427936256, "lang": "en", "retweeted": false, "source": "<a href=\"http://twitter.com/download/iphone\" rel=\"nofollow\">Twitter for iPhone</a>", "text": "Is this true.. About WaWa closing down? \ud83d\ude1f", "truncated": false, "user": {"created_at": "Mon Oct 17 22:14:18 +0000 2011", "description": "business gets handled.", "favourites_count": 3201, "followers_count": 567, "friends_count": 242, "geo_enabled": true, "id": 393017692, "lang": "en", "listed_count": 2, "location": "Nirvana", "name": "Ma.", "profile_background_color": "131516", "profile_background_image_url": "http://abs.twimg.com/images/themes/theme14/bg.gif", "profile_background_tile": true, "profile_banner_url": "https://pbs.twimg.com/profile_banners/393017692/1448518069", "profile_image_url": "https://pbs.twimg.com/profile_images/683730700869177344/-0r_AFcF_normal.jpg", "profile_link_color": "DD2E44", "profile_sidebar_fill_color": "000000", "profile_text_color": "000000", "protected": false, "screen_name": "_harmonic", "statuses_count": 49198, "time_zone": "Quito", "utc_offset": -18000}}
{"created_at": "Sat Aug 22 14:14:27 +0000 2015", "favorited": false, "id": 635092672294719489, "lang": "en", "retweeted": false, "source": "<a href=\"https://chrome.google.com/webstore/detail/kagejfgngcmkbaacpmcnbpkhmhoeccee\" rel=\"nofollow\">Silver Bird Plus</a>", "text": "The Onion is great. Its imitators are not. You have to make it funny. And don't mess with Wawa. http://t.co/qGGPrflhZp", "truncated": false, "urls": {"http://t.co/qGGPrflhZp": "http://m.snopes.com/wawa-closing-2016/"}, "user": {"created_at": "Sat Aug 02 13:27:02 +0000 2008", "description": "Writing Single-Digit Soccer and SportsMyriad. Retired soldier in soccer's culture wars.", "favourites_count": 1517, "followers_count": 6875, "friends_count": 1274, "geo_enabled": true, "id": 15701012, "lang": "en", "listed_count": 466, "location": "Northern Virginia", "name": "Beau Dure", "profile_background_color": "FFFFFF", "profile_background_image_url": "http://pbs.twimg.com/profile_background_images/378800000180604389/W7wc1KV1.jpeg", "profile_background_tile": false, "profile_banner_url": "https://pbs.twimg.com/profile_banners/15701012/1398262475", "profile_image_url": "https://pbs.twimg.com/profile_images/430350277221171203/MqtAjzpH_normal.jpeg", "profile_link_color": "4A913C", "profile_sidebar_fill_color": "DDFFCD", "profile_text_color": "333333", "protected": false, "screen_name": "duresport", "statuses_count": 65545, "time_zone": "Eastern Time (US & Canada)", "url": "http://t.co/wKqjTqMw14", "utc_offset": -18000}}
{"created_at": "Sat Aug 22 14:47:50 +0000 2015", "favorited": false, "id": 635101074567888896, "in_reply_to_screen_name": "Jessewelle", "in_reply_to_user_id": 37597184, "lang": "en", "retweeted": false, "source": "<a href=\"http://twitter.com\" rel=\"nofollow\">Twitter Web Client</a>", "text": "@Jessewelle get your wawa runs in cause they are closing all stores http://t.co/5XyukNjz4O", "truncated": false, "urls": {"http://t.co/5XyukNjz4O": "http://feednewz.com/top-news/577193/wawa-announced-all-stores-will-be-closed-by-january-2016-21949"}, "user": {"created_at": "Wed Jun 03 17:14:03 +0000 2009", "default_profile": true, "description": "careful when you go outside, cause you might enjoy it.", "favourites_count": 8, "followers_count": 11, "friends_count": 19, "id": 44403639, "lang": "en", "listed_count": 2, "location": "michigan", "name": "jerry maxwell", "profile_background_color": "C0DEED", "profile_background_image_url": "http://abs.twimg.com/images/themes/theme1/bg.png", "profile_background_tile": false, "profile_banner_url": "https://pbs.twimg.com/profile_banners/44403639/1431397002", "profile_image_url": "https://pbs.twimg.com/profile_images/677685775367053312/eHwTPLkc_normal.jpg", "profile_link_color": "0084B4", "profile_sidebar_fill_color": "DDEEF6", "profile_text_color": "333333", "protected": false, "screen_name": "JerryMaxwellJr", "statuses_count": 479, "time_zone": "Eastern Time (US & Canada)", "url": "https://t.co/ch6rrqIMm1", "utc_offset": -18000}, "user_mentions": [{"id": 37597184, "name": "Jesse Wellens", "screen_name": "Jessewelle"}]}
{"created_at": "Sun Aug 23 00:58:26 +0000 2015", "favorited": false, "id": 635254736506200064, "lang": "en", "retweeted": false, "source": "<a href=\"http://twitter.com/download/iphone\" rel=\"nofollow\">Twitter for iPhone</a>", "text": "Is it true wawa is closing ???\ud83d\ude22\ud83d\ude22\ud83d\ude22", "truncated": false, "user": {"created_at": "Sun Oct 05 14:57:00 +0000 2014", "default_profile": true, "description": "wilson high school   17", "favourites_count": 1069, "followers_count": 105, "friends_count": 100, "geo_enabled": true, "id": 2808063701, "lang": "en", "name": "Tyler Spencer", "profile_background_color": "C0DEED", "profile_background_image_url": "http://abs.twimg.com/images/themes/theme1/bg.png", "profile_background_tile": false, "profile_banner_url": "https://pbs.twimg.com/profile_banners/2808063701/1433553447", "profile_image_url": "https://pbs.twimg.com/profile_images/606993267088064512/nHbu2eQr_normal.jpg", "profile_link_color": "0084B4", "profile_sidebar_fill_color": "DDEEF6", "profile_text_color": "333333", "protected": false, "screen_name": "tylerspencer347", "statuses_count": 695}}
{"created_at": "Sun Aug 23 02:39:17 +0000 2015", "favorite_count": 1, "favorited": false, "id": 635280116910829568, "lang": "en", "retweeted": false, "source": "<a href=\"http://twitter.com/download/iphone\" rel=\"nofollow\">Twitter for iPhone</a>", "text": "Going to Wawa for food because I cried thinking that they were closing their food making forever, and then realized it was a joke...", "truncated": false, "user": {"created_at": "Sun Jul 18 20:29:42 +0000 2010", "description": "Hailing from super secret Jedi Headquaters", "favourites_count": 10088, "followers_count": 183, "friends_count": 148, "geo_enabled": true, "id": 168244834, "lang": "en", "listed_count": 2, "location": "Westeros", "name": "Madsen_Rebekah", "profile_background_color": "222B37", "profile_background_image_url": "http://pbs.twimg.com/profile_background_images/639465687/mat72nkyeewjnxne0zfr.jpeg", "profile_background_tile": false, "profile_banner_url": "https://pbs.twimg.com/profile_banners/168244834/1445471182", "profile_image_url": "https://pbs.twimg.com/profile_images/660568232634388480/AyQndKHC_normal.jpg", "profile_link_color": "74A2D0", "profile_sidebar_fill_color": "614061", "profile_text_color": "2AFA00", "protected": false, "screen_name": "GalaXyIsToday", "statuses_count": 12088, "time_zone": "Eastern Time (US & Canada)", "url": "http://t.co/whvc13ntuZ", "utc_offset": -18000}}
{"coordinates": {"coordinates": [-75.17814817, 40.70197832], "type": "Point"}, "created_at": "Sun Aug 23 11:43:32 +0000 2015", "favorite_count": 1, "favorited": false, "geo": {"coordinates": [40.70197832, -75.17814817], "type": "Point"}, "id": 635417082193149952, "lang": "en", "place": {"attributes": {}, "bounding_box": {"coordinates": [[[-75.2033684, 40.668686], [-75.146887, 40.668686], [-75.146887, 40.724254], [-75.2033684, 40.724254]]], "type": "Polygon"}, "contained_within": [], "country": "United States", "country_code": "US", "full_name": "Phillipsburg, NJ", "id": "36c18a0c925ac506", "name": "Phillipsburg", "place_type": "city", "url": "https://api.twitter.com/1.1/geo/id/36c18a0c925ac506.json"}, "retweeted": false, "source": "<a href=\"http://twitter.com/download/iphone\" rel=\"nofollow\">Twitter for iPhone</a>", "text": "The Wawa in P-Burg has been strange lately.. Police officers opening and closing doors for customers, and a gentlemen buying my coffee..hmm", "truncated": false, "user": {"created_at": "Thu Jul 14 16:46:58 +0000 2011", "default_profile": true, "description": "Chasing dreams one step at a time. I can do all things through Christ who strengthens me.-Philippians 4:13.", "favourites_count": 6183, "followers_count": 659, "friends_count": 771, "geo_enabled": true, "id": 335403416, "lang": "en", "listed_count": 1, "location": "Easton, PA", "name": "Richie Llagas", "profile_background_color": "C0DEED", "profile_background_image_url": "http://abs.twimg.com/images/themes/theme1/bg.png", "profile_background_tile": false, "profile_banner_url": "https://pbs.twimg.com/profile_banners/335403416/1422313802", "profile_image_url": "https://pbs.twimg.com/profile_images/539109878112223232/UTMyduI5_normal.jpeg", "profile_link_color": "0084B4", "profile_sidebar_fill_color": "DDEEF6", "profile_text_color": "333333", "protected": false, "screen_name": "RichieLlagas", "statuses_count": 9647, "time_zone": "Eastern Time (US & Canada)", "utc_offset": -18000}}
{"created_at": "Sun Aug 23 11:47:00 +0000 2015", "favorite_count": 1, "favorited": false, "id": 635417954054750208, "lang": "en", "retweeted": false, "source": "<a href=\"http://twitter.com/download/iphone\" rel=\"nofollow\">Twitter for iPhone</a>", "text": "I'm personally offended that Wawa is closing its locations this year. This better be a vicious lie.", "truncated": false, "user": {"created_at": "Tue Dec 13 00:55:50 +0000 2011", "description": "Charismatic. Hard Working. Optimistic. Aspiring Traveler. Aspiring Celebrity Who Has No Reason To Be Famous. IG: peter_bread_", "favourites_count": 3570, "followers_count": 314, "friends_count": 400, "geo_enabled": true, "id": 435395638, "lang": "en", "listed_count": 2, "location": "New Jersey", "name": "Peter Christian", "profile_background_color": "FCFFFF", "profile_background_image_url": "http://abs.twimg.com/images/themes/theme13/bg.gif", "profile_background_tile": false, "profile_banner_url": "https://pbs.twimg.com/profile_banners/435395638/1444713296", "profile_image_url": "https://pbs.twimg.com/profile_images/688032306846633985/ZtYVYRz9_normal.jpg", "profile_link_color": "4A913C", "profile_sidebar_fill_color": "FFFFFF", "profile_text_color": "333333", "protected": false, "screen_name": "Peter_Bread_", "statuses_count": 8737, "time_zone": "America/Detroit", "utc_offset": -18000}}
{"created_at": "Sun Aug 23 14:57:25 +0000 2015", "favorite_count": 2, "favorited": false, "hashtags": ["depressed"], "id": 635465874363809792, "lang": "en", "retweeted": false, "source": "<a href=\"http://twitter.com/download/iphone\" rel=\"nofollow\">Twitter for iPhone</a>", "text": "Excuse me y did I just read that wawa is closing all stores by 2016 ?\u00bf #depressed", "truncated": false, "user": {"created_at": "Sat Sep 22 19:13:25 +0000 2012", "favourites_count": 3930, "followers_count": 443, "friends_count": 400, "geo_enabled": true, "id": 840283338, "lang": "en", "location": "wonderland", "name": "Katie Bouloubassis", "profile_background_color": "131516", "profile_background_image_url": "http://abs.twimg.com/images/themes/theme14/bg.gif", "profile_background_tile": true, "profile_banner_url": "https://pbs.twimg.com/profile_banners/840283338/1443583396", "profile_image_url": "https://pbs.twimg.com/profile_images/649708761347592192/RoxMwHdd_normal.jpg", "profile_link_color": "009999", "profile_sidebar_fill_color": "EFEFEF", "profile_text_color": "333333", "protected": false, "screen_name": "Ktbouloubassis", "statuses_count": 4566}}
{"created_at": "Sun Aug 23 19:05:22 +0000 2015", "favorited": false, "id": 635528274890883075, "in_reply_to_screen_name": "Jessewelle", "in_reply_to_user_id": 37597184, "lang": "en", "retweeted": false, "source": "<a href=\"http://twitter.com/download/iphone\" rel=\"nofollow\">Twitter for iPhone</a>", "text": "@Jessewelle just heard that WaWa is closing all of their stores in 2016!!!! Don't know if it is true but! \ud83d\ude25 @PhillyChic5", "truncated": false, "user": {"created_at": "Sun May 13 20:14:51 +0000 2012", "description": "One good thing about music, when it hits you, you feel no pain.- Bob Marley || Love singing #SDA || Montreal|Qc", "favourites_count": 35, "followers_count": 55, "friends_count": 287, "id": 579250133, "lang": "en", "listed_count": 3, "name": "Nadia Ja", "profile_background_color": "94D487", "profile_background_image_url": "http://pbs.twimg.com/profile_background_images/614932208835407872/Vcy7Xf2E.jpg", "profile_background_tile": true, "profile_banner_url": "https://pbs.twimg.com/profile_banners/579250133/1433342880", "profile_image_url": "https://pbs.twimg.com/profile_images/575135100976951296/oFjKw0f2_normal.jpeg", "profile_link_color": "4A913C", "profile_sidebar_fill_color": "DDEEF6", "profile_text_color": "333333", "protected": false, "screen_name": "Miss_Nad94", "statuses_count": 768}, "user_mentions": [{"id": 37597184, "name": "Jesse Wellens", "screen_name": "Jessewelle"}, {"id": 168566725, "name": "Jeana", "screen_name": "PhillyChic5"}]}
{"created_at": "Mon Aug 24 14:36:43 +0000 2015", "favorite_count": 1, "favorited": false, "id": 635823051205124096, "lang": "en", "place": {"attributes": {}, "bounding_box": {"coordinates": [[[27.7518557, -26.5126489], [28.1359747, -26.5126489], [28.1359747, -26.1023182], [27.7518557, -26.1023182]]], "type": "Polygon"}, "contained_within": [], "country": "South Africa", "country_code": "ZA", "full_name": "Johannesburg, South Africa", "id": "e564d30dc173d2a8", "name": "Johannesburg", "place_type": "city", "url": "https://api.twitter.com/1.1/geo/id/e564d30dc173d2a8.json"}, "retweeted": false, "source": "<a href=\"http://twitter.com\" rel=\"nofollow\">Twitter Web Client</a>", "text": "Rumour has it @Wawa is closing...someone please confirm or deny this nightmare", "truncated": false, "user": {"created_at": "Fri Apr 23 22:53:05 +0000 2010", "description": "I mostly tweet things my mom says. Enjoy!", "favourites_count": 2805, "followers_count": 280, "friends_count": 1046, "geo_enabled": true, "id": 136429782, "lang": "en", "listed_count": 2, "location": "Point Place, Wisconsin", "name": "Luyolo M.", "profile_background_color": "BADFCD", "profile_background_image_url": "http://pbs.twimg.com/profile_background_images/509680603080302594/11fHcT0l.jpeg", "profile_background_tile": true, "profile_banner_url": "https://pbs.twimg.com/profile_banners/136429782/1369701445", "profile_image_url": "https://pbs.twimg.com/profile_images/378800000549966413/d37c563ebe5137e0aba55b5995ae8f85_normal.png", "profile_link_color": "FF0000", "profile_sidebar_fill_color": "FFF7CC", "profile_text_color": "0C3E53", "protected": false, "screen_name": "skipt0my_lu", "statuses_count": 4565, "time_zone": "Athens", "utc_offset": 7200}, "user_mentions": [{"id": 356866129, "name": "Wawa", "screen_name": "Wawa"}]}
{"created_at": "Thu Aug 27 03:05:13 +0000 2015", "favorited": false, "id": 636736193552601088, "lang": "en", "retweeted": false, "source": "<a href=\"http://twitter.com/download/android\" rel=\"nofollow\">Twitter for Android</a>", "text": "Sending a text to my mom telling her to sue the people responsible for closing that Wawa if I die of thirst on the train.", "truncated": false, "user": {"created_at": "Sun Sep 28 14:42:44 +0000 2008", "description": "Concert-goer. Bookworm. Soccer-watcher. Designer. Writer. Obsessive organizer. 25, VP of Baby Face Club. Caution: I curse a lot. https://t.co/O4GvgHLS2g", "favourites_count": 3928, "followers_count": 271, "friends_count": 1006, "id": 16498728, "lang": "en", "listed_count": 18, "location": "Philadelphia/Delco", "name": "Anna", "profile_background_color": "533159", "profile_background_image_url": "http://pbs.twimg.com/profile_background_images/284605715/twitterbackground4.gif", "profile_background_tile": false, "profile_banner_url": "https://pbs.twimg.com/profile_banners/16498728/1451439166", "profile_image_url": "https://pbs.twimg.com/profile_images/647959729810075648/hs-1LF46_normal.jpg", "profile_link_color": "420C3E", "profile_sidebar_fill_color": "FFFFFF", "profile_text_color": "000000", "protected": false, "screen_name": "anna_christine", "statuses_count": 39967, "time_zone": "America/New_York", "url": "http://t.co/3h0gjMvZ4J", "utc_offset": -18000}}
{"created_at": "Fri Aug 28 00:40:44 +0000 2015", "favorited": false, "id": 637062224075444224, "lang": "en", "retweeted": false, "source": "<a href=\"http://twitter.com/download/iphone\" rel=\"nofollow\">Twitter for iPhone</a>", "text": "The wawa next to my work is closing for a month in a few weeks, I'm not sure how I'm going to survive mornings", "truncated": false, "user": {"created_at": "Tue Sep 20 22:25:53 +0000 2011", "description": "Former #1 NHL Pro Gamer In The World(RIP) - Stockton University Alumni - A Wannabe Tony Stark - Let Your Actions Control Your Emotions", "favourites_count": 6667, "followers_count": 466, "friends_count": 977, "geo_enabled": true, "id": 377035461, "lang": "en", "listed_count": 4, "location": "New Jersey ", "name": "Ed Delesandro", "profile_background_color": "022330", "profile_background_image_url": "http://pbs.twimg.com/profile_background_images/622240626/9gzjalfrrtup6jgk8r8u.png", "profile_background_tile": false, "profile_banner_url": "https://pbs.twimg.com/profile_banners/377035461/1367977261", "profile_image_url": "https://pbs.twimg.com/profile_images/676203552503648256/fiOepuah_normal.jpg", "profile_link_color": "0084B4", "profile_sidebar_fill_color": "C0DFEC", "profile_text_color": "333333", "protected": false, "screen_name": "Noboundss", "statuses_count": 10033, "time_zone": "Eastern Time (US & Canada)", "url": "http://t.co/qIDW1Mg66A", "utc_offset": -18000}}
{"created_at": "Fri Aug 28 19:47:48 +0000 2015", "favorited": false, "id": 637350890496749568, "lang": "en", "retweeted": false, "source": "<a href=\"http://twitter.com/download/iphone\" rel=\"nofollow\">Twitter for iPhone</a>", "text": "theyre also closing down the first wawa to build a super wawa down the street. i will not give them my service. i am angry.", "truncated": false, "user": {"created_at": "Sun May 19 19:38:44 +0000 2013", "default_profile": true, "description": "@Harry_Styles: Thank you Philly for last night. Hope you all enjoyed the show, you've always been lovely to us. H", "favourites_count": 9560, "followers_count": 1308, "friends_count": 273, "id": 1442063041, "lang": "en", "listed_count": 21, "location": "philly", "name": "madden", "profile_background_color": "C0DEED", "profile_background_image_url": "http://abs.twimg.com/images/themes/theme1/bg.png", "profile_background_tile": false, "profile_banner_url": "https://pbs.twimg.com/profile_banners/1442063041/1452737138", "profile_image_url": "https://pbs.twimg.com/profile_images/687455241567105025/-LtIut0E_normal.jpg", "profile_link_color": "0084B4", "profile_sidebar_fill_color": "DDEEF6", "profile_text_color": "333333", "protected": false, "screen_name": "uItrabadIands", "statuses_count": 20278, "time_zone": "Atlantic Time (Canada)", "utc_offset": -14400}}
{"created_at": "Sat Aug 29 06:10:20 +0000 2015", "favorited": false, "id": 637507556936708096, "lang": "en", "retweeted": false, "source": "<a href=\"http://twitter.com/download/android\" rel=\"nofollow\">Twitter for Android</a>", "text": "Walked to 24 hr wawa and had some junk food. Stopped in bar across street but they were closing", "truncated": false, "user": {"created_at": "Tue Dec 06 23:42:42 +0000 2011", "description": "Wyomissing, PA, USA (Hometown of Taylor Swift). I'm an independent running for the U.S. presidency in 2016. See my campaign website below.", "favourites_count": 5990, "followers_count": 584, "friends_count": 1227, "id": 430269849, "lang": "en", "listed_count": 62, "name": "Joe", "profile_background_color": "000000", "profile_background_image_url": "http://abs.twimg.com/images/themes/theme14/bg.gif", "profile_background_tile": false, "profile_image_url": "https://pbs.twimg.com/profile_images/662045803104641025/UALGQYUc_normal.jpg", "profile_link_color": "4A913C", "profile_sidebar_fill_color": "000000", "profile_text_color": "000000", "protected": false, "screen_name": "NewsConnoisseur", "statuses_count": 44917, "time_zone": "Eastern Time (US & Canada)", "url": "https://t.co/GKbfgMEroC", "utc_offset": -18000}}
{"created_at": "Tue Sep 01 12:06:34 +0000 2015", "favorited": false, "id": 638684368270049284, "lang": "en", "retweeted": false, "source": "<a href=\"http://twitter.com/download/iphone\" rel=\"nofollow\">Twitter for iPhone</a>", "text": "So the wawa near my job is gonna be closing &amp; not reopening until October 16th, NIGGA!!!?", "truncated": false, "user": {"created_at": "Fri Jul 23 17:58:01 +0000 2010", "description": "Live a little..", "favourites_count": 1728, "followers_count": 667, "friends_count": 400, "id": 169996597, "lang": "en", "listed_count": 2, "location": "Philadelphia, PA", "name": "Leanzy lee", "profile_background_color": "E698C1", "profile_background_image_url": "http://pbs.twimg.com/profile_background_images/378800000028957135/0d640b344afd17e5e3e24399eed16474.jpeg", "profile_background_tile": true, "profile_banner_url": "https://pbs.twimg.com/profile_banners/169996597/1448855889", "profile_image_url": "https://pbs.twimg.com/profile_images/665892707102015488/Gl3OtdWT_normal.jpg", "profile_link_color": "BD8484", "profile_sidebar_fill_color": "EBB0C4", "profile_text_color": "EBD3DF", "protected": false, "screen_name": "Leanzy_", "statuses_count": 39692, "time_zone": "Central Time (US & Canada)", "utc_offset": -21600}}
{"created_at": "Wed Sep 02 02:39:54 +0000 2015", "favorite_count": 1, "favorited": false, "id": 638904149774471168, "lang": "en", "retweeted": false, "source": "<a href=\"http://twitter.com/download/android\" rel=\"nofollow\">Twitter for Android</a>", "text": "The Wawa show was priceless. Hope Beaver Man has a \"blast\", as you suggested, closing his camp. End of an era. @JollyHarris @StillStandingTV", "truncated": false, "user": {"created_at": "Sat Mar 05 15:49:44 +0000 2011", "description": "Ottawa based. Montreal native. Global traveller. Runner. Rugby fan. Spartan racer.", "favourites_count": 687, "followers_count": 976, "friends_count": 1844, "geo_enabled": true, "id": 261258356, "lang": "en", "listed_count": 26, "location": "Ottawa", "name": "Stephen Hendrie", "profile_background_color": "ABB8C2", "profile_background_image_url": "http://pbs.twimg.com/profile_background_images/613808064685150208/xLMecjpE.jpg", "profile_background_tile": true, "profile_banner_url": "https://pbs.twimg.com/profile_banners/261258356/1444194954", "profile_image_url": "https://pbs.twimg.com/profile_images/674696987732611073/H9KuLSMx_normal.jpg", "profile_link_color": "610B08", "profile_sidebar_fill_color": "DDEEF6", "profile_text_color": "333333", "protected": false, "screen_name": "TYPE808", "statuses_count": 5996, "time_zone": "Atlantic Time (Canada)", "utc_offset": -14400}, "user_mentions": [{"id": 233334501, "name": "Jonny Harris", "screen_name": "JollyHarris"}, {"id": 2494529148, "name": "Still Standing", "screen_name": "StillStandingTV"}]}
{"created_at": "Tue Sep 15 16:08:02 +0000 2015", "favorited": false, "hashtags": ["Wawa"], "id": 643818567004086272, "lang": "en", "media": [{"display_url": "pic.twitter.com/uK4JxD5oTx", "expanded_url": "http://twitter.com/sautter/status/643818567004086272/photo/1", "id": 643744677552898048, "id_str": "643744677552898048", "indices": [104, 126], "media_url": "http://pbs.twimg.com/media/CO8KX5-WwAA9jow.jpg", "media_url_https": "https://pbs.twimg.com/media/CO8KX5-WwAA9jow.jpg", "sizes": {"large": {"h": 768, "resize": "fit", "w": 1024}, "medium": {"h": 450, "resize": "fit", "w": 600}, "small": {"h": 255, "resize": "fit", "w": 340}, "thumb": {"h": 150, "resize": "crop", "w": 150}}, "type": "photo", "url": "http://t.co/uK4JxD5oTx"}], "retweeted": false, "source": "<a href=\"https://about.twitter.com/products/tweetdeck\" rel=\"nofollow\">TweetDeck</a>", "text": "- - - PSA - - - \n@Wawa Lafayette Hill, PA will be closing from 10PM tonight until 5AM tomorrow. \n\n#Wawa http://t.co/uK4JxD5oTx", "truncated": false, "user": {"created_at": "Fri Mar 16 04:32:30 +0000 2007", "description": "Ontologist seeking a haven of peace in a violent world of clamorous egotism. RPCV Thailand 102. Vipassana meditater. Gooner. Gardner.", "favourites_count": 371, "followers_count": 1581, "friends_count": 865, "id": 1265601, "lang": "en", "listed_count": 148, "location": "Philadelphia", "name": "Michael Sautter", "profile_background_color": "0C10CB", "profile_background_image_url": "http://pbs.twimg.com/profile_background_images/7706871/blue-pattern.jpg", "profile_background_tile": true, "profile_banner_url": "https://pbs.twimg.com/profile_banners/1265601/1451602119", "profile_image_url": "https://pbs.twimg.com/profile_images/682694969530793984/QBOsWC50_normal.jpg", "profile_link_color": "0C10CB", "profile_sidebar_fill_color": "CCCCFF", "profile_text_color": "000000", "protected": false, "screen_name": "sautter", "statuses_count": 19238, "time_zone": "Eastern Time (US & Canada)", "url": "http://t.co/DhOqrZnF6b", "utc_offset": -18000}, "user_mentions": [{"id": 356866129, "name": "Wawa", "screen_name": "Wawa"}]}
{"created_at": "Fri Sep 18 04:58:49 +0000 2015", "favorite_count": 1, "favorited": false, "id": 644737316607643648, "in_reply_to_screen_name": "keisertroll", "in_reply_to_status_id": 644732887351345152, "in_reply_to_user_id": 141436861, "lang": "en", "retweeted": false, "source": "<a href=\"http://twitter.com\" rel=\"nofollow\">Twitter Web Client</a>", "text": "@keisertroll the 11th and Arch Wawa closing shop legitimately bums me the fuck out even now", "truncated": false, "user": {"created_at": "Sat Jan 10 05:18:06 +0000 2009", "description": "i like to eat crab but i prefer steak", "favourites_count": 36075, "followers_count": 249, "friends_count": 353, "geo_enabled": true, "id": 18827673, "lang": "en", "listed_count": 1, "location": "philly", "name": "chris", "profile_background_color": "131516", "profile_background_image_url": "http://pbs.twimg.com/profile_background_images/489223396358488065/goYZMwRs.jpeg", "profile_background_tile": true, "profile_banner_url": "https://pbs.twimg.com/profile_banners/18827673/1447195808", "profile_image_url": "https://pbs.twimg.com/profile_images/664213094831255553/o0hGVHWk_normal.jpg", "profile_link_color": "9266CC", "profile_sidebar_fill_color": "EFEFEF", "profile_text_color": "333333", "protected": false, "screen_name": "flavortown69", "statuses_count": 18305, "time_zone": "Eastern Time (US & Canada)", "utc_offset": -18000}, "user_mentions": [{"id": 141436861, "name": "El Chapo Del Ocho", "screen_name": "keisertroll"}]}
{"created_at": "Fri Sep 18 05:51:16 +0000 2015", "favorited": false, "id": 644750516019445761, "lang": "en", "retweeted": false, "source": "<a href=\"http://twitter.com/download/iphone\" rel=\"nofollow\">Twitter for iPhone</a>", "text": "WaWa so stupid, you're suppose to be open 24/7. Fuck you closing at 1AM just to open back up at 3AM for?", "truncated": false, "user": {"created_at": "Sat Nov 10 16:49:24 +0000 2012", "default_profile": true, "description": "If she don't let me pipe, I won't contribute to her hype.", "favourites_count": 1, "followers_count": 107, "friends_count": 34, "geo_enabled": true, "id": 939456794, "lang": "en", "listed_count": 11, "name": "kev", "profile_background_color": "C0DEED", "profile_background_image_url": "http://abs.twimg.com/images/themes/theme1/bg.png", "profile_background_tile": false, "profile_banner_url": "https://pbs.twimg.com/profile_banners/939456794/1451329407", "profile_image_url": "https://pbs.twimg.com/profile_images/678908350520762368/xjtjpkn1_normal.jpg", "profile_link_color": "0084B4", "profile_sidebar_fill_color": "DDEEF6", "profile_text_color": "333333", "protected": false, "screen_name": "kingsweatpants", "statuses_count": 130802, "time_zone": "Atlantic Time (Canada)", "utc_offset": -14400}}
{"created_at": "Fri Sep 18 12:25:15 +0000 2015", "favorite_count": 1, "favorited": false, "id": 644849665020698624, "lang": "en", "place": {"attributes": {}, "bounding_box": {"coordinates": [[[-75.280284, 39.871811], [-74.955712, 39.871811], [-74.955712, 40.13792], [-75.280284, 40.13792]]], "type": "Polygon"}, "contained_within": [], "country": "United States", "country_code": "US", "full_name": "Philadelphia, PA", "id": "e4a0d228eb6be76b", "name": "Philadelphia", "place_type": "city", "url": "https://api.twitter.com/1.1/geo/id/e4a0d228eb6be76b.json"}, "retweeted": false, "source": "<a href=\"http://twitter.com/download/iphone\" rel=\"nofollow\">Twitter for iPhone</a>", "text": "Despite the fact the mega-Wawa opens on walnut street today I'm still salty about the Chinatown one closing. :(", "truncated": false, "user": {"created_at": "Sat Nov 19 08:27:38 +0000 2011", "description": "I stream RPGs on Twitch, nanny, and sometimes dabble in film.", "favourites_count": 2864, "followers_count": 1025, "friends_count": 855, "geo_enabled": true, "id": 416133306, "lang": "en", "listed_count": 16, "location": "Philadelphia, PA", "name": "Bee", "profile_background_color": "C0DEED", "profile_background_image_url": "http://pbs.twimg.com/profile_background_images/367074302/011B-7245-2.jpeg", "profile_background_tile": true, "profile_banner_url": "https://pbs.twimg.com/profile_banners/416133306/1429059402", "profile_image_url": "https://pbs.twimg.com/profile_images/686072240639717376/vEh4TJsU_normal.jpg", "profile_link_color": "9B1138", "profile_sidebar_fill_color": "DDEEF6", "profile_text_color": "333333", "protected": false, "screen_name": "bernadettemari3", "statuses_count": 5519, "time_zone": "Central Time (US & Canada)", "url": "https://t.co/eY1iDCn9XV", "utc_offset": -21600}}
