{"created_at": "Fri Sep 04 00:13:52 +0000 2015", "favorited": false, "id": 639592177987923968, "lang": "en", "retweeted": false, "source": "<a href=\"http://ifttt.com\" rel=\"nofollow\">IFTTT</a>", "text": "Amish DMV clerk", "truncated": false, "user": {"created_at": "Sun Dec 22 21:42:51 +0000 2013", "default_profile": true, "favourites_count": 33, "followers_count": 915, "friends_count": 185, "id": 2258156846, "lang": "en", "listed_count": 157, "location": "Scottsdale", "name": "Olivia Claire", "profile_background_color": "C0DEED", "profile_background_image_url": "http://abs.twimg.com/images/themes/theme1/bg.png", "profile_background_tile": false, "profile_banner_url": "https://pbs.twimg.com/profile_banners/2258156846/1390542142", "profile_image_url": "https://pbs.twimg.com/profile_images/415360102200123392/DOd8c9wb_normal.jpeg", "profile_link_color": "0084B4", "profile_sidebar_fill_color": "DDEEF6", "profile_text_color": "333333", "protected": false, "screen_name": "OClaire1029671", "statuses_count": 886965}}
{"created_at": "Fri Sep 04 01:01:47 +0000 2015", "favorited": false, "id": 639604236163108864, "lang": "en", "retweeted": false, "source": "<a href=\"http://ifttt.com\" rel=\"nofollow\">IFTTT</a>", "text": "Amish DMV clerk via /r/funny http://t.co/jqtfqqmhit", "truncated": false, "urls": {"http://t.co/jqtfqqmhit": "http://ift.tt/1EEpR8l"}, "user": {"created_at": "Fri Oct 17 04:35:07 +0000 2014", "default_profile": true, "favourites_count": 24, "followers_count": 922, "friends_count": 130, "id": 2859372870, "lang": "en", "listed_count": 290, "name": "Business Lunchbox", "profile_background_color": "C0DEED", "profile_background_image_url": "http://abs.twimg.com/images/themes/theme1/bg.png", "profile_background_tile": false, "profile_image_url": "https://pbs.twimg.com/profile_images/522972576977412096/XVZ-AffP_normal.jpeg", "profile_link_color": "0084B4", "profile_sidebar_fill_color": "DDEEF6", "profile_text_color": "333333", "protected": false, "screen_name": "bizlunchbox", "statuses_count": 795372}}
{"created_at": "Fri Sep 04 05:32:09 +0000 2015", "favorited": false, "id": 639672274849779712, "lang": "en", "media": [{"display_url": "pic.twitter.com/q8qYGMjf0k", "expanded_url": "http://twitter.com/Nerd_ON/status/639672274849779712/photo/1", "id": 639672274778517504, "id_str": "639672274778517504", "indices": [16, 38], "media_url": "http://pbs.twimg.com/media/COCSi3bW8AARtjI.jpg", "media_url_https": "https://pbs.twimg.com/media/COCSi3bW8AARtjI.jpg", "sizes": {"large": {"h": 480, "resize": "fit", "w": 720}, "medium": {"h": 400, "resize": "fit", "w": 600}, "small": {"h": 226, "resize": "fit", "w": 340}, "thumb": {"h": 150, "resize": "crop", "w": 150}}, "type": "photo", "url": "http://t.co/q8qYGMjf0k"}], "retweeted": false, "source": "<a href=\"http://ifttt.com\" rel=\"nofollow\">IFTTT</a>", "text": "Amish DMV clerk http://t.co/q8qYGMjf0k", "truncated": false, "user": {"created_at": "Fri Jul 22 22:12:35 +0000 2011", "default_profile": true, "followers_count": 79, "id": 340561819, "lang": "en", "listed_count": 14, "name": "NerdON", "profile_background_color": "C0DEED", "profile_background_image_url": "http://abs.twimg.com/images/themes/theme1/bg.png", "profile_background_tile": false, "profile_image_url": "https://pbs.twimg.com/profile_images/1455903282/7-23-2011_2-58-03_AM_normal.png", "profile_link_color": "0084B4", "profile_sidebar_fill_color": "DDEEF6", "profile_text_color": "333333", "protected": false, "screen_name": "Nerd_ON", "statuses_count": 72263, "time_zone": "Central Time (US & Canada)", "url": "http://t.co/vSdaG3nX5R", "utc_offset": -21600}}
{"created_at": "Fri Sep 04 05:37:39 +0000 2015", "favorited": false, "id": 639673660698173440, "lang": "en", "media": [{"display_url": "pic.twitter.com/tja4beb1Ni", "expanded_url": "http://twitter.com/lolfeedqc/status/639673660698173440/photo/1", "id": 639673660639461376, "id_str": "639673660639461376", "indices": [16, 38], "media_url": "http://pbs.twimg.com/media/COCTziKWwAAFnYl.jpg", "media_url_https": "https://pbs.twimg.com/media/COCTziKWwAAFnYl.jpg", "sizes": {"large": {"h": 480, "resize": "fit", "w": 720}, "medium": {"h": 400, "resize": "fit", "w": 600}, "small": {"h": 226, "resize": "fit", "w": 340}, "thumb": {"h": 150, "resize": "crop", "w": 150}}, "type": "photo", "url": "http://t.co/tja4beb1Ni"}], "retweeted": false, "source": "<a href=\"http://ifttt.com\" rel=\"nofollow\">IFTTT</a>", "text": "Amish DMV clerk http://t.co/tja4beb1Ni", "truncated": false, "user": {"created_at": "Mon Mar 19 18:59:06 +0000 2012", "description": "Images de/from Imgur/r/funny. Peut spammer \u00e0 coups de 5-6 tweets \u00e0 la fois.", "favourites_count": 5, "followers_count": 278, "friends_count": 134, "id": 529631310, "lang": "fr", "listed_count": 16, "location": "Internet", "name": "LOL Feed", "profile_background_color": "131516", "profile_background_image_url": "http://pbs.twimg.com/profile_background_images/559130431124033536/_NL4Ogtx.png", "profile_background_tile": true, "profile_banner_url": "https://pbs.twimg.com/profile_banners/529631310/1422142108", "profile_image_url": "https://pbs.twimg.com/profile_images/559129765269889025/Lca4El7Q_normal.png", "profile_link_color": "990000", "profile_sidebar_fill_color": "EFEFEF", "profile_text_color": "333333", "protected": false, "screen_name": "lolfeedqc", "statuses_count": 60498, "time_zone": "Eastern Time (US & Canada)", "url": "http://t.co/t8OGrGcSgw", "utc_offset": -18000}}
{"created_at": "Fri Sep 04 05:38:01 +0000 2015", "favorited": false, "id": 639673749357363200, "lang": "en", "media": [{"display_url": "pic.twitter.com/dQ5LM6WNLQ", "expanded_url": "http://twitter.com/iHateFunny/status/639673749357363200/photo/1", "id": 639673749302870016, "id_str": "639673749302870016", "indices": [16, 38], "media_url": "http://pbs.twimg.com/media/COCT4sdXAAAFEih.jpg", "media_url_https": "https://pbs.twimg.com/media/COCT4sdXAAAFEih.jpg", "sizes": {"large": {"h": 480, "resize": "fit", "w": 720}, "medium": {"h": 400, "resize": "fit", "w": 600}, "small": {"h": 226, "resize": "fit", "w": 340}, "thumb": {"h": 150, "resize": "crop", "w": 150}}, "type": "photo", "url": "http://t.co/dQ5LM6WNLQ"}], "retweeted": false, "source": "<a href=\"http://ifttt.com\" rel=\"nofollow\">IFTTT</a>", "text": "Amish DMV clerk http://t.co/dQ5LM6WNLQ", "truncated": false, "user": {"created_at": "Fri Dec 19 22:38:04 +0000 2014", "followers_count": 57, "friends_count": 19, "id": 2936455808, "lang": "en", "listed_count": 11, "name": "Funny Pics", "profile_background_color": "1A1B1F", "profile_background_image_url": "http://abs.twimg.com/images/themes/theme9/bg.gif", "profile_background_tile": false, "profile_banner_url": "https://pbs.twimg.com/profile_banners/2936455808/1419292202", "profile_image_url": "https://pbs.twimg.com/profile_images/547177412367114240/Tza4waON_normal.jpeg", "profile_link_color": "2FC2EF", "profile_sidebar_fill_color": "DDEEF6", "profile_text_color": "333333", "protected": false, "screen_name": "iHateFunny", "statuses_count": 35940, "time_zone": "Hawaii", "utc_offset": -36000}}
{"created_at": "Fri Sep 04 05:38:53 +0000 2015", "favorited": false, "id": 639673968102871040, "lang": "en", "media": [{"display_url": "pic.twitter.com/s8Nesc6imS", "expanded_url": "http://twitter.com/puregag/status/639673968102871040/photo/1", "id": 639673968052596736, "id_str": "639673968052596736", "indices": [16, 38], "media_url": "http://pbs.twimg.com/media/COCUFbXW8AAvYvK.jpg", "media_url_https": "https://pbs.twimg.com/media/COCUFbXW8AAvYvK.jpg", "sizes": {"large": {"h": 480, "resize": "fit", "w": 720}, "medium": {"h": 400, "resize": "fit", "w": 600}, "small": {"h": 226, "resize": "fit", "w": 340}, "thumb": {"h": 150, "resize": "crop", "w": 150}}, "type": "photo", "url": "http://t.co/s8Nesc6imS"}], "retweeted": false, "source": "<a href=\"http://ifttt.com\" rel=\"nofollow\">IFTTT</a>", "text": "Amish DMV clerk http://t.co/s8Nesc6imS", "truncated": false, "user": {"created_at": "Thu Jul 19 00:25:32 +0000 2012", "description": "A Database of Amusing Gags", "favourites_count": 11, "followers_count": 772, "friends_count": 1979, "id": 704051702, "lang": "en", "listed_count": 9, "name": "Pure Gag", "profile_background_color": "E8F8FB", "profile_background_image_url": "http://pbs.twimg.com/profile_background_images/797170023/d676b3396dd48bdcee21ac6060cb5689.png", "profile_background_tile": true, "profile_banner_url": "https://pbs.twimg.com/profile_banners/704051702/1398619459", "profile_image_url": "https://pbs.twimg.com/profile_images/3290706364/00fa915ecd4ad6e8de8f21dc002fd531_normal.png", "profile_link_color": "00BEA3", "profile_sidebar_fill_color": "FFF200", "profile_text_color": "FF385F", "protected": false, "screen_name": "puregag", "statuses_count": 94075, "url": "http://t.co/DhIcDmUc1G"}}
{"created_at": "Fri Sep 04 06:19:26 +0000 2015", "favorited": false, "hashtags": ["funny", "fun"], "id": 639684174589222912, "lang": "en", "retweeted": false, "source": "<a href=\"http://www.google.com/\" rel=\"nofollow\">Google</a>", "text": "Amish DMV clerk http://t.co/9ZbWsdzM7b #funny #fun", "truncated": false, "urls": {"http://t.co/9ZbWsdzM7b": "http://goo.gl/fb/EPlZFy"}, "user": {"created_at": "Sun Dec 11 04:14:18 +0000 2011", "default_profile": true, "description": "'NeedMoreCookies offers you the possibility to access a lot of funstuff on the Internet in an easy way. There are tons of Funny Pictures, Games and Videos.", "followers_count": 228, "friends_count": 390, "id": 433877306, "lang": "de", "listed_count": 38, "name": "NeedMoreCookies", "profile_background_color": "C0DEED", "profile_background_image_url": "http://abs.twimg.com/images/themes/theme1/bg.png", "profile_background_tile": false, "profile_image_url": "https://pbs.twimg.com/profile_images/2301130861/kj53au08ketx28u7b4nb_normal.png", "profile_link_color": "0084B4", "profile_sidebar_fill_color": "DDEEF6", "profile_text_color": "333333", "protected": false, "screen_name": "needmorecookies", "statuses_count": 175536, "url": "http://t.co/RnSy86zh0d"}}
{"created_at": "Fri Sep 04 06:29:15 +0000 2015", "favorited": false, "id": 639686645999013888, "lang": "en", "media": [{"display_url": "pic.twitter.com/Kx8IhEvNnN", "expanded_url": "http://twitter.com/ProGagFun/status/639686645999013888/photo/1", "id": 639686644963020800, "id_str": "639686644963020800", "indices": [39, 61], "media_url": "http://pbs.twimg.com/media/COCfnUiVEAAEs8n.jpg", "media_url_https": "https://pbs.twimg.com/media/COCfnUiVEAAEs8n.jpg", "sizes": {"large": {"h": 480, "resize": "fit", "w": 720}, "medium": {"h": 400, "resize": "fit", "w": 600}, "small": {"h": 226, "resize": "fit", "w": 340}, "thumb": {"h": 150, "resize": "crop", "w": 150}}, "type": "photo", "url": "http://t.co/Kx8IhEvNnN"}], "retweeted": false, "source": "<a href=\"http://publicize.wp.com/\" rel=\"nofollow\">WordPress.com</a>", "text": "Amish DMV clerk http://t.co/V5kL5ovuaL http://t.co/Kx8IhEvNnN", "truncated": false, "urls": {"http://t.co/V5kL5ovuaL": "http://progag.com/107501/amish-dmv-clerk/"}, "user": {"created_at": "Thu Jan 31 17:59:11 +0000 2013", "description": "Funny pictures, gags, meme, gif, fails, crazy stuff, interesting things that even your mother likes! ProGAG is a 9gag damn!lol lolhappens best alternative. Visi", "followers_count": 28, "friends_count": 4, "id": 1137522654, "lang": "en", "listed_count": 5, "location": "Located in your brain", "name": "ProGag", "profile_background_color": "141414", "profile_background_image_url": "http://abs.twimg.com/images/themes/theme9/bg.gif", "profile_background_tile": false, "profile_banner_url": "https://pbs.twimg.com/profile_banners/1137522654/1426456360", "profile_image_url": "https://pbs.twimg.com/profile_images/573848442868359168/Op1jst26_normal.png", "profile_link_color": "A0C546", "profile_sidebar_fill_color": "DDEEF6", "profile_text_color": "333333", "protected": false, "screen_name": "ProGagFun", "statuses_count": 35665, "url": "http://t.co/bhPC1rtqCA"}}
{"created_at": "Sat Sep 05 17:15:46 +0000 2015", "favorited": false, "id": 640211734217625601, "lang": "en", "retweeted": false, "source": "<a href=\"http://twitter.com\" rel=\"nofollow\">Twitter Web Client</a>", "text": "Amish DMV clerk - Imgur http://t.co/W0kCfPfX0M", "truncated": false, "urls": {"http://t.co/W0kCfPfX0M": "http://imgur.com/uJz2Lyw?third_party=1"}, "user": {"created_at": "Thu Jan 15 02:46:37 +0000 2009", "description": "Activist, Psychologist, UCSB parent #NotOneMore #BeSmart #gunsensevoter #momsdemandaction #Everytown #IloveObama #UniteBlue #WearingOrange #MartinOMalley2016", "favourites_count": 3008, "followers_count": 784, "friends_count": 2000, "geo_enabled": true, "id": 19007782, "lang": "en", "listed_count": 25, "location": "Chitown & NYC", "name": "Lost Hussein", "profile_background_color": "642D8B", "profile_background_image_url": "http://pbs.twimg.com/profile_background_images/137831651/Cassiopeia.jpg", "profile_background_tile": true, "profile_banner_url": "https://pbs.twimg.com/profile_banners/19007782/1444276184", "profile_image_url": "https://pbs.twimg.com/profile_images/651967249742479361/FBG5KH5f_normal.jpg", "profile_link_color": "FF0000", "profile_sidebar_fill_color": "7AC3EE", "profile_text_color": "3D1957", "protected": false, "screen_name": "LostHussein", "statuses_count": 7786, "time_zone": "Central Time (US & Canada)", "url": "http://t.co/qGaJmUcWpl", "utc_offset": -21600}}
{"created_at": "Sun Sep 06 05:58:06 +0000 2015", "favorited": false, "id": 640403581640667136, "lang": "en", "retweeted": false, "source": "<a href=\"http://dlvr.it\" rel=\"nofollow\">dlvr.it</a>", "text": "Amish DMV Clerk http://t.co/543i4kwgPU", "truncated": false, "urls": {"http://t.co/543i4kwgPU": "http://dlvr.it/C4GxW3"}, "user": {"created_at": "Fri May 10 17:04:34 +0000 2013", "description": "Funny Pictures, Jokes and Videos to make you laugh all day long.", "favourites_count": 419, "followers_count": 796, "friends_count": 1172, "id": 1418582580, "lang": "en", "listed_count": 4, "name": "Lolride", "profile_background_color": "DBE9ED", "profile_background_image_url": "http://abs.twimg.com/images/themes/theme17/bg.gif", "profile_background_tile": false, "profile_banner_url": "https://pbs.twimg.com/profile_banners/1418582580/1440036019", "profile_image_url": "https://pbs.twimg.com/profile_images/634183030610001920/aPmOG3k-_normal.jpg", "profile_link_color": "CC3366", "profile_sidebar_fill_color": "E6F6F9", "profile_text_color": "333333", "protected": false, "screen_name": "Lol_Ride", "statuses_count": 10972, "url": "http://t.co/Ky61iX3d0R"}}
{"created_at": "Sun Sep 06 16:46:40 +0000 2015", "favorited": false, "id": 640566799751254017, "lang": "en", "retweeted": false, "source": "<a href=\"http://www.facebook.com/twitter\" rel=\"nofollow\">Facebook</a>", "text": "Amish DMV clerk. http://t.co/irDah6Dd9I", "truncated": false, "urls": {"http://t.co/irDah6Dd9I": "http://fb.me/7IC16DPOY"}, "user": {"created_at": "Fri Dec 28 06:06:17 +0000 2007", "description": "My claim to fame is being the character 'Mark Bernay' in the famous Esquire Article about phone phreaks.", "favourites_count": 107, "followers_count": 753, "friends_count": 795, "geo_enabled": true, "id": 11592862, "lang": "en", "listed_count": 25, "location": "94102", "name": "Mark Bernay", "profile_background_color": "9AE4E8", "profile_background_image_url": "http://pbs.twimg.com/profile_background_images/458137206863835136/KnZjfMSG.jpeg", "profile_background_tile": true, "profile_banner_url": "https://pbs.twimg.com/profile_banners/11592862/1360912514", "profile_image_url": "https://pbs.twimg.com/profile_images/3255454792/3e3cb8ffbdeee296bfda903baee8c038_normal.jpeg", "profile_link_color": "0000FF", "profile_sidebar_fill_color": "AAAAAA", "profile_text_color": "000000", "protected": false, "screen_name": "PhoneTrips", "statuses_count": 7060, "time_zone": "Pacific Time (US & Canada)", "url": "http://t.co/oUC4ZSQIUk", "utc_offset": -28800}}
{"created_at": "Mon Sep 07 11:18:01 +0000 2015", "favorited": false, "id": 640846476718022656, "lang": "en", "media": [{"display_url": "pic.twitter.com/ij7qICldMy", "expanded_url": "http://twitter.com/animals_advice/status/640846476718022656/photo/1", "id": 640846476650893312, "id_str": "640846476650893312", "indices": [16, 38], "media_url": "http://pbs.twimg.com/media/COS-eaRWUAAgpe1.jpg", "media_url_https": "https://pbs.twimg.com/media/COS-eaRWUAAgpe1.jpg", "sizes": {"large": {"h": 646, "resize": "fit", "w": 959}, "medium": {"h": 403, "resize": "fit", "w": 600}, "small": {"h": 228, "resize": "fit", "w": 340}, "thumb": {"h": 150, "resize": "crop", "w": 150}}, "type": "photo", "url": "http://t.co/ij7qICldMy"}], "retweeted": false, "source": "<a href=\"http://ifttt.com\" rel=\"nofollow\">IFTTT</a>", "text": "Amish DMV Clerk http://t.co/ij7qICldMy", "truncated": false, "user": {"created_at": "Wed Dec 31 18:35:16 +0000 2014", "default_profile": true, "followers_count": 8367, "friends_count": 4373, "id": 2953955281, "lang": "en", "listed_count": 38, "name": "Only Advice Animals", "profile_background_color": "C0DEED", "profile_background_image_url": "http://abs.twimg.com/images/themes/theme1/bg.png", "profile_background_tile": false, "profile_image_url": "https://pbs.twimg.com/profile_images/550360253083054081/5dAIjSIY_normal.jpeg", "profile_link_color": "0084B4", "profile_sidebar_fill_color": "DDEEF6", "profile_text_color": "333333", "protected": false, "screen_name": "animals_advice", "statuses_count": 209864}}
{"created_at": "Mon Sep 07 15:36:20 +0000 2015", "favorite_count": 6, "favorited": false, "id": 640911488056582144, "lang": "en", "retweet_count": 1, "retweeted": false, "source": "<a href=\"https://about.twitter.com/products/tweetdeck\" rel=\"nofollow\">TweetDeck</a>", "text": "Amish DMV clerk? https://t.co/JD4KjH4OI2", "truncated": false, "urls": {"https://t.co/JD4KjH4OI2": "https://scontent.fsnc1-1.fna.fbcdn.net/hphotos-xtf1/t31.0-8/11921750_10153283751848611_7614904975900845216_o.jpg"}, "user": {"created_at": "Tue Jun 07 23:34:05 +0000 2011", "description": "Founder of @PizzaSplat, @InstarateIt, @iNachoRater, and @NYResolutionApp. I dev at @avvo too. Oh and I cosplay as @jerikandralurve too!", "favourites_count": 4277, "followers_count": 669, "friends_count": 544, "geo_enabled": true, "id": 312971022, "lang": "en", "listed_count": 58, "location": "Snohomish, WA", "name": "Jerica", "profile_background_color": "642D8B", "profile_background_image_url": "http://pbs.twimg.com/profile_background_images/378800000119978277/5985329b2254f811d7c7faf6fb023bcd.png", "profile_background_tile": true, "profile_banner_url": "https://pbs.twimg.com/profile_banners/312971022/1426202501", "profile_image_url": "https://pbs.twimg.com/profile_images/627046256120954880/3K8ZItq0_normal.jpg", "profile_link_color": "7518F0", "profile_sidebar_fill_color": "7AC3EE", "profile_text_color": "3D1957", "protected": false, "screen_name": "JericaLurve", "statuses_count": 13232, "url": "http://t.co/VBoP3TfVMg"}}
{"created_at": "Mon Sep 07 20:20:40 +0000 2015", "favorited": false, "hashtags": ["KimDavis"], "id": 640983039992958976, "lang": "en", "retweeted": false, "source": "<a href=\"http://www.facebook.com/twitter\" rel=\"nofollow\">Facebook</a>", "text": "Amish DMV clerk...#KimDavis http://t.co/wZSKzJbDXy", "truncated": false, "urls": {"http://t.co/wZSKzJbDXy": "http://fb.me/7MpVuZLxY"}, "user": {"created_at": "Thu Mar 04 02:02:18 +0000 2010", "default_profile": true, "description": "Electronics Technician", "favourites_count": 21, "followers_count": 26, "friends_count": 43, "geo_enabled": true, "id": 119578069, "lang": "en", "listed_count": 1, "location": "Berkeley, CA, USA", "name": ".-. --- -... .. -.", "profile_background_color": "C0DEED", "profile_background_image_url": "http://abs.twimg.com/images/themes/theme1/bg.png", "profile_background_tile": false, "profile_banner_url": "https://pbs.twimg.com/profile_banners/119578069/1452912646", "profile_image_url": "https://pbs.twimg.com/profile_images/639866959203430400/oRdIgC41_normal.png", "profile_link_color": "0084B4", "profile_sidebar_fill_color": "DDEEF6", "profile_text_color": "333333", "protected": false, "screen_name": "hamoohead", "statuses_count": 1216, "time_zone": "Central Time (US & Canada)", "utc_offset": -21600}}
{"created_at": "Tue Sep 08 01:13:09 +0000 2015", "favorited": false, "id": 641056648019185669, "lang": "en", "retweeted": false, "source": "<a href=\"http://bufferapp.com\" rel=\"nofollow\">Buffer</a>", "text": "Amish DMV Clerk\nhttp://t.co/X8QHOERMZS", "truncated": false, "urls": {"http://t.co/X8QHOERMZS": "http://buff.ly/1K2lWOx"}, "user": {"created_at": "Sun Oct 16 00:05:45 +0000 2011", "default_profile": true, "description": "Energy Efficiency Rater & Consultant, Climate Disruption Activist", "favourites_count": 535, "followers_count": 290, "friends_count": 492, "id": 391704003, "lang": "en", "listed_count": 9, "location": "Tucson, AZ USA", "name": "Robert Bulechek", "profile_background_color": "C0DEED", "profile_background_image_url": "http://abs.twimg.com/images/themes/theme1/bg.png", "profile_background_tile": false, "profile_image_url": "https://pbs.twimg.com/profile_images/2028707634/w810T79W_normal", "profile_link_color": "0084B4", "profile_sidebar_fill_color": "DDEEF6", "profile_text_color": "333333", "protected": false, "screen_name": "RobertBulechek", "statuses_count": 5430, "time_zone": "Arizona", "url": "http://t.co/uAOEiqJjuC", "utc_offset": -25200}}
{"created_at": "Tue Sep 08 01:18:44 +0000 2015", "favorite_count": 19, "favorited": false, "id": 641058049839398912, "lang": "en", "media": [{"display_url": "pic.twitter.com/XfQZm4qkmH", "expanded_url": "http://twitter.com/LiberalEffects/status/641058049839398912/photo/1", "id": 641058049138950144, "id_str": "641058049138950144", "indices": [16, 38], "media_url": "http://pbs.twimg.com/media/COV-5jNVAAAHtsD.jpg", "media_url_https": "https://pbs.twimg.com/media/COV-5jNVAAAHtsD.jpg", "sizes": {"large": {"h": 287, "resize": "fit", "w": 426}, "medium": {"h": 287, "resize": "fit", "w": 426}, "small": {"h": 229, "resize": "fit", "w": 340}, "thumb": {"h": 150, "resize": "crop", "w": 150}}, "type": "photo", "url": "http://t.co/XfQZm4qkmH"}], "retweet_count": 26, "retweeted": false, "source": "<a href=\"http://twitter.com\" rel=\"nofollow\">Twitter Web Client</a>", "text": "Amish DMV Clerk http://t.co/XfQZm4qkmH", "truncated": false, "user": {"created_at": "Wed Sep 21 19:38:57 +0000 2011", "description": "Progressive/Liberal - Community, News, Commentary, Supporting Progressive Causes", "favourites_count": 7788, "followers_count": 8366, "friends_count": 7059, "id": 377565477, "lang": "en", "listed_count": 220, "location": "Newberg OR", "name": "Liberal Effects", "profile_background_color": "567D58", "profile_background_image_url": "http://pbs.twimg.com/profile_background_images/374383730/LiberalTwit_copy2.jpg", "profile_background_tile": true, "profile_banner_url": "https://pbs.twimg.com/profile_banners/377565477/1408874748", "profile_image_url": "https://pbs.twimg.com/profile_images/625861978318225409/8upv9Vm2_normal.png", "profile_link_color": "011705", "profile_sidebar_fill_color": "468063", "profile_text_color": "011204", "protected": false, "screen_name": "LiberalEffects", "statuses_count": 43535, "time_zone": "Pacific Time (US & Canada)", "url": "http://t.co/vvUaT0uQgK", "utc_offset": -28800}}
{"created_at": "Wed Sep 09 16:50:16 +0000 2015", "favorite_count": 1, "favorited": false, "hashtags": ["KimDavis"], "id": 641654866159362048, "lang": "en", "media": [{"display_url": "pic.twitter.com/ze2z3Vy4zV", "expanded_url": "http://twitter.com/RdubHall/status/641654866159362048/photo/1", "id": 641654864838135808, "id_str": "641654864838135808", "indices": [27, 49], "media_url": "http://pbs.twimg.com/media/COedsy8UEAAuthx.jpg", "media_url_https": "https://pbs.twimg.com/media/COedsy8UEAAuthx.jpg", "sizes": {"large": {"h": 371, "resize": "fit", "w": 552}, "medium": {"h": 371, "resize": "fit", "w": 552}, "small": {"h": 228, "resize": "fit", "w": 340}, "thumb": {"h": 150, "resize": "crop", "w": 150}}, "type": "photo", "url": "http://t.co/ze2z3Vy4zV"}], "retweet_count": 1, "retweeted": false, "source": "<a href=\"http://twitter.com/download/android\" rel=\"nofollow\">Twitter for Android</a>", "text": "Amish DMV Clerk \n#KimDavis http://t.co/ze2z3Vy4zV", "truncated": false, "user": {"created_at": "Sat Jun 19 23:11:18 +0000 2010", "description": "Yes, I play the piano. No, I won't help you move. I love enchiladas & autobiographies. Former Navy, so I've been everywhere, man.", "favourites_count": 683, "followers_count": 659, "friends_count": 987, "geo_enabled": true, "id": 157474144, "lang": "en", "listed_count": 29, "location": "Texas, USA, Earth ", "name": "Rick.", "profile_background_color": "C0DEED", "profile_background_image_url": "http://pbs.twimg.com/profile_background_images/115008632/us.jpg", "profile_background_tile": true, "profile_banner_url": "https://pbs.twimg.com/profile_banners/157474144/1452274937", "profile_image_url": "https://pbs.twimg.com/profile_images/682742599111712772/3AeDV5g1_normal.jpg", "profile_link_color": "0C00B3", "profile_sidebar_fill_color": "DDEEF6", "profile_text_color": "333333", "protected": false, "screen_name": "RdubHall", "statuses_count": 13480, "time_zone": "Central Time (US & Canada)", "url": "https://t.co/DAVpKka0CN", "utc_offset": -21600}}
{"created_at": "Wed Sep 09 17:12:31 +0000 2015", "favorited": false, "id": 641660465848807424, "lang": "en", "media": [{"display_url": "pic.twitter.com/vI1HKajEXI", "expanded_url": "http://twitter.com/azcourier/status/641660465848807424/photo/1", "id": 641660449541361664, "id_str": "641660449541361664", "indices": [16, 38], "media_url": "http://pbs.twimg.com/media/COeix3lUkAAmVwA.jpg", "media_url_https": "https://pbs.twimg.com/media/COeix3lUkAAmVwA.jpg", "sizes": {"large": {"h": 458, "resize": "fit", "w": 680}, "medium": {"h": 404, "resize": "fit", "w": 600}, "small": {"h": 229, "resize": "fit", "w": 340}, "thumb": {"h": 150, "resize": "crop", "w": 150}}, "type": "photo", "url": "http://t.co/vI1HKajEXI"}], "retweeted": false, "source": "<a href=\"http://twitter.com/download/iphone\" rel=\"nofollow\">Twitter for iPhone</a>", "text": "Amish DMV Clerk http://t.co/vI1HKajEXI", "truncated": false, "user": {"created_at": "Wed Sep 05 18:05:27 +0000 2012", "default_profile": true, "description": "Blue man in a red state, believe in the magic of rock n roll #ActOnClimate #GetMoneyOut #GunSense #PeopleOverPolitics #UniteBlue Vote D!", "favourites_count": 2147, "followers_count": 701, "friends_count": 1225, "geo_enabled": true, "id": 805089864, "lang": "en", "listed_count": 49, "location": "Arizona", "name": "Tom", "profile_background_color": "C0DEED", "profile_background_image_url": "http://abs.twimg.com/images/themes/theme1/bg.png", "profile_background_tile": false, "profile_banner_url": "https://pbs.twimg.com/profile_banners/805089864/1401409730", "profile_image_url": "https://pbs.twimg.com/profile_images/659362104583983104/r3RxaUDf_normal.jpg", "profile_link_color": "0084B4", "profile_sidebar_fill_color": "DDEEF6", "profile_text_color": "333333", "protected": false, "screen_name": "azcourier", "statuses_count": 21316}}
{"created_at": "Thu Sep 10 21:29:22 +0000 2015", "favorited": false, "id": 642087492057862144, "lang": "en", "retweeted": false, "source": "<a href=\"http://www.facebook.com/twitter\" rel=\"nofollow\">Facebook</a>", "text": "Amish DMV clerk! http://t.co/hBWQZDGu8V", "truncated": false, "urls": {"http://t.co/hBWQZDGu8V": "http://fb.me/4m6H1jBCr"}, "user": {"created_at": "Mon May 30 04:59:11 +0000 2011", "description": "I love Jesus (1st), my wife (2nd); Texas BBQ, Italian & Tex-Mex; baseball, football & hockey; & more styles of music than I know what to do with.", "favourites_count": 2814, "followers_count": 83, "friends_count": 172, "geo_enabled": true, "id": 307717202, "lang": "en", "listed_count": 7, "location": "Southeast Texas", "name": "C. A. Pearson", "profile_background_color": "1A1B1F", "profile_background_image_url": "http://pbs.twimg.com/profile_background_images/423379697/Scottish_Lion_rampant.jpg", "profile_background_tile": true, "profile_image_url": "https://pbs.twimg.com/profile_images/673371903671726080/mH2QlF_R_normal.jpg", "profile_link_color": "2FC2EF", "profile_sidebar_fill_color": "252429", "profile_text_color": "666666", "protected": false, "screen_name": "C_A_Pearson", "statuses_count": 6718, "time_zone": "Central Time (US & Canada)", "utc_offset": -21600}}
{"created_at": "Sun Sep 13 00:04:35 +0000 2015", "favorited": false, "hashtags": ["lol"], "id": 642851329501724673, "lang": "en", "retweeted": false, "source": "<a href=\"http://ifttt.com\" rel=\"nofollow\">IFTTT</a>", "text": "Amish DMV clerk\nGet more LOLs with us | Submissions welcome |  http://t.co/OkZIfrdTRQ #lol", "truncated": false, "urls": {"http://t.co/OkZIfrdTRQ": "http://ift.tt/1OmjAjG"}, "user": {"created_at": "Wed Nov 17 02:35:43 +0000 2010", "description": "we scout the internet for everything funny, geeky, sexy so you can find it in one place.", "favourites_count": 81, "followers_count": 403, "friends_count": 421, "id": 216556923, "lang": "en", "listed_count": 29, "location": "Los Angeles", "name": "(Funny Geeky Sexy)", "profile_background_color": "709397", "profile_background_image_url": "http://abs.twimg.com/images/themes/theme6/bg.gif", "profile_background_tile": false, "profile_image_url": "https://pbs.twimg.com/profile_images/1170224617/Pin_up_P_normal.jpg", "profile_link_color": "FF3300", "profile_sidebar_fill_color": "A0C5C7", "profile_text_color": "333333", "protected": false, "screen_name": "podpocalypse", "statuses_count": 26889, "url": "https://t.co/wkkJSEn4zm"}}
