{"created_at": "Fri Aug 14 19:44:01 +0000 2015", "favorite_count": 87, "favorited": false, "id": 632276509969874944, "lang": "en", "media": [{"display_url": "pic.twitter.com/uNqHeNto1X", "expanded_url": "http://twitter.com/YoungCons/status/632276509969874944/photo/1", "id": 632276509147852800, "id_str": "632276509147852800", "indices": [101, 123], "media_url": "http://pbs.twimg.com/media/CMZMIpeU8AAkYot.jpg", "media_url_https": "https://pbs.twimg.com/media/CMZMIpeU8AAkYot.jpg", "sizes": {"large": {"h": 362, "resize": "fit", "w": 640}, "medium": {"h": 339, "resize": "fit", "w": 600}, "small": {"h": 192, "resize": "fit", "w": 340}, "thumb": {"h": 150, "resize": "crop", "w": 150}}, "type": "photo", "url": "http://t.co/uNqHeNto1X"}], "retweet_count": 83, "retweeted": false, "source": "<a href=\"http://twitter.com\" rel=\"nofollow\">Twitter Web Client</a>", "text": "3-yr-old boy is Seriously ill, Trump Finds out, IMMEDIATELY Does This for him http://t.co/7ajVdbepU0 http://t.co/uNqHeNto1X", "truncated": false, "urls": {"http://t.co/7ajVdbepU0": "http://www.youngcons.com/donald-trump-allows-seriously-ill-jewish-child-to-use-private-jet/"}, "user": {"created_at": "Wed May 27 05:21:31 +0000 2009", "description": "Christian, Conservative, Dartmouth College '12, D1 Bball players, Dartmouth Review Editors. Josh Riddle & David Rufful. info@youngcons.com #tcot", "favourites_count": 5202, "followers_count": 73767, "friends_count": 477, "id": 42822396, "lang": "en", "listed_count": 991, "location": "Denver, CO", "name": "Young Conservatives", "profile_background_color": "1A1B1F", "profile_background_image_url": "http://pbs.twimg.com/profile_background_images/79747659/youngcons_working-1.jpg", "profile_background_tile": false, "profile_banner_url": "https://pbs.twimg.com/profile_banners/42822396/1438585946", "profile_image_url": "https://pbs.twimg.com/profile_images/628101533045907456/-alHp6Q6_normal.jpg", "profile_link_color": "2FC2EF", "profile_sidebar_fill_color": "252429", "profile_text_color": "666666", "protected": false, "screen_name": "YoungCons", "statuses_count": 24748, "time_zone": "Quito", "url": "http://t.co/1kF6xGs6ka", "utc_offset": -18000}}
{"created_at": "Fri Aug 14 21:04:27 +0000 2015", "favorited": false, "id": 632296752259969024, "lang": "en", "retweeted": false, "source": "<a href=\"http://www.facebook.com/twitter\" rel=\"nofollow\">Facebook</a>", "text": "3-yr-old boy is Seriously ill, Airlines Refuse to Help, Trump IMMEDIATELY Does This http://t.co/Qm04XI7F8D", "truncated": false, "urls": {"http://t.co/Qm04XI7F8D": "http://fb.me/AzmOcxHO"}, "user": {"created_at": "Mon Sep 24 21:46:45 +0000 2012", "description": "Our mission: To give you the opportunity to meet and know each other, to share information, to plan for action and mobilize together to save our great country.", "favourites_count": 1, "followers_count": 273, "friends_count": 4, "id": 844368979, "lang": "en", "listed_count": 3, "location": "The heart of America", "name": "C.A.N.", "profile_background_color": "000305", "profile_background_image_url": "http://pbs.twimg.com/profile_background_images/668609547/5de3f6f3514be35333042c0738e49b82.jpeg", "profile_background_tile": true, "profile_image_url": "https://pbs.twimg.com/profile_images/2646253077/befcd74e1fef8b9c984b896d2e44908b_normal.png", "profile_link_color": "0084B4", "profile_sidebar_fill_color": "DDEEF6", "profile_text_color": "333333", "protected": false, "screen_name": "CANetwork2012", "statuses_count": 6920}}
{"created_at": "Fri Aug 14 21:06:21 +0000 2015", "favorited": false, "id": 632297229118779393, "lang": "en", "retweeted": false, "source": "<a href=\"http://www.facebook.com/twitter\" rel=\"nofollow\">Facebook</a>", "text": "3-yr-old boy is Seriously ill, Airlines Refuse to Help, Trump IMMEDIATELY Does This http://t.co/vHq00zYkf0", "truncated": false, "urls": {"http://t.co/vHq00zYkf0": "http://fb.me/6GJXGvQ7V"}, "user": {"created_at": "Wed Dec 03 21:43:07 +0000 2008", "description": "After 39 years I am launching a new phase in my life in the next three weeks", "favourites_count": 2, "followers_count": 1013, "friends_count": 1989, "geo_enabled": true, "id": 17850001, "lang": "en", "listed_count": 10, "location": " Ohio", "name": "Dan Hoar", "profile_background_color": "C6E2EE", "profile_background_image_url": "http://pbs.twimg.com/profile_background_images/220404457/visalus_twitter_lhp01.jpg", "profile_background_tile": false, "profile_banner_url": "https://pbs.twimg.com/profile_banners/17850001/1398347012", "profile_image_url": "https://pbs.twimg.com/profile_images/67767603/Dan_HOar_normal.jpg", "profile_link_color": "1F98C7", "profile_sidebar_fill_color": "DAECF4", "profile_text_color": "663B12", "protected": false, "screen_name": "danieldhoar", "statuses_count": 6055, "time_zone": "Eastern Time (US & Canada)", "url": "http://t.co/WlgDEHER23", "utc_offset": -18000}}
{"created_at": "Fri Aug 14 21:13:44 +0000 2015", "favorited": false, "id": 632299088009150464, "lang": "en", "retweeted": false, "source": "<a href=\"http://www.facebook.com/twitter\" rel=\"nofollow\">Facebook</a>", "text": "3-yr-old boy is seriously ill, Trump Finds out, IMMEDIATELY Does This for him http://t.co/dPv1E7Dd5R", "truncated": false, "urls": {"http://t.co/dPv1E7Dd5R": "http://fb.me/2v9Ec0zQu"}, "user": {"created_at": "Tue May 27 02:40:16 +0000 2014", "description": "I absolutely love Robin Thicke.  He has an amazing voice and is incredibly sexy.", "favourites_count": 511, "followers_count": 765, "friends_count": 1955, "geo_enabled": true, "id": 2526349230, "lang": "en", "listed_count": 12, "location": "United States", "name": "Lillie Teel", "profile_background_color": "000000", "profile_background_image_url": "http://abs.twimg.com/images/themes/theme1/bg.png", "profile_background_tile": false, "profile_banner_url": "https://pbs.twimg.com/profile_banners/2526349230/1441252332", "profile_image_url": "https://pbs.twimg.com/profile_images/643218989431164929/V5fpR1su_normal.jpg", "profile_link_color": "3B94D9", "profile_sidebar_fill_color": "000000", "profile_text_color": "000000", "protected": false, "screen_name": "Tatum_0909", "statuses_count": 48463, "time_zone": "Central Time (US & Canada)", "url": "https://t.co/ITxhcUcnqK", "utc_offset": -21600}}
{"created_at": "Fri Aug 14 21:13:51 +0000 2015", "favorite_count": 2, "favorited": false, "id": 632299115297304576, "lang": "en", "retweet_count": 3, "retweeted": false, "source": "<a href=\"http://www.facebook.com/twitter\" rel=\"nofollow\">Facebook</a>", "text": "3-yr-old boy is Seriously ill, Airlines Refuse to Help, Trump IMMEDIATELY Does This http://t.co/iK3iMLiCKm", "truncated": false, "urls": {"http://t.co/iK3iMLiCKm": "http://fb.me/4gclrtFgn"}, "user": {"created_at": "Thu Oct 21 20:56:04 +0000 2010", "description": "It's not me you don't like it's Jesus. I am a Christian, an American with Brazilian immigrant parents and a believer in protecting the Constitution and Israel!", "favourites_count": 1192, "followers_count": 2282, "friends_count": 2311, "geo_enabled": true, "id": 205893721, "lang": "en", "listed_count": 60, "location": "Easley, S.C. ", "name": "Mary #LNYHBT", "profile_background_color": "713599", "profile_background_image_url": "http://pbs.twimg.com/profile_background_images/673509020/2afd8d35828a12d91691702b0d0502d1.jpeg", "profile_background_tile": true, "profile_banner_url": "https://pbs.twimg.com/profile_banners/205893721/1350358535", "profile_image_url": "https://pbs.twimg.com/profile_images/492887474360680448/3_9X2pUG_normal.jpeg", "profile_link_color": "088253", "profile_sidebar_fill_color": "E3E2DE", "profile_text_color": "634047", "protected": false, "screen_name": "BrazilianGirl32", "statuses_count": 21461, "time_zone": "Eastern Time (US & Canada)", "url": "http://t.co/amxZujkJXv", "utc_offset": -18000}}
{"created_at": "Fri Aug 14 21:24:54 +0000 2015", "favorited": false, "id": 632301897181986817, "lang": "en", "retweeted": false, "source": "<a href=\"http://www.facebook.com/twitter\" rel=\"nofollow\">Facebook</a>", "text": "3-yr-old boy is Seriously ill, Airlines Refuse to Help, Trump IMMEDIATELY Does This http://t.co/nIfH2FG1u5", "truncated": false, "urls": {"http://t.co/nIfH2FG1u5": "http://fb.me/6JCavvh3X"}, "user": {"created_at": "Sat Sep 17 19:33:26 +0000 2011", "default_profile": true, "description": "It's me. I am what I am. Mom of 4, adopted mom of more. too old to matter, too young to die", "favourites_count": 537, "followers_count": 495, "friends_count": 1164, "geo_enabled": true, "id": 375245503, "lang": "en", "listed_count": 26, "location": "Guysville, Ohio", "name": "Kathy Holt", "profile_background_color": "C0DEED", "profile_background_image_url": "http://abs.twimg.com/images/themes/theme1/bg.png", "profile_background_tile": false, "profile_banner_url": "https://pbs.twimg.com/profile_banners/375245503/1438134492", "profile_image_url": "https://pbs.twimg.com/profile_images/2988113981/7b13935861285e66670e41d9ad3a8165_normal.png", "profile_link_color": "0084B4", "profile_sidebar_fill_color": "DDEEF6", "profile_text_color": "333333", "protected": false, "screen_name": "QtrKathy", "statuses_count": 33385, "time_zone": "Central Time (US & Canada)", "utc_offset": -21600}}
{"created_at": "Fri Aug 14 21:31:51 +0000 2015", "favorite_count": 1, "favorited": false, "id": 632303647209181184, "lang": "en", "retweeted": false, "source": "<a href=\"http://www.facebook.com/twitter\" rel=\"nofollow\">Facebook</a>", "text": "3-yr-old boy is Seriously ill, Airlines Refuse to Help, Trump IMMEDIATELY Does This http://t.co/LnAFJqMVSQ", "truncated": false, "urls": {"http://t.co/LnAFJqMVSQ": "http://fb.me/38BWha0Jh"}, "user": {"created_at": "Sat Aug 29 18:39:28 +0000 2009", "default_profile": true, "description": "Owner of Northstar Janitorial LLC", "favourites_count": 13, "followers_count": 602, "friends_count": 1223, "id": 69931399, "lang": "en", "listed_count": 2, "location": "Howell, NJ", "name": "Charles  Rakita", "profile_background_color": "C0DEED", "profile_background_image_url": "http://abs.twimg.com/images/themes/theme1/bg.png", "profile_background_tile": false, "profile_image_url": "https://pbs.twimg.com/profile_images/1430276458/SRRgWEST_normal", "profile_link_color": "0084B4", "profile_sidebar_fill_color": "DDEEF6", "profile_text_color": "333333", "protected": false, "screen_name": "cjrakita", "statuses_count": 9166, "url": "http://t.co/t7xGZskx8P"}}
{"created_at": "Fri Aug 14 21:33:10 +0000 2015", "favorited": false, "id": 632303976944418816, "lang": "en", "retweeted": false, "source": "<a href=\"http://www.facebook.com/twitter\" rel=\"nofollow\">Facebook</a>", "text": "3-yr-old boy is Seriously ill, Airlines Refuse to Help, Trump IMMEDIATELY Does This http://t.co/FbOfnVhWRr", "truncated": false, "urls": {"http://t.co/FbOfnVhWRr": "http://fb.me/7nyRsWClX"}, "user": {"created_at": "Thu May 03 05:46:16 +0000 2012", "default_profile": true, "description": "Smart, handsome ginger kid from Milton", "favourites_count": 3, "followers_count": 19, "friends_count": 25, "id": 569799525, "lang": "en", "listed_count": 1, "location": "Milton, ON", "name": "Killian Hobbs", "profile_background_color": "C0DEED", "profile_background_image_url": "http://abs.twimg.com/images/themes/theme1/bg.png", "profile_background_tile": false, "profile_image_url": "https://pbs.twimg.com/profile_images/2268305156/4nli507q3s7v4ry0ll26_normal.jpeg", "profile_link_color": "0084B4", "profile_sidebar_fill_color": "DDEEF6", "profile_text_color": "333333", "protected": false, "screen_name": "KillianHobbs", "statuses_count": 3691}}
{"created_at": "Fri Aug 14 21:33:59 +0000 2015", "favorited": false, "id": 632304183690022913, "lang": "en", "retweeted": false, "source": "<a href=\"http://www.apple.com\" rel=\"nofollow\">iOS</a>", "text": "3-Year-Old Boy is Seriously ill, Trump Finds out, IMMEDIATELY Does This for him http://t.co/4M49nos1zV", "truncated": false, "urls": {"http://t.co/4M49nos1zV": "http://www.youngcons.com/donald-trump-allows-seriously-ill-jewish-child-to-use-private-jet/"}, "user": {"created_at": "Thu Nov 27 20:15:35 +0000 2008", "default_profile": true, "favourites_count": 1475, "followers_count": 1134, "friends_count": 1757, "geo_enabled": true, "id": 17687565, "lang": "en", "listed_count": 11, "name": "guatrone7", "profile_background_color": "C0DEED", "profile_background_image_url": "http://abs.twimg.com/images/themes/theme1/bg.png", "profile_background_tile": false, "profile_banner_url": "https://pbs.twimg.com/profile_banners/17687565/1449969284", "profile_image_url": "https://pbs.twimg.com/profile_images/675846421506080769/gDRm85OX_normal.jpg", "profile_link_color": "0084B4", "profile_sidebar_fill_color": "DDEEF6", "profile_text_color": "333333", "protected": false, "screen_name": "guatrone7", "statuses_count": 44903}}
{"created_at": "Fri Aug 14 21:35:42 +0000 2015", "favorited": false, "id": 632304614797217792, "lang": "en", "retweeted": false, "source": "<a href=\"http://www.facebook.com/twitter\" rel=\"nofollow\">Facebook</a>", "text": "3-yr-old boy is Seriously ill, Airlines Refuse to Help, Trump IMMEDIATELY Does This http://t.co/caPGx3xRE2", "truncated": false, "urls": {"http://t.co/caPGx3xRE2": "http://fb.me/6GjjA4UzA"}, "user": {"created_at": "Fri Dec 12 23:10:02 +0000 2008", "default_profile": true, "favourites_count": 4, "followers_count": 53, "friends_count": 63, "id": 18088524, "lang": "en", "listed_count": 10, "location": "Florida", "name": "Pam Anderson", "profile_background_color": "C0DEED", "profile_background_image_url": "http://abs.twimg.com/images/themes/theme1/bg.png", "profile_background_tile": false, "profile_image_url": "https://pbs.twimg.com/profile_images/67262509/n502959372_306_normal.jpg", "profile_link_color": "0084B4", "profile_sidebar_fill_color": "DDEEF6", "profile_text_color": "333333", "protected": false, "screen_name": "Pam308", "statuses_count": 39013, "time_zone": "Central Time (US & Canada)", "url": "http://t.co/FJPLQHf1", "utc_offset": -21600}}
{"created_at": "Fri Aug 14 21:40:33 +0000 2015", "favorited": false, "id": 632305835880939521, "lang": "en", "retweeted": false, "source": "<a href=\"http://www.facebook.com/twitter\" rel=\"nofollow\">Facebook</a>", "text": "3-yr-old boy is Seriously ill, Airlines Refuse to Help, Trump IMMEDIATELY Does This http://t.co/Jyo3gKVI9Z", "truncated": false, "urls": {"http://t.co/Jyo3gKVI9Z": "http://fb.me/1ssbk3khO"}, "user": {"created_at": "Fri Jul 26 23:00:00 +0000 2013", "default_profile": true, "description": "Respectful observer, appreciative of good music & comedy. Known to crack wise. Inspired by Gregory McDonald, Rodney Dangerfield, Adam Carolla & common sense.", "favourites_count": 251, "followers_count": 28, "friends_count": 134, "geo_enabled": true, "id": 1624054598, "lang": "en", "listed_count": 1, "location": "Whogivesaphuck, AZ", "name": "Joseph Leon", "profile_background_color": "C0DEED", "profile_background_image_url": "http://abs.twimg.com/images/themes/theme1/bg.png", "profile_background_tile": false, "profile_banner_url": "https://pbs.twimg.com/profile_banners/1624054598/1395108182", "profile_image_url": "https://pbs.twimg.com/profile_images/510576653891031040/nnOdaYR9_normal.jpeg", "profile_link_color": "0084B4", "profile_sidebar_fill_color": "DDEEF6", "profile_text_color": "333333", "protected": false, "screen_name": "joeybleon", "statuses_count": 1012}}
{"created_at": "Fri Aug 14 21:43:47 +0000 2015", "favorited": false, "id": 632306648774803456, "lang": "en", "retweeted": false, "source": "<a href=\"http://www.facebook.com/twitter\" rel=\"nofollow\">Facebook</a>", "text": "3-yr-old boy is Seriously ill, Airlines Refuse to Help, Trump IMMEDIATELY Does This http://t.co/SnY5Kth5Up", "truncated": false, "urls": {"http://t.co/SnY5Kth5Up": "http://fb.me/5320lgxl0"}, "user": {"created_at": "Sat Aug 13 18:12:09 +0000 2011", "default_profile": true, "description": "Entrepreneur & Leader of People as directed by the Good Lord. I love my wife and my life. Together, we help people achieve freedom and liberty.", "favourites_count": 46, "followers_count": 192, "friends_count": 230, "id": 354429897, "lang": "en", "listed_count": 13, "location": "North Jersey USA", "name": "Jasen August", "profile_background_color": "C0DEED", "profile_background_image_url": "http://abs.twimg.com/images/themes/theme1/bg.png", "profile_background_tile": false, "profile_banner_url": "https://pbs.twimg.com/profile_banners/354429897/1371752739", "profile_image_url": "https://pbs.twimg.com/profile_images/378800000021672322/320aeb5ddfa40488b1f3b11c7a9b093e_normal.png", "profile_link_color": "0084B4", "profile_sidebar_fill_color": "DDEEF6", "profile_text_color": "333333", "protected": false, "screen_name": "JasenAugust", "statuses_count": 5358, "url": "http://t.co/EzjB0gWfcU"}}
{"created_at": "Fri Aug 14 21:44:18 +0000 2015", "favorited": false, "id": 632306777351155712, "lang": "en", "retweeted": false, "source": "<a href=\"http://www.facebook.com/twitter\" rel=\"nofollow\">Facebook</a>", "text": "3-yr-old boy is seriously ill, Trump Finds out, IMMEDIATELY Does This for him http://t.co/7Gt6Eok3Hm", "truncated": false, "urls": {"http://t.co/7Gt6Eok3Hm": "http://fb.me/6Mj29Lk8w"}, "user": {"created_at": "Thu Jul 16 22:58:58 +0000 2009", "description": "I am married to my husband Lee, have 3 children, and 8 beautiful grandkids.  Love music & movies", "favourites_count": 1, "followers_count": 51, "friends_count": 74, "id": 57474117, "lang": "en", "listed_count": 9, "location": "Columbia, MO", "name": "Levonne Morgan", "profile_background_color": "FA743E", "profile_background_image_url": "http://pbs.twimg.com/profile_background_images/574820719751602176/4fa0pBq_.jpeg", "profile_background_tile": true, "profile_banner_url": "https://pbs.twimg.com/profile_banners/57474117/1431468620", "profile_image_url": "https://pbs.twimg.com/profile_images/378800000387214755/d5b655dc3b2d86a533e17bb2190380bf_normal.png", "profile_link_color": "4A913C", "profile_sidebar_fill_color": "78C0A8", "profile_text_color": "CE7834", "protected": false, "screen_name": "levmorgan", "statuses_count": 11887, "time_zone": "Central Time (US & Canada)", "url": "http://t.co/BHYFSP6wuS", "utc_offset": -21600}}
{"created_at": "Fri Aug 14 21:46:58 +0000 2015", "favorited": false, "id": 632307449568043008, "lang": "en", "retweeted": false, "source": "<a href=\"http://www.facebook.com/twitter\" rel=\"nofollow\">Facebook</a>", "text": "3-yr-old boy is Seriously ill, Airlines Refuse to Help, Trump IMMEDIATELY Does This http://t.co/0DLCjrtEcU", "truncated": false, "urls": {"http://t.co/0DLCjrtEcU": "http://fb.me/GanbDtn5"}, "user": {"created_at": "Sat Jul 25 09:24:01 +0000 2009", "description": "I have been a police officer since 1999. I was wanting more out of life financially. I found that with network marketing. I get to travel and do more now.", "followers_count": 116, "friends_count": 98, "id": 60022587, "lang": "en", "listed_count": 8, "location": "Dunn, NC", "name": "John M. Parker", "profile_background_color": "642D8B", "profile_background_image_url": "http://pbs.twimg.com/profile_background_images/604594116/y6iln922o5koohtk0pvz.jpeg", "profile_background_tile": true, "profile_banner_url": "https://pbs.twimg.com/profile_banners/60022587/1383009683", "profile_image_url": "https://pbs.twimg.com/profile_images/378800000662732358/31faa9975117113b863765be3f0a84f3_normal.jpeg", "profile_link_color": "FF0000", "profile_sidebar_fill_color": "7AC3EE", "profile_text_color": "3D1957", "protected": false, "screen_name": "johnparker5849", "statuses_count": 2137, "time_zone": "Eastern Time (US & Canada)", "url": "http://t.co/HpfYYoOreM", "utc_offset": -18000}}
{"created_at": "Fri Aug 14 21:47:52 +0000 2015", "favorited": false, "id": 632307675662053376, "lang": "en", "retweeted": false, "source": "<a href=\"http://www.facebook.com/twitter\" rel=\"nofollow\">Facebook</a>", "text": "3-yr-old boy is Seriously ill, Airlines Refuse to Help, Trump IMMEDIATELY Does This http://t.co/b94QIdlDT9", "truncated": false, "urls": {"http://t.co/b94QIdlDT9": "http://fb.me/4yGeVeWCx"}, "user": {"created_at": "Mon Jan 21 18:05:50 +0000 2013", "description": "Conservative Group Looking to Restore Common Sense Values in America", "favourites_count": 10145, "followers_count": 2631, "friends_count": 1409, "id": 1109685884, "lang": "en", "listed_count": 51, "location": "America", "name": "PCGoneWild", "profile_background_color": "000000", "profile_background_image_url": "http://abs.twimg.com/images/themes/theme1/bg.png", "profile_background_tile": false, "profile_banner_url": "https://pbs.twimg.com/profile_banners/1109685884/1450974393", "profile_image_url": "https://pbs.twimg.com/profile_images/680062011108134912/W3RjAQjN_normal.jpg", "profile_link_color": "DD2E44", "profile_sidebar_fill_color": "000000", "profile_text_color": "000000", "protected": false, "screen_name": "PC_GoneWild", "statuses_count": 55890, "time_zone": "Eastern Time (US & Canada)", "url": "https://t.co/nF705Bhqzj", "utc_offset": -18000}}
{"created_at": "Fri Aug 14 21:48:12 +0000 2015", "favorited": false, "id": 632307761515245568, "lang": "en", "retweet_count": 3, "retweeted": false, "source": "<a href=\"http://www.facebook.com/twitter\" rel=\"nofollow\">Facebook</a>", "text": "3-yr-old boy is Seriously ill, Airlines Refuse to Help, Trump IMMEDIATELY Does This http://t.co/V6ddXWmZZ1", "truncated": false, "urls": {"http://t.co/V6ddXWmZZ1": "http://fb.me/6LWsK2I4w"}, "user": {"created_at": "Fri Dec 11 19:47:52 +0000 2009", "description": "Passionate entrepreneur and Forever Green Distributor. I never imagined I would be able to offer a chocolate chip cookie dough that makes people lose weight.", "favourites_count": 1, "followers_count": 87, "friends_count": 46, "id": 96192919, "lang": "en", "listed_count": 5, "location": "South Louisiana", "name": "Jamie Dulaney", "profile_background_color": "FAFEFF", "profile_background_image_url": "http://pbs.twimg.com/profile_background_images/477129919307067392/pZUME4Tt.jpeg", "profile_background_tile": false, "profile_banner_url": "https://pbs.twimg.com/profile_banners/96192919/1439656116", "profile_image_url": "https://pbs.twimg.com/profile_images/632589440423206913/WnFaxMx6_normal.jpg", "profile_link_color": "F3FAF2", "profile_sidebar_fill_color": "DDEEF6", "profile_text_color": "333333", "protected": false, "screen_name": "49jpd93", "statuses_count": 7380, "url": "http://t.co/NkpOA3UCW8"}}
{"created_at": "Fri Aug 14 21:49:09 +0000 2015", "favorited": false, "id": 632307997813772288, "lang": "en", "retweeted": false, "source": "<a href=\"http://www.facebook.com/twitter\" rel=\"nofollow\">Facebook</a>", "text": "3-yr-old boy is Seriously ill, Airlines Refuse to Help, Trump IMMEDIATELY Does This http://t.co/jpvWopmiIc", "truncated": false, "urls": {"http://t.co/jpvWopmiIc": "http://fb.me/4jQOdkrxM"}, "user": {"created_at": "Thu Aug 07 19:15:26 +0000 2008", "description": "Harley rider, former Marine, creator of passive income, supporter of the 2nd Amendment (and the entire Constitution), partner in Gemini Guns...Give Us A Shot", "followers_count": 383, "friends_count": 29, "id": 15767984, "lang": "en", "listed_count": 4, "location": "Oklahoma", "name": "James Oates", "profile_background_color": "642D8B", "profile_background_image_url": "http://abs.twimg.com/images/themes/theme10/bg.gif", "profile_background_tile": true, "profile_image_url": "https://pbs.twimg.com/profile_images/58290159/Jim_s_head_shot_jpeg_normal.JPG", "profile_link_color": "FF0000", "profile_sidebar_fill_color": "7AC3EE", "profile_text_color": "3D1957", "protected": false, "screen_name": "joatesiii", "statuses_count": 14014, "time_zone": "Pacific Time (US & Canada)", "utc_offset": -28800}}
{"created_at": "Fri Aug 14 21:50:43 +0000 2015", "favorite_count": 3, "favorited": false, "hashtags": ["tcot"], "id": 632308392946704384, "lang": "en", "retweet_count": 2, "retweeted": false, "source": "<a href=\"http://twitter.com\" rel=\"nofollow\">Twitter Web Client</a>", "text": "3-Year-Old Boy is Seriously ill, Trump Finds out, IMMEDIATELY Does This for him http://t.co/Hzuv9dvPa3 #tcot", "truncated": false, "urls": {"http://t.co/Hzuv9dvPa3": "http://www.youngcons.com/donald-trump-allows-seriously-ill-jewish-child-to-use-private-jet/"}, "user": {"created_at": "Wed Aug 25 21:52:08 +0000 2010", "description": "Conservative Independent; Military Service: U.S. Army, 36th Artillery Gp.,Babenhausen, Germany 1966-67, 1st Signal Brigade, Republic of Vietnam 1967-68", "favourites_count": 192, "followers_count": 2992, "friends_count": 3076, "id": 182984805, "lang": "en", "listed_count": 135, "name": "Bob Mack", "profile_background_color": "C0DEED", "profile_background_image_url": "http://abs.twimg.com/images/themes/theme1/bg.png", "profile_background_tile": false, "profile_image_url": "https://pbs.twimg.com/profile_images/547616125094076417/rUJ8fGKr_normal.jpeg", "profile_link_color": "0084B4", "profile_sidebar_fill_color": "DDEEF6", "profile_text_color": "333333", "protected": false, "screen_name": "CrockettLives", "statuses_count": 18528, "time_zone": "Eastern Time (US & Canada)", "url": "http://t.co/NW3jOAhHKJ", "utc_offset": -18000}}
{"created_at": "Fri Aug 14 21:52:06 +0000 2015", "favorited": false, "id": 632308744186142720, "lang": "en", "retweeted": false, "source": "<a href=\"http://www.facebook.com/twitter\" rel=\"nofollow\">Facebook</a>", "text": "3-yr-old boy is Seriously ill, Airlines Refuse to Help, Trump IMMEDIATELY Does This http://t.co/Y0Ad1FY8J0", "truncated": false, "urls": {"http://t.co/Y0Ad1FY8J0": "http://fb.me/41YxDBFex"}, "user": {"created_at": "Mon Jan 19 16:39:17 +0000 2009", "description": "56 year old male , Recentley widower. Ordained Minister, Musician (Piano, Guitar, Bass,Harmonica) Song Writer, Former EMT/Firefighter, Retired LEO dispatcher.", "favourites_count": 10, "followers_count": 12, "friends_count": 46, "geo_enabled": true, "id": 19189887, "lang": "en", "location": "Martinsville, IN", "name": "Rev Terry Carter", "profile_background_color": "022330", "profile_background_image_url": "http://abs.twimg.com/images/themes/theme15/bg.png", "profile_background_tile": false, "profile_banner_url": "https://pbs.twimg.com/profile_banners/19189887/1359407938", "profile_image_url": "https://pbs.twimg.com/profile_images/3509005313/96321716afe7199e8b09dea2099306ae_normal.jpeg", "profile_link_color": "0084B4", "profile_sidebar_fill_color": "C0DFEC", "profile_text_color": "333333", "protected": false, "screen_name": "Carter1050", "statuses_count": 5260, "time_zone": "Eastern Time (US & Canada)", "utc_offset": -18000}}
{"created_at": "Fri Aug 14 21:52:16 +0000 2015", "favorited": false, "id": 632308782165590016, "lang": "en", "retweeted": false, "source": "<a href=\"http://www.facebook.com/twitter\" rel=\"nofollow\">Facebook</a>", "text": "3-yr-old boy is Seriously ill, Airlines Refuse to Help, Trump IMMEDIATELY Does This http://t.co/I040M5k1R1", "truncated": false, "urls": {"http://t.co/I040M5k1R1": "http://fb.me/1X3xsse2k"}, "user": {"created_at": "Wed Feb 10 18:59:56 +0000 2010", "description": "Female", "favourites_count": 3655, "followers_count": 628, "friends_count": 2041, "geo_enabled": true, "id": 113111974, "lang": "en", "listed_count": 32, "location": "Houston, Texas.", "name": "Verdean Mtichell", "profile_background_color": "0099B9", "profile_background_image_url": "http://abs.twimg.com/images/themes/theme4/bg.gif", "profile_background_tile": true, "profile_image_url": "https://pbs.twimg.com/profile_images/631721206429847552/3eCDKiLa_normal.jpg", "profile_link_color": "0099B9", "profile_sidebar_fill_color": "95E8EC", "profile_text_color": "3C3940", "protected": false, "screen_name": "verdeanmitchell", "statuses_count": 50713, "time_zone": "Mountain Time (US & Canada)", "utc_offset": -25200}}
{"created_at": "Fri Aug 14 21:53:21 +0000 2015", "favorited": false, "id": 632309055634178048, "lang": "en", "retweeted": false, "source": "<a href=\"http://www.facebook.com/twitter\" rel=\"nofollow\">Facebook</a>", "text": "3-yr-old boy is Seriously ill, Airlines Refuse to Help, Trump IMMEDIATELY Does This http://t.co/g1G96QHLgv", "truncated": false, "urls": {"http://t.co/g1G96QHLgv": "http://fb.me/6KUQa3yJn"}, "user": {"created_at": "Fri Dec 02 14:16:02 +0000 2011", "default_profile": true, "description": "I'm a local driver for a Metro East trucking company. I push 18 in and around the St. Louis, MO region.  *Conservative*Pro-Constitution*Pro-Israel*", "favourites_count": 6462, "followers_count": 1984, "friends_count": 2111, "geo_enabled": true, "id": 426647320, "lang": "en", "listed_count": 83, "location": "St. Louis, MO", "name": "Todd Watson", "profile_background_color": "C0DEED", "profile_background_image_url": "http://abs.twimg.com/images/themes/theme1/bg.png", "profile_background_tile": false, "profile_banner_url": "https://pbs.twimg.com/profile_banners/426647320/1441798211", "profile_image_url": "https://pbs.twimg.com/profile_images/515182688328626176/Hpm4HVUu_normal.jpeg", "profile_link_color": "0084B4", "profile_sidebar_fill_color": "DDEEF6", "profile_text_color": "333333", "protected": false, "screen_name": "SuperDriver318", "statuses_count": 55735}}
{"created_at": "Fri Aug 14 21:53:41 +0000 2015", "favorited": false, "id": 632309139327307776, "lang": "en", "retweeted": false, "source": "<a href=\"http://www.facebook.com/twitter\" rel=\"nofollow\">Facebook</a>", "text": "3-yr-old boy is Seriously ill, Airlines Refuse to Help, Trump IMMEDIATELY Does This http://t.co/EUnZ4yAnkP", "truncated": false, "urls": {"http://t.co/EUnZ4yAnkP": "http://fb.me/7omVF88xY"}, "user": {"created_at": "Thu Sep 19 03:42:13 +0000 2013", "description": "Evangelist /Author", "followers_count": 195, "friends_count": 412, "id": 1881819733, "lang": "en", "listed_count": 12, "location": "Georgia", "name": "Evangelist KL Rich", "profile_background_color": "000000", "profile_background_image_url": "http://abs.twimg.com/images/themes/theme1/bg.png", "profile_background_tile": false, "profile_banner_url": "https://pbs.twimg.com/profile_banners/1881819733/1443646749", "profile_image_url": "https://pbs.twimg.com/profile_images/421024153907367936/NvtkjqAJ_normal.jpeg", "profile_link_color": "DD2E44", "profile_sidebar_fill_color": "000000", "profile_text_color": "000000", "protected": false, "screen_name": "EvangelisKLRich", "statuses_count": 21282, "time_zone": "Eastern Time (US & Canada)", "url": "http://t.co/H6VfqcFFRk", "utc_offset": -18000}}
{"created_at": "Fri Aug 14 21:57:44 +0000 2015", "favorited": false, "id": 632310160707461120, "lang": "en", "retweeted": false, "source": "<a href=\"http://www.facebook.com/twitter\" rel=\"nofollow\">Facebook</a>", "text": "3-yr-old boy is Seriously ill, Airlines Refuse to Help, Trump IMMEDIATELY Does This http://t.co/WpHIKbUiIW", "truncated": false, "urls": {"http://t.co/WpHIKbUiIW": "http://fb.me/4GuI5YIJz"}, "user": {"created_at": "Tue Aug 05 18:52:55 +0000 2008", "default_profile": true, "favourites_count": 13, "followers_count": 98, "friends_count": 225, "geo_enabled": true, "id": 15740001, "lang": "en", "listed_count": 2, "name": "David Zublick", "profile_background_color": "C0DEED", "profile_background_image_url": "http://abs.twimg.com/images/themes/theme1/bg.png", "profile_background_tile": false, "profile_image_url": "https://pbs.twimg.com/profile_images/606636360863064064/-qg-1EQQ_normal.jpg", "profile_link_color": "0084B4", "profile_sidebar_fill_color": "DDEEF6", "profile_text_color": "333333", "protected": false, "screen_name": "AmericaTalks", "statuses_count": 5536, "time_zone": "Quito", "url": "http://t.co/N1ZjKkTPzs", "utc_offset": -18000}}
{"created_at": "Fri Aug 14 22:00:06 +0000 2015", "favorited": false, "id": 632310754864177152, "lang": "en", "retweet_count": 1, "retweeted": false, "source": "<a href=\"http://www.facebook.com/twitter\" rel=\"nofollow\">Facebook</a>", "text": "3-yr-old boy is Seriously ill, Airlines Refuse to Help, Trump IMMEDIATELY Does This http://t.co/bH9U8FC4BU", "truncated": false, "urls": {"http://t.co/bH9U8FC4BU": "http://fb.me/1Mx2VPBmy"}, "user": {"created_at": "Wed Sep 30 17:54:05 +0000 2009", "default_profile": true, "description": "Herbalife Independent Member. I am in the wellness industry.  I host Weight Loss Challenges and conduct personal wellness evaluations.", "favourites_count": 5, "followers_count": 128, "friends_count": 170, "id": 78665310, "lang": "en", "listed_count": 10, "location": "Virginia", "name": "Kevin Steacy", "profile_background_color": "C0DEED", "profile_background_image_url": "http://abs.twimg.com/images/themes/theme1/bg.png", "profile_background_tile": false, "profile_banner_url": "https://pbs.twimg.com/profile_banners/78665310/1425570459", "profile_image_url": "https://pbs.twimg.com/profile_images/530356159090135040/uQ-7z3lY_normal.jpeg", "profile_link_color": "0084B4", "profile_sidebar_fill_color": "DDEEF6", "profile_text_color": "333333", "protected": false, "screen_name": "Kevinsva", "statuses_count": 13032, "time_zone": "Eastern Time (US & Canada)", "url": "http://t.co/ZTaxsBLDrN", "utc_offset": -18000}}
{"created_at": "Fri Aug 14 22:00:35 +0000 2015", "favorited": false, "id": 632310876255686656, "lang": "en", "retweeted": false, "source": "<a href=\"http://www.facebook.com/twitter\" rel=\"nofollow\">Facebook</a>", "text": "3-yr-old boy is Seriously ill, Airlines Refuse to Help, Trump IMMEDIATELY Does This http://t.co/l0mWf6UBxO", "truncated": false, "urls": {"http://t.co/l0mWf6UBxO": "http://fb.me/2g5zgHz3G"}, "user": {"created_at": "Mon Aug 20 15:17:18 +0000 2012", "description": "Lead Simulation and Game Designer for Akima Infrastructures. Avid Warhammer 40k player and tournament player", "followers_count": 97, "friends_count": 229, "id": 769695036, "lang": "en", "listed_count": 3, "location": "Hampton Va", "name": "Shawn Bair", "profile_background_color": "131516", "profile_background_image_url": "http://pbs.twimg.com/profile_background_images/692444296/7aa2a3a24b66c085eaa10a4a77342548.jpeg", "profile_background_tile": false, "profile_image_url": "https://pbs.twimg.com/profile_images/378800000542680828/fccfa5e858322b9bce839c706dbac9eb_normal.jpeg", "profile_link_color": "009999", "profile_sidebar_fill_color": "DDEEF6", "profile_text_color": "333333", "protected": false, "screen_name": "ReadySetGETSOME", "statuses_count": 3675, "time_zone": "Eastern Time (US & Canada)", "url": "http://t.co/bg5z5VWQDu", "utc_offset": -18000}}
{"created_at": "Fri Aug 14 22:00:53 +0000 2015", "favorited": false, "id": 632310950612324352, "lang": "en", "retweeted": false, "source": "<a href=\"http://www.facebook.com/twitter\" rel=\"nofollow\">Facebook</a>", "text": "3-yr-old boy is Seriously ill, Airlines Refuse to Help, Trump IMMEDIATELY Does This http://t.co/aBwIU8ZTzu", "truncated": false, "urls": {"http://t.co/aBwIU8ZTzu": "http://fb.me/4sELhogGK"}, "user": {"created_at": "Tue Mar 18 23:29:48 +0000 2014", "default_profile": true, "description": "Truck Driver, Biker. Have bike will ride !!", "favourites_count": 1285, "followers_count": 1083, "friends_count": 1043, "geo_enabled": true, "id": 2396913470, "lang": "en", "listed_count": 7, "name": "Wild Hogs", "profile_background_color": "C0DEED", "profile_background_image_url": "http://abs.twimg.com/images/themes/theme1/bg.png", "profile_background_tile": false, "profile_banner_url": "https://pbs.twimg.com/profile_banners/2396913470/1402616079", "profile_image_url": "https://pbs.twimg.com/profile_images/446071618490470401/zLY0y8bK_normal.jpeg", "profile_link_color": "0084B4", "profile_sidebar_fill_color": "DDEEF6", "profile_text_color": "333333", "protected": false, "screen_name": "WildHogs6", "statuses_count": 5953}}
{"created_at": "Fri Aug 14 22:01:08 +0000 2015", "favorited": false, "id": 632311016551002113, "lang": "en", "retweeted": false, "source": "<a href=\"http://www.facebook.com/twitter\" rel=\"nofollow\">Facebook</a>", "text": "3-yr-old boy is Seriously ill, Airlines Refuse to Help, Trump IMMEDIATELY Does This http://t.co/ssm01b6O45", "truncated": false, "urls": {"http://t.co/ssm01b6O45": "http://fb.me/3n14RQQCA"}, "user": {"created_at": "Sat Oct 08 19:51:33 +0000 2011", "default_profile": true, "favourites_count": 542, "followers_count": 63, "friends_count": 474, "id": 387287462, "lang": "en", "listed_count": 1, "name": "Asad Ali Shah", "profile_background_color": "C0DEED", "profile_background_image_url": "http://abs.twimg.com/images/themes/theme1/bg.png", "profile_background_tile": false, "profile_image_url": "https://pbs.twimg.com/profile_images/1578860437/276277_100000084044110_750803_n_normal.jpg", "profile_link_color": "0084B4", "profile_sidebar_fill_color": "DDEEF6", "profile_text_color": "333333", "protected": false, "screen_name": "AsadAliShahz", "statuses_count": 9336}}
{"created_at": "Fri Aug 14 22:03:02 +0000 2015", "favorited": false, "id": 632311494185582593, "lang": "en", "retweeted": false, "source": "<a href=\"http://www.facebook.com/twitter\" rel=\"nofollow\">Facebook</a>", "text": "3-yr-old boy is Seriously ill, Airlines Refuse to Help, Trump IMMEDIATELY Does This http://t.co/GgaLvjBYK3", "truncated": false, "urls": {"http://t.co/GgaLvjBYK3": "http://fb.me/Gmq3qxc9"}, "user": {"created_at": "Mon Nov 07 17:09:51 +0000 2011", "description": "Tea time Tea shore\r\nPixie rhyme Pixie lore\r\nMad as a hatter\r\nHatter as a mad\r\nCuriouser and curiouser \r\nThis rhyme was just bad.\r\nhttp://t.co/gcy70TKrh6", "favourites_count": 9, "followers_count": 131, "friends_count": 366, "geo_enabled": true, "id": 407113254, "lang": "en", "listed_count": 6, "location": "Long Island, New York", "name": "The Suburbanista", "profile_background_color": "F0F0F0", "profile_background_image_url": "http://pbs.twimg.com/profile_background_images/816972957/7cd2cdab344d379b3a6aa97f0d2ed095.jpeg", "profile_background_tile": true, "profile_image_url": "https://pbs.twimg.com/profile_images/378800000268015687/2bc7ab68c9211647076ec19591a67e2a_normal.jpeg", "profile_link_color": "31CADE", "profile_sidebar_fill_color": "99CC33", "profile_text_color": "3E4415", "protected": false, "screen_name": "OneSuburbanGirl", "statuses_count": 16568, "url": "http://t.co/3yN8yP2WHK"}}
{"created_at": "Fri Aug 14 22:05:10 +0000 2015", "favorited": false, "id": 632312032382070784, "lang": "en", "retweeted": false, "source": "<a href=\"http://www.facebook.com/twitter\" rel=\"nofollow\">Facebook</a>", "text": "3-yr-old boy is Seriously ill, Airlines Refuse to Help, Trump IMMEDIATELY Does This http://t.co/zMDR5aek0w", "truncated": false, "urls": {"http://t.co/zMDR5aek0w": "http://fb.me/7DVNbk5cZ"}, "user": {"created_at": "Fri Aug 13 16:36:02 +0000 2010", "description": "Vice-President Client Relations, Flat Fee Tax Service. Flat Fee Tax Service is the nationwide leader in having an IRS Levy stopped and released.", "favourites_count": 5, "followers_count": 1112, "friends_count": 1722, "id": 178005137, "lang": "en", "listed_count": 19, "location": "San Diego, CA", "name": "DAVE ROSA", "profile_background_color": "0099B9", "profile_background_image_url": "http://abs.twimg.com/images/themes/theme4/bg.gif", "profile_background_tile": false, "profile_banner_url": "https://pbs.twimg.com/profile_banners/178005137/1398274165", "profile_image_url": "https://pbs.twimg.com/profile_images/459304520120430593/6O4l6xTO_normal.jpeg", "profile_link_color": "0099B9", "profile_sidebar_fill_color": "95E8EC", "profile_text_color": "3C3940", "protected": false, "screen_name": "flatfeetaxsvc", "statuses_count": 16517, "time_zone": "Pacific Time (US & Canada)", "url": "http://t.co/4EgusIwbte", "utc_offset": -28800}}
{"created_at": "Fri Aug 14 22:08:51 +0000 2015", "favorited": false, "id": 632312956420796417, "lang": "en", "retweeted": false, "source": "<a href=\"http://www.facebook.com/twitter\" rel=\"nofollow\">Facebook</a>", "text": "3-yr-old boy is seriously ill, Trump Finds out, IMMEDIATELY Does This for him http://t.co/q0LSMgdkox", "truncated": false, "urls": {"http://t.co/q0LSMgdkox": "http://fb.me/t5ovGnik"}, "user": {"created_at": "Wed Dec 10 21:32:33 +0000 2008", "description": "I've been married to the same fellow for 23 years.  We've had 6 children.\r\nWe love the Lord and serve Him with our whole hearts!", "followers_count": 73, "friends_count": 49, "geo_enabled": true, "id": 18031317, "lang": "en", "listed_count": 4, "location": "Lafayette, LA", "name": "LindaReddoch", "profile_background_color": "FF6699", "profile_background_image_url": "http://abs.twimg.com/images/themes/theme11/bg.gif", "profile_background_tile": true, "profile_image_url": "https://pbs.twimg.com/profile_images/1214945844/23593_1367578594754_1390350809_1021557_7826547_n_normal.jpg", "profile_link_color": "B40B43", "profile_sidebar_fill_color": "E5507E", "profile_text_color": "362720", "protected": false, "screen_name": "faithbug6", "statuses_count": 29188, "time_zone": "Central Time (US & Canada)", "url": "http://t.co/1JZ0M6BQ6x", "utc_offset": -21600}}
{"created_at": "Fri Aug 14 22:14:13 +0000 2015", "favorite_count": 1, "favorited": false, "id": 632314306118459393, "lang": "en", "retweet_count": 2, "retweeted": false, "source": "<a href=\"http://www.facebook.com/twitter\" rel=\"nofollow\">Facebook</a>", "text": "3-yr-old boy is Seriously ill, Airlines Refuse to Help, Trump IMMEDIATELY Does This http://t.co/9Sv2i21Upb", "truncated": false, "urls": {"http://t.co/9Sv2i21Upb": "http://fb.me/7miLTIAZP"}, "user": {"created_at": "Wed Mar 18 00:36:59 +0000 2009", "description": "Sportsmen & Conservatives fight the same Liberal enemies of our country. #Wolf #Agenda21 #WildlandsProject #Y2Y #antiranching #PETA #DOW & the list goes on.....", "favourites_count": 563, "followers_count": 1316, "friends_count": 2284, "id": 24992182, "lang": "en", "listed_count": 33, "location": "Vancouver Washington", "name": "Rick Ready", "profile_background_color": "290D07", "profile_background_image_url": "http://pbs.twimg.com/profile_background_images/407486425/Jo_in_the_blind_1.jpg", "profile_background_tile": true, "profile_banner_url": "https://pbs.twimg.com/profile_banners/24992182/1358466575", "profile_image_url": "https://pbs.twimg.com/profile_images/1212110458/2010_elk_hunt_normal.jpg", "profile_link_color": "6681BA", "profile_sidebar_fill_color": "B1C4C0", "profile_text_color": "381D14", "protected": false, "screen_name": "Bowtimeready", "statuses_count": 7534, "time_zone": "Pacific Time (US & Canada)", "url": "https://t.co/63ZXcFElB1", "utc_offset": -28800}}
{"created_at": "Fri Aug 14 22:16:15 +0000 2015", "favorited": false, "id": 632314818414964736, "lang": "en", "retweeted": false, "source": "<a href=\"http://www.facebook.com/twitter\" rel=\"nofollow\">Facebook</a>", "text": "3-yr-old boy is Seriously ill, Airlines Refuse to Help, Trump IMMEDIATELY Does This http://t.co/AyvFRB7Z4B", "truncated": false, "urls": {"http://t.co/AyvFRB7Z4B": "http://fb.me/uVohbICT"}, "user": {"created_at": "Sat Apr 19 00:26:55 +0000 2014", "default_profile": true, "description": "Every town for gun safety-Alaska. we support the second amendment and safety training for weapons", "favourites_count": 38, "followers_count": 955, "friends_count": 1041, "id": 2452114052, "lang": "en", "listed_count": 7, "name": "EFGS_AK", "profile_background_color": "C0DEED", "profile_background_image_url": "http://abs.twimg.com/images/themes/theme1/bg.png", "profile_background_tile": false, "profile_banner_url": "https://pbs.twimg.com/profile_banners/2452114052/1397867398", "profile_image_url": "https://pbs.twimg.com/profile_images/457315137079103488/IozQMWAa_normal.jpeg", "profile_link_color": "0084B4", "profile_sidebar_fill_color": "DDEEF6", "profile_text_color": "333333", "protected": false, "screen_name": "AKEFGS", "statuses_count": 2715, "url": "http://t.co/DOix7y0evq"}}
{"created_at": "Fri Aug 14 22:30:07 +0000 2015", "favorited": false, "id": 632318309376094208, "lang": "en", "retweeted": false, "source": "<a href=\"http://www.facebook.com/twitter\" rel=\"nofollow\">Facebook</a>", "text": "3-yr-old boy is seriously ill, Trump Finds out, IMMEDIATELY Does This for him http://t.co/0Gg2NDIkjX", "truncated": false, "urls": {"http://t.co/0Gg2NDIkjX": "http://fb.me/48gu0E4sN"}, "user": {"created_at": "Tue Sep 01 18:29:15 +0000 2009", "default_profile": true, "description": "Reitred w/DOD and have tee shirt business on line and car swap meets out west...", "favourites_count": 45, "followers_count": 135, "friends_count": 151, "id": 70749151, "lang": "en", "listed_count": 17, "location": "Fernley Nv", "name": "Ron Claussen Tees", "profile_background_color": "C0DEED", "profile_background_image_url": "http://abs.twimg.com/images/themes/theme1/bg.png", "profile_background_tile": false, "profile_banner_url": "https://pbs.twimg.com/profile_banners/70749151/1426724426", "profile_image_url": "https://pbs.twimg.com/profile_images/578350593825054720/sDgb9o6u_normal.jpeg", "profile_link_color": "0084B4", "profile_sidebar_fill_color": "DDEEF6", "profile_text_color": "333333", "protected": false, "screen_name": "RonsTees", "statuses_count": 66696, "time_zone": "Pacific Time (US & Canada)", "url": "http://t.co/Os4jPHiSz7", "utc_offset": -28800}}
{"created_at": "Fri Aug 14 22:31:43 +0000 2015", "favorited": false, "id": 632318713463721984, "lang": "en", "retweeted": false, "source": "<a href=\"http://www.facebook.com/twitter\" rel=\"nofollow\">Facebook</a>", "text": "3-yr-old boy is Seriously ill, Airlines Refuse to Help, Trump IMMEDIATELY Does This http://t.co/PZ5dErJZAu", "truncated": false, "urls": {"http://t.co/PZ5dErJZAu": "http://fb.me/7lIiecz9H"}, "user": {"created_at": "Mon Feb 28 12:17:33 +0000 2011", "default_profile": true, "description": "middle school science teacher interested in photography and politics.", "favourites_count": 60, "followers_count": 73, "friends_count": 195, "geo_enabled": true, "id": 258752245, "lang": "en", "listed_count": 2, "location": "Hawthorne, NJ", "name": "Alan Goldberg", "profile_background_color": "C0DEED", "profile_background_image_url": "http://abs.twimg.com/images/themes/theme1/bg.png", "profile_background_tile": false, "profile_banner_url": "https://pbs.twimg.com/profile_banners/258752245/1406383713", "profile_image_url": "https://pbs.twimg.com/profile_images/493034763414814720/-a5KoVls_normal.jpeg", "profile_link_color": "0084B4", "profile_sidebar_fill_color": "DDEEF6", "profile_text_color": "333333", "protected": false, "screen_name": "scinzteacher", "statuses_count": 20590, "url": "https://t.co/fmdtxVqWEQ"}}
{"created_at": "Fri Aug 14 22:34:10 +0000 2015", "favorited": false, "id": 632319328176762880, "lang": "en", "possibly_sensitive": true, "retweeted": false, "source": "<a href=\"http://www.facebook.com/twitter\" rel=\"nofollow\">Facebook</a>", "text": "3-yr-old boy is Seriously ill, Airlines Refuse to Help, Trump IMMEDIATELY Does This http://t.co/9RU6Z7Sidl", "truncated": false, "urls": {"http://t.co/9RU6Z7Sidl": "http://fb.me/7BfEEMmer"}, "user": {"created_at": "Thu Jan 05 17:04:09 +0000 2012", "description": "Owner of Miller Homes Group, Golf lunatic LOL, Motivator and love pushing the status quo!!!! Talk Show host of Terry Miller's Texas.", "followers_count": 95, "friends_count": 101, "geo_enabled": true, "id": 455901919, "lang": "en", "listed_count": 7, "location": "Tyler,Texas", "name": "Terry", "profile_background_color": "131516", "profile_background_image_url": "http://abs.twimg.com/images/themes/theme14/bg.gif", "profile_background_tile": true, "profile_banner_url": "https://pbs.twimg.com/profile_banners/455901919/1432778563", "profile_image_url": "https://pbs.twimg.com/profile_images/603743153317810176/N8xvl3Ia_normal.jpg", "profile_link_color": "009999", "profile_sidebar_fill_color": "EFEFEF", "profile_text_color": "333333", "protected": false, "screen_name": "TerryLeeMiller", "statuses_count": 16635, "time_zone": "Central Time (US & Canada)", "url": "http://t.co/cyHDVQvcbB", "utc_offset": -21600}}
{"created_at": "Fri Aug 14 22:35:25 +0000 2015", "favorited": false, "id": 632319645182242818, "lang": "en", "retweeted": false, "source": "<a href=\"http://www.facebook.com/twitter\" rel=\"nofollow\">Facebook</a>", "text": "3-yr-old boy is Seriously ill, Airlines Refuse to Help, Trump IMMEDIATELY Does This http://t.co/mjFYAMYyl3", "truncated": false, "urls": {"http://t.co/mjFYAMYyl3": "http://fb.me/7yFmxWt42"}, "user": {"created_at": "Fri Mar 09 20:45:44 +0000 2012", "default_profile": true, "description": "I enjoy jewelry making & many other activities. I sell my jewelry and beads on PoshMark @frogeyes", "favourites_count": 4, "followers_count": 15, "friends_count": 12, "geo_enabled": true, "id": 519807594, "lang": "en", "listed_count": 1, "location": "Farmington Hills, MI", "name": "Kimberly Pedersen", "profile_background_color": "C0DEED", "profile_background_image_url": "http://abs.twimg.com/images/themes/theme1/bg.png", "profile_background_tile": false, "profile_banner_url": "https://pbs.twimg.com/profile_banners/519807594/1450020010", "profile_image_url": "https://pbs.twimg.com/profile_images/657361243410444288/6L47_ovZ_normal.jpg", "profile_link_color": "0084B4", "profile_sidebar_fill_color": "DDEEF6", "profile_text_color": "333333", "protected": false, "screen_name": "FrogEyeBeads", "statuses_count": 4164, "url": "https://t.co/fIOBagyPe8"}}
{"created_at": "Fri Aug 14 22:38:18 +0000 2015", "favorited": false, "id": 632320367181320192, "lang": "en", "retweeted": false, "source": "<a href=\"http://www.facebook.com/twitter\" rel=\"nofollow\">Facebook</a>", "text": "3-yr-old boy is Seriously ill, Airlines Refuse to Help, Trump IMMEDIATELY Does This http://t.co/U1oc1k4cu5", "truncated": false, "urls": {"http://t.co/U1oc1k4cu5": "http://fb.me/4pb1AnSUB"}, "user": {"created_at": "Fri Apr 17 18:10:46 +0000 2015", "description": "We post 50 or more conservative news articles daily from reputable websites. We have a News Site in Facebook called News The Media Won't Show You Page", "favourites_count": 28, "followers_count": 93, "friends_count": 47, "id": 3177516177, "lang": "en", "listed_count": 25, "name": "NewsMediaWontShowYou", "profile_background_color": "000000", "profile_background_image_url": "http://pbs.twimg.com/profile_background_images/589399828884365313/Agy-cro8.jpg", "profile_background_tile": false, "profile_banner_url": "https://pbs.twimg.com/profile_banners/3177516177/1429576793", "profile_image_url": "https://pbs.twimg.com/profile_images/590302545119158273/BbN52xZj_normal.jpg", "profile_link_color": "3B94D9", "profile_sidebar_fill_color": "000000", "profile_text_color": "000000", "protected": false, "screen_name": "newsmediawont", "statuses_count": 18045, "time_zone": "Eastern Time (US & Canada)", "url": "https://t.co/XgbobVfy50", "utc_offset": -18000}}
{"created_at": "Fri Aug 14 22:40:30 +0000 2015", "favorited": false, "id": 632320922569932800, "lang": "en", "retweeted": false, "source": "<a href=\"http://www.facebook.com/twitter\" rel=\"nofollow\">Facebook</a>", "text": "3-yr-old boy is seriously ill, Trump Finds out, IMMEDIATELY Does This for him http://t.co/bwwoKySwcc", "truncated": false, "urls": {"http://t.co/bwwoKySwcc": "http://fb.me/7n0G9tBbj"}, "user": {"created_at": "Thu Feb 16 00:06:04 +0000 2012", "favourites_count": 155, "followers_count": 53, "friends_count": 326, "id": 493604918, "lang": "en", "listed_count": 10, "location": "Bullhead City, AZ", "name": "Karl Johnson", "profile_background_color": "1A1B1F", "profile_background_image_url": "http://abs.twimg.com/images/themes/theme9/bg.gif", "profile_background_tile": false, "profile_banner_url": "https://pbs.twimg.com/profile_banners/493604918/1365294729", "profile_image_url": "https://pbs.twimg.com/profile_images/2609080061/tzy3bor34hv1mqr36vi9_normal.gif", "profile_link_color": "2FC2EF", "profile_sidebar_fill_color": "252429", "profile_text_color": "666666", "protected": false, "screen_name": "SS9C1", "statuses_count": 11216, "time_zone": "Arizona", "utc_offset": -25200}}
{"created_at": "Fri Aug 14 22:44:25 +0000 2015", "favorited": false, "id": 632321908348977152, "lang": "en", "retweeted": false, "source": "<a href=\"http://www.facebook.com/twitter\" rel=\"nofollow\">Facebook</a>", "text": "3-yr-old boy is Seriously ill, Airlines Refuse to Help, Trump IMMEDIATELY Does This http://t.co/dl459aarsY", "truncated": false, "urls": {"http://t.co/dl459aarsY": "http://fb.me/7w39Hz0XK"}, "user": {"created_at": "Mon May 11 00:07:36 +0000 2009", "description": "Learning, always learning. American,BBQ,friend,brother,helper, and yes.it's MY island! Hahahahah", "favourites_count": 106, "followers_count": 1699, "friends_count": 1806, "id": 39141395, "lang": "en", "listed_count": 14, "location": "DFW", "name": "Pat McKittrick", "profile_background_color": "9AE4E8", "profile_background_image_url": "http://pbs.twimg.com/profile_background_images/16191992/my_island.jpg", "profile_background_tile": true, "profile_banner_url": "https://pbs.twimg.com/profile_banners/39141395/1407755198", "profile_image_url": "https://pbs.twimg.com/profile_images/378800000385275316/9d0f1680b92686c2daa0d5fd3d5e42b9_normal.png", "profile_link_color": "0084B4", "profile_sidebar_fill_color": "DDFFCC", "profile_text_color": "333333", "protected": false, "screen_name": "TheFirstTaiPan", "statuses_count": 25573, "time_zone": "Mountain Time (US & Canada)", "url": "https://t.co/fK5oLed2fH", "utc_offset": -25200}}
{"created_at": "Fri Aug 14 22:47:10 +0000 2015", "favorited": false, "id": 632322598655913984, "lang": "en", "retweeted": false, "source": "<a href=\"http://www.facebook.com/twitter\" rel=\"nofollow\">Facebook</a>", "text": "3-yr-old boy is Seriously ill, Airlines Refuse to Help, Trump IMMEDIATELY Does This http://t.co/DllxvXqiAN", "truncated": false, "urls": {"http://t.co/DllxvXqiAN": "http://fb.me/7mVo4aH5q"}, "user": {"created_at": "Sun Feb 01 20:21:22 +0000 2009", "description": "I am not afraid to stand for truth even if I stand alone. Wife and Mother of Two amazing children and super all around cool person : )", "favourites_count": 129, "followers_count": 255, "friends_count": 985, "geo_enabled": true, "id": 19874543, "lang": "en", "listed_count": 5, "location": "Michigan", "name": "karen potter", "profile_background_color": "642D8B", "profile_background_image_url": "http://abs.twimg.com/images/themes/theme10/bg.gif", "profile_background_tile": true, "profile_banner_url": "https://pbs.twimg.com/profile_banners/19874543/1414282855", "profile_image_url": "https://pbs.twimg.com/profile_images/498647472127115264/0Pi2iwAg_normal.jpeg", "profile_link_color": "FF0000", "profile_sidebar_fill_color": "7AC3EE", "profile_text_color": "3D1957", "protected": false, "screen_name": "klpotter2", "statuses_count": 8182, "url": "http://t.co/JiZSwaNx0j"}}
{"created_at": "Fri Aug 14 22:50:20 +0000 2015", "favorited": false, "id": 632323396383064064, "lang": "en", "retweeted": false, "source": "<a href=\"http://www.facebook.com/twitter\" rel=\"nofollow\">Facebook</a>", "text": "3-yr-old boy is Seriously ill, Airlines Refuse to Help, Trump IMMEDIATELY Does This http://t.co/eFVixZLJdi", "truncated": false, "urls": {"http://t.co/eFVixZLJdi": "http://fb.me/6KwZZ4WIv"}, "user": {"created_at": "Wed Apr 15 13:45:54 +0000 2009", "default_profile": true, "default_profile_image": true, "followers_count": 19, "friends_count": 63, "id": 31409949, "lang": "en", "listed_count": 1, "name": "Joe Hostettler Sr.", "profile_background_color": "C0DEED", "profile_background_image_url": "http://abs.twimg.com/images/themes/theme1/bg.png", "profile_background_tile": false, "profile_image_url": "https://abs.twimg.com/sticky/default_profile_images/default_profile_4_normal.png", "profile_link_color": "0084B4", "profile_sidebar_fill_color": "DDEEF6", "profile_text_color": "333333", "protected": false, "screen_name": "trig2043", "statuses_count": 4748}}
{"created_at": "Fri Aug 14 22:52:41 +0000 2015", "favorite_count": 1, "favorited": false, "id": 632323986471292928, "lang": "en", "retweet_count": 1, "retweeted": false, "source": "<a href=\"http://www.facebook.com/twitter\" rel=\"nofollow\">Facebook</a>", "text": "3-yr-old boy is seriously ill, Trump Finds out, IMMEDIATELY Does This for him http://t.co/BwpKa3RYUf", "truncated": false, "urls": {"http://t.co/BwpKa3RYUf": "http://fb.me/DYGFQ3C3"}, "user": {"created_at": "Fri Feb 26 14:22:01 +0000 2010", "description": "Proud mother and grandmother. Hairstylist and professional cruiser. I want my country back!", "favourites_count": 614, "followers_count": 2233, "friends_count": 2453, "geo_enabled": true, "id": 117756539, "lang": "en", "listed_count": 108, "location": "Cincinnati Ohio.......ish", "name": "Lil Madam Butterfly", "profile_background_color": "310320", "profile_background_image_url": "http://pbs.twimg.com/profile_background_images/617513632/08dvaw1iquyevaewfo8m.jpeg", "profile_background_tile": true, "profile_banner_url": "https://pbs.twimg.com/profile_banners/117756539/1449514693", "profile_image_url": "https://pbs.twimg.com/profile_images/673939584816955392/jkNASZsY_normal.jpg", "profile_link_color": "FB04A0", "profile_sidebar_fill_color": "F7C9E6", "profile_text_color": "555555", "protected": false, "screen_name": "LiliButterfly", "statuses_count": 63642, "time_zone": "Eastern Time (US & Canada)", "url": "https://t.co/CuSBBa1iHu", "utc_offset": -18000}}
{"created_at": "Fri Aug 14 22:54:05 +0000 2015", "favorited": false, "id": 632324340491649024, "lang": "en", "retweeted": false, "source": "<a href=\"http://www.facebook.com/twitter\" rel=\"nofollow\">Facebook</a>", "text": "3-yr-old boy is Seriously ill, Airlines Refuse to Help, Trump IMMEDIATELY Does This http://t.co/SEe7cgS35B", "truncated": false, "urls": {"http://t.co/SEe7cgS35B": "http://fb.me/7qkj3tGXT"}, "user": {"created_at": "Mon Dec 19 13:48:21 +0000 2011", "default_profile": true, "default_profile_image": true, "favourites_count": 462, "followers_count": 52, "friends_count": 124, "id": 440854388, "lang": "en", "listed_count": 10, "location": "U.S.A.", "name": "David JGoodwin", "profile_background_color": "C0DEED", "profile_background_image_url": "http://abs.twimg.com/images/themes/theme1/bg.png", "profile_background_tile": false, "profile_image_url": "https://abs.twimg.com/sticky/default_profile_images/default_profile_2_normal.png", "profile_link_color": "0084B4", "profile_sidebar_fill_color": "DDEEF6", "profile_text_color": "333333", "protected": false, "screen_name": "DJGoodwin1", "statuses_count": 11603, "time_zone": "Eastern Time (US & Canada)", "utc_offset": -18000}}
{"created_at": "Fri Aug 14 22:55:20 +0000 2015", "favorited": false, "id": 632324656163344384, "lang": "en", "retweeted": false, "source": "<a href=\"http://www.apple.com\" rel=\"nofollow\">iOS</a>", "text": "3-Year-Old Boy is Seriously ill, Trump Finds out, IMMEDIATELY Does This for him http://t.co/fpunorm2kZ", "truncated": false, "urls": {"http://t.co/fpunorm2kZ": "http://www.youngcons.com/donald-trump-allows-seriously-ill-jewish-child-to-use-private-jet/"}, "user": {"created_at": "Sat Dec 07 14:11:31 +0000 2013", "favourites_count": 864, "followers_count": 301, "friends_count": 906, "id": 2234582461, "lang": "en", "listed_count": 20, "location": "DC Metro area", "name": "Matthew Webb", "profile_background_color": "382B2B", "profile_background_image_url": "http://abs.twimg.com/images/themes/theme1/bg.png", "profile_background_tile": false, "profile_banner_url": "https://pbs.twimg.com/profile_banners/2234582461/1419706487", "profile_image_url": "https://pbs.twimg.com/profile_images/601179279636963328/GkEugO6j_normal.jpg", "profile_link_color": "0084B4", "profile_sidebar_fill_color": "DDEEF6", "profile_text_color": "333333", "protected": false, "screen_name": "5811devil", "statuses_count": 9756}}
{"created_at": "Fri Aug 14 23:00:25 +0000 2015", "favorited": false, "id": 632325935748898816, "lang": "en", "retweeted": false, "source": "<a href=\"http://www.facebook.com/twitter\" rel=\"nofollow\">Facebook</a>", "text": "3-yr-old boy is Seriously ill, Airlines Refuse to Help, Trump IMMEDIATELY Does This http://t.co/PfVZpkx89W", "truncated": false, "urls": {"http://t.co/PfVZpkx89W": "http://fb.me/48pRBcgQ6"}, "user": {"created_at": "Thu Dec 03 23:40:53 +0000 2009", "description": "Serial Entrepreneur in Dallas, TX helping individuals & teams fulfill their dreams globally & USA #Philanthropy #MLM #Network #Marketing #Leadership", "favourites_count": 10, "followers_count": 10034, "friends_count": 11124, "id": 94442496, "lang": "en", "listed_count": 68, "location": "Lake Conroe HoustonTexas", "name": "Jason Slone", "profile_background_color": "1A1B1F", "profile_background_image_url": "http://pbs.twimg.com/profile_background_images/606218976566198273/JgwX1XTd.jpg", "profile_background_tile": true, "profile_banner_url": "https://pbs.twimg.com/profile_banners/94442496/1433367249", "profile_image_url": "https://pbs.twimg.com/profile_images/606212378603036672/Xts5q50n_normal.jpg", "profile_link_color": "2FC2EF", "profile_sidebar_fill_color": "DDEEF6", "profile_text_color": "333333", "protected": false, "screen_name": "JasonSloneTeam", "statuses_count": 5465, "time_zone": "Central Time (US & Canada)", "utc_offset": -21600}}
{"created_at": "Fri Aug 14 23:06:27 +0000 2015", "favorite_count": 5, "favorited": false, "id": 632327454149976064, "lang": "en", "retweet_count": 8, "retweeted": false, "source": "<a href=\"http://www.facebook.com/twitter\" rel=\"nofollow\">Facebook</a>", "text": "3-yr-old boy is Seriously ill, Airlines Refuse to Help, Trump IMMEDIATELY Does This http://t.co/HWJFPb6wVi", "truncated": false, "urls": {"http://t.co/HWJFPb6wVi": "http://fb.me/4MYGmzOWS"}, "user": {"created_at": "Tue Sep 21 01:05:49 +0000 2010", "favourites_count": 158, "followers_count": 126, "friends_count": 614, "id": 193122630, "lang": "en", "location": "Sturgis, Michigan", "name": "Mark K.", "profile_background_color": "1B195C", "profile_background_image_url": "http://abs.twimg.com/images/themes/theme14/bg.gif", "profile_background_tile": true, "profile_banner_url": "https://pbs.twimg.com/profile_banners/193122630/1357673373", "profile_image_url": "https://pbs.twimg.com/profile_images/431975562253332481/vjZ9CoE0_normal.jpeg", "profile_link_color": "1C8A28", "profile_sidebar_fill_color": "F6F6F6", "profile_text_color": "333333", "protected": false, "screen_name": "Stinger573", "statuses_count": 5089, "time_zone": "Central Time (US & Canada)", "utc_offset": -21600}}
{"created_at": "Fri Aug 14 23:09:41 +0000 2015", "favorite_count": 1, "favorited": false, "id": 632328265638785024, "lang": "en", "retweet_count": 2, "retweeted": false, "source": "<a href=\"http://www.facebook.com/twitter\" rel=\"nofollow\">Facebook</a>", "text": "3-yr-old boy is Seriously ill, Airlines Refuse to Help, Trump IMMEDIATELY Does This http://t.co/GCGVSD3PvU", "truncated": false, "urls": {"http://t.co/GCGVSD3PvU": "http://fb.me/1MwyQUE2u"}, "user": {"created_at": "Tue Sep 20 23:31:16 +0000 2011", "description": "Real Estate Broker, Investor, Property Manager, out-spoken, plain speakin' observer and commentator about life from Dallas/Fort Worth TX.", "favourites_count": 90, "followers_count": 191, "friends_count": 266, "geo_enabled": true, "id": 377063257, "lang": "en", "listed_count": 11, "location": "Dallas, TX", "name": "WildWestWarren", "profile_background_color": "C0DEED", "profile_background_image_url": "http://abs.twimg.com/images/themes/theme1/bg.png", "profile_background_tile": false, "profile_banner_url": "https://pbs.twimg.com/profile_banners/377063257/1393078643", "profile_image_url": "https://pbs.twimg.com/profile_images/1552381155/020_20-twitter_normal.jpg", "profile_link_color": "0084B4", "profile_sidebar_fill_color": "DDEEF6", "profile_text_color": "333333", "protected": false, "screen_name": "WildWestWarren", "statuses_count": 13971, "time_zone": "Central Time (US & Canada)", "url": "http://t.co/18KmPkbxva", "utc_offset": -21600}}
{"created_at": "Fri Aug 14 23:12:01 +0000 2015", "favorite_count": 1, "favorited": false, "id": 632328853894004736, "lang": "en", "retweet_count": 1, "retweeted": false, "source": "<a href=\"http://www.facebook.com/twitter\" rel=\"nofollow\">Facebook</a>", "text": "3-yr-old boy is Seriously ill, Airlines Refuse to Help, Trump IMMEDIATELY Does This http://t.co/8ayA8Y7JiC", "truncated": false, "urls": {"http://t.co/8ayA8Y7JiC": "http://fb.me/24TDIE7CT"}, "user": {"created_at": "Sun Jun 28 22:39:18 +0000 2009", "description": "I own and operate Executive Sires! We offer semen on the best beef bulls in the entire industry! Call to order today - 434.962.3993!", "favourites_count": 1044, "followers_count": 1366, "friends_count": 643, "geo_enabled": true, "id": 51868855, "lang": "en", "listed_count": 5, "name": "Chris Terembes", "profile_background_color": "1A1B1F", "profile_background_image_url": "http://abs.twimg.com/images/themes/theme9/bg.gif", "profile_background_tile": false, "profile_banner_url": "https://pbs.twimg.com/profile_banners/51868855/1413431441", "profile_image_url": "https://pbs.twimg.com/profile_images/1402394232/ESLogoBlueBlack_-_Blog_Logo_normal.JPG", "profile_link_color": "2FC2EF", "profile_sidebar_fill_color": "252429", "profile_text_color": "666666", "protected": false, "screen_name": "ExecutiveRanch", "statuses_count": 3970, "time_zone": "Eastern Time (US & Canada)", "url": "http://t.co/5qVimI4I0H", "utc_offset": -18000}}
{"created_at": "Fri Aug 14 23:12:40 +0000 2015", "favorited": false, "id": 632329015383191552, "lang": "en", "retweeted": false, "source": "<a href=\"http://www.facebook.com/twitter\" rel=\"nofollow\">Facebook</a>", "text": "3-yr-old boy is Seriously ill, Airlines Refuse to Help, Trump IMMEDIATELY Does This http://t.co/jVdSilok7B", "truncated": false, "urls": {"http://t.co/jVdSilok7B": "http://fb.me/7pJnJXxYx"}, "user": {"created_at": "Tue Jun 23 20:38:37 +0000 2009", "description": "Problem Solver", "favourites_count": 7, "followers_count": 107, "friends_count": 174, "id": 50094682, "lang": "en", "location": "www.3Dskin.nerium.com", "name": "Marge Dederick", "profile_background_color": "C0DEED", "profile_background_image_url": "http://abs.twimg.com/images/themes/theme1/bg.png", "profile_background_tile": false, "profile_image_url": "https://pbs.twimg.com/profile_images/318179661/mom_and_dad_normal.jpg", "profile_link_color": "0084B4", "profile_sidebar_fill_color": "DDEEF6", "profile_text_color": "333333", "protected": false, "screen_name": "Income27", "statuses_count": 917, "time_zone": "Eastern Time (US & Canada)", "url": "http://t.co/NEsegwQq", "utc_offset": -18000}}
{"created_at": "Fri Aug 14 23:13:06 +0000 2015", "favorited": false, "id": 632329127824097280, "lang": "en", "retweeted": false, "source": "<a href=\"http://www.facebook.com/twitter\" rel=\"nofollow\">Facebook</a>", "text": "3-yr-old boy is Seriously ill, Airlines Refuse to Help, Trump IMMEDIATELY Does This http://t.co/KcaNYStAxo", "truncated": false, "urls": {"http://t.co/KcaNYStAxo": "http://fb.me/6VqrbOH4W"}, "user": {"created_at": "Mon Dec 19 19:20:30 +0000 2011", "description": "4500  Valleydale Road Birmingham, AL 205.991.0730 frontdesk@honorssalon.com", "favourites_count": 6, "followers_count": 77, "friends_count": 115, "geo_enabled": true, "id": 441119656, "lang": "en", "listed_count": 1, "location": "Birmingham, Alabama", "name": "Honors Salon", "profile_background_color": "C4B29A", "profile_background_image_url": "http://abs.twimg.com/images/themes/theme14/bg.gif", "profile_background_tile": true, "profile_banner_url": "https://pbs.twimg.com/profile_banners/441119656/1395335523", "profile_image_url": "https://pbs.twimg.com/profile_images/446702443900833792/5U5sgDAD_normal.jpeg", "profile_link_color": "8A6F51", "profile_sidebar_fill_color": "261213", "profile_text_color": "4C1E21", "protected": false, "screen_name": "HonorsSalon", "statuses_count": 2221, "time_zone": "Mountain Time (US & Canada)", "url": "http://t.co/3sL5a80L8S", "utc_offset": -25200}}
{"created_at": "Fri Aug 14 23:15:10 +0000 2015", "favorited": false, "id": 632329647640977408, "lang": "en", "retweet_count": 1, "retweeted": false, "source": "<a href=\"http://www.facebook.com/twitter\" rel=\"nofollow\">Facebook</a>", "text": "3-yr-old boy is Seriously ill, Airlines Refuse to Help, Trump IMMEDIATELY Does This http://t.co/1zSpgsjYOu", "truncated": false, "urls": {"http://t.co/1zSpgsjYOu": "http://fb.me/3UuPJlItt"}, "user": {"created_at": "Thu May 22 16:46:34 +0000 2014", "default_profile": true, "description": "Welcome to the official Twitter page of the Republican Executive Committee of Volusia County", "favourites_count": 47, "followers_count": 440, "friends_count": 817, "geo_enabled": true, "id": 2515850936, "lang": "en", "listed_count": 40, "location": "Volusia County, Florida", "name": "Volusia Republicans", "profile_background_color": "C0DEED", "profile_background_image_url": "http://abs.twimg.com/images/themes/theme1/bg.png", "profile_background_tile": false, "profile_banner_url": "https://pbs.twimg.com/profile_banners/2515850936/1400861390", "profile_image_url": "https://pbs.twimg.com/profile_images/469872022621655040/_kx8jMkc_normal.jpeg", "profile_link_color": "0084B4", "profile_sidebar_fill_color": "DDEEF6", "profile_text_color": "333333", "protected": false, "screen_name": "RecvcOrg", "statuses_count": 17962, "time_zone": "Atlantic Time (Canada)", "url": "http://t.co/DrfSpBucrw", "utc_offset": -14400}}
{"created_at": "Fri Aug 14 23:19:12 +0000 2015", "favorited": false, "id": 632330660905152512, "lang": "en", "retweeted": false, "source": "<a href=\"http://www.facebook.com/twitter\" rel=\"nofollow\">Facebook</a>", "text": "3-yr-old boy is Seriously ill, Airlines Refuse to Help, Trump IMMEDIATELY Does This http://t.co/JmsvELr3YH", "truncated": false, "urls": {"http://t.co/JmsvELr3YH": "http://fb.me/2qY1404hQ"}, "user": {"created_at": "Mon Jan 24 12:18:26 +0000 2011", "description": "Feelin' good, Feelin' great.... how r u tho?", "favourites_count": 186, "followers_count": 267, "friends_count": 336, "geo_enabled": true, "id": 242285761, "lang": "en", "location": "Detroit, Mi", "name": "A1.Hustle", "profile_background_color": "1A1B1F", "profile_background_image_url": "http://abs.twimg.com/images/themes/theme9/bg.gif", "profile_background_tile": false, "profile_banner_url": "https://pbs.twimg.com/profile_banners/242285761/1364495086", "profile_image_url": "https://pbs.twimg.com/profile_images/3622680117/4aedcb6e163525fe9f5b9a2d579e5511_normal.jpeg", "profile_link_color": "2FC2EF", "profile_sidebar_fill_color": "252429", "profile_text_color": "666666", "protected": false, "screen_name": "Aaron_M_Johnson", "statuses_count": 9185, "time_zone": "Eastern Time (US & Canada)", "utc_offset": -18000}}
{"created_at": "Fri Aug 14 23:19:36 +0000 2015", "favorite_count": 1, "favorited": false, "id": 632330761543286784, "lang": "en", "retweet_count": 1, "retweeted": false, "source": "<a href=\"http://www.apple.com\" rel=\"nofollow\">iOS</a>", "text": "3-Year-Old Boy is Seriously ill, Trump Finds out, IMMEDIATELY Does This for him http://t.co/36PNpjSbls", "truncated": false, "urls": {"http://t.co/36PNpjSbls": "http://www.youngcons.com/donald-trump-allows-seriously-ill-jewish-child-to-use-private-jet/"}, "user": {"created_at": "Tue Feb 15 19:04:44 +0000 2011", "description": "SOG no country anymore, I'm waiting for liberty to rise if it takes my blood I will spill it! I follow the one true God, the God of Israel!", "favourites_count": 5803, "followers_count": 6115, "friends_count": 5959, "id": 252708695, "lang": "en", "listed_count": 77, "location": "On the outside looking in", "name": "Blaine", "profile_background_color": "131516", "profile_background_image_url": "http://abs.twimg.com/images/themes/theme14/bg.gif", "profile_background_tile": true, "profile_banner_url": "https://pbs.twimg.com/profile_banners/252708695/1411670425", "profile_image_url": "https://pbs.twimg.com/profile_images/471185519938777088/v2WAH---_normal.jpeg", "profile_link_color": "009999", "profile_sidebar_fill_color": "EFEFEF", "profile_text_color": "333333", "protected": false, "screen_name": "Xamerican", "statuses_count": 27371, "time_zone": "Pretoria", "utc_offset": 7200}}
{"created_at": "Fri Aug 14 23:26:13 +0000 2015", "favorited": false, "id": 632332428913192960, "lang": "en", "retweet_count": 2, "retweeted": false, "source": "<a href=\"http://www.facebook.com/twitter\" rel=\"nofollow\">Facebook</a>", "text": "3-yr-old boy is Seriously ill, Airlines Refuse to Help, Trump IMMEDIATELY Does This http://t.co/GM12eKQIQU", "truncated": false, "urls": {"http://t.co/GM12eKQIQU": "http://fb.me/3psYqySTJ"}, "user": {"created_at": "Mon Oct 15 01:48:01 +0000 2012", "default_profile": true, "description": "Life is great and unbelievable. Enjoy every moment because time is all you get and once it is gone it never comes back.", "favourites_count": 1, "followers_count": 67, "friends_count": 39, "id": 881337493, "lang": "en", "listed_count": 4, "location": "Rocklin, CA", "name": "Eric Vorbeck", "profile_background_color": "C0DEED", "profile_background_image_url": "http://abs.twimg.com/images/themes/theme1/bg.png", "profile_background_tile": false, "profile_image_url": "https://pbs.twimg.com/profile_images/2719643680/7c4cfc45cde8031af96b1261b33c8e50_normal.jpeg", "profile_link_color": "0084B4", "profile_sidebar_fill_color": "DDEEF6", "profile_text_color": "333333", "protected": false, "screen_name": "EricVorbeck", "statuses_count": 2476, "url": "http://t.co/oSR1t621"}}
{"created_at": "Fri Aug 14 23:26:18 +0000 2015", "favorited": false, "id": 632332446529376256, "lang": "en", "retweeted": false, "source": "<a href=\"http://www.facebook.com/twitter\" rel=\"nofollow\">Facebook</a>", "text": "3-yr-old boy is Seriously ill, Airlines Refuse to Help, Trump IMMEDIATELY Does This http://t.co/OaYCpvIDSi", "truncated": false, "urls": {"http://t.co/OaYCpvIDSi": "http://fb.me/6LZLlRIOA"}, "user": {"created_at": "Sun Feb 15 01:14:22 +0000 2009", "default_profile": true, "description": "Marketing", "favourites_count": 2, "followers_count": 290, "friends_count": 466, "id": 20884748, "lang": "en", "listed_count": 17, "location": "Navarre, Fl", "name": "Timothy Bethune", "profile_background_color": "C0DEED", "profile_background_image_url": "http://abs.twimg.com/images/themes/theme1/bg.png", "profile_background_tile": false, "profile_banner_url": "https://pbs.twimg.com/profile_banners/20884748/1442584218", "profile_image_url": "https://pbs.twimg.com/profile_images/644870900102373376/dP6mhJ21_normal.jpg", "profile_link_color": "0084B4", "profile_sidebar_fill_color": "DDEEF6", "profile_text_color": "333333", "protected": false, "screen_name": "twbethune", "statuses_count": 6334, "time_zone": "Central Time (US & Canada)", "url": "http://t.co/Ke3KYyMgZf", "utc_offset": -21600}}
{"created_at": "Fri Aug 14 23:28:28 +0000 2015", "favorited": false, "id": 632332995005935617, "lang": "en", "retweeted": false, "source": "<a href=\"http://www.facebook.com/twitter\" rel=\"nofollow\">Facebook</a>", "text": "3-yr-old boy is Seriously ill, Airlines Refuse to Help, Trump IMMEDIATELY Does This http://t.co/p2H9FlGPuY", "truncated": false, "urls": {"http://t.co/p2H9FlGPuY": "http://fb.me/2lrWZXY2E"}, "user": {"created_at": "Sun Dec 12 01:52:29 +0000 2010", "description": "timohyjblair", "favourites_count": 101, "followers_count": 483, "friends_count": 2066, "geo_enabled": true, "id": 225627469, "lang": "en", "listed_count": 32, "location": "seattle", "name": "tim blair", "profile_background_color": "0099B9", "profile_background_image_url": "http://abs.twimg.com/images/themes/theme4/bg.gif", "profile_background_tile": false, "profile_banner_url": "https://pbs.twimg.com/profile_banners/225627469/1449445954", "profile_image_url": "https://pbs.twimg.com/profile_images/635594081364676608/TuNm2uHm_normal.jpg", "profile_link_color": "0099B9", "profile_sidebar_fill_color": "95E8EC", "profile_text_color": "3C3940", "protected": false, "screen_name": "blairtim", "statuses_count": 111011, "time_zone": "Pacific Time (US & Canada)", "url": "https://t.co/2zQ2l9VStq", "utc_offset": -28800}}
{"created_at": "Fri Aug 14 23:30:24 +0000 2015", "favorited": false, "id": 632333480878305280, "lang": "en", "retweeted": false, "source": "<a href=\"http://www.facebook.com/twitter\" rel=\"nofollow\">Facebook</a>", "text": "3-yr-old boy is Seriously ill, Airlines Refuse to Help, Trump IMMEDIATELY Does This http://t.co/ZlQbFRXcSF", "truncated": false, "urls": {"http://t.co/ZlQbFRXcSF": "http://fb.me/1UOOOvN5o"}, "user": {"created_at": "Thu Apr 10 21:22:59 +0000 2014", "default_profile": true, "favourites_count": 2, "followers_count": 17, "friends_count": 69, "id": 2437526646, "lang": "en", "name": "Justin Burnette", "profile_background_color": "C0DEED", "profile_background_image_url": "http://abs.twimg.com/images/themes/theme1/bg.png", "profile_background_tile": false, "profile_banner_url": "https://pbs.twimg.com/profile_banners/2437526646/1400196570", "profile_image_url": "https://pbs.twimg.com/profile_images/467084579518414848/kwDk8LCq_normal.jpeg", "profile_link_color": "0084B4", "profile_sidebar_fill_color": "DDEEF6", "profile_text_color": "333333", "protected": false, "screen_name": "armyburnette", "statuses_count": 383}}
{"created_at": "Fri Aug 14 23:31:47 +0000 2015", "favorited": false, "id": 632333826472181761, "lang": "en", "retweeted": false, "source": "<a href=\"http://www.facebook.com/twitter\" rel=\"nofollow\">Facebook</a>", "text": "3-yr-old boy is Seriously ill, Airlines Refuse to Help, Trump IMMEDIATELY Does This http://t.co/6fukQKKvss", "truncated": false, "urls": {"http://t.co/6fukQKKvss": "http://fb.me/55mO8LoTd"}, "user": {"created_at": "Fri Mar 27 23:06:55 +0000 2009", "default_profile": true, "description": "Browse Property By Category: Butler Chain Homes For Sale 2012: http://t.co/JU10TEGZ", "favourites_count": 2, "followers_count": 136, "friends_count": 104, "geo_enabled": true, "id": 27122247, "lang": "en", "listed_count": 2, "location": "Orlando, Florida ", "name": "Christopher Sampson", "profile_background_color": "C0DEED", "profile_background_image_url": "http://abs.twimg.com/images/themes/theme1/bg.png", "profile_background_tile": false, "profile_banner_url": "https://pbs.twimg.com/profile_banners/27122247/1356297157", "profile_image_url": "https://pbs.twimg.com/profile_images/1195298786/Me312a_normal.png", "profile_link_color": "0084B4", "profile_sidebar_fill_color": "DDEEF6", "profile_text_color": "333333", "protected": false, "screen_name": "Christopher111", "statuses_count": 12643, "time_zone": "Eastern Time (US & Canada)", "url": "http://t.co/0zOFlhZLnS", "utc_offset": -18000}}
{"created_at": "Fri Aug 14 23:33:40 +0000 2015", "favorited": false, "id": 632334302265503744, "lang": "en", "retweeted": false, "source": "<a href=\"http://www.facebook.com/twitter\" rel=\"nofollow\">Facebook</a>", "text": "3-yr-old boy is Seriously ill, Airlines Refuse to Help, Trump IMMEDIATELY Does This http://t.co/keqTLrxYMO", "truncated": false, "urls": {"http://t.co/keqTLrxYMO": "http://fb.me/2du4KbpTv"}, "user": {"created_at": "Wed Aug 27 17:36:52 +0000 2008", "description": "Web designer, IT fanatic, love technology, lifelong student. Maybe I'm a nerd? Definitely a goofball!", "favourites_count": 11, "followers_count": 50, "friends_count": 113, "id": 16014616, "lang": "en", "listed_count": 3, "location": "Richmond, KY", "name": "Chris", "profile_background_color": "1A1B1F", "profile_background_image_url": "http://pbs.twimg.com/profile_background_images/3432178/twitterbk.jpg", "profile_background_tile": false, "profile_image_url": "https://pbs.twimg.com/profile_images/511407330/avartize.com.40177_normal.png", "profile_link_color": "2FC2EF", "profile_sidebar_fill_color": "252429", "profile_text_color": "666666", "protected": false, "screen_name": "clfarris", "statuses_count": 557, "time_zone": "Eastern Time (US & Canada)", "url": "http://t.co/w0EMk3QjXf", "utc_offset": -18000}}
{"created_at": "Fri Aug 14 23:38:12 +0000 2015", "favorited": false, "id": 632335443510579201, "lang": "en", "retweeted": false, "source": "<a href=\"http://www.facebook.com/twitter\" rel=\"nofollow\">Facebook</a>", "text": "3-yr-old boy is Seriously ill, Airlines Refuse to Help, Trump IMMEDIATELY Does This http://t.co/NRtkWkacDy", "truncated": false, "urls": {"http://t.co/NRtkWkacDy": "http://fb.me/3RRh972GL"}, "user": {"created_at": "Tue Jul 21 17:01:16 +0000 2009", "description": "Google search, aquablauw", "favourites_count": 16, "followers_count": 1429, "friends_count": 1315, "geo_enabled": true, "id": 58850862, "lang": "en", "listed_count": 14, "location": "Bowling Green, KY, USA", "name": "Harry Br\u00f6ker", "profile_background_color": "000000", "profile_background_image_url": "http://abs.twimg.com/images/themes/theme13/bg.gif", "profile_background_tile": false, "profile_banner_url": "https://pbs.twimg.com/profile_banners/58850862/1447134594", "profile_image_url": "https://pbs.twimg.com/profile_images/676594056491745280/66wqjkRb_normal.jpg", "profile_link_color": "3B94D9", "profile_sidebar_fill_color": "000000", "profile_text_color": "000000", "protected": false, "screen_name": "aquablauw", "statuses_count": 15423, "time_zone": "Central Time (US & Canada)", "url": "https://t.co/UY5pezHqHz", "utc_offset": -21600}}
{"created_at": "Fri Aug 14 23:47:34 +0000 2015", "favorite_count": 7, "favorited": false, "id": 632337800482918400, "lang": "en", "retweet_count": 18, "retweeted": false, "source": "<a href=\"http://www.apple.com\" rel=\"nofollow\">iOS</a>", "text": "3-Year-Old Boy is Seriously ill, Trump Finds out, IMMEDIATELY Does This for him http://t.co/rEdRO0v3zy", "truncated": false, "urls": {"http://t.co/rEdRO0v3zy": "http://www.youngcons.com/donald-trump-allows-seriously-ill-jewish-child-to-use-private-jet/"}, "user": {"created_at": "Tue Jun 23 05:42:08 +0000 2009", "description": "The man who asks you to sacrifice, intends on being your master , you the slave. -----#CAPITALIST #ww2Junkie ..#selfeducate #knowledgeIsPower", "favourites_count": 15029, "followers_count": 20211, "friends_count": 7840, "geo_enabled": true, "id": 49898151, "lang": "en", "listed_count": 346, "location": "NY.. OHIO..RI #DENMARK", "name": "F\u00e1tima\u24c2\ufe0f", "profile_background_color": "FF6699", "profile_background_image_url": "http://abs.twimg.com/images/themes/theme11/bg.gif", "profile_background_tile": true, "profile_banner_url": "https://pbs.twimg.com/profile_banners/49898151/1451605246", "profile_image_url": "https://pbs.twimg.com/profile_images/658044560497577984/u3wMJH84_normal.jpg", "profile_link_color": "B40B43", "profile_sidebar_fill_color": "E5507E", "profile_text_color": "362720", "protected": false, "screen_name": "backatone000", "statuses_count": 51707, "time_zone": "Eastern Time (US & Canada)", "utc_offset": -18000}}
{"created_at": "Fri Aug 14 23:58:03 +0000 2015", "favorited": false, "id": 632340438825852928, "lang": "en", "retweeted": false, "source": "<a href=\"http://www.facebook.com/twitter\" rel=\"nofollow\">Facebook</a>", "text": "3-yr-old boy is Seriously ill, Airlines Refuse to Help, Trump IMMEDIATELY Does This http://t.co/M4u7TSvST2", "truncated": false, "urls": {"http://t.co/M4u7TSvST2": "http://fb.me/4uU4AkQq0"}, "user": {"created_at": "Thu Sep 08 21:35:43 +0000 2011", "default_profile": true, "favourites_count": 34, "followers_count": 48, "friends_count": 122, "geo_enabled": true, "id": 370346970, "lang": "en", "listed_count": 2, "location": "Florida", "name": "Deborah Roberts", "profile_background_color": "C0DEED", "profile_background_image_url": "http://abs.twimg.com/images/themes/theme1/bg.png", "profile_background_tile": false, "profile_banner_url": "https://pbs.twimg.com/profile_banners/370346970/1403122991", "profile_image_url": "https://pbs.twimg.com/profile_images/479359522427772929/mVANHHIL_normal.jpeg", "profile_link_color": "0084B4", "profile_sidebar_fill_color": "DDEEF6", "profile_text_color": "333333", "protected": false, "screen_name": "RobertsDeborah", "statuses_count": 1776, "time_zone": "Atlantic Time (Canada)", "url": "https://t.co/rQaQkvywNW", "utc_offset": -14400}}
{"created_at": "Mon Aug 17 20:10:38 +0000 2015", "favorited": false, "id": 633370372566593536, "lang": "en", "retweeted": false, "source": "<a href=\"http://ifttt.com\" rel=\"nofollow\">IFTTT</a>", "text": "Donald Trump\u2019s jet private carried a critically ill 3-year-old Jewish boy from California to New York for medical \u2026 http://t.co/kdnUV7i2Qo", "truncated": false, "urls": {"http://t.co/kdnUV7i2Qo": "http://ift.tt/1My2obk"}, "user": {"created_at": "Mon Feb 02 12:55:08 +0000 2015", "default_profile": true, "description": "Bot posting the current news stories from multiple subreddits \u2014\nAutomation done with @IFTTT", "followers_count": 356, "friends_count": 23, "id": 3012137459, "lang": "en", "listed_count": 100, "name": "WorldNews", "profile_background_color": "C0DEED", "profile_background_image_url": "http://abs.twimg.com/images/themes/theme1/bg.png", "profile_background_tile": false, "profile_image_url": "https://pbs.twimg.com/profile_images/562254099987447808/s35CGI6u_normal.png", "profile_link_color": "0084B4", "profile_sidebar_fill_color": "DDEEF6", "profile_text_color": "333333", "protected": false, "screen_name": "newsfromreddit", "statuses_count": 256569, "time_zone": "Dublin", "url": "http://t.co/M0uRGyITQU"}}
{"created_at": "Mon Aug 17 20:18:49 +0000 2015", "favorited": false, "id": 633372429801287680, "lang": "en", "possibly_sensitive": true, "retweeted": false, "source": "<a href=\"http://twitterfeed.com\" rel=\"nofollow\">twitterfeed</a>", "text": "Donald Trump\u2019s jet private carried a critically ill 3-year-old Jewish boy from California to New York for medi... http://t.co/KeKKKWOlsF", "truncated": false, "urls": {"http://t.co/KeKKKWOlsF": "http://bit.ly/1TNQqtc"}, "user": {"created_at": "Wed Jul 01 07:51:50 +0000 2009", "description": "Follow and find out", "favourites_count": 2, "followers_count": 424, "id": 52665836, "lang": "en", "listed_count": 163, "location": "--------------", "name": "Fu", "profile_background_color": "131516", "profile_background_image_url": "http://abs.twimg.com/images/themes/theme14/bg.gif", "profile_background_tile": true, "profile_banner_url": "https://pbs.twimg.com/profile_banners/52665836/1445813989", "profile_image_url": "https://pbs.twimg.com/profile_images/658416855770468352/nF_6fr_d_normal.jpg", "profile_link_color": "1A783B", "profile_sidebar_fill_color": "DDEEF6", "profile_text_color": "333333", "protected": false, "screen_name": "rhuid", "statuses_count": 412418, "time_zone": "Central Time (US & Canada)", "utc_offset": -21600}}
{"created_at": "Mon Aug 17 23:58:43 +0000 2015", "favorited": false, "id": 633427770241077248, "lang": "en", "retweeted": false, "source": "<a href=\"http://ifttt.com\" rel=\"nofollow\">IFTTT</a>", "text": "Donald Trump\u2019s jet private carried a critically ill 3-year-old Jewish boy from California to New York for medical \u2026 http://t.co/yhdFsn8bcX", "truncated": false, "urls": {"http://t.co/yhdFsn8bcX": "http://ift.tt/1My2obk"}, "user": {"created_at": "Mon Jun 09 10:40:57 +0000 2014", "default_profile": true, "description": "If it's trending I've tweeted it", "followers_count": 55, "id": 2594662605, "lang": "en", "listed_count": 8, "location": "Everywhere", "name": "Trending Tweets", "profile_background_color": "C0DEED", "profile_background_image_url": "http://abs.twimg.com/images/themes/theme1/bg.png", "profile_background_tile": false, "profile_banner_url": "https://pbs.twimg.com/profile_banners/2594662605/1402311191", "profile_image_url": "https://pbs.twimg.com/profile_images/475953844980310016/ImyOdK9A_normal.jpeg", "profile_link_color": "0084B4", "profile_sidebar_fill_color": "DDEEF6", "profile_text_color": "333333", "protected": false, "screen_name": "TwendingTweets", "statuses_count": 36387}}
{"created_at": "Tue Aug 18 04:46:38 +0000 2015", "favorited": false, "id": 633500226217738240, "lang": "en", "retweeted": false, "source": "<a href=\"http://ifttt.com\" rel=\"nofollow\">IFTTT</a>", "text": "Donald Trump\u2019s jet private carried a critically ill 3-year-old Jewish boy from California to New York for medical \u2026 http://t.co/bbCuOBMU7j", "truncated": false, "urls": {"http://t.co/bbCuOBMU7j": "http://ift.tt/1My2obk"}, "user": {"created_at": "Sun Mar 22 01:41:24 +0000 2015", "description": "positive thinker - love music & my dog Sadie", "favourites_count": 556, "followers_count": 75, "friends_count": 42, "id": 3102316614, "lang": "en", "listed_count": 11, "location": "Seattle", "name": "janey", "profile_background_color": "000000", "profile_background_image_url": "http://abs.twimg.com/images/themes/theme1/bg.png", "profile_background_tile": false, "profile_banner_url": "https://pbs.twimg.com/profile_banners/3102316614/1426988707", "profile_image_url": "https://pbs.twimg.com/profile_images/579458005730656256/lgJubPNK_normal.jpg", "profile_link_color": "4A913C", "profile_sidebar_fill_color": "000000", "profile_text_color": "000000", "protected": false, "screen_name": "janeychill", "statuses_count": 4710}}
