{"created_at": "Mon Jun 15 06:23:30 +0000 2015", "favorite_count": 6, "favorited": false, "id": 610331781712244736, "lang": "en", "retweet_count": 9, "retweeted": false, "source": "<a href=\"http://twitter.com\" rel=\"nofollow\">Twitter Web Client</a>", "text": "The United States will come to talk to us when you have a black president and the world has a Latin American pope _ Fidel Castro  in 1973!", "truncated": false, "user": {"created_at": "Mon Jan 19 11:19:43 +0000 2015", "default_profile": true, "description": "Cubano fighter, anti american hypocricy,greed,politics, injustice,pro unionist, socialist,supports che guevara,and luton town fc til i die, born socialist", "favourites_count": 43, "followers_count": 1138, "friends_count": 1990, "id": 2985622798, "lang": "en", "listed_count": 18, "location": "Where ever injustice takes me ", "name": "Terry Hopper", "profile_background_color": "C0DEED", "profile_background_image_url": "http://abs.twimg.com/images/themes/theme1/bg.png", "profile_background_tile": false, "profile_image_url": "https://pbs.twimg.com/profile_images/565864815868907520/KaZxNk3Y_normal.png", "profile_link_color": "0084B4", "profile_sidebar_fill_color": "DDEEF6", "profile_text_color": "333333", "protected": false, "screen_name": "hoppterr07", "statuses_count": 3584}}
{"created_at": "Mon Jun 15 13:27:55 +0000 2015", "favorited": false, "id": 610438588250066944, "lang": "en", "retweeted": false, "source": "<a href=\"http://twitter.com\" rel=\"nofollow\">Twitter Web Client</a>", "text": "\"The United States will come to talk to us when you have a black president and the world has a Latin American pope.\" - Fidel Castro, 1973", "truncated": false, "user": {"created_at": "Tue May 12 04:34:52 +0000 2015", "description": "Rise like Lions after slumber / In unvanquishable number - / Shake your chains to earth like dew / Which in sleep had fallen on you / Ye are many - they are few", "favourites_count": 202, "followers_count": 134, "friends_count": 485, "id": 3247217313, "lang": "en", "listed_count": 6, "location": "Depew, New York", "name": "Oscar", "profile_background_color": "000000", "profile_background_image_url": "http://abs.twimg.com/images/themes/theme1/bg.png", "profile_background_tile": false, "profile_banner_url": "https://pbs.twimg.com/profile_banners/3247217313/1431407303", "profile_image_url": "https://pbs.twimg.com/profile_images/597984211354525696/sPCERuaN_normal.png", "profile_link_color": "89C9FA", "profile_sidebar_fill_color": "000000", "profile_text_color": "000000", "protected": false, "screen_name": "PotemkinLion", "statuses_count": 2351}}
{"created_at": "Tue Jun 16 06:00:49 +0000 2015", "favorited": false, "id": 610688459209097217, "lang": "en", "retweeted": false, "source": "<a href=\"http://twitter.com\" rel=\"nofollow\">Twitter Web Client</a>", "text": "\"The United States will come to talk to us when you have a black president and the world has a Latin American pope.\" - Fidel Castro, 1973!", "truncated": false, "user": {"created_at": "Tue Mar 16 17:16:46 +0000 2010", "description": "Ask me about my vow of silence", "favourites_count": 60, "followers_count": 225, "friends_count": 142, "geo_enabled": true, "id": 123613982, "lang": "en", "name": "Henry Njuguna", "profile_background_color": "1A1B1F", "profile_background_image_url": "http://pbs.twimg.com/profile_background_images/209545955/cool-backgrounds-11.jpg", "profile_background_tile": false, "profile_image_url": "https://pbs.twimg.com/profile_images/3400155903/98d4017240fb517e162d2fb344fdecf0_normal.jpeg", "profile_link_color": "2FC2EF", "profile_sidebar_fill_color": "252429", "profile_text_color": "666666", "protected": false, "screen_name": "Hench_moi", "statuses_count": 1192, "time_zone": "Nairobi", "utc_offset": 10800}}
{"created_at": "Fri Jun 19 14:06:55 +0000 2015", "favorited": false, "id": 611897953364611072, "lang": "en", "retweeted": false, "source": "<a href=\"http://twitter.com\" rel=\"nofollow\">Twitter Web Client</a>", "text": "The United States will come to talk with us when you have a black President and the world has a Latin American Pope. -- Fidel Castro, 1973", "truncated": false, "user": {"created_at": "Mon Oct 15 01:45:04 +0000 2012", "default_profile": true, "description": "US Army Vietnam Vet.You want fries with that? No answers, just questions. Had a lucid thought,once. Investor. Retiree, Free lance writer. Read at your own risk.", "favourites_count": 50, "followers_count": 817, "friends_count": 1278, "id": 881329724, "lang": "en", "listed_count": 22, "location": "New York", "name": "ivorroy", "profile_background_color": "C0DEED", "profile_background_image_url": "http://abs.twimg.com/images/themes/theme1/bg.png", "profile_background_tile": false, "profile_image_url": "https://pbs.twimg.com/profile_images/2856974892/a344662cc57af9c1cee11d38feb5e7d2_normal.jpeg", "profile_link_color": "0084B4", "profile_sidebar_fill_color": "DDEEF6", "profile_text_color": "333333", "protected": false, "screen_name": "ivorroy", "statuses_count": 6442, "time_zone": "Atlantic Time (Canada)", "utc_offset": -14400}}
{"created_at": "Fri Jun 19 19:11:19 +0000 2015", "favorite_count": 15, "favorited": false, "id": 611974561031135232, "lang": "en", "retweet_count": 35, "retweeted": false, "source": "<a href=\"http://twitter.com/download/iphone\" rel=\"nofollow\">Twitter for iPhone</a>", "text": "\" The United States will come to talk to us when you have a black president and the world has a Latin American pope.\" Fidel Castro (1973).", "truncated": false, "user": {"created_at": "Thu Feb 17 18:29:08 +0000 2011", "default_profile": true, "description": "Cortec Mining Kenya Ltd, Kenya, Cortec SA, Cortec Uk, Stirling, UK, Pacific Wildcat Resources Corp., Canada, USA, Rio Tinto, Australia, First Western, UK....", "favourites_count": 10980, "followers_count": 17097, "friends_count": 65, "geo_enabled": true, "id": 253666082, "lang": "en", "listed_count": 39, "name": "jacob juma", "profile_background_color": "C0DEED", "profile_background_image_url": "http://abs.twimg.com/images/themes/theme1/bg.png", "profile_background_tile": false, "profile_banner_url": "https://pbs.twimg.com/profile_banners/253666082/1444505813", "profile_image_url": "https://pbs.twimg.com/profile_images/617563106403860480/EgkS2av1_normal.jpg", "profile_link_color": "0084B4", "profile_sidebar_fill_color": "DDEEF6", "profile_text_color": "333333", "protected": false, "screen_name": "kabetes", "statuses_count": 13072}}
{"created_at": "Fri Jun 19 19:16:41 +0000 2015", "favorited": false, "id": 611975911156654080, "lang": "en", "retweeted": false, "source": "<a href=\"http://twitter.com\" rel=\"nofollow\">Twitter Web Client</a>", "text": "\" The United States will come to talk to us when you have a black president and the world has a Latin American pope.\" Fidel Castro (1973).", "truncated": false, "user": {"created_at": "Thu Feb 23 05:03:21 +0000 2012", "description": "A Father/son/husband/brother/uncle/Lover. A Kenyan Who likes looking at the positive side of everything i encounter.", "favourites_count": 119, "followers_count": 1155, "friends_count": 227, "geo_enabled": true, "id": 500467108, "lang": "en", "listed_count": 1, "name": "godfrey goddie", "profile_background_color": "642D8B", "profile_background_image_url": "http://abs.twimg.com/images/themes/theme10/bg.gif", "profile_background_tile": true, "profile_image_url": "https://pbs.twimg.com/profile_images/1847477253/gggg_normal.jpg", "profile_link_color": "FF0000", "profile_sidebar_fill_color": "7AC3EE", "profile_text_color": "3D1957", "protected": false, "screen_name": "godfreygoddie", "statuses_count": 3362, "time_zone": "Nairobi", "utc_offset": 10800}}
{"created_at": "Sat Jun 20 10:02:07 +0000 2015", "favorite_count": 2, "favorited": false, "id": 612198736396222465, "lang": "en", "retweet_count": 11, "retweeted": false, "source": "<a href=\"http://twitter.com/download/android\" rel=\"nofollow\">Twitter for Android</a>", "text": "The United States will come to talk to us when you have a black president and the world has a Latin American pope. Fidel Castro (1973).", "truncated": false, "user": {"created_at": "Thu Sep 02 07:17:47 +0000 2010", "description": "Hakuna matata Gadifele", "favourites_count": 99, "followers_count": 4333, "friends_count": 3205, "geo_enabled": true, "id": 185960749, "lang": "en", "listed_count": 13, "location": "everywhere in Kenya", "name": "\u221e\u221eIts itchy fingers\u2122", "profile_background_color": "FFF04D", "profile_background_image_url": "http://abs.twimg.com/images/themes/theme19/bg.gif", "profile_background_tile": false, "profile_banner_url": "https://pbs.twimg.com/profile_banners/185960749/1452287539", "profile_image_url": "https://pbs.twimg.com/profile_images/682635080414720000/Cz6jJM3O_normal.jpg", "profile_link_color": "0099CC", "profile_sidebar_fill_color": "F6FFD1", "profile_text_color": "333333", "protected": false, "screen_name": "kenyan_dude", "statuses_count": 31959, "time_zone": "Nairobi", "url": "https://t.co/0pcw4nEKBZ", "utc_offset": 10800}}
{"created_at": "Sun Jun 21 14:13:12 +0000 2015", "favorited": false, "id": 612624310344249344, "lang": "en", "media": [{"display_url": "pic.twitter.com/ExTgkBF1gN", "expanded_url": "http://twitter.com/RoKlanten/status/612624310344249344/photo/1", "id": 612624310289727488, "id_str": "612624310289727488", "indices": [118, 140], "media_url": "http://pbs.twimg.com/media/CIB6kHuWgAANY_R.jpg", "media_url_https": "https://pbs.twimg.com/media/CIB6kHuWgAANY_R.jpg", "sizes": {"large": {"h": 156, "resize": "fit", "w": 480}, "medium": {"h": 156, "resize": "fit", "w": 480}, "small": {"h": 110, "resize": "fit", "w": 340}, "thumb": {"h": 150, "resize": "crop", "w": 150}}, "type": "photo", "url": "http://t.co/ExTgkBF1gN"}], "retweeted": false, "source": "<a href=\"http://bufferapp.com\" rel=\"nofollow\">Buffer</a>", "text": "The US will come to talk to us when you have a black president and the world has a Latin American pope-FidelCastro 73 http://t.co/ExTgkBF1gN", "truncated": false, "user": {"created_at": "Sat Jul 13 12:14:52 +0000 2013", "favourites_count": 14, "followers_count": 142, "friends_count": 66, "geo_enabled": true, "id": 1590858486, "lang": "en", "listed_count": 3, "name": "Robert Klanten", "profile_background_color": "C0DEED", "profile_background_image_url": "http://pbs.twimg.com/profile_background_images/378800000032014718/d35b3e42be1f4bb2d619faddbe0dc1d4.jpeg", "profile_background_tile": true, "profile_image_url": "https://pbs.twimg.com/profile_images/665557983326289920/4oT4cyf2_normal.jpg", "profile_link_color": "0084B4", "profile_sidebar_fill_color": "DDEEF6", "profile_text_color": "333333", "protected": false, "screen_name": "RoKlanten", "statuses_count": 235}}
{"created_at": "Tue Jun 23 02:10:30 +0000 2015", "favorited": false, "id": 613167214628347904, "lang": "en", "retweet_count": 1, "retweeted": false, "source": "<a href=\"http://twitter.com\" rel=\"nofollow\">Twitter Web Client</a>", "text": "\"The United States will come to talk to us when you have a black president and the world has a Latin American pope.\" - Fidel Castro, 1973", "truncated": false, "user": {"created_at": "Sat Jun 26 18:25:44 +0000 2010", "description": "Architect | Architecture + Urbanism | Design + Technology | Harvard GSD, Cornell AAP, SPA Delhi", "favourites_count": 4, "followers_count": 250, "friends_count": 336, "geo_enabled": true, "id": 159934384, "lang": "en", "listed_count": 3, "location": "San Francisco", "name": "Aurgho Jyoti", "profile_background_color": "131516", "profile_background_image_url": "http://abs.twimg.com/images/themes/theme14/bg.gif", "profile_background_tile": true, "profile_image_url": "https://pbs.twimg.com/profile_images/591389031885242369/kHnxQAvn_normal.jpg", "profile_link_color": "A3A3A3", "profile_sidebar_fill_color": "EFEFEF", "profile_text_color": "333333", "protected": false, "screen_name": "aurghojyoti", "statuses_count": 17, "time_zone": "Eastern Time (US & Canada)", "utc_offset": -18000}}
{"created_at": "Tue Jun 23 14:48:24 +0000 2015", "favorited": false, "id": 613357943581380608, "lang": "en", "retweeted": false, "source": "<a href=\"http://twitter.com\" rel=\"nofollow\">Twitter Web Client</a>", "text": "\"United States will come to talk to us when they have a black president and the world has a Latin American pope.\"  Fidel Castro, 1973", "truncated": false, "user": {"created_at": "Fri Aug 02 23:49:06 +0000 2013", "default_profile": true, "description": "Myth and Math", "followers_count": 6, "friends_count": 10, "id": 1641617473, "lang": "en", "name": "Erik Talvila", "profile_background_color": "C0DEED", "profile_background_image_url": "http://abs.twimg.com/images/themes/theme1/bg.png", "profile_background_tile": false, "profile_banner_url": "https://pbs.twimg.com/profile_banners/1641617473/1375805377", "profile_image_url": "https://pbs.twimg.com/profile_images/378800000250751808/6bdb4753ceb670d50a40a75d9c2c7111_normal.jpeg", "profile_link_color": "0084B4", "profile_sidebar_fill_color": "DDEEF6", "profile_text_color": "333333", "protected": false, "screen_name": "DrErikMrSchmoo", "statuses_count": 178, "time_zone": "Central Time (US & Canada)", "utc_offset": -21600}}
{"created_at": "Wed Jul 01 07:13:19 +0000 2015", "favorited": false, "id": 616142523937984512, "lang": "en", "retweeted": false, "source": "<a href=\"http://www.writelonger.com\" rel=\"nofollow\">Write Longer</a>", "text": "\"The United States will come to talk to us when you have a black president and the world has a Latin American pope.\" -\nFidel Castro speakin", "truncated": false, "user": {"created_at": "Fri Dec 18 15:50:20 +0000 2009", "description": "#Genius  #FOOTBALL(er)  @ManUtd #Believe", "favourites_count": 1798, "followers_count": 2476, "friends_count": 1890, "geo_enabled": true, "id": 97693458, "lang": "en", "listed_count": 28, "location": "District of Bolgatanga,DB, Gh.", "name": "RONALDO Luiz NAZARIO", "profile_background_color": "0099B9", "profile_background_image_url": "http://abs.twimg.com/images/themes/theme4/bg.gif", "profile_background_tile": false, "profile_banner_url": "https://pbs.twimg.com/profile_banners/97693458/1452510901", "profile_image_url": "https://pbs.twimg.com/profile_images/686506601180737537/2vaQJRTC_normal.jpg", "profile_link_color": "0099B9", "profile_sidebar_fill_color": "95E8EC", "profile_text_color": "3C3940", "protected": false, "screen_name": "JeffBazza10", "statuses_count": 106691, "time_zone": "West Central Africa", "utc_offset": 3600}}
{"created_at": "Fri Jul 03 22:37:04 +0000 2015", "favorite_count": 68, "favorited": false, "id": 617099767626211328, "lang": "en", "retweet_count": 25, "retweeted": false, "source": "<a href=\"http://twitter.com/download/android\" rel=\"nofollow\">Twitter for Android</a>", "text": "\"The United States will come to talk to us when you have a black president and the world has a Latin American pope.\" Fidel Castro 1973", "truncated": false, "user": {"created_at": "Sat Jan 04 07:39:30 +0000 2014", "default_profile": true, "description": "Einfach mal nicht die Fresse halten. #gefahrengebiet #refugeeswelcome #wirsindlampedusa", "favourites_count": 283, "followers_count": 451, "friends_count": 18, "id": 2261482379, "lang": "de", "listed_count": 32, "location": "hamburg", "name": "Gefahrengebiet", "profile_background_color": "C0DEED", "profile_background_image_url": "http://abs.twimg.com/images/themes/theme1/bg.png", "profile_background_tile": false, "profile_banner_url": "https://pbs.twimg.com/profile_banners/2261482379/1420205571", "profile_image_url": "https://pbs.twimg.com/profile_images/518426184498315264/6sKuNmwt_normal.jpeg", "profile_link_color": "0084B4", "profile_sidebar_fill_color": "DDEEF6", "profile_text_color": "333333", "protected": false, "screen_name": "gefahrengebiet", "statuses_count": 3257}}
{"created_at": "Sun Jul 05 17:07:06 +0000 2015", "favorited": false, "id": 617741504484896768, "lang": "en", "retweeted": false, "source": "<a href=\"http://twitter.com/download/android\" rel=\"nofollow\">Twitter for Android</a>", "text": "\"United states will come and talk to us when they have a black president and the world has a Latin american pope\" ~ Fidel castro. 1973", "truncated": false, "user": {"created_at": "Wed Mar 28 18:28:11 +0000 2012", "description": "All life is an experiment. @MCFC fan.  Instagram: @Menkhas. https://t.co/SUGu527eVJ", "favourites_count": 221, "followers_count": 1035, "friends_count": 982, "geo_enabled": true, "id": 539273120, "lang": "en", "listed_count": 8, "location": "Global Citizen. ", "name": "Khazamula Mawela", "profile_background_color": "0099B9", "profile_background_image_url": "http://abs.twimg.com/images/themes/theme4/bg.gif", "profile_background_tile": false, "profile_banner_url": "https://pbs.twimg.com/profile_banners/539273120/1422530835", "profile_image_url": "https://pbs.twimg.com/profile_images/627368260846096384/a9kWAxn3_normal.jpg", "profile_link_color": "0099B9", "profile_sidebar_fill_color": "95E8EC", "profile_text_color": "3C3940", "protected": false, "screen_name": "Menkhas", "statuses_count": 14310, "time_zone": "Pretoria", "url": "https://t.co/IMLfruTsvh", "utc_offset": 7200}}
{"created_at": "Sun Jul 05 22:40:48 +0000 2015", "favorite_count": 1, "favorited": false, "id": 617825483921752065, "lang": "en", "retweet_count": 1, "retweeted": false, "source": "<a href=\"http://twitter.com/download/iphone\" rel=\"nofollow\">Twitter for iPhone</a>", "text": "\"The United States will come to talk to us when you have a black president and the world has a Latin American pope.\" - Fidel Castro 1973!", "truncated": false, "user": {"created_at": "Sun Jun 03 19:43:02 +0000 2012", "description": "http;//educationupdate.com/phyllismurray/about/", "favourites_count": 13076, "followers_count": 596, "friends_count": 1223, "geo_enabled": true, "id": 598684128, "lang": "en", "listed_count": 44, "location": "Scarsdale, New York", "name": "phyllis young murray", "profile_background_color": "000000", "profile_background_image_url": "http://abs.twimg.com/images/themes/theme1/bg.png", "profile_background_tile": false, "profile_banner_url": "https://pbs.twimg.com/profile_banners/598684128/1440759988", "profile_image_url": "https://pbs.twimg.com/profile_images/585581687343558658/ZSBpf4po_normal.jpg", "profile_link_color": "3B94D9", "profile_sidebar_fill_color": "000000", "profile_text_color": "000000", "protected": false, "screen_name": "cybrarian75x", "statuses_count": 25189, "url": "http://t.co/iLuXvCqv1x"}}
{"created_at": "Sun Jul 05 22:49:21 +0000 2015", "favorite_count": 1, "favorited": false, "id": 617827636312678401, "in_reply_to_screen_name": "cybrarian75x", "in_reply_to_status_id": 617825483921752065, "in_reply_to_user_id": 598684128, "lang": "en", "retweeted": false, "source": "<a href=\"http://twitter.com/download/iphone\" rel=\"nofollow\">Twitter for iPhone</a>", "text": "@CharlesMBlowThe United States will come to talk to us when you have a black president&amp;the world has a Latin American pope.Fidel Castro 1973", "truncated": false, "user": {"created_at": "Sun Jun 03 19:43:02 +0000 2012", "description": "http;//educationupdate.com/phyllismurray/about/", "favourites_count": 13076, "followers_count": 596, "friends_count": 1223, "geo_enabled": true, "id": 598684128, "lang": "en", "listed_count": 44, "location": "Scarsdale, New York", "name": "phyllis young murray", "profile_background_color": "000000", "profile_background_image_url": "http://abs.twimg.com/images/themes/theme1/bg.png", "profile_background_tile": false, "profile_banner_url": "https://pbs.twimg.com/profile_banners/598684128/1440759988", "profile_image_url": "https://pbs.twimg.com/profile_images/585581687343558658/ZSBpf4po_normal.jpg", "profile_link_color": "3B94D9", "profile_sidebar_fill_color": "000000", "profile_text_color": "000000", "protected": false, "screen_name": "cybrarian75x", "statuses_count": 25189, "url": "http://t.co/iLuXvCqv1x"}}
{"created_at": "Mon Jul 06 10:03:17 +0000 2015", "favorited": false, "hashtags": ["FidelCastro"], "id": 617997235196952577, "lang": "en", "place": {"attributes": {}, "bounding_box": {"coordinates": [[[13.3755107, 45.42151], [16.6104836, 45.42151], [16.6104836, 46.8766467], [13.3755107, 46.8766467]]], "type": "Polygon"}, "contained_within": [], "country": "Slovenija", "country_code": "SI", "full_name": "Slovenija", "id": "58f54743b1a62911", "name": "Slovenija", "place_type": "country", "url": "https://api.twitter.com/1.1/geo/id/58f54743b1a62911.json"}, "retweeted": false, "source": "<a href=\"http://twitter.com\" rel=\"nofollow\">Twitter Web Client</a>", "text": "\"The United States will come to talk to us when you have a black president and the world has a Latin American pope.\" :)) #FidelCastro (1973)", "truncated": false, "user": {"created_at": "Thu Nov 17 22:05:22 +0000 2011", "description": "**** Ne jugez pas selon l`apparence, mais jugez selon la justice. Jean 7,24 **** winter-man & Hic et nunc & elf", "favourites_count": 1383, "followers_count": 289, "friends_count": 978, "geo_enabled": true, "id": 415092029, "lang": "en", "listed_count": 2, "location": "Republic of Slovenia", "name": "Gregor Pochivalssek", "profile_background_color": "131516", "profile_background_image_url": "http://pbs.twimg.com/profile_background_images/645250918032740352/L1c1wjqx.jpg", "profile_background_tile": true, "profile_banner_url": "https://pbs.twimg.com/profile_banners/415092029/1442674464", "profile_image_url": "https://pbs.twimg.com/profile_images/655127256424165376/ukg4Z9hl_normal.jpg", "profile_link_color": "009999", "profile_sidebar_fill_color": "EFEFEF", "profile_text_color": "333333", "protected": false, "screen_name": "gpochi", "statuses_count": 6139, "time_zone": "Ljubljana", "url": "http://t.co/RxoMh9eLYC", "utc_offset": 3600}}
{"created_at": "Mon Jul 06 14:18:19 +0000 2015", "favorite_count": 2, "favorited": false, "id": 618061415975403520, "in_reply_to_screen_name": "Bronxmedia", "in_reply_to_user_id": 105153447, "lang": "en", "retweet_count": 1, "retweeted": false, "source": "<a href=\"http://twitter.com/download/iphone\" rel=\"nofollow\">Twitter for iPhone</a>", "text": "@Bronxmedia The United States will come to talk to us when you have a black president&amp;the world has a Latin American pope.Fidel Castro 1973", "truncated": false, "user": {"created_at": "Sun Jun 03 19:43:02 +0000 2012", "description": "http;//educationupdate.com/phyllismurray/about/", "favourites_count": 13076, "followers_count": 596, "friends_count": 1223, "geo_enabled": true, "id": 598684128, "lang": "en", "listed_count": 44, "location": "Scarsdale, New York", "name": "phyllis young murray", "profile_background_color": "000000", "profile_background_image_url": "http://abs.twimg.com/images/themes/theme1/bg.png", "profile_background_tile": false, "profile_banner_url": "https://pbs.twimg.com/profile_banners/598684128/1440759988", "profile_image_url": "https://pbs.twimg.com/profile_images/585581687343558658/ZSBpf4po_normal.jpg", "profile_link_color": "3B94D9", "profile_sidebar_fill_color": "000000", "profile_text_color": "000000", "protected": false, "screen_name": "cybrarian75x", "statuses_count": 25189, "url": "http://t.co/iLuXvCqv1x"}, "user_mentions": [{"id": 105153447, "name": "Bronxmedia", "screen_name": "Bronxmedia"}]}
{"created_at": "Fri Jul 10 07:19:27 +0000 2015", "favorite_count": 1, "favorited": false, "hashtags": ["FidelCastro"], "id": 619405558177792000, "lang": "en", "retweeted": false, "source": "<a href=\"http://twitter.com/download/iphone\" rel=\"nofollow\">Twitter for iPhone</a>", "text": "\"The United State will come to talk to us when you have a black president and the world has a Latin American pope.\u201d\n#FidelCastro 1973", "truncated": false, "user": {"created_at": "Thu Jun 25 21:38:04 +0000 2009", "description": "curioso Web 2.0 Classical #Guitarist /Performer/Chair Professor of Conservatory/ Sportivo passivo https://t.co/avEr5bS0eM https://t.co/dyxRQgpsXP", "favourites_count": 20583, "followers_count": 2192, "friends_count": 2535, "geo_enabled": true, "id": 50778719, "lang": "it", "listed_count": 63, "location": "Italy Rome Prati", "name": "marco cianchi", "profile_background_color": "000000", "profile_background_image_url": "http://pbs.twimg.com/profile_background_images/445204712904609792/MX-RYDq0.jpeg", "profile_background_tile": true, "profile_banner_url": "https://pbs.twimg.com/profile_banners/50778719/1398503101", "profile_image_url": "https://pbs.twimg.com/profile_images/2269980632/fhxl82xpu35cn4ecfnjy_normal.jpeg", "profile_link_color": "F71B1B", "profile_sidebar_fill_color": "DEDEDE", "profile_text_color": "2B0C13", "protected": false, "screen_name": "cianchiguitar", "statuses_count": 18821, "time_zone": "Rome", "utc_offset": 3600}}
{"created_at": "Fri Jul 10 20:17:31 +0000 2015", "favorited": false, "id": 619601365568872448, "lang": "en", "retweeted": false, "source": "<a href=\"http://twitter.com\" rel=\"nofollow\">Twitter Web Client</a>", "text": "\u201cThe United States will come to talk to us when you have a black president and the world has a Latin American pope.\u201d \u2013 Fidel Castro 1973", "truncated": false, "user": {"created_at": "Fri Oct 04 23:46:21 +0000 2013", "description": "People who see this throughout the world will realise that even in the 20th century with faith, courage and a just cause David will still beat Goliath.", "favourites_count": 66, "followers_count": 239, "friends_count": 489, "geo_enabled": true, "id": 1935794130, "lang": "en", "listed_count": 11, "name": "Carlos Luis Vasquez", "profile_background_color": "000000", "profile_background_image_url": "http://abs.twimg.com/images/themes/theme1/bg.png", "profile_background_tile": false, "profile_banner_url": "https://pbs.twimg.com/profile_banners/1935794130/1420478896", "profile_image_url": "https://pbs.twimg.com/profile_images/552154618734866432/klFujKov_normal.jpeg", "profile_link_color": "4A913C", "profile_sidebar_fill_color": "000000", "profile_text_color": "000000", "protected": false, "screen_name": "Vascar86", "statuses_count": 4954}}
{"created_at": "Fri Jul 17 14:44:00 +0000 2015", "favorited": false, "id": 622054146531835904, "lang": "en", "retweeted": false, "source": "<a href=\"http://twitter.com\" rel=\"nofollow\">Twitter Web Client</a>", "text": "\"The United States will come to talk to us when you have a black president and the world has a Latin American pope.\" Fidel Castro (1973)", "truncated": false, "user": {"created_at": "Mon Nov 26 14:24:23 +0000 2012", "description": "Mathematician | Economist | Operations Researcher | Next generation politician | Arsenal diehard | Adventist |Looks into the shiny side of life |", "favourites_count": 262, "followers_count": 430, "friends_count": 917, "geo_enabled": true, "id": 972058376, "lang": "en", "listed_count": 4, "location": "Nairobi", "name": "Sammy Origah", "profile_background_color": "000000", "profile_background_image_url": "http://abs.twimg.com/images/themes/theme1/bg.png", "profile_background_tile": false, "profile_banner_url": "https://pbs.twimg.com/profile_banners/972058376/1438349014", "profile_image_url": "https://pbs.twimg.com/profile_images/540036518916534272/bElyyWlS_normal.jpeg", "profile_link_color": "4A913C", "profile_sidebar_fill_color": "000000", "profile_text_color": "000000", "protected": false, "screen_name": "SammyOrigah", "statuses_count": 1244, "time_zone": "Pacific Time (US & Canada)", "utc_offset": -28800}}
{"created_at": "Mon Jul 20 20:36:30 +0000 2015", "favorited": false, "id": 623230019146530816, "lang": "en", "retweeted": false, "source": "<a href=\"http://www.writelonger.com\" rel=\"nofollow\">Write Longer</a>", "text": "\"United States will come to talk to us when they have a Black President and the world has a Latin American Pope\" - Fidel Castro (1973)", "truncated": false, "user": {"created_at": "Sat Oct 23 08:28:23 +0000 2010", "description": "Social Media Marketing. The intention is to offer Marketing Services that resonate with the target audience. It triggers their spending power.", "favourites_count": 634, "followers_count": 1953, "friends_count": 1322, "id": 206588974, "lang": "en", "listed_count": 76, "location": "Lagos, Nigeria", "name": "Suleiman", "profile_background_color": "000000", "profile_background_image_url": "http://pbs.twimg.com/profile_background_images/420767316/x9770a088c6e6776ee683dfdd088b567.jpg", "profile_background_tile": false, "profile_banner_url": "https://pbs.twimg.com/profile_banners/206588974/1440675873", "profile_image_url": "https://pbs.twimg.com/profile_images/662629583670374400/3zWtnYZX_normal.jpg", "profile_link_color": "DD2E44", "profile_sidebar_fill_color": "373737", "profile_text_color": "FDB31C", "protected": false, "screen_name": "BashorunDon", "statuses_count": 58167, "url": "https://t.co/riVaHeeOlw"}}
{"created_at": "Tue Jul 21 10:27:19 +0000 2015", "favorite_count": 3, "favorited": false, "id": 623439102889885696, "lang": "en", "retweet_count": 1, "retweeted": false, "source": "<a href=\"http://twitter.com/download/iphone\" rel=\"nofollow\">Twitter for iPhone</a>", "text": "\u201cThe United States will come to talk to us when you have a black president and the world has a Latin American pope.\u201d\n\n\u2013Fidel Castro, 1973", "truncated": false, "user": {"created_at": "Sun Oct 31 14:17:12 +0000 2010", "default_profile": true, "description": "Spokesperson for the Ministry of Health. Proud Supporter #SundownsFC #Arsenal |On-Line Evangelist | Black & Proud | Fighting #NakedRacism | Tweets are my own.", "favourites_count": 2383, "followers_count": 3010, "friends_count": 2272, "geo_enabled": true, "id": 210468022, "lang": "en", "listed_count": 17, "location": "Pretoria, South Africa", "name": "The Rogue", "profile_background_color": "C0DEED", "profile_background_image_url": "http://abs.twimg.com/images/themes/theme1/bg.png", "profile_background_tile": false, "profile_banner_url": "https://pbs.twimg.com/profile_banners/210468022/1390730383", "profile_image_url": "https://pbs.twimg.com/profile_images/677770058903461888/ajhh_83J_normal.jpg", "profile_link_color": "0084B4", "profile_sidebar_fill_color": "DDEEF6", "profile_text_color": "333333", "protected": false, "screen_name": "MJMaila", "statuses_count": 8013, "time_zone": "Greenland", "utc_offset": -10800}}
{"created_at": "Tue Jul 21 14:24:10 +0000 2015", "favorite_count": 38, "favorited": false, "id": 623498706583744512, "lang": "en", "retweet_count": 58, "retweeted": false, "source": "<a href=\"http://twitter.com/download/android\" rel=\"nofollow\">Twitter for Android</a>", "text": "\u201cThe United States will come to talk to us when you have a black president and the world has a Latin American pope\", Fidel Castro,1973", "truncated": false, "user": {"created_at": "Mon Mar 14 19:09:07 +0000 2011", "default_profile": true, "description": "National Spokesperson of National Union of Metalworkers of SA (Numsa), biggest and fastest growing trade union affiliate with a total membership of 380000", "favourites_count": 1410, "followers_count": 15330, "friends_count": 6314, "geo_enabled": true, "id": 266149775, "lang": "en", "listed_count": 48, "location": "Gauteng, Johannesburg", "name": "Castro Ngobese", "profile_background_color": "C0DEED", "profile_background_image_url": "http://abs.twimg.com/images/themes/theme1/bg.png", "profile_background_tile": false, "profile_banner_url": "https://pbs.twimg.com/profile_banners/266149775/1447982406", "profile_image_url": "https://pbs.twimg.com/profile_images/687001166358671361/Zu4k8zm8_normal.jpg", "profile_link_color": "0084B4", "profile_sidebar_fill_color": "DDEEF6", "profile_text_color": "333333", "protected": false, "screen_name": "castrongobese", "statuses_count": 11188, "time_zone": "Greenland", "url": "https://t.co/2XYy6f1llG", "utc_offset": -10800}}
{"created_at": "Tue Jul 21 14:43:55 +0000 2015", "favorite_count": 1, "favorited": false, "id": 623503679518285825, "lang": "en", "retweet_count": 7, "retweeted": false, "source": "<a href=\"http://www.facebook.com/twitter\" rel=\"nofollow\">Facebook</a>", "text": "\u201cThe United States will come to talk to us when you have a black president and the world has a Latin American pope.\u201d\n\u2013Fidel Castro, 1973", "truncated": false, "user": {"created_at": "Wed Apr 20 17:06:40 +0000 2011", "description": "ANC  Live", "favourites_count": 5, "followers_count": 19930, "friends_count": 232, "geo_enabled": true, "id": 285166171, "lang": "en", "listed_count": 38, "name": "#ANCMERCHANDISE", "profile_background_color": "C0DEED", "profile_background_image_url": "http://pbs.twimg.com/profile_background_images/551117893388091392/skwI8NL5.jpeg", "profile_background_tile": false, "profile_banner_url": "https://pbs.twimg.com/profile_banners/285166171/1420569671", "profile_image_url": "https://pbs.twimg.com/profile_images/552535108264017920/jzNFR4Su_normal.jpeg", "profile_link_color": "0084B4", "profile_sidebar_fill_color": "DDEEF6", "profile_text_color": "333333", "protected": false, "screen_name": "anclive", "statuses_count": 5997, "time_zone": "Greenland", "url": "https://t.co/JlgVCkQx0d", "utc_offset": -10800}}
{"created_at": "Tue Jul 21 22:12:59 +0000 2015", "favorited": false, "id": 623616689712824320, "lang": "en", "retweeted": false, "source": "<a href=\"http://blackberry.com/twitter\" rel=\"nofollow\">Twitter for BlackBerry\u00ae</a>", "text": "\"The United States will come to talk to us when you have a black president and when the world has a latin American pope\". Fidel castro 1973", "truncated": false, "user": {"created_at": "Mon Jan 30 03:56:30 +0000 2012", "default_profile": true, "description": "Easy like sunday morning;Africa's Travel Ambassador;exudes the freshest breath of air; Certified Travel-Buff|if it's shaped like Africa,Travel&Tourism;am in it\u263a", "favourites_count": 144, "followers_count": 493, "friends_count": 1274, "geo_enabled": true, "id": 478298047, "lang": "en", "listed_count": 9, "name": "Abraham Uyanna", "profile_background_color": "C0DEED", "profile_background_image_url": "http://abs.twimg.com/images/themes/theme1/bg.png", "profile_background_tile": false, "profile_banner_url": "https://pbs.twimg.com/profile_banners/478298047/1423786324", "profile_image_url": "https://pbs.twimg.com/profile_images/640323245967831040/FLZmFo0i_normal.jpg", "profile_link_color": "0084B4", "profile_sidebar_fill_color": "DDEEF6", "profile_text_color": "333333", "protected": false, "screen_name": "oxygentwitts", "statuses_count": 6179, "time_zone": "Amsterdam", "utc_offset": 3600}}
{"created_at": "Wed Jul 22 05:05:24 +0000 2015", "favorited": false, "id": 623720476930633728, "lang": "en", "retweet_count": 6, "retweeted": false, "source": "<a href=\"https://about.twitter.com/products/tweetdeck\" rel=\"nofollow\">TweetDeck</a>", "text": "\"The United States will come to talk to us when you have a black president and the world has a Latin American pope.\u201d -Fidel Castro, 1973", "truncated": false, "user": {"created_at": "Wed Mar 04 06:48:30 +0000 2009", "description": "Print/digital mag https://t.co/1oJ8uc5BMt @fabulizemag Art, beauty, culture/style mag for Brown girls Eryka@fabulizemag.com", "favourites_count": 1892, "followers_count": 3276, "friends_count": 994, "geo_enabled": true, "id": 22743752, "lang": "en", "listed_count": 132, "location": "60637-11516", "name": "Ros\u00e3 Sparks\u2728", "profile_background_color": "21212B", "profile_background_image_url": "http://pbs.twimg.com/profile_background_images/463537389311258624/JQJJXdPr.jpeg", "profile_background_tile": true, "profile_banner_url": "https://pbs.twimg.com/profile_banners/22743752/1442880557", "profile_image_url": "https://pbs.twimg.com/profile_images/677805035292655616/Gkhg1qeh_normal.jpg", "profile_link_color": "DB2A85", "profile_sidebar_fill_color": "FA7F14", "profile_text_color": "FF4E47", "protected": false, "screen_name": "MzYummyDread", "statuses_count": 218750, "time_zone": "Eastern Time (US & Canada)", "url": "https://t.co/aUEUD2QIGZ", "utc_offset": -18000}}
{"created_at": "Wed Jul 22 15:19:07 +0000 2015", "favorited": false, "id": 623874922239119361, "lang": "en", "retweeted": false, "source": "<a href=\"http://twitter.com\" rel=\"nofollow\">Twitter Web Client</a>", "text": "\"The US will come to talk to us when they have a black president, and the world has a Latin American Pope\" - Fidel Castro 1973", "truncated": false, "user": {"created_at": "Wed Nov 25 18:50:23 +0000 2009", "description": "Worked hard for everything I have, & working even harder for what I don't possess. Peace of Mind  Everything. \n#HTTR #Wiz #Hoyas #Terps #BSU c/o 19", "favourites_count": 15850, "followers_count": 1683, "friends_count": 1570, "geo_enabled": true, "id": 92585909, "lang": "en", "listed_count": 25, "location": "DC - The Gentrified City ", "name": "IG: WarmHennessy", "profile_background_color": "C0DEED", "profile_background_image_url": "http://pbs.twimg.com/profile_background_images/584910212/zis1bxoke9oltc91bzqw.jpeg", "profile_background_tile": true, "profile_banner_url": "https://pbs.twimg.com/profile_banners/92585909/1420928584", "profile_image_url": "https://pbs.twimg.com/profile_images/685090674488819712/ENUz42b0_normal.jpg", "profile_link_color": "C3D1D6", "profile_sidebar_fill_color": "DDEEF6", "profile_text_color": "333333", "protected": false, "screen_name": "FauxOriginal", "statuses_count": 140665, "time_zone": "Central Time (US & Canada)", "utc_offset": -21600}}
{"created_at": "Wed Jul 22 15:30:49 +0000 2015", "favorited": false, "id": 623877870155374594, "lang": "en", "retweeted": false, "source": "<a href=\"http://ifttt.com\" rel=\"nofollow\">IFTTT</a>", "text": "\"The United States will come to talk to us when you have a black president and the world has a Latin American Pope.\" -- Fidel Castro, 1973", "truncated": false, "user": {"created_at": "Sun Nov 23 02:12:15 +0000 2014", "default_profile": true, "favourites_count": 2, "followers_count": 106, "friends_count": 55, "id": 2888695487, "lang": "en", "listed_count": 16, "name": "neelie gr", "profile_background_color": "C0DEED", "profile_background_image_url": "http://abs.twimg.com/images/themes/theme1/bg.png", "profile_background_tile": false, "profile_banner_url": "https://pbs.twimg.com/profile_banners/2888695487/1440190964", "profile_image_url": "https://pbs.twimg.com/profile_images/670612331299266560/TtYFsFMM_normal.jpg", "profile_link_color": "0084B4", "profile_sidebar_fill_color": "DDEEF6", "profile_text_color": "333333", "protected": false, "screen_name": "neeliegr", "statuses_count": 64660}}
{"created_at": "Wed Jul 22 15:35:22 +0000 2015", "favorited": false, "id": 623879014944493569, "lang": "en", "retweeted": false, "source": "<a href=\"http://ifttt.com\" rel=\"nofollow\">IFTTT</a>", "text": "\"The United States will come to talk to us when you have a black president and the world has a Latin American Pope.\" -- Fidel Castro, 1973 \u2026", "truncated": false, "user": {"created_at": "Thu Mar 20 21:34:02 +0000 2014", "description": "Recruitment firm that specializes in placing professional service professionals", "favourites_count": 9, "followers_count": 404, "friends_count": 384, "id": 2400478610, "lang": "en", "listed_count": 127, "location": "Frisco, TX", "name": "Cenox Services", "profile_background_color": "022330", "profile_background_image_url": "http://abs.twimg.com/images/themes/theme15/bg.png", "profile_background_tile": false, "profile_image_url": "https://pbs.twimg.com/profile_images/446761977080066048/45TlK2FG_normal.png", "profile_link_color": "0084B4", "profile_sidebar_fill_color": "C0DFEC", "profile_text_color": "333333", "protected": false, "screen_name": "CenoxServices", "statuses_count": 16978, "url": "http://t.co/F0Nmmvx8qf"}}
{"created_at": "Wed Jul 22 15:50:07 +0000 2015", "favorited": false, "id": 623882722998636545, "lang": "en", "retweeted": false, "source": "<a href=\"http://ifttt.com\" rel=\"nofollow\">IFTTT</a>", "text": "\"The United States will come to talk to us when you have a black president and the world has a Latin American Pope.\" -- Fidel Castro, 1973 \u2026", "truncated": false, "user": {"created_at": "Fri Mar 16 08:48:46 +0000 2012", "description": "villager stuck in a big city life! 100% Follow Back", "favourites_count": 58, "followers_count": 374, "friends_count": 148, "id": 526186094, "lang": "en", "listed_count": 15, "location": "London / Lahore", "name": "Areeb", "profile_background_color": "000000", "profile_background_image_url": "http://abs.twimg.com/images/themes/theme1/bg.png", "profile_background_tile": false, "profile_banner_url": "https://pbs.twimg.com/profile_banners/526186094/1419947708", "profile_image_url": "https://pbs.twimg.com/profile_images/549925982514057216/MWY-WD8B_normal.jpeg", "profile_link_color": "ABB8C2", "profile_sidebar_fill_color": "000000", "profile_text_color": "000000", "protected": false, "screen_name": "HajiNamazi", "statuses_count": 14304, "time_zone": "Karachi", "utc_offset": 18000}}
{"created_at": "Wed Jul 22 18:19:56 +0000 2015", "favorited": false, "id": 623920428294217728, "lang": "en", "retweeted": false, "source": "<a href=\"http://twitter.com\" rel=\"nofollow\">Twitter Web Client</a>", "text": "The United States will come to talk to us when you have a black president and the world has a Latin American pope.\" - Fidel Castro", "truncated": false, "user": {"created_at": "Sat Oct 13 09:34:26 +0000 2012", "description": "Zouma is a tactical bang. Best centre back in the EPL\nMikel is a god!!", "favourites_count": 2540, "followers_count": 2823, "friends_count": 1703, "geo_enabled": true, "id": 877432056, "lang": "en", "listed_count": 11, "location": " Kenya", "name": "G", "profile_background_color": "000000", "profile_background_image_url": "http://abs.twimg.com/images/themes/theme12/bg.gif", "profile_background_tile": false, "profile_banner_url": "https://pbs.twimg.com/profile_banners/877432056/1450771094", "profile_image_url": "https://pbs.twimg.com/profile_images/681093462314319872/TxtSTvRj_normal.jpg", "profile_link_color": "DD2E44", "profile_sidebar_fill_color": "FFF7CC", "profile_text_color": "0C3E53", "protected": false, "screen_name": "HICCUP_o", "statuses_count": 61803, "time_zone": "Nairobi", "utc_offset": 10800}}
{"created_at": "Wed Jul 22 20:16:29 +0000 2015", "favorite_count": 1, "favorited": false, "hashtags": ["FidelCastro"], "id": 623949758399414272, "lang": "en", "retweeted": false, "source": "<a href=\"http://www.tweetcaster.com\" rel=\"nofollow\">TweetCaster for Android</a>", "text": "\"The US will come to talk to us when they have a black president and the world has a Latin American Pope.\" #FidelCastro in 1973", "truncated": false, "user": {"created_at": "Sat Apr 14 04:23:02 +0000 2012", "description": "|Insane| |Arrogan\u2020|#CFCFAMILY| |#TeamHipHop|#Tennis|Hit The #FOLLOW button| #Bpharm #Pharmacist", "favourites_count": 484, "followers_count": 1541, "friends_count": 1387, "geo_enabled": true, "id": 553322061, "lang": "en", "listed_count": 5, "location": "UoN ", "name": "\u23ea\u25cfMARVIN\u25cf\u23e9", "profile_background_color": "403DBF", "profile_background_image_url": "http://pbs.twimg.com/profile_background_images/451301938479374336/_F4s3OVO.jpeg", "profile_background_tile": true, "profile_banner_url": "https://pbs.twimg.com/profile_banners/553322061/1412773501", "profile_image_url": "https://pbs.twimg.com/profile_images/615069820711776257/EznoXVel_normal.jpg", "profile_link_color": "4745BF", "profile_sidebar_fill_color": "DDEEF6", "profile_text_color": "333333", "protected": false, "screen_name": "O_Chi_Yeng", "statuses_count": 24806, "time_zone": "Nairobi", "url": "https://t.co/WtFrAvbNHZ", "utc_offset": 10800}}
{"created_at": "Thu Jul 23 08:00:43 +0000 2015", "favorite_count": 1, "favorited": false, "id": 624126984457723904, "in_reply_to_screen_name": "GissiSim", "in_reply_to_status_id": 624117154732998656, "in_reply_to_user_id": 6754922, "lang": "en", "retweeted": false, "source": "<a href=\"http://twitter.com/download/iphone\" rel=\"nofollow\">Twitter for iPhone</a>", "text": "\"The US will come to talk to us when they have a black president and the world has a Latin American Pope.\"\nFidel Castro 1973 \nvia @GissiSim", "truncated": false, "user": {"created_at": "Tue Jul 15 08:05:14 +0000 2008", "description": "CEO Excellence Institute @excellence_inst Top CIO 2013 (A). Strategist & university lecturer. #informationscience #knowledgemanagement #networksociety", "favourites_count": 10231, "followers_count": 6216, "friends_count": 2982, "geo_enabled": true, "id": 15438213, "lang": "en", "listed_count": 453, "location": "Vienna, Austria", "name": "Isabella Mader", "profile_background_color": "FCFCFC", "profile_background_image_url": "http://pbs.twimg.com/profile_background_images/378800000066247695/0146dcf5f2a0bae0c56d3f48e682ad05.jpeg", "profile_background_tile": false, "profile_banner_url": "https://pbs.twimg.com/profile_banners/15438213/1397386713", "profile_image_url": "https://pbs.twimg.com/profile_images/492265604427288576/IPY2GLmq_normal.jpeg", "profile_link_color": "130EAD", "profile_sidebar_fill_color": "F0F0F0", "profile_text_color": "3C3940", "protected": false, "screen_name": "othertwice", "statuses_count": 21597, "time_zone": "Greenland", "url": "https://t.co/NenkLB73jQ", "utc_offset": -10800}, "user_mentions": [{"id": 6754922, "name": "Gissur Simonarson CN", "screen_name": "GissiSim"}]}
{"created_at": "Thu Jul 23 08:19:09 +0000 2015", "favorited": false, "id": 624131624104501249, "lang": "en", "retweeted": false, "source": "<a href=\"http://twitter.com\" rel=\"nofollow\">Twitter Web Client</a>", "text": "\u201cThe United States will come to talk to us when you have a black president and the world has a Latin American pope.\u201d\nFidel Castro in 1973", "truncated": false, "user": {"created_at": "Sun Mar 29 09:18:45 +0000 2015", "description": "Commodities consultant/trader", "favourites_count": 24, "followers_count": 88, "friends_count": 351, "id": 3126114226, "lang": "en", "listed_count": 1, "name": "Red", "profile_background_color": "000000", "profile_background_image_url": "http://abs.twimg.com/images/themes/theme1/bg.png", "profile_background_tile": false, "profile_banner_url": "https://pbs.twimg.com/profile_banners/3126114226/1434452342", "profile_image_url": "https://pbs.twimg.com/profile_images/610764604826779649/Wpcn1e8H_normal.jpg", "profile_link_color": "130303", "profile_sidebar_fill_color": "000000", "profile_text_color": "000000", "protected": false, "screen_name": "redAgriculture", "statuses_count": 22}}
{"created_at": "Thu Jul 23 08:31:04 +0000 2015", "favorited": false, "id": 624134623640031232, "lang": "en", "retweet_count": 2, "retweeted": false, "source": "<a href=\"http://twitter.com/download/android\" rel=\"nofollow\">Twitter for Android</a>", "text": "The United States will come to talk to us when you have a black president and the world has a Latin American pope.- Fidel Castro, 1973.", "truncated": false, "user": {"created_at": "Wed Aug 24 19:43:27 +0000 2011", "default_profile": true, "description": "Political Scientist. #Arsenal. Instagram: kayodemawanu", "favourites_count": 206, "followers_count": 695, "friends_count": 361, "geo_enabled": true, "id": 361433851, "lang": "en", "listed_count": 7, "location": "Somewhere", "name": "....", "profile_background_color": "C0DEED", "profile_background_image_url": "http://abs.twimg.com/images/themes/theme1/bg.png", "profile_background_tile": false, "profile_banner_url": "https://pbs.twimg.com/profile_banners/361433851/1379257126", "profile_image_url": "https://pbs.twimg.com/profile_images/680156998294441984/MdQSg5WS_normal.jpg", "profile_link_color": "0084B4", "profile_sidebar_fill_color": "DDEEF6", "profile_text_color": "333333", "protected": false, "screen_name": "kayodemawanu", "statuses_count": 10134, "time_zone": "Amsterdam", "utc_offset": 3600}}
{"created_at": "Fri Jul 24 01:05:21 +0000 2015", "favorite_count": 1, "favorited": false, "id": 624384842331987968, "lang": "en", "retweet_count": 1, "retweeted": false, "source": "<a href=\"http://twitter.com\" rel=\"nofollow\">Twitter Web Client</a>", "text": "\u201cThe United States will come to talk to us when you have a black president and the world has a Latin American pope.\u201d Fidel Castro, 1973", "truncated": false, "user": {"created_at": "Wed Mar 04 02:29:20 +0000 2009", "description": "Bipolar Disordered, Hardcore Atheist,Earthquake enthusiast,Photography,Technology Geek,Straight adjacent, French/American, Hiker, A.D.D...Oh look, what's that??", "followers_count": 847, "friends_count": 99, "geo_enabled": true, "id": 22720607, "lang": "en", "listed_count": 63, "location": "UnhollyWood, California", "name": "A*theos", "profile_background_color": "8B542B", "profile_background_image_url": "http://pbs.twimg.com/profile_background_images/711472388/fd83018974de3161fce927a0895bd79f.jpeg", "profile_background_tile": true, "profile_banner_url": "https://pbs.twimg.com/profile_banners/22720607/1407463916", "profile_image_url": "https://pbs.twimg.com/profile_images/602281917648482304/p30SdlP5_normal.jpg", "profile_link_color": "9D582E", "profile_sidebar_fill_color": "EADEAA", "profile_text_color": "333333", "protected": false, "screen_name": "TweetaNLA", "statuses_count": 45638, "time_zone": "Pacific Time (US & Canada)", "utc_offset": -28800}}
{"created_at": "Fri Jul 24 08:18:45 +0000 2015", "favorite_count": 3, "favorited": false, "id": 624493912628047872, "lang": "en", "retweet_count": 6, "retweeted": false, "source": "<a href=\"http://twitter.com\" rel=\"nofollow\">Twitter Web Client</a>", "text": "\"The United States will come to talk to us when you have a black president and the world has a Latin American pope.\u201d - Fidel Castro, 1973", "truncated": false, "user": {"created_at": "Wed Nov 14 19:49:58 +0000 2012", "description": "poet, prof, editor of a trail of insidious reactions", "favourites_count": 859, "followers_count": 557, "friends_count": 273, "id": 948378860, "lang": "en", "listed_count": 23, "location": "St. Catharines, ON", "name": "Gregory Betts", "profile_background_color": "C0DEED", "profile_background_image_url": "http://pbs.twimg.com/profile_background_images/378800000004166734/c3ec6ce9bd125ee295a3ff7ecb03cdff.jpeg", "profile_background_tile": true, "profile_banner_url": "https://pbs.twimg.com/profile_banners/948378860/1423184624", "profile_image_url": "https://pbs.twimg.com/profile_images/490675300632514560/PpOepcx-_normal.jpeg", "profile_link_color": "0084B4", "profile_sidebar_fill_color": "DDEEF6", "profile_text_color": "333333", "protected": false, "screen_name": "funnomad", "statuses_count": 1105, "url": "http://t.co/x2Ud3cRCqN"}}
{"created_at": "Fri Jul 24 08:44:09 +0000 2015", "favorited": false, "id": 624500301672939520, "lang": "en", "retweeted": false, "source": "<a href=\"http://twitter.com\" rel=\"nofollow\">Twitter Web Client</a>", "text": "\u201cThe United States will come to talk to us when you have a black president and the world has a Latin American pope.\u201d Fidel Castro&lt; 1973", "truncated": false, "user": {"created_at": "Sun Dec 21 06:20:49 +0000 2014", "favourites_count": 8545, "followers_count": 492, "friends_count": 561, "id": 2934836644, "lang": "es", "listed_count": 28, "location": "Venezuela", "name": "Vicente Pacheco \u6d6a\u4eba", "profile_background_color": "0099B9", "profile_background_image_url": "http://abs.twimg.com/images/themes/theme4/bg.gif", "profile_background_tile": false, "profile_banner_url": "https://pbs.twimg.com/profile_banners/2934836644/1452033347", "profile_image_url": "https://pbs.twimg.com/profile_images/680825614220292096/71cYTL3E_normal.jpg", "profile_link_color": "0099B9", "profile_sidebar_fill_color": "95E8EC", "profile_text_color": "3C3940", "protected": false, "screen_name": "123petete", "statuses_count": 8967, "time_zone": "Caracas", "url": "http://t.co/3AmTRZMwfF", "utc_offset": -16200}}
{"created_at": "Fri Jul 24 10:43:20 +0000 2015", "favorited": false, "id": 624530296063438850, "lang": "en", "retweet_count": 2, "retweeted": false, "source": "<a href=\"http://twitter.com/download/iphone\" rel=\"nofollow\">Twitter for iPhone</a>", "text": "\"The United States will come to talk to us when you have a black president and the world has a Latin American pope.\" Fidel Castro 1973", "truncated": false, "user": {"created_at": "Wed Nov 04 03:02:47 +0000 2009", "default_profile": true, "description": "a physicist and an observer of the observables; co-creator of Mett & Myi; commentator in \u0e27\u0e34\u0e17\u0e22\u0e2a\u0e31\u0e1b\u0e23\u0e30\u0e22\u0e38\u0e17\u0e18\u0e4c/\u0e27\u0e34\u0e17\u0e22\u0e4c\u0e2a\u0e39\u0e49\u0e27\u0e34\u0e17\u0e22\u0e4c", "favourites_count": 146, "followers_count": 551, "friends_count": 235, "geo_enabled": true, "id": 87350074, "lang": "en", "listed_count": 7, "location": "Bangkok, Thailand", "name": "Yor \u0e2d.\u0e22\u0e2d", "profile_background_color": "C0DEED", "profile_background_image_url": "http://abs.twimg.com/images/themes/theme1/bg.png", "profile_background_tile": false, "profile_banner_url": "https://pbs.twimg.com/profile_banners/87350074/1348390740", "profile_image_url": "https://pbs.twimg.com/profile_images/606047417801142272/rh2jz5eQ_normal.jpg", "profile_link_color": "0084B4", "profile_sidebar_fill_color": "DDEEF6", "profile_text_color": "333333", "protected": false, "screen_name": "mryor", "statuses_count": 9595, "time_zone": "Bangkok", "utc_offset": 25200}}
{"created_at": "Fri Jul 24 12:22:46 +0000 2015", "favorited": false, "id": 624555317813215232, "lang": "en", "retweeted": false, "source": "<a href=\"http://twitter.com/download/android\" rel=\"nofollow\">Twitter for Android</a>", "text": "\u201cThe United States will come to talk to us when they  have a black president and the world has a Latin American pope.\u201d Fidel Castro in 1973", "truncated": false, "user": {"created_at": "Sat Apr 16 00:54:32 +0000 2011", "description": "Julian Ortiz - Argentine photographer based in the DC area -  film street photographer -  DIY", "favourites_count": 3538, "followers_count": 383, "friends_count": 572, "geo_enabled": true, "id": 282825142, "lang": "en", "listed_count": 35, "location": "Arlington, VA", "name": "Julian Ortiz", "profile_background_color": "040505", "profile_background_image_url": "http://pbs.twimg.com/profile_background_images/396262931/yashica_0106.jpg", "profile_background_tile": false, "profile_banner_url": "https://pbs.twimg.com/profile_banners/282825142/1431398661", "profile_image_url": "https://pbs.twimg.com/profile_images/1378353112/logo003_normal.jpg", "profile_link_color": "1596D6", "profile_sidebar_fill_color": "DDEEF6", "profile_text_color": "333333", "protected": false, "screen_name": "jeophotos", "statuses_count": 2370, "url": "http://t.co/ae1tiMwvES"}}
{"created_at": "Fri Jul 24 16:42:27 +0000 2015", "favorite_count": 1, "favorited": false, "hashtags": ["Prophesy"], "id": 624620672300400640, "lang": "en", "retweet_count": 5, "retweeted": false, "source": "<a href=\"http://twitter.com\" rel=\"nofollow\">Twitter Web Client</a>", "text": "The US will come to talk to us when you have a black president and the world has a Latin American pope. \u2013 Fidel Castro, 1973 #Prophesy", "truncated": false, "user": {"created_at": "Fri Sep 14 19:23:08 +0000 2012", "default_profile": true, "description": "Independent Consultant | Water and Sanitation. RTs \u2260 Endorsements. Cat Fancier.", "favourites_count": 8270, "followers_count": 3375, "friends_count": 500, "geo_enabled": true, "id": 823839044, "lang": "en", "listed_count": 71, "location": "Kampala", "name": "Fredrick Tumusiime", "profile_background_color": "C0DEED", "profile_background_image_url": "http://abs.twimg.com/images/themes/theme1/bg.png", "profile_background_tile": false, "profile_banner_url": "https://pbs.twimg.com/profile_banners/823839044/1448862838", "profile_image_url": "https://pbs.twimg.com/profile_images/683285543568949248/26OXZ5AG_normal.jpg", "profile_link_color": "0084B4", "profile_sidebar_fill_color": "DDEEF6", "profile_text_color": "333333", "protected": false, "screen_name": "tufre80", "statuses_count": 28396, "time_zone": "Cairo", "utc_offset": 7200}}
{"created_at": "Fri Jul 24 17:25:16 +0000 2015", "favorite_count": 4, "favorited": false, "id": 624631444162367489, "lang": "en", "retweet_count": 3, "retweeted": false, "source": "<a href=\"http://twitter.com/download/iphone\" rel=\"nofollow\">Twitter for iPhone</a>", "text": "\u201cThe United States will come to talk to us when you have a black president and the world has a Latin American pope.\u201d\n\u2013 Fidel Castro - 1973", "truncated": false, "user": {"created_at": "Tue Jun 07 18:37:10 +0000 2011", "description": "My tongue often writes cheques that the brain cannot cash. (Views are mine. Interpretations, are yours.) Email: |Abdirachid.fidow@gmail.com|", "favourites_count": 3881, "followers_count": 3165, "friends_count": 760, "id": 312824194, "lang": "en", "listed_count": 33, "location": "UK & Horn of Africa", "name": "A'rachidFidow", "profile_background_color": "C0DEED", "profile_background_image_url": "http://pbs.twimg.com/profile_background_images/815564258/63ff86a64bded0cfd3df2ff8da83516f.jpeg", "profile_background_tile": true, "profile_banner_url": "https://pbs.twimg.com/profile_banners/312824194/1443370615", "profile_image_url": "https://pbs.twimg.com/profile_images/645574624978333696/qC5pX13g_normal.jpg", "profile_link_color": "4A913C", "profile_sidebar_fill_color": "DDEEF6", "profile_text_color": "333333", "protected": false, "screen_name": "IamFidow", "statuses_count": 36875, "time_zone": "London", "url": "https://t.co/fMbj3hBlmU"}}
{"created_at": "Fri Jul 24 20:39:25 +0000 2015", "favorite_count": 2, "favorited": false, "id": 624680307225161728, "lang": "en", "retweeted": false, "source": "<a href=\"http://twitter.com\" rel=\"nofollow\">Twitter Web Client</a>", "text": "\u201cThe United States will come to talk to us when you have a black president and the world has a Latin American pope.\u201d - Fidel Castro 1973", "truncated": false, "user": {"created_at": "Thu Apr 02 06:07:39 +0000 2009", "description": "Man, friend, dad, Irish, IT Security Consultant, serial exerciser, optimistic smiler", "favourites_count": 253, "followers_count": 742, "friends_count": 2024, "id": 28292517, "lang": "en", "listed_count": 20, "location": "Dublin", "name": "Andrew McKenna", "profile_background_color": "131516", "profile_background_image_url": "http://abs.twimg.com/images/themes/theme14/bg.gif", "profile_background_tile": true, "profile_banner_url": "https://pbs.twimg.com/profile_banners/28292517/1354818318", "profile_image_url": "https://pbs.twimg.com/profile_images/578015207/profile_normal.jpg", "profile_link_color": "009999", "profile_sidebar_fill_color": "EFEFEF", "profile_text_color": "333333", "protected": false, "screen_name": "mckenna1977", "statuses_count": 4765, "time_zone": "Hawaii", "utc_offset": -36000}}
{"created_at": "Sat Jul 25 10:49:15 +0000 2015", "favorited": false, "id": 624894172194045952, "lang": "en", "retweeted": false, "source": "<a href=\"https://mobile.twitter.com\" rel=\"nofollow\">Mobile Web (M2)</a>", "text": "US will come to talk to us when they have a black president &amp;the world has a Latin American Pope. Fidel Castro 1973 @C_NyaKundiH @XtianDela", "truncated": false, "user": {"created_at": "Tue Aug 10 11:59:38 +0000 2010", "description": "#African Forever. Poet. Thespian. Spoken Word Artiste. Revolutionary. +IMPACT +INFLUENCE #LIFE. Blogger. #Kenya #TeamCourage! #GGMU https://t.co/dVPnKK0tKW", "favourites_count": 305, "followers_count": 2447, "friends_count": 3169, "id": 176773652, "lang": "en", "listed_count": 16, "location": "LANGATA", "name": "TheBlackPoet-Ted", "profile_background_color": "C0DEED", "profile_background_image_url": "http://pbs.twimg.com/profile_background_images/420263357/AFRICA.jpg", "profile_background_tile": false, "profile_banner_url": "https://pbs.twimg.com/profile_banners/176773652/1447940332", "profile_image_url": "https://pbs.twimg.com/profile_images/685570911601332225/XeCVRS6J_normal.jpg", "profile_link_color": "0084B4", "profile_sidebar_fill_color": "DDEEF6", "profile_text_color": "333333", "protected": false, "screen_name": "AswaniTed", "statuses_count": 3447, "url": "https://t.co/dVPnKK0tKW"}, "user_mentions": [{"id": 961621302, "name": "Cyprian, Is Nyakundi", "screen_name": "C_NyaKundiH"}, {"id": 1288063951, "name": "Follow IG:@XtianDela", "screen_name": "xtiandela"}]}
{"created_at": "Sat Jul 25 11:46:55 +0000 2015", "favorited": false, "id": 624908686583037952, "lang": "en", "place": {"attributes": {}, "bounding_box": {"coordinates": [[[3.2131467, 6.4278856], [3.4640641, 6.4278856], [3.4640641, 6.5583389], [3.2131467, 6.5583389]]], "type": "Polygon"}, "contained_within": [], "country": "Nigeria", "country_code": "NG", "full_name": "Lagos, Nigeria", "id": "00817d75276a95cf", "name": "Lagos", "place_type": "city", "url": "https://api.twitter.com/1.1/geo/id/00817d75276a95cf.json"}, "retweeted": false, "source": "<a href=\"http://twitter.com/download/android\" rel=\"nofollow\">Twitter for Android</a>", "text": "\"The US will come to talk to us when they have a black president and the world have a latin America pope\".Fidel Castro 1973", "truncated": false, "user": {"created_at": "Sun May 08 08:22:54 +0000 2011", "default_profile": true, "description": "Financial Analyst & Sports Journalist", "favourites_count": 71, "followers_count": 74, "friends_count": 358, "geo_enabled": true, "id": 295050074, "lang": "en", "listed_count": 5, "location": "Lagos, Nigeria", "name": "Samsondeen Aileru", "profile_background_color": "C0DEED", "profile_background_image_url": "http://abs.twimg.com/images/themes/theme1/bg.png", "profile_background_tile": false, "profile_image_url": "https://pbs.twimg.com/profile_images/680457737562656768/LShWeJiY_normal.jpg", "profile_link_color": "0084B4", "profile_sidebar_fill_color": "DDEEF6", "profile_text_color": "333333", "protected": false, "screen_name": "omo_adu", "statuses_count": 2038, "time_zone": "Pacific Time (US & Canada)", "utc_offset": -28800}}
{"created_at": "Sat Jul 25 11:57:25 +0000 2015", "favorite_count": 2, "favorited": false, "id": 624911326821916672, "lang": "en", "retweet_count": 6, "retweeted": false, "source": "<a href=\"http://twitter.com\" rel=\"nofollow\">Twitter Web Client</a>", "text": "\"The US will come to talk to us when they have a black President and the world has a Latin American Pope\" - Fidel Castro, 1973", "truncated": false, "user": {"created_at": "Mon Jan 06 18:50:02 +0000 2014", "description": "Syria | Democracy | Class | Anarchy | Capitalism | Poverty | Football | International Development | Climate Change | Revolution | Charity | Tattoos", "favourites_count": 460, "followers_count": 1003, "friends_count": 379, "geo_enabled": true, "id": 2279460956, "lang": "en-gb", "listed_count": 63, "location": "Citizen of the World", "name": "Paddy Vipond", "profile_background_color": "1A1B1F", "profile_background_image_url": "http://abs.twimg.com/images/themes/theme9/bg.gif", "profile_background_tile": false, "profile_banner_url": "https://pbs.twimg.com/profile_banners/2279460956/1451767772", "profile_image_url": "https://pbs.twimg.com/profile_images/599916991714058240/Xwj1BLlw_normal.jpg", "profile_link_color": "28393D", "profile_sidebar_fill_color": "252429", "profile_text_color": "666666", "protected": false, "screen_name": "PaddyVipond", "statuses_count": 6520, "time_zone": "London", "url": "http://t.co/SZyTrS5CIc"}}
{"created_at": "Sat Jul 25 20:32:52 +0000 2015", "favorite_count": 2, "favorited": false, "hashtags": ["FidelCastro"], "id": 625041046314086400, "lang": "en", "media": [{"display_url": "pic.twitter.com/5aeGEU2DJa", "expanded_url": "http://twitter.com/IreneAyusMorill/status/624599346521059328/photo/1", "id": 624599345107566595, "id_str": "624599345107566595", "indices": [114, 136], "media_url": "http://pbs.twimg.com/media/CKsFy4wUAAMMtu3.jpg", "media_url_https": "https://pbs.twimg.com/media/CKsFy4wUAAMMtu3.jpg", "sizes": {"large": {"h": 399, "resize": "fit", "w": 599}, "medium": {"h": 399, "resize": "fit", "w": 599}, "small": {"h": 226, "resize": "fit", "w": 340}, "thumb": {"h": 150, "resize": "crop", "w": 150}}, "source_status_id": 624599346521059328, "source_status_id_str": "624599346521059328", "source_user_id": 577544906, "source_user_id_str": "577544906", "type": "photo", "url": "http://t.co/5aeGEU2DJa"}], "retweet_count": 1, "retweeted": false, "source": "<a href=\"http://www.twitter.com\" rel=\"nofollow\">Twitter for BlackBerry</a>", "text": "The US will come talk to us when they have a black president and the world has a Latin American pope #FidelCastro http://t.co/5aeGEU2DJa", "truncated": false, "user": {"created_at": "Wed Jan 26 22:36:25 +0000 2011", "description": "Wanderer | Love the outdoors | Information Technology | Film | Music | Comics | Spurs\nGraphic Language; follower discretion advised", "favourites_count": 6, "followers_count": 125, "friends_count": 193, "id": 243378283, "lang": "en", "listed_count": 5, "location": "Cairo, Egypt", "name": "Karim Fadl", "profile_background_color": "1A1B1F", "profile_background_image_url": "http://pbs.twimg.com/profile_background_images/393129704/berwick_st.jpg", "profile_background_tile": false, "profile_banner_url": "https://pbs.twimg.com/profile_banners/243378283/1436099350", "profile_image_url": "https://pbs.twimg.com/profile_images/617662298476441600/Si6sg9AN_normal.jpg", "profile_link_color": "2FC2EF", "profile_sidebar_fill_color": "252429", "profile_text_color": "666666", "protected": false, "screen_name": "kfadl", "statuses_count": 4549}}
{"created_at": "Sun Jul 26 03:02:53 +0000 2015", "favorite_count": 1, "favorited": false, "id": 625139196999569408, "lang": "en", "retweet_count": 1, "retweeted": false, "source": "<a href=\"http://tapbots.com/software/tweetbot/mac\" rel=\"nofollow\">Tweetbot for Mac</a>", "text": "\u201cThe United States will come to talk to us when you have a black president and the world has a Latin American pope.\u201d Fidel Castro, 1973", "truncated": false, "user": {"created_at": "Sat Mar 31 09:40:26 +0000 2007", "description": "Co-Founder at Deep Genomics. Data person.", "favourites_count": 138, "followers_count": 189, "friends_count": 388, "geo_enabled": true, "id": 3052051, "lang": "en", "listed_count": 12, "location": "Toronto, ON", "name": "Hannes Bretschneider", "profile_background_color": "022330", "profile_background_image_url": "http://pbs.twimg.com/profile_background_images/435387908/20100627_01_ffffff.jpg", "profile_background_tile": false, "profile_banner_url": "https://pbs.twimg.com/profile_banners/3052051/1402596101", "profile_image_url": "https://pbs.twimg.com/profile_images/755749489/Hannes_Bretschneider_normal.jpeg", "profile_link_color": "0084B4", "profile_sidebar_fill_color": "DEDEDE", "profile_text_color": "333333", "protected": false, "screen_name": "hannes_brt", "statuses_count": 826, "time_zone": "Pacific Time (US & Canada)", "url": "https://t.co/nb5E9L0L9R", "utc_offset": -28800}}
{"created_at": "Sun Jul 26 05:44:02 +0000 2015", "favorited": false, "id": 625179752651997184, "lang": "en", "retweeted": false, "source": "<a href=\"https://mobile.twitter.com\" rel=\"nofollow\">Mobile Web (M2)</a>", "text": "\"The US will come to talk to us when they have a black president and the world has a Latin American pope\"_Fidel Castro 1973", "truncated": false, "user": {"created_at": "Tue May 06 15:42:29 +0000 2014", "default_profile": true, "default_profile_image": true, "description": "Simplicity", "favourites_count": 19, "followers_count": 33, "friends_count": 121, "id": 2479994168, "lang": "en", "location": "Meru County", "name": "Koome Mutua", "profile_background_color": "C0DEED", "profile_background_image_url": "http://abs.twimg.com/images/themes/theme1/bg.png", "profile_background_tile": false, "profile_image_url": "https://abs.twimg.com/sticky/default_profile_images/default_profile_1_normal.png", "profile_link_color": "0084B4", "profile_sidebar_fill_color": "DDEEF6", "profile_text_color": "333333", "protected": false, "screen_name": "MutuaKoome", "statuses_count": 136}}
{"created_at": "Sun Jul 26 09:36:28 +0000 2015", "favorited": false, "id": 625238244251279360, "lang": "en", "retweeted": false, "source": "<a href=\"http://blackberry.com/twitter\" rel=\"nofollow\">Twitter for BlackBerry\u00ae</a>", "text": "\"US will come to talk to us when they have a black president and the world has a Latin American Pope.\" - Fidel Castro 1973!", "truncated": false, "user": {"created_at": "Tue Jul 05 07:43:02 +0000 2011", "default_profile": true, "favourites_count": 2, "followers_count": 34, "friends_count": 22, "id": 329543251, "lang": "en", "listed_count": 1, "location": "Vienna, Austria", "name": "Legendary Cofas", "profile_background_color": "C0DEED", "profile_background_image_url": "http://abs.twimg.com/images/themes/theme1/bg.png", "profile_background_tile": false, "profile_banner_url": "https://pbs.twimg.com/profile_banners/329543251/1448595599", "profile_image_url": "https://pbs.twimg.com/profile_images/662995503626461184/lPvVf54P_normal.jpg", "profile_link_color": "0084B4", "profile_sidebar_fill_color": "DDEEF6", "profile_text_color": "333333", "protected": false, "screen_name": "Nhlanhla37", "statuses_count": 1062}}
{"created_at": "Sun Jul 26 13:49:26 +0000 2015", "favorite_count": 2, "favorited": false, "id": 625301906747846658, "lang": "en", "retweet_count": 1, "retweeted": false, "source": "<a href=\"http://twitter.com\" rel=\"nofollow\">Twitter Web Client</a>", "text": "\u201cThe United States will come to talk to us when you have a black president and the world has a Latin American pope.\u201d\n-Fidel Castro, 1973-", "truncated": false, "user": {"created_at": "Fri Mar 04 17:41:19 +0000 2011", "description": "Soekarno Malaya dalam pembikinan", "favourites_count": 1532, "followers_count": 313, "friends_count": 322, "id": 260824343, "lang": "en", "listed_count": 2, "name": "Uji Dapunta Raya", "profile_background_color": "DD2E44", "profile_background_image_url": "http://pbs.twimg.com/profile_background_images/637627192957009920/270aORVR.jpg", "profile_background_tile": true, "profile_banner_url": "https://pbs.twimg.com/profile_banners/260824343/1434205067", "profile_image_url": "https://pbs.twimg.com/profile_images/578231799492427776/REz0QI_c_normal.jpeg", "profile_link_color": "DD2E44", "profile_sidebar_fill_color": "000000", "profile_text_color": "000000", "protected": false, "screen_name": "Uji_Karyasakti", "statuses_count": 23986, "time_zone": "Kuala Lumpur", "utc_offset": 28800}}
{"created_at": "Mon Jul 27 13:44:59 +0000 2015", "favorited": false, "id": 625663172238778368, "lang": "en", "retweeted": false, "source": "<a href=\"http://twitter.com\" rel=\"nofollow\">Twitter Web Client</a>", "text": "\"The United States will come to talk to us when you have a black president and the world has a Latin American pope.\" Fidel Castro in 1973", "truncated": false, "user": {"created_at": "Sat Mar 17 20:27:56 +0000 2007", "description": "Ex-cowboy, ex-reactor operator, ex-missionary; software engineer, data scientist; epitomator", "favourites_count": 3, "followers_count": 181, "friends_count": 170, "geo_enabled": true, "id": 1372281, "lang": "en", "listed_count": 6, "location": "Flagstaff, AZ", "name": "Dave Babbitt", "profile_background_color": "9AE4E8", "profile_background_image_url": "http://pbs.twimg.com/profile_background_images/142493109/TwitterBackground.gif", "profile_background_tile": true, "profile_image_url": "https://pbs.twimg.com/profile_images/3568863408/7219b61e6be5d70565bb0f70878778f9_normal.jpeg", "profile_link_color": "0000FF", "profile_sidebar_fill_color": "E0FF92", "profile_text_color": "000000", "protected": false, "screen_name": "dbabbitt", "statuses_count": 481, "time_zone": "Eastern Time (US & Canada)", "utc_offset": -18000}}
{"created_at": "Tue Jul 28 18:02:50 +0000 2015", "favorite_count": 1, "favorited": false, "hashtags": ["neversaynever"], "id": 626090449548279808, "lang": "en", "place": {"attributes": {}, "bounding_box": {"coordinates": [[[-84.596638, 30.872379], [-84.508975, 30.872379], [-84.508975, 30.935971], [-84.596638, 30.935971]]], "type": "Polygon"}, "contained_within": [], "country": "United States", "country_code": "US", "full_name": "Bainbridge, GA", "id": "3c8ea980a3232283", "name": "Bainbridge", "place_type": "city", "url": "https://api.twitter.com/1.1/geo/id/3c8ea980a3232283.json"}, "retweet_count": 1, "retweeted": false, "source": "<a href=\"http://twitter.com/download/iphone\" rel=\"nofollow\">Twitter for iPhone</a>", "text": "\"The U.S. will come to talk to us when you have a black president &amp; the world has a Latin American pope.\"-Fidel Castro, 1973 #neversaynever", "truncated": false, "user": {"created_at": "Tue Jun 09 21:14:27 +0000 2009", "description": "~Float like a butterfly, sting like a bee.~", "favourites_count": 2797, "followers_count": 347, "friends_count": 170, "geo_enabled": true, "id": 45946341, "lang": "en", "location": "Harvard '15 | 229", "name": "Erick M. Ju\u00e1rez", "profile_background_color": "000000", "profile_background_image_url": "http://pbs.twimg.com/profile_background_images/378800000150991123/jFwQv4OG.jpeg", "profile_background_tile": false, "profile_banner_url": "https://pbs.twimg.com/profile_banners/45946341/1387087596", "profile_image_url": "https://pbs.twimg.com/profile_images/544234588873428992/r-_6CO15_normal.jpeg", "profile_link_color": "000000", "profile_sidebar_fill_color": "000B17", "profile_text_color": "448668", "protected": false, "screen_name": "_CaptainEmerica", "statuses_count": 8879, "time_zone": "Quito", "url": "http://t.co/i1vpcbGvHy", "utc_offset": -18000}}
{"created_at": "Fri Aug 14 16:57:05 +0000 2015", "favorited": false, "id": 632234496889368576, "lang": "en", "place": {"attributes": {}, "bounding_box": {"coordinates": [[[33.9105011, -4.7672356], [41.8998666, -4.7672356], [41.8998666, 4.631608], [33.9105011, 4.631608]]], "type": "Polygon"}, "contained_within": [], "country": "Kenya", "country_code": "KE", "full_name": "Kenya", "id": "17ad6a68301cd28b", "name": "Kenya", "place_type": "country", "url": "https://api.twitter.com/1.1/geo/id/17ad6a68301cd28b.json"}, "retweeted": false, "source": "<a href=\"http://twitter.com\" rel=\"nofollow\">Twitter Web Client</a>", "text": "\"The US will come to talk to us when they have a black president and the world has a Latin American Pope\", ~ Fidel Castro, 1973", "truncated": false, "user": {"created_at": "Fri Jul 08 09:05:51 +0000 2011", "description": "Peace-loving pastoralist; \n\nAdvocate for Gender Equality", "favourites_count": 742, "followers_count": 2548, "friends_count": 867, "geo_enabled": true, "id": 331516650, "lang": "en", "listed_count": 13, "location": "Nairobi, Kenya", "name": "Joylene Lochita", "profile_background_color": "0099B9", "profile_background_image_url": "http://pbs.twimg.com/profile_background_images/509648710486073345/VaWhhO6v.jpeg", "profile_background_tile": true, "profile_banner_url": "https://pbs.twimg.com/profile_banners/331516650/1398753769", "profile_image_url": "https://pbs.twimg.com/profile_images/638039351105077248/jytQo_lb_normal.jpg", "profile_link_color": "0099B9", "profile_sidebar_fill_color": "95E8EC", "profile_text_color": "3C3940", "protected": false, "screen_name": "SingoeiJoylene", "statuses_count": 8788, "time_zone": "Nairobi", "utc_offset": 10800}}
{"created_at": "Fri Aug 14 17:54:29 +0000 2015", "favorited": false, "id": 632248945423482881, "lang": "en", "retweet_count": 1, "retweeted": false, "source": "<a href=\"http://twitter.com/download/android\" rel=\"nofollow\">Twitter for Android</a>", "text": "\"The US will come to talk to us when they have a black president and the world has a Latin American pope\" Fidel Castro 1973", "truncated": false, "user": {"created_at": "Sat Apr 02 09:25:40 +0000 2011", "description": "Civil Engineering - AUB", "favourites_count": 1, "followers_count": 192, "friends_count": 95, "geo_enabled": true, "id": 275939190, "lang": "en", "location": "Lebanon", "name": "Gregory", "profile_background_color": "FCFCF7", "profile_background_image_url": "http://pbs.twimg.com/profile_background_images/378800000075855261/bf67b9450d2a4f984c7612b7cc8aef7a.jpeg", "profile_background_tile": true, "profile_banner_url": "https://pbs.twimg.com/profile_banners/275939190/1451232801", "profile_image_url": "https://pbs.twimg.com/profile_images/683212510753783808/vyKpn0_t_normal.jpg", "profile_link_color": "3B94D9", "profile_sidebar_fill_color": "2D2B2E", "profile_text_color": "EDEF15", "protected": false, "screen_name": "georgioelhaddad", "statuses_count": 5881, "time_zone": "Cairo", "utc_offset": 7200}}
{"created_at": "Sat Aug 15 16:06:49 +0000 2015", "favorite_count": 8, "favorited": false, "hashtags": ["US", "Fidel"], "id": 632584238634659840, "lang": "en", "retweet_count": 8, "retweeted": false, "source": "<a href=\"http://twitter.com/download/iphone\" rel=\"nofollow\">Twitter for iPhone</a>", "text": "\"The #US will come to talk to us when they have a black president and the world has a Latin American Pope\"\n- #Fidel Castro (1973)\n(Copied)", "truncated": false, "user": {"created_at": "Wed Oct 14 04:26:30 +0000 2009", "description": "Chief Advisor to the Rt Hon'ble Prime minister of Nepal :: President, GEFONT:: [All tweets are solely personal]", "favourites_count": 581, "followers_count": 4339, "friends_count": 444, "geo_enabled": true, "id": 82275396, "lang": "en", "listed_count": 24, "location": "Nepal", "name": "Bishnu Rimal", "profile_background_color": "FCEBB6", "profile_background_image_url": "http://pbs.twimg.com/profile_background_images/696623932/86f4c2397325bcd6305c75abc235ece3.png", "profile_background_tile": true, "profile_banner_url": "https://pbs.twimg.com/profile_banners/82275396/1401347605", "profile_image_url": "https://pbs.twimg.com/profile_images/2779437034/d8263a9a13a854386448ca50030a625e_normal.jpeg", "profile_link_color": "77706C", "profile_sidebar_fill_color": "78C0A8", "profile_text_color": "CE7834", "protected": false, "screen_name": "BishnuRimal", "statuses_count": 2039, "time_zone": "Kathmandu", "url": "https://t.co/yrrucXHnPW", "utc_offset": 20700}}
{"created_at": "Wed Aug 19 05:34:26 +0000 2015", "favorited": false, "id": 633874641858248704, "lang": "en", "retweeted": false, "source": "<a href=\"http://twitter.com/download/android\" rel=\"nofollow\">Twitter for Android</a>", "text": "\"United States will come to talk to us when they have a black president and the world has a latin american Pope\" Fidel Castro, 1973", "truncated": false, "user": {"created_at": "Sun Jun 14 04:06:53 +0000 2009", "description": "20. Venezolana. Humanista Tarbesiana. Ucevista. Futura internacionalista. Amante de los idiomas. Instagram: @andrechirinos1995", "favourites_count": 674, "followers_count": 195, "friends_count": 168, "geo_enabled": true, "id": 47029593, "lang": "en", "listed_count": 10, "location": "Caracas, Venezuela", "name": "Andre\u00edna Elena", "profile_background_color": "FFFFFF", "profile_background_image_url": "http://pbs.twimg.com/profile_background_images/446754382055366656/6pgpZt_I.png", "profile_background_tile": true, "profile_banner_url": "https://pbs.twimg.com/profile_banners/47029593/1447641919", "profile_image_url": "https://pbs.twimg.com/profile_images/672590154029232128/IFtE0sZd_normal.jpg", "profile_link_color": "7C2DA3", "profile_sidebar_fill_color": "FFFFFF", "profile_text_color": "000000", "protected": false, "screen_name": "AndreChirinos", "statuses_count": 20799, "time_zone": "Caracas", "utc_offset": -16200}}
{"created_at": "Sat Aug 22 10:24:47 +0000 2015", "favorited": false, "id": 635034874974470144, "lang": "en", "retweeted": false, "source": "<a href=\"http://www.facebook.com/twitter\" rel=\"nofollow\">Facebook</a>", "text": "\"US will come to talk to us when they have a black president &amp; World has a Latin American Pope\" Fidel Castro (1973) http://t.co/UDtxTeQTIf", "truncated": false, "urls": {"http://t.co/UDtxTeQTIf": "http://fb.me/57dfWDrnY"}, "user": {"created_at": "Wed Feb 04 09:21:00 +0000 2009", "description": "Life isn't about finding yourself. Life is about creating yourself.\r\nCommunity Worker. Philanthropist. Optimist.", "favourites_count": 18, "followers_count": 75, "friends_count": 166, "geo_enabled": true, "id": 20039716, "lang": "en", "listed_count": 4, "location": "London", "name": "Asif Ayub", "profile_background_color": "642D8B", "profile_background_image_url": "http://pbs.twimg.com/profile_background_images/378800000149846752/UXTKLOaw.jpeg", "profile_background_tile": false, "profile_banner_url": "https://pbs.twimg.com/profile_banners/20039716/1440816409", "profile_image_url": "https://pbs.twimg.com/profile_images/476855170744082432/cflToq5M_normal.jpeg", "profile_link_color": "FF0000", "profile_sidebar_fill_color": "7AC3EE", "profile_text_color": "3D1957", "protected": false, "screen_name": "asifayub", "statuses_count": 1152, "time_zone": "London"}}
{"created_at": "Sun Aug 23 09:49:05 +0000 2015", "favorited": false, "hashtags": ["mindblown"], "id": 635388279442014208, "lang": "en", "retweeted": false, "source": "<a href=\"https://mobile.twitter.com\" rel=\"nofollow\">Mobile Web (M2)</a>", "text": "The US will come to talk to us when they have a black president and the world has a latin american pope ~Fidel Castro, 1973 #mindblown", "truncated": false, "user": {"created_at": "Wed Aug 17 15:36:46 +0000 2011", "description": "#BallIsLife #StayonyourGrind\n#God.Family.Basketball", "favourites_count": 1740, "followers_count": 221, "friends_count": 197, "geo_enabled": true, "id": 356923299, "lang": "en", "name": "J\u00f8\u00dfh M\u00fbk\u012b\u012bb\u00df", "profile_background_color": "022330", "profile_background_image_url": "http://abs.twimg.com/images/themes/theme15/bg.png", "profile_background_tile": false, "profile_banner_url": "https://pbs.twimg.com/profile_banners/356923299/1436094016", "profile_image_url": "https://pbs.twimg.com/profile_images/617649200898146304/60ExAAqE_normal.jpg", "profile_link_color": "0084B4", "profile_sidebar_fill_color": "C0DFEC", "profile_text_color": "333333", "protected": false, "screen_name": "joshuamukiibi10", "statuses_count": 1630, "time_zone": "Nairobi", "utc_offset": 10800}}
{"created_at": "Thu Aug 27 17:52:08 +0000 2015", "favorited": false, "id": 636959396073992193, "lang": "en", "retweeted": false, "source": "<a href=\"http://blackberry.com/twitter\" rel=\"nofollow\">Twitter for BlackBerry\u00ae</a>", "text": "The US will come to talk to us when they have a black president and the world has a latin American Pope- Fidel Castro (1973)", "truncated": false, "user": {"created_at": "Thu Aug 09 14:19:34 +0000 2012", "default_profile": true, "description": "Don\u2019t confuse kindness for weakness, kind people give because they can, not because they have to.", "favourites_count": 12, "followers_count": 94, "friends_count": 193, "geo_enabled": true, "id": 747310776, "lang": "en", "location": "Vrede", "name": "Bafana Motaung", "profile_background_color": "C0DEED", "profile_background_image_url": "http://abs.twimg.com/images/themes/theme1/bg.png", "profile_background_tile": false, "profile_banner_url": "https://pbs.twimg.com/profile_banners/747310776/1423423989", "profile_image_url": "https://pbs.twimg.com/profile_images/529343126901907456/WJXTRXAU_normal.jpeg", "profile_link_color": "0084B4", "profile_sidebar_fill_color": "DDEEF6", "profile_text_color": "333333", "protected": false, "screen_name": "SheziBafana", "statuses_count": 1797, "time_zone": "Pretoria", "utc_offset": 7200}}
