{"created_at": "Mon Jul 27 05:51:22 +0000 2015", "favorited": false, "id": 625543984551587840, "lang": "en", "retweet_count": 1, "retweeted": false, "source": "<a href=\"http://www.facebook.com/twitter\" rel=\"nofollow\">Facebook</a>", "text": "Woman saves child before dying in horrific escalator accident http://t.co/qGkkNmYnS2", "truncated": false, "urls": {"http://t.co/qGkkNmYnS2": "http://fb.me/3nlb2loem"}, "user": {"created_at": "Mon Apr 02 10:56:46 +0000 2007", "description": "China in bite-sized portions! Also follow: @ShanghaiistFood @ShanghaiistLife @SHistBooks. Managing Editor: @MrKennethTan.", "favourites_count": 138, "followers_count": 89255, "friends_count": 1596, "id": 3203731, "lang": "en", "listed_count": 1577, "location": "Shanghai, China", "name": "Shanghaiist.com", "profile_background_color": "D2DEE6", "profile_background_image_url": "http://pbs.twimg.com/profile_background_images/3839762/shanghaiist-twitter-background.jpg", "profile_background_tile": false, "profile_banner_url": "https://pbs.twimg.com/profile_banners/3203731/1444072433", "profile_image_url": "https://pbs.twimg.com/profile_images/70312494/shanghaiist-logo-blue_normal.jpg", "profile_link_color": "FF0000", "profile_sidebar_fill_color": "A6BDCD", "profile_text_color": "000000", "protected": false, "screen_name": "shanghaiist", "statuses_count": 40812, "time_zone": "Beijing", "url": "http://t.co/CuIoHOokPj", "utc_offset": 28800}}
{"created_at": "Mon Jul 27 05:52:39 +0000 2015", "favorited": false, "id": 625544305042571264, "lang": "en", "retweeted": false, "source": "<a href=\"https://chrome.google.com/extensions/detail/encaiiljifbdbjlphpgpiimidegddhic\" rel=\"nofollow\">Silver Bird</a>", "text": "RT @shanghaiist: Woman saves child before dying in horrific escalator accident http://t.co/omKnZsg6Vp", "truncated": false, "urls": {"http://t.co/omKnZsg6Vp": "http://fb.me/3nlb2loem"}, "user": {"created_at": "Fri Mar 30 04:03:35 +0000 2007", "description": "Martian, protocol maniacal enthusiast, secessionist, ex-wikipedian & sysop and an alternative :-p", "favourites_count": 125, "followers_count": 6217, "friends_count": 150, "id": 2933131, "lang": "en", "listed_count": 123, "location": "Mars", "name": "\u0332\u043c\u0332\u043e\u0332\u0455\u0332\u0435\u0332\u0455\u0332", "profile_background_color": "B7DEFF", "profile_background_image_url": "http://pbs.twimg.com/profile_background_images/539842/bk239.gif", "profile_background_tile": true, "profile_banner_url": "https://pbs.twimg.com/profile_banners/2933131/1451155405", "profile_image_url": "https://pbs.twimg.com/profile_images/115943984/pavatary_ani_normal.gif", "profile_link_color": "07598F", "profile_sidebar_fill_color": "C9EDFA", "profile_text_color": "555555", "protected": false, "screen_name": "Mosesofmason", "statuses_count": 75776, "time_zone": "London", "url": "https://t.co/yhR6Pqz8E9"}, "user_mentions": [{"id": 3203731, "name": "Shanghaiist.com", "screen_name": "shanghaiist"}]}
{"created_at": "Mon Jul 27 06:54:55 +0000 2015", "favorited": false, "id": 625559978661711872, "lang": "en", "retweeted": false, "source": "<a href=\"http://www.facebook.com/twitter\" rel=\"nofollow\">Facebook</a>", "text": "Woman saves child before dying in horrific escalator accident http://t.co/9UDFQBaT2T", "truncated": false, "urls": {"http://t.co/9UDFQBaT2T": "http://fb.me/7zdSoQn32"}, "user": {"created_at": "Mon Jun 02 12:01:47 +0000 2008", "description": "Managing Editor: @shanghaiist", "favourites_count": 907, "followers_count": 7485, "friends_count": 1066, "geo_enabled": true, "id": 14979612, "lang": "en", "listed_count": 359, "location": "Shanghai, China", "name": "Kenneth Tan", "profile_background_color": "D2DEE6", "profile_background_image_url": "http://pbs.twimg.com/profile_background_images/673211153/f1067db02c03d39ed6ec8c9f38c29db9.jpeg", "profile_background_tile": false, "profile_banner_url": "https://pbs.twimg.com/profile_banners/14979612/1349010608", "profile_image_url": "https://pbs.twimg.com/profile_images/608158260907151360/I29IBhiK_normal.jpg", "profile_link_color": "0084B4", "profile_sidebar_fill_color": "DDEEF6", "profile_text_color": "333333", "protected": false, "screen_name": "MrKennethTan", "statuses_count": 18750, "time_zone": "Singapore", "url": "http://t.co/EswnsKTIFW", "utc_offset": 28800}}
{"created_at": "Mon Jul 27 07:16:19 +0000 2015", "favorited": false, "id": 625565361467817984, "lang": "en", "retweeted": false, "source": "<a href=\"http://twitterfeed.com\" rel=\"nofollow\">twitterfeed</a>", "text": "Woman saves child before dying in horrific escalator accident http://t.co/qXLAoPtIZt", "truncated": false, "urls": {"http://t.co/qXLAoPtIZt": "http://tinyurl.com/q9mcm8u"}, "user": {"created_at": "Sun Nov 14 11:52:35 +0000 2010", "description": "Latest about China. News, Business, Environment, Travel, Culture, ...", "followers_count": 488, "friends_count": 52, "id": 215600511, "lang": "en", "listed_count": 20, "name": "yuan", "profile_background_color": "C0DEED", "profile_background_image_url": "http://pbs.twimg.com/profile_background_images/171592957/yuantodaytwitter.jpg", "profile_background_tile": false, "profile_image_url": "https://pbs.twimg.com/profile_images/1166925013/yuanglogo_normal.gif", "profile_link_color": "3A573D", "profile_sidebar_fill_color": "C9C9BF", "profile_text_color": "333333", "protected": false, "screen_name": "yuannow", "statuses_count": 62197, "time_zone": "Berlin", "url": "http://t.co/ZHV8ir0GYC", "utc_offset": 3600}}
{"created_at": "Mon Jul 27 07:35:12 +0000 2015", "favorited": false, "id": 625570116042788864, "lang": "en", "retweeted": false, "source": "<a href=\"http://twitterfeed.com\" rel=\"nofollow\">twitterfeed</a>", "text": "Woman saves child before dying in horrific escalator accident http://t.co/1rjvGaW6bd", "truncated": false, "urls": {"http://t.co/1rjvGaW6bd": "http://shst.me/bj8"}, "user": {"created_at": "Mon Apr 02 10:56:46 +0000 2007", "description": "China in bite-sized portions! Also follow: @ShanghaiistFood @ShanghaiistLife @SHistBooks. Managing Editor: @MrKennethTan.", "favourites_count": 138, "followers_count": 89255, "friends_count": 1596, "id": 3203731, "lang": "en", "listed_count": 1577, "location": "Shanghai, China", "name": "Shanghaiist.com", "profile_background_color": "D2DEE6", "profile_background_image_url": "http://pbs.twimg.com/profile_background_images/3839762/shanghaiist-twitter-background.jpg", "profile_background_tile": false, "profile_banner_url": "https://pbs.twimg.com/profile_banners/3203731/1444072433", "profile_image_url": "https://pbs.twimg.com/profile_images/70312494/shanghaiist-logo-blue_normal.jpg", "profile_link_color": "FF0000", "profile_sidebar_fill_color": "A6BDCD", "profile_text_color": "000000", "protected": false, "screen_name": "shanghaiist", "statuses_count": 40812, "time_zone": "Beijing", "url": "http://t.co/CuIoHOokPj", "utc_offset": 28800}}
{"created_at": "Mon Jul 27 07:57:44 +0000 2015", "favorited": false, "id": 625575785030520832, "lang": "en", "retweeted": false, "source": "<a href=\"http://twitter.com\" rel=\"nofollow\">Twitter Web Client</a>", "text": "Woman saves child before dying in horrific escalator accident http://t.co/iwpWLbiyxu", "truncated": false, "urls": {"http://t.co/iwpWLbiyxu": "http://shanghaiist.com/2015/07/27/woman-saves-child-before-dying-horrific-escalator-accident.php"}, "user": {"created_at": "Sun Nov 22 22:44:59 +0000 2009", "description": "\u3064\u3076\u3084\u304d\u306f\u6240\u5c5e\u6a5f\u95a2\u306e\u898b\u89e3\u3067\u306f\u306a\u304f\u3001\u500b\u4eba\u7684\u306a\u898b\u89e3\u306b\u3059\u304e\u307e\u305b\u3093\u3002\u62e1\u6563\u5e0c\u671b\u30e2\u30ce\u306f\u62e1\u6563\u3057\u307e\u305b\u3093\u3002RT\u306a\u3069\u306f\u5fc5\u305a\u3057\u3082\u8cdb\u6210\u30fb\u540c\u610f\u3092\u610f\u5473\u3057\u307e\u305b\u3093\u3002\nMy tweets are private; I WON'T do RT-ifs; RT, following does not constitute endorsement", "favourites_count": 413, "followers_count": 73, "friends_count": 55, "geo_enabled": true, "id": 91884611, "lang": "en-gb", "listed_count": 5, "location": "\u5927\u962a\u5e9c \u5927\u962a\u5e02 \u6dc0\u5ddd\u533a", "name": "\u3080\u3089\u305f", "profile_background_color": "EFE4B0", "profile_background_image_url": "http://abs.twimg.com/images/themes/theme7/bg.gif", "profile_background_tile": false, "profile_banner_url": "https://pbs.twimg.com/profile_banners/91884611/1372340353", "profile_image_url": "https://pbs.twimg.com/profile_images/3361595294/586afef6b3dcb77b1c73feaa0a9b60e9_normal.jpeg", "profile_link_color": "B97A57", "profile_sidebar_fill_color": "E3E2DE", "profile_text_color": "634047", "protected": false, "screen_name": "esistdas", "statuses_count": 23700, "time_zone": "Tokyo", "utc_offset": 32400}}
{"created_at": "Mon Jul 27 09:20:16 +0000 2015", "favorited": false, "hashtags": ["China", "Expats"], "id": 625596555643346944, "lang": "en", "retweeted": false, "source": "<a href=\"http://www.chinaexpats.com\" rel=\"nofollow\">ChinaExpats.com</a>", "text": "Woman saves child before dying in horrific escalator accident - http://t.co/zxUqLGiwOr #China #Expats", "truncated": false, "urls": {"http://t.co/zxUqLGiwOr": "http://www.chinaexpats.com/26773-woman-saves-child-before-dying-in-horrific-escalator-accident/"}, "user": {"created_at": "Thu Nov 08 06:46:41 +0000 2012", "description": "The Social Network for Working, Living & Traveling China. Build your China network and strengthen connections. Join 110,000+ registered users!", "favourites_count": 8, "followers_count": 12699, "friends_count": 227, "id": 933839413, "lang": "en", "listed_count": 44, "location": "China", "name": "ChinaExpats.com", "profile_background_color": "ACDED6", "profile_background_image_url": "http://abs.twimg.com/images/themes/theme18/bg.gif", "profile_background_tile": false, "profile_banner_url": "https://pbs.twimg.com/profile_banners/933839413/1389323243", "profile_image_url": "https://pbs.twimg.com/profile_images/422723537296572416/tfxbsMDa_normal.png", "profile_link_color": "038543", "profile_sidebar_fill_color": "F6F6F6", "profile_text_color": "333333", "protected": false, "screen_name": "ChinaExpatsCom", "statuses_count": 13126, "time_zone": "Chongqing", "url": "https://t.co/xvSzXhCMqH", "utc_offset": 28800}}
{"created_at": "Mon Jul 27 12:25:13 +0000 2015", "favorited": false, "hashtags": ["escalator", "broken", "China"], "id": 625643099423817728, "lang": "en", "media": [{"display_url": "pic.twitter.com/xcyki4jkJ9", "expanded_url": "http://twitter.com/trendspotph/status/625643099423817728/photo/1", "id": 625642997569359872, "id_str": "625642997569359872", "indices": [111, 133], "media_url": "http://pbs.twimg.com/media/CK66_dJVEAAVvSd.png", "media_url_https": "https://pbs.twimg.com/media/CK66_dJVEAAVvSd.png", "sizes": {"large": {"h": 362, "resize": "fit", "w": 636}, "medium": {"h": 341, "resize": "fit", "w": 600}, "small": {"h": 193, "resize": "fit", "w": 340}, "thumb": {"h": 150, "resize": "crop", "w": 150}}, "type": "photo", "url": "http://t.co/xcyki4jkJ9"}], "retweeted": false, "source": "<a href=\"https://about.twitter.com/products/tweetdeck\" rel=\"nofollow\">TweetDeck</a>", "text": "Freaking accident kills a Chinese woman but saves her child.\n http://t.co/R7IIbPb81v\n#escalator #broken #China http://t.co/xcyki4jkJ9", "truncated": false, "urls": {"http://t.co/R7IIbPb81v": "http://bit.ly/1etiBQ2"}, "user": {"created_at": "Thu Nov 06 11:26:04 +0000 2014", "description": "TrendSpot is social media website that shares trending news, videos on Entertainment, DIYs, Health, Food and more, happening worldwide!", "favourites_count": 1, "followers_count": 108, "friends_count": 13, "id": 2892064794, "lang": "en", "listed_count": 3, "location": "Philippines", "name": "TrendSpot", "profile_background_color": "000000", "profile_background_image_url": "http://abs.twimg.com/images/themes/theme1/bg.png", "profile_background_tile": false, "profile_image_url": "https://pbs.twimg.com/profile_images/562045555660951553/yfng8S3I_normal.jpeg", "profile_link_color": "4A913C", "profile_sidebar_fill_color": "000000", "profile_text_color": "000000", "protected": false, "screen_name": "trendspotph", "statuses_count": 976, "url": "http://t.co/A9LNEODzYs"}}
{"created_at": "Mon Jul 27 12:45:04 +0000 2015", "favorited": false, "hashtags": ["escalator", "broken", "China"], "id": 625648096987365381, "lang": "en", "media": [{"display_url": "pic.twitter.com/oMEhaw9Mjm", "expanded_url": "http://twitter.com/trendspotph/status/625648096987365381/photo/1", "id": 625643165551177728, "id_str": "625643165551177728", "indices": [111, 133], "media_url": "http://pbs.twimg.com/media/CK67JO7UMAAozIY.png", "media_url_https": "https://pbs.twimg.com/media/CK67JO7UMAAozIY.png", "sizes": {"large": {"h": 362, "resize": "fit", "w": 636}, "medium": {"h": 341, "resize": "fit", "w": 600}, "small": {"h": 193, "resize": "fit", "w": 340}, "thumb": {"h": 150, "resize": "crop", "w": 150}}, "type": "photo", "url": "http://t.co/oMEhaw9Mjm"}], "retweeted": false, "source": "<a href=\"https://about.twitter.com/products/tweetdeck\" rel=\"nofollow\">TweetDeck</a>", "text": "Freaking accident kills a Chinese woman but saves her child.\n http://t.co/R7IIbPb81v\n#escalator #broken #China http://t.co/oMEhaw9Mjm", "truncated": false, "urls": {"http://t.co/R7IIbPb81v": "http://bit.ly/1etiBQ2"}, "user": {"created_at": "Thu Nov 06 11:26:04 +0000 2014", "description": "TrendSpot is social media website that shares trending news, videos on Entertainment, DIYs, Health, Food and more, happening worldwide!", "favourites_count": 1, "followers_count": 108, "friends_count": 13, "id": 2892064794, "lang": "en", "listed_count": 3, "location": "Philippines", "name": "TrendSpot", "profile_background_color": "000000", "profile_background_image_url": "http://abs.twimg.com/images/themes/theme1/bg.png", "profile_background_tile": false, "profile_image_url": "https://pbs.twimg.com/profile_images/562045555660951553/yfng8S3I_normal.jpeg", "profile_link_color": "4A913C", "profile_sidebar_fill_color": "000000", "profile_text_color": "000000", "protected": false, "screen_name": "trendspotph", "statuses_count": 976, "url": "http://t.co/A9LNEODzYs"}}
{"created_at": "Mon Jul 27 12:50:05 +0000 2015", "favorited": false, "hashtags": ["escalator", "broken", "China"], "id": 625649356377452546, "lang": "en", "media": [{"display_url": "pic.twitter.com/90dUVNy7Vn", "expanded_url": "http://twitter.com/trendspotph/status/625649356377452546/photo/1", "id": 625643244886491137, "id_str": "625643244886491137", "indices": [111, 133], "media_url": "http://pbs.twimg.com/media/CK67N2eVAAEFv1t.png", "media_url_https": "https://pbs.twimg.com/media/CK67N2eVAAEFv1t.png", "sizes": {"large": {"h": 362, "resize": "fit", "w": 636}, "medium": {"h": 341, "resize": "fit", "w": 600}, "small": {"h": 193, "resize": "fit", "w": 340}, "thumb": {"h": 150, "resize": "crop", "w": 150}}, "type": "photo", "url": "http://t.co/90dUVNy7Vn"}], "retweeted": false, "source": "<a href=\"https://about.twitter.com/products/tweetdeck\" rel=\"nofollow\">TweetDeck</a>", "text": "Freaking accident kills a Chinese woman but saves her child.\n http://t.co/R7IIbPb81v\n#escalator #broken #China http://t.co/90dUVNy7Vn", "truncated": false, "urls": {"http://t.co/R7IIbPb81v": "http://bit.ly/1etiBQ2"}, "user": {"created_at": "Thu Nov 06 11:26:04 +0000 2014", "description": "TrendSpot is social media website that shares trending news, videos on Entertainment, DIYs, Health, Food and more, happening worldwide!", "favourites_count": 1, "followers_count": 108, "friends_count": 13, "id": 2892064794, "lang": "en", "listed_count": 3, "location": "Philippines", "name": "TrendSpot", "profile_background_color": "000000", "profile_background_image_url": "http://abs.twimg.com/images/themes/theme1/bg.png", "profile_background_tile": false, "profile_image_url": "https://pbs.twimg.com/profile_images/562045555660951553/yfng8S3I_normal.jpeg", "profile_link_color": "4A913C", "profile_sidebar_fill_color": "000000", "profile_text_color": "000000", "protected": false, "screen_name": "trendspotph", "statuses_count": 976, "url": "http://t.co/A9LNEODzYs"}}
{"created_at": "Mon Jul 27 13:00:20 +0000 2015", "favorited": false, "hashtags": ["escalator", "broken", "China"], "id": 625651937229209600, "lang": "en", "media": [{"display_url": "pic.twitter.com/wUDKRkEAuJ", "expanded_url": "http://twitter.com/trendspotph/status/625651937229209600/photo/1", "id": 625643312930656256, "id_str": "625643312930656256", "indices": [111, 133], "media_url": "http://pbs.twimg.com/media/CK67Rz9UkAAeH6V.png", "media_url_https": "https://pbs.twimg.com/media/CK67Rz9UkAAeH6V.png", "sizes": {"large": {"h": 362, "resize": "fit", "w": 636}, "medium": {"h": 341, "resize": "fit", "w": 600}, "small": {"h": 193, "resize": "fit", "w": 340}, "thumb": {"h": 150, "resize": "crop", "w": 150}}, "type": "photo", "url": "http://t.co/wUDKRkEAuJ"}], "retweeted": false, "source": "<a href=\"https://about.twitter.com/products/tweetdeck\" rel=\"nofollow\">TweetDeck</a>", "text": "Freaking accident kills a Chinese woman but saves her child.\n http://t.co/R7IIbPb81v\n#escalator #broken #China http://t.co/wUDKRkEAuJ", "truncated": false, "urls": {"http://t.co/R7IIbPb81v": "http://bit.ly/1etiBQ2"}, "user": {"created_at": "Thu Nov 06 11:26:04 +0000 2014", "description": "TrendSpot is social media website that shares trending news, videos on Entertainment, DIYs, Health, Food and more, happening worldwide!", "favourites_count": 1, "followers_count": 108, "friends_count": 13, "id": 2892064794, "lang": "en", "listed_count": 3, "location": "Philippines", "name": "TrendSpot", "profile_background_color": "000000", "profile_background_image_url": "http://abs.twimg.com/images/themes/theme1/bg.png", "profile_background_tile": false, "profile_image_url": "https://pbs.twimg.com/profile_images/562045555660951553/yfng8S3I_normal.jpeg", "profile_link_color": "4A913C", "profile_sidebar_fill_color": "000000", "profile_text_color": "000000", "protected": false, "screen_name": "trendspotph", "statuses_count": 976, "url": "http://t.co/A9LNEODzYs"}}
{"created_at": "Mon Jul 27 13:15:06 +0000 2015", "favorited": false, "hashtags": ["escalator", "broken", "China"], "id": 625655655236419585, "lang": "en", "media": [{"display_url": "pic.twitter.com/UyXGM5EMDq", "expanded_url": "http://twitter.com/trendspotph/status/625655655236419585/photo/1", "id": 625643382631632896, "id_str": "625643382631632896", "indices": [111, 133], "media_url": "http://pbs.twimg.com/media/CK67V3nVEAAXKR_.png", "media_url_https": "https://pbs.twimg.com/media/CK67V3nVEAAXKR_.png", "sizes": {"large": {"h": 362, "resize": "fit", "w": 636}, "medium": {"h": 341, "resize": "fit", "w": 600}, "small": {"h": 193, "resize": "fit", "w": 340}, "thumb": {"h": 150, "resize": "crop", "w": 150}}, "type": "photo", "url": "http://t.co/UyXGM5EMDq"}], "retweeted": false, "source": "<a href=\"https://about.twitter.com/products/tweetdeck\" rel=\"nofollow\">TweetDeck</a>", "text": "Freaking accident kills a Chinese woman but saves her child.\n http://t.co/R7IIbPb81v\n#escalator #broken #China http://t.co/UyXGM5EMDq", "truncated": false, "urls": {"http://t.co/R7IIbPb81v": "http://bit.ly/1etiBQ2"}, "user": {"created_at": "Thu Nov 06 11:26:04 +0000 2014", "description": "TrendSpot is social media website that shares trending news, videos on Entertainment, DIYs, Health, Food and more, happening worldwide!", "favourites_count": 1, "followers_count": 108, "friends_count": 13, "id": 2892064794, "lang": "en", "listed_count": 3, "location": "Philippines", "name": "TrendSpot", "profile_background_color": "000000", "profile_background_image_url": "http://abs.twimg.com/images/themes/theme1/bg.png", "profile_background_tile": false, "profile_image_url": "https://pbs.twimg.com/profile_images/562045555660951553/yfng8S3I_normal.jpeg", "profile_link_color": "4A913C", "profile_sidebar_fill_color": "000000", "profile_text_color": "000000", "protected": false, "screen_name": "trendspotph", "statuses_count": 976, "url": "http://t.co/A9LNEODzYs"}}
{"created_at": "Mon Jul 27 21:38:48 +0000 2015", "favorited": false, "id": 625782414682517504, "lang": "en", "retweeted": false, "source": "<a href=\"http://www.facebook.com/twitter\" rel=\"nofollow\">Facebook</a>", "text": "Woman saves child before dying in horrific escalator accident http://t.co/kLB0VgNQu0", "truncated": false, "urls": {"http://t.co/kLB0VgNQu0": "http://fb.me/5dw1TNYcG"}, "user": {"created_at": "Sat Mar 14 19:40:36 +0000 2009", "favourites_count": 1, "followers_count": 31, "friends_count": 171, "id": 24417801, "lang": "en", "listed_count": 1, "location": "San Francisco", "name": "Thomas", "profile_background_color": "C0DEED", "profile_background_image_url": "http://pbs.twimg.com/profile_background_images/773262810/47c2b36141425015def777c4f1d4f098.jpeg", "profile_background_tile": false, "profile_banner_url": "https://pbs.twimg.com/profile_banners/24417801/1359150231", "profile_image_url": "https://pbs.twimg.com/profile_images/3162537490/3c4f22f42075435f65440dfd9bcacf6f_normal.jpeg", "profile_link_color": "0084B4", "profile_sidebar_fill_color": "DDEEF6", "profile_text_color": "333333", "protected": false, "screen_name": "tmcrook", "statuses_count": 2293, "time_zone": "Pacific Time (US & Canada)", "utc_offset": -28800}}
{"created_at": "Mon Jul 27 22:21:54 +0000 2015", "favorited": false, "id": 625793261806989312, "lang": "en", "retweeted": false, "source": "<a href=\"http://www.facebook.com/twitter\" rel=\"nofollow\">Facebook</a>", "text": "Woman Saves Her Child Just Before Being Killed By Escalator (Video) http://t.co/tgVoDbmkC1", "truncated": false, "urls": {"http://t.co/tgVoDbmkC1": "http://fb.me/7HFtRvABS"}, "user": {"created_at": "Mon Oct 08 01:53:11 +0000 2012", "default_profile": true, "description": "Photographer and collector of Retro and Vintage Photo items...and anything else that is unique!", "favourites_count": 591, "followers_count": 1263, "friends_count": 2154, "id": 867261073, "lang": "en", "listed_count": 54, "location": "Arizona", "name": "Shutterbugshea", "profile_background_color": "C0DEED", "profile_background_image_url": "http://abs.twimg.com/images/themes/theme1/bg.png", "profile_background_tile": false, "profile_image_url": "https://pbs.twimg.com/profile_images/378800000834520052/705b4f1cb637aacc171190b7f07fcb8f_normal.jpeg", "profile_link_color": "0084B4", "profile_sidebar_fill_color": "DDEEF6", "profile_text_color": "333333", "protected": false, "screen_name": "shutterbugshea", "statuses_count": 20203, "url": "http://t.co/BwjDqGaXBT"}}
{"created_at": "Mon Jul 27 22:41:00 +0000 2015", "favorited": false, "id": 625798068374491136, "lang": "en", "retweeted": false, "source": "<a href=\"http://www.facebook.com/twitter\" rel=\"nofollow\">Facebook</a>", "text": "Woman Saves Her Child Just Before Being Killed By Escalator (Video) http://t.co/1SUEZqVxUU", "truncated": false, "urls": {"http://t.co/1SUEZqVxUU": "http://fb.me/3VUiTO3wa"}, "user": {"created_at": "Wed Mar 23 08:55:21 +0000 2011", "description": "Allegheny River Catfishing Association is full of great information,tips,tricks,how to videos and more including live streaming shows.", "favourites_count": 7, "followers_count": 784, "friends_count": 1939, "geo_enabled": true, "id": 270810341, "lang": "en", "listed_count": 13, "location": "Warren Pennsylvania", "name": "Chuck Ferraro", "profile_background_color": "709397", "profile_background_image_url": "http://pbs.twimg.com/profile_background_images/801713262/aca347a49ef95a96522c264cdf651ef5.jpeg", "profile_background_tile": true, "profile_banner_url": "https://pbs.twimg.com/profile_banners/270810341/1361974639", "profile_image_url": "https://pbs.twimg.com/profile_images/3314919817/37f578b5c71eb47836c9961fe1744695_normal.png", "profile_link_color": "FF3300", "profile_sidebar_fill_color": "A0C5C7", "profile_text_color": "333333", "protected": false, "screen_name": "wcnchuck", "statuses_count": 10075, "time_zone": "Eastern Time (US & Canada)", "url": "http://t.co/VXtKY4KkWt", "utc_offset": -18000}}
{"created_at": "Mon Jul 27 23:11:44 +0000 2015", "favorited": false, "id": 625805799038812161, "lang": "en", "retweeted": false, "source": "<a href=\"http://ifttt.com\" rel=\"nofollow\">IFTTT</a>", "text": "Watch:  Chinese Woman Saves Child Before Dying in Escalator Accident http://t.co/Hb7mEqXaTU", "truncated": false, "urls": {"http://t.co/Hb7mEqXaTU": "http://ift.tt/1I5GN3j"}, "user": {"created_at": "Thu May 07 10:37:15 +0000 2015", "followers_count": 89, "id": 3240188775, "lang": "en", "listed_count": 17, "name": "Spacefeed", "profile_background_color": "000000", "profile_background_image_url": "http://abs.twimg.com/images/themes/theme1/bg.png", "profile_background_tile": false, "profile_image_url": "https://pbs.twimg.com/profile_images/596263228935667712/irtHfa72_normal.jpg", "profile_link_color": "000000", "profile_sidebar_fill_color": "000000", "profile_text_color": "000000", "protected": false, "screen_name": "spacefeedtweets", "statuses_count": 53370}}
{"created_at": "Mon Jul 27 23:35:50 +0000 2015", "favorited": false, "id": 625811866439147520, "lang": "en", "retweeted": false, "source": "<a href=\"http://twitterfeed.com\" rel=\"nofollow\">twitterfeed</a>", "text": "Watch:  Chinese Woman Saves Child Before Dying in Escalator Accident", "truncated": false, "user": {"created_at": "Wed Aug 15 09:38:21 +0000 2012", "description": "#followback  those who follow me", "followers_count": 72, "friends_count": 236, "id": 758990485, "lang": "en", "listed_count": 2, "name": "alnovak", "profile_background_color": "131516", "profile_background_image_url": "http://abs.twimg.com/images/themes/theme14/bg.gif", "profile_background_tile": true, "profile_image_url": "https://pbs.twimg.com/profile_images/2507001859/u5unay21a515seuci88w_normal.jpeg", "profile_link_color": "009999", "profile_sidebar_fill_color": "EFEFEF", "profile_text_color": "333333", "protected": false, "screen_name": "alnovak5", "statuses_count": 36677, "time_zone": "Eastern Time (US & Canada)", "utc_offset": -18000}}
{"created_at": "Mon Jul 27 23:35:50 +0000 2015", "favorited": false, "id": 625811866489466880, "lang": "en", "retweeted": false, "source": "<a href=\"http://twitterfeed.com\" rel=\"nofollow\">twitterfeed</a>", "text": "^~^ Watch:  Chinese Woman Saves Child Before Dying in Escalator Accident  |", "truncated": false, "user": {"created_at": "Sat Oct 27 14:13:12 +0000 2012", "default_profile": true, "description": "News Feed Aggregator", "followers_count": 148, "id": 908203585, "lang": "en", "listed_count": 42, "name": "NewsFeedJson", "profile_background_color": "C0DEED", "profile_background_image_url": "http://abs.twimg.com/images/themes/theme1/bg.png", "profile_background_tile": false, "profile_image_url": "https://pbs.twimg.com/profile_images/2771122102/dc7c3a529f92383bb44b0799f9ba4273_normal.jpeg", "profile_link_color": "0084B4", "profile_sidebar_fill_color": "DDEEF6", "profile_text_color": "333333", "protected": false, "screen_name": "NewsFeedJson", "statuses_count": 339118, "time_zone": "International Date Line West", "utc_offset": -39600}}
{"created_at": "Mon Jul 27 23:35:52 +0000 2015", "favorited": false, "hashtags": ["abckiek"], "id": 625811872952946688, "lang": "en", "retweeted": false, "source": "<a href=\"http://twitterfeed.com\" rel=\"nofollow\">twitterfeed</a>", "text": "A woman was sucked into an escalator shaft when a crate at the top came loose. http://t.co/DO6T6nZTdg #abckiek", "truncated": false, "urls": {"http://t.co/DO6T6nZTdg": "http://abcn.ws/1S9Mjfx"}, "user": {"created_at": "Sat Apr 21 00:57:47 +0000 2012", "default_profile": true, "description": "Mulai detik ini menit ini hari ini rasa sayang saya tak akan pernah hilang untukmu", "followers_count": 371, "friends_count": 8, "geo_enabled": true, "id": 559074553, "lang": "id", "listed_count": 36, "name": "Maktratap", "profile_background_color": "C0DEED", "profile_background_image_url": "http://abs.twimg.com/images/themes/theme1/bg.png", "profile_background_tile": false, "profile_image_url": "https://pbs.twimg.com/profile_images/498396771744116740/_-_6Bftg_normal.jpeg", "profile_link_color": "0084B4", "profile_sidebar_fill_color": "DDEEF6", "profile_text_color": "333333", "protected": false, "screen_name": "Maktratap", "statuses_count": 303312, "time_zone": "Bangkok", "utc_offset": 25200}}
{"created_at": "Mon Jul 27 23:36:05 +0000 2015", "favorited": false, "id": 625811928867282944, "lang": "en", "retweeted": false, "source": "<a href=\"http://www.facebook.com/twitter\" rel=\"nofollow\">Facebook</a>", "text": "Woman Saves Her Child Just Before Being Killed By Escalator (Video) http://t.co/kekb1O8dYU", "truncated": false, "urls": {"http://t.co/kekb1O8dYU": "http://fb.me/3Ue2lJLDs"}, "user": {"created_at": "Fri May 15 23:55:54 +0000 2009", "favourites_count": 3, "followers_count": 386, "friends_count": 693, "id": 40365255, "lang": "en", "listed_count": 12, "location": "JacksonvilleFlorida", "name": "Monica", "profile_background_color": "9AE4E8", "profile_background_image_url": "http://pbs.twimg.com/profile_background_images/40280433/LadyMPope_1253999760.jpg", "profile_background_tile": false, "profile_image_url": "https://pbs.twimg.com/profile_images/390232712/Image-71A4275E799511DA_1__normal.jpg", "profile_link_color": "C7083E", "profile_sidebar_fill_color": "DDFFCC", "profile_text_color": "333333", "protected": false, "screen_name": "LadyMPope", "statuses_count": 18050, "time_zone": "Eastern Time (US & Canada)", "url": "http://t.co/mtiK8QbmCq", "utc_offset": -18000}}
{"created_at": "Mon Jul 27 23:36:55 +0000 2015", "favorited": false, "id": 625812137223434240, "lang": "en", "retweeted": false, "source": "<a href=\"http://twitterfeed.com\" rel=\"nofollow\">twitterfeed</a>", "text": "Watch:  Chinese Woman Saves Child Before Dying in Escalator Accident http://t.co/gbqeq7xIP4 via @ABC", "truncated": false, "urls": {"http://t.co/gbqeq7xIP4": "http://abcn.ws/1S9Mjfx"}, "user": {"created_at": "Wed May 27 18:05:08 +0000 2015", "followers_count": 81, "friends_count": 3, "id": 3300653637, "lang": "en", "listed_count": 36, "name": "World Affairs", "profile_background_color": "131516", "profile_background_image_url": "http://abs.twimg.com/images/themes/theme14/bg.gif", "profile_background_tile": true, "profile_banner_url": "https://pbs.twimg.com/profile_banners/3300653637/1432750520", "profile_image_url": "https://pbs.twimg.com/profile_images/603680172139671552/J7xbkHSJ_normal.jpg", "profile_link_color": "009999", "profile_sidebar_fill_color": "EFEFEF", "profile_text_color": "333333", "protected": false, "screen_name": "theworldaffair", "statuses_count": 77339, "url": "https://t.co/CDa3KSXqi7"}, "user_mentions": [{"id": 28785486, "name": "ABC News", "screen_name": "ABC"}]}
{"created_at": "Tue Jul 28 01:09:59 +0000 2015", "favorited": false, "id": 625835557516480512, "lang": "en", "retweeted": false, "source": "<a href=\"http://twitterfeed.com\" rel=\"nofollow\">twitterfeed</a>", "text": "Watch:  Chinese Woman Saves Child Before Dying in Escalator Accident http://t.co/j6haZqJ77b", "truncated": false, "urls": {"http://t.co/j6haZqJ77b": "http://abcn.ws/1S9Mjfx"}, "user": {"created_at": "Fri Sep 27 13:04:03 +0000 2013", "description": "Get the latest  #international news, features and analysis from top #world #News channels like @BBC @CNN,@sky,@fox news etc.", "favourites_count": 27, "followers_count": 674, "friends_count": 8, "geo_enabled": true, "id": 1911089510, "lang": "en", "listed_count": 98, "location": "worldwide", "name": "Top World News", "profile_background_color": "0099B9", "profile_background_image_url": "http://abs.twimg.com/images/themes/theme4/bg.gif", "profile_background_tile": false, "profile_banner_url": "https://pbs.twimg.com/profile_banners/1911089510/1380353612", "profile_image_url": "https://pbs.twimg.com/profile_images/378800000518021500/bc006474928cdbdb5539acdead3a9826_normal.png", "profile_link_color": "0099B9", "profile_sidebar_fill_color": "95E8EC", "profile_text_color": "3C3940", "protected": false, "screen_name": "TopNewsA1", "statuses_count": 295471, "time_zone": "Islamabad", "utc_offset": 18000}}
{"created_at": "Tue Jul 28 01:31:19 +0000 2015", "favorited": false, "id": 625840927836401665, "lang": "en", "retweeted": false, "source": "<a href=\"http://www.hootsuite.com\" rel=\"nofollow\">Hootsuite</a>", "text": "RT @shanghaiist: Woman saves child before dying in horrific escalator accident http://t.co/wizMfQ13Gx", "truncated": false, "urls": {"http://t.co/wizMfQ13Gx": "http://fb.me/3nlb2loem"}, "user": {"created_at": "Wed Sep 23 02:07:47 +0000 2009", "description": "Scanning the internet for China news so you don't have to!", "favourites_count": 1590, "followers_count": 723, "friends_count": 193, "id": 76528558, "lang": "en", "listed_count": 47, "location": "Inside the Wall", "name": "ZGBriefs", "profile_background_color": "022330", "profile_background_image_url": "http://abs.twimg.com/images/themes/theme15/bg.png", "profile_background_tile": false, "profile_banner_url": "https://pbs.twimg.com/profile_banners/76528558/1400972160", "profile_image_url": "https://pbs.twimg.com/profile_images/479334162/DSC_0179Copy__Small__normal.jpg", "profile_link_color": "0084B4", "profile_sidebar_fill_color": "C0DFEC", "profile_text_color": "333333", "protected": false, "screen_name": "ZG_Briefs", "statuses_count": 13089, "time_zone": "Central Time (US & Canada)", "utc_offset": -21600}, "user_mentions": [{"id": 3203731, "name": "Shanghaiist.com", "screen_name": "shanghaiist"}]}
{"created_at": "Tue Jul 28 03:23:09 +0000 2015", "favorited": false, "id": 625869073918894080, "lang": "en", "retweeted": false, "source": "<a href=\"http://www.facebook.com/twitter\" rel=\"nofollow\">Facebook</a>", "text": "Woman Saves Her Child Just Before Being Killed By Escalator (Video) http://t.co/OQDv81EMI8", "truncated": false, "urls": {"http://t.co/OQDv81EMI8": "http://fb.me/4ZHPR6ITg"}, "user": {"created_at": "Sat Oct 22 00:37:33 +0000 2011", "description": "PW photography is a fashion and art photography company focusing on bringing full figured and plus sized models to the forefront of the fashion industry", "favourites_count": 1779, "followers_count": 461, "friends_count": 735, "geo_enabled": true, "id": 395641419, "lang": "en", "listed_count": 19, "location": "Nashville,TN", "name": "Patrick Webster", "profile_background_color": "C0DEED", "profile_background_image_url": "http://pbs.twimg.com/profile_background_images/350654179/pw.jpg", "profile_background_tile": true, "profile_banner_url": "https://pbs.twimg.com/profile_banners/395641419/1364216657", "profile_image_url": "https://pbs.twimg.com/profile_images/611722574288924672/l42e8c6q_normal.jpg", "profile_link_color": "4A913C", "profile_sidebar_fill_color": "DDEEF6", "profile_text_color": "333333", "protected": false, "screen_name": "PwebsterPhotos", "statuses_count": 55329, "time_zone": "Central Time (US & Canada)", "url": "http://t.co/NuNwf3vVG3", "utc_offset": -21600}}
{"created_at": "Tue Jul 28 03:40:25 +0000 2015", "favorited": false, "id": 625873418827661317, "lang": "en", "retweeted": false, "source": "<a href=\"http://mobile.twitter.com\" rel=\"nofollow\">Mobile Web</a>", "text": "Woman saves child before dying in horrific escalator accident http://t.co/tKAJ0lMl8p", "truncated": false, "urls": {"http://t.co/tKAJ0lMl8p": "http://shanghaiist.com/2015/07/27/woman-saves-child-before-dying-horrific-escalator-accident.php"}, "user": {"created_at": "Mon Oct 26 02:27:06 +0000 2009", "description": "Award-winning photojournalist in #Jeju Island,  South #Korea who loves #photography #travel #food #movies and the Vancouver #Canucks", "favourites_count": 381, "followers_count": 5662, "friends_count": 3787, "geo_enabled": true, "id": 85218923, "lang": "en", "listed_count": 147, "location": "Jeju Island, South Korea", "name": "Douglas MacDonald", "profile_background_color": "000000", "profile_background_image_url": "http://abs.twimg.com/images/themes/theme14/bg.gif", "profile_background_tile": false, "profile_banner_url": "https://pbs.twimg.com/profile_banners/85218923/1411209176", "profile_image_url": "https://pbs.twimg.com/profile_images/513281051095875584/iNyuCh19_normal.jpeg", "profile_link_color": "3B94D9", "profile_sidebar_fill_color": "000000", "profile_text_color": "000000", "protected": false, "screen_name": "dmac5dmark2", "statuses_count": 18440, "time_zone": "Seoul", "url": "https://t.co/7n77kvYrc1", "utc_offset": 32400}}
{"created_at": "Tue Jul 28 04:14:58 +0000 2015", "favorited": false, "id": 625882113468964864, "lang": "en", "retweeted": false, "source": "<a href=\"http://www.facebook.com/twitter\" rel=\"nofollow\">Facebook</a>", "text": "Woman Saves Her Child Just Before Being Killed By Escalator (Video) http://t.co/Tu1CEhwtrj", "truncated": false, "urls": {"http://t.co/Tu1CEhwtrj": "http://fb.me/4O4ll9TMD"}, "user": {"created_at": "Thu Dec 16 15:50:28 +0000 2010", "default_profile": true, "default_profile_image": true, "followers_count": 6, "friends_count": 1, "id": 227341266, "lang": "en", "name": "julia cooper", "profile_background_color": "C0DEED", "profile_background_image_url": "http://abs.twimg.com/images/themes/theme1/bg.png", "profile_background_tile": false, "profile_image_url": "https://abs.twimg.com/sticky/default_profile_images/default_profile_5_normal.png", "profile_link_color": "0084B4", "profile_sidebar_fill_color": "DDEEF6", "profile_text_color": "333333", "protected": false, "screen_name": "jewls7969", "statuses_count": 14199}}
{"created_at": "Tue Jul 28 07:28:04 +0000 2015", "favorited": false, "id": 625930707743805441, "lang": "en", "retweeted": false, "source": "<a href=\"http://twitterfeed.com\" rel=\"nofollow\">twitterfeed</a>", "text": "Woman saves child before dying in horrific escalator accident - India Today: India TodayWoman saves child befo... http://t.co/z4l0JCJekI", "truncated": false, "urls": {"http://t.co/z4l0JCJekI": "http://ywzr.a.boysofts.com/63ZY"}, "user": {"created_at": "Sun Aug 25 21:29:07 +0000 2013", "default_profile": true, "description": "Get all the latest updates on #world #news here", "favourites_count": 2, "followers_count": 667, "friends_count": 195, "id": 1700243311, "lang": "en", "listed_count": 158, "name": "World news", "profile_background_color": "C0DEED", "profile_background_image_url": "http://abs.twimg.com/images/themes/theme1/bg.png", "profile_background_tile": false, "profile_image_url": "https://pbs.twimg.com/profile_images/378800000360213770/2be82ece5c4be88ee4aff3c47462cd10_normal.jpeg", "profile_link_color": "0084B4", "profile_sidebar_fill_color": "DDEEF6", "profile_text_color": "333333", "protected": false, "screen_name": "news_worldnews", "statuses_count": 261350, "time_zone": "Baghdad", "utc_offset": 10800}}
{"created_at": "Tue Jul 28 07:29:39 +0000 2015", "favorited": false, "id": 625931104357253120, "lang": "en", "retweeted": false, "source": "<a href=\"http://publicize.wp.com/\" rel=\"nofollow\">WordPress.com</a>", "text": "Watch:  Chinese Woman Saves Child Before Dying in Escalator\u00a0Accident http://t.co/IKbdwdIDfB", "truncated": false, "urls": {"http://t.co/IKbdwdIDfB": "http://www.omahasuntimes.com/top-videos/2015/07/watch-chinese-woman-saves-child-before-dying-in-escalator-accident/"}, "user": {"created_at": "Mon Mar 10 22:24:32 +0000 2014", "followers_count": 222, "friends_count": 148, "id": 2382758682, "lang": "en", "listed_count": 61, "location": "Omaha, NE", "name": "Omaha Sun Times", "profile_background_color": "131516", "profile_background_image_url": "http://abs.twimg.com/images/themes/theme14/bg.gif", "profile_background_tile": true, "profile_banner_url": "https://pbs.twimg.com/profile_banners/2382758682/1401471834", "profile_image_url": "https://pbs.twimg.com/profile_images/443151996854341634/jVlNsf4F_normal.png", "profile_link_color": "009999", "profile_sidebar_fill_color": "EFEFEF", "profile_text_color": "333333", "protected": false, "screen_name": "OmahaSunTimes", "statuses_count": 215626, "time_zone": "Central Time (US & Canada)", "url": "http://t.co/rRbePweuGN", "utc_offset": -21600}}
{"created_at": "Tue Jul 28 07:38:45 +0000 2015", "favorited": false, "hashtags": ["MP"], "id": 625933394002599936, "lang": "en", "retweeted": false, "source": "<a href=\"http://twitterfeed.com\" rel=\"nofollow\">twitterfeed</a>", "text": "#MP Woman saves child before dying in horrific escalator accident via India Today http://t.co/BjBpPAaCrI", "truncated": false, "urls": {"http://t.co/BjBpPAaCrI": "http://go.link.io/1GXbA0H"}, "user": {"created_at": "Sun Aug 14 11:02:29 +0000 2011", "description": "An automatic twitter tabloid that collects, organises and shares trending headlines from across the net. Check out the other editions. Built by @WINKredible", "followers_count": 482, "friends_count": 84, "id": 354827905, "lang": "en", "listed_count": 27, "location": "Twitter", "name": "MinutePost - World", "profile_background_color": "FFFFFF", "profile_background_image_url": "http://pbs.twimg.com/profile_background_images/417389896/minute_post_bg.png", "profile_background_tile": false, "profile_image_url": "https://pbs.twimg.com/profile_images/1806331170/minute_post_normal.png", "profile_link_color": "E83650", "profile_sidebar_fill_color": "F7F7F7", "profile_text_color": "000000", "protected": false, "screen_name": "MinutePost", "statuses_count": 120453, "time_zone": "Hawaii", "url": "http://t.co/vvhB7mgd1z", "utc_offset": -36000}}
{"created_at": "Tue Jul 28 07:42:01 +0000 2015", "favorited": false, "id": 625934219282382848, "lang": "en", "retweeted": false, "source": "<a href=\"http://www.twitter.com\" rel=\"nofollow\">Twitter for BlackBerry</a>", "text": "Woman saves child before dying in horrific escalator accident in China:  http://t.co/IoY0bq9LO0", "truncated": false, "urls": {"http://t.co/IoY0bq9LO0": "http://m.indiatoday.in/story/woman-saves-child-women-dead-in-escalator-china/1/454561.html"}, "user": {"created_at": "Tue Sep 03 14:56:32 +0000 2013", "description": "An Affinity for Poetry, Shakespeare, Africa, Global Politics, Books, Travel, Wildlife, Cats, Koalas & Quaint Cafe's. 'Tweets are not seriously intended not'", "favourites_count": 3253, "followers_count": 762, "friends_count": 2077, "id": 1725724380, "lang": "en", "listed_count": 26, "location": "Kenya", "name": "Rti Tanna", "profile_background_color": "1A1B1F", "profile_background_image_url": "http://pbs.twimg.com/profile_background_images/378800000086196195/8a019550604e50e71a24e027279c4b41.jpeg", "profile_background_tile": true, "profile_banner_url": "https://pbs.twimg.com/profile_banners/1725724380/1400748120", "profile_image_url": "https://pbs.twimg.com/profile_images/678955007413248000/36_zHucb_normal.jpg", "profile_link_color": "33CCFF", "profile_sidebar_fill_color": "252429", "profile_text_color": "666666", "protected": false, "screen_name": "ArtyMartini", "statuses_count": 10044, "time_zone": "Nairobi", "utc_offset": 10800}}
{"created_at": "Tue Jul 28 07:42:35 +0000 2015", "favorited": false, "id": 625934362417102848, "lang": "en", "retweeted": false, "source": "<a href=\"http://dlvr.it\" rel=\"nofollow\">dlvr.it</a>", "text": "Woman saves child before dying in horrific escalator accident - India Today http://t.co/KdQEWtyFAM", "truncated": false, "urls": {"http://t.co/KdQEWtyFAM": "http://goo.gl/OjS0UI"}, "user": {"created_at": "Mon May 27 18:48:49 +0000 2013", "description": "Trust me, I'm not a #Nerd #MakeMoneyOnline #FreeCashGenerator #WorkFromHome #OnlineBusiness", "followers_count": 684, "friends_count": 196, "id": 1462847136, "lang": "en", "listed_count": 39, "location": "CLICK HERE --", "name": "\u25bc Eric James \u25bc", "profile_background_color": "131516", "profile_background_image_url": "http://abs.twimg.com/images/themes/theme14/bg.gif", "profile_background_tile": true, "profile_banner_url": "https://pbs.twimg.com/profile_banners/1462847136/1371143910", "profile_image_url": "https://pbs.twimg.com/profile_images/378800000129053526/9c6380adfbb188eca221f89e80e3d8a7_normal.jpeg", "profile_link_color": "009999", "profile_sidebar_fill_color": "EFEFEF", "profile_text_color": "333333", "protected": false, "screen_name": "iamericjames", "statuses_count": 177955, "time_zone": "Beijing", "url": "http://t.co/8mu81czcCz", "utc_offset": 28800}}
{"created_at": "Tue Jul 28 07:42:48 +0000 2015", "favorited": false, "id": 625934413822496768, "lang": "en", "retweeted": false, "source": "<a href=\"http://twitterfeed.com\" rel=\"nofollow\">twitterfeed</a>", "text": "Woman saves child before dying in horrific escalator accident - India Today http://t.co/PxHWs9DyUu", "truncated": false, "urls": {"http://t.co/PxHWs9DyUu": "http://bit.ly/1gimc5k"}, "user": {"created_at": "Thu Nov 27 20:01:46 +0000 2008", "description": "We gather breaking news posted directly to Twitter from around the World.", "followers_count": 647, "friends_count": 2, "id": 17687202, "lang": "en", "listed_count": 46, "location": "Planet Earth", "name": "Newsline", "profile_background_color": "013161", "profile_background_image_url": "http://pbs.twimg.com/profile_background_images/3461924/twitter-newsline-bg.gif", "profile_background_tile": false, "profile_image_url": "https://pbs.twimg.com/profile_images/65684790/newsline-logo_normal.png", "profile_link_color": "0084B4", "profile_sidebar_fill_color": "FFFFFF", "profile_text_color": "333333", "protected": false, "screen_name": "newsline", "statuses_count": 288233, "time_zone": "Pacific Time (US & Canada)", "url": "http://t.co/BcjbTFDe8w", "utc_offset": -28800}}
{"created_at": "Tue Jul 28 07:42:50 +0000 2015", "favorited": false, "id": 625934425147092993, "lang": "en", "retweeted": false, "source": "<a href=\"http://twitterfeed.com\" rel=\"nofollow\">twitterfeed</a>", "text": "Woman saves child before dying in horrific escalator accident - India Today: India TodayWoman saves child befo... http://t.co/CmhwDumuay", "truncated": false, "urls": {"http://t.co/CmhwDumuay": "http://bit.ly/1gimeKk"}, "user": {"created_at": "Fri May 10 16:45:14 +0000 2013", "default_profile": true, "description": "HAPPY WITH FRIEND", "followers_count": 682, "friends_count": 1328, "id": 1418539350, "lang": "zh-cn", "listed_count": 27, "location": "USA", "name": "Aaron", "profile_background_color": "C0DEED", "profile_background_image_url": "http://abs.twimg.com/images/themes/theme1/bg.png", "profile_background_tile": false, "profile_banner_url": "https://pbs.twimg.com/profile_banners/1418539350/1368204576", "profile_image_url": "https://pbs.twimg.com/profile_images/3640689532/9e4fd54bcb18935819b0f5ca69d57c28_normal.jpeg", "profile_link_color": "0084B4", "profile_sidebar_fill_color": "DDEEF6", "profile_text_color": "333333", "protected": false, "screen_name": "Aaron_meet", "statuses_count": 49446}}
{"created_at": "Tue Jul 28 07:42:53 +0000 2015", "favorited": false, "id": 625934434970107904, "lang": "en", "retweeted": false, "source": "<a href=\"http://twitterfeed.com\" rel=\"nofollow\">twitterfeed</a>", "text": "Woman saves child before dying in horrific escalator accident - India Today: India TodayWoman saves child befo... http://t.co/abj8Yb8Dx7", "truncated": false, "urls": {"http://t.co/abj8Yb8Dx7": "http://bit.ly/1gimeKk"}, "user": {"created_at": "Sat May 18 06:36:21 +0000 2013", "default_profile": true, "description": "i need him like i need the air to breathe.", "followers_count": 511, "friends_count": 566, "id": 1437586886, "lang": "zh-cn", "listed_count": 19, "location": "spain", "name": "candice", "profile_background_color": "C0DEED", "profile_background_image_url": "http://abs.twimg.com/images/themes/theme1/bg.png", "profile_background_tile": false, "profile_image_url": "https://pbs.twimg.com/profile_images/3675239403/11ed51dd5aa6dfd1b869f58800b98cef_normal.jpeg", "profile_link_color": "0084B4", "profile_sidebar_fill_color": "DDEEF6", "profile_text_color": "333333", "protected": false, "screen_name": "Candice_js", "statuses_count": 55089}}
{"created_at": "Tue Jul 28 07:42:55 +0000 2015", "favorited": false, "id": 625934444436701184, "lang": "en", "possibly_sensitive": true, "retweeted": false, "source": "<a href=\"http://twitterfeed.com\" rel=\"nofollow\">twitterfeed</a>", "text": "Woman saves child before dying in horrific escalator accident - India Today: India TodayWoman saves child befo... http://t.co/kbjUtkaUhN", "truncated": false, "urls": {"http://t.co/kbjUtkaUhN": "http://bit.ly/1gimeKk"}, "user": {"created_at": "Sat May 11 02:40:23 +0000 2013", "default_profile": true, "description": "Adhere to the patient", "favourites_count": 2, "followers_count": 737, "friends_count": 1156, "id": 1419575868, "lang": "en", "listed_count": 10, "location": "Philippines", "name": "siberia", "profile_background_color": "C0DEED", "profile_background_image_url": "http://abs.twimg.com/images/themes/theme1/bg.png", "profile_background_tile": false, "profile_banner_url": "https://pbs.twimg.com/profile_banners/1419575868/1368240180", "profile_image_url": "https://pbs.twimg.com/profile_images/3642440617/e774c5d5512c3455638377a77758a115_normal.jpeg", "profile_link_color": "0084B4", "profile_sidebar_fill_color": "DDEEF6", "profile_text_color": "333333", "protected": false, "screen_name": "wolf_siberia", "statuses_count": 28649, "time_zone": "Kolkata", "utc_offset": 19800}}
{"created_at": "Tue Jul 28 07:42:57 +0000 2015", "favorited": false, "id": 625934453827743744, "lang": "en", "retweeted": false, "source": "<a href=\"http://twitterfeed.com\" rel=\"nofollow\">twitterfeed</a>", "text": "Woman saves child before dying in horrific escalator accident - India Today: India TodayWoman saves child befo... http://t.co/115sUQSMD4", "truncated": false, "urls": {"http://t.co/115sUQSMD4": "http://bit.ly/1gimeKk"}, "user": {"created_at": "Fri Apr 26 23:42:42 +0000 2013", "default_profile": true, "description": "Understanding the forefront \r\nOration touch with the world", "followers_count": 835, "friends_count": 1457, "id": 1383127777, "lang": "zh-cn", "listed_count": 17, "location": "china", "name": "news", "profile_background_color": "C0DEED", "profile_background_image_url": "http://abs.twimg.com/images/themes/theme1/bg.png", "profile_background_tile": false, "profile_banner_url": "https://pbs.twimg.com/profile_banners/1383127777/1367020477", "profile_image_url": "https://pbs.twimg.com/profile_images/3578838343/ad271e5191327ae4637e5f33b55dd993_normal.jpeg", "profile_link_color": "0084B4", "profile_sidebar_fill_color": "DDEEF6", "profile_text_color": "333333", "protected": false, "screen_name": "newest11news", "statuses_count": 39526}}
{"created_at": "Tue Jul 28 07:44:32 +0000 2015", "favorited": false, "id": 625934850621616128, "lang": "en", "retweet_count": 1, "retweeted": false, "source": "<a href=\"http://twitter.com\" rel=\"nofollow\">Twitter Web Client</a>", "text": "Woman saves child before dying in horrific escalator accident http://t.co/nYYWKzC0Aa :(", "truncated": false, "urls": {"http://t.co/nYYWKzC0Aa": "http://indiatoday.intoday.in/story/woman-saves-child-women-dead-in-escalator-china/1/454561.html"}, "user": {"created_at": "Wed Feb 04 21:41:36 +0000 2009", "description": "Passionate about Middle East, Iran, (geo) politics, human rights, environment and also love the beauty of life, avid amateur-photographer @iforanimals", "favourites_count": 2601, "followers_count": 8356, "friends_count": 1809, "id": 20097381, "lang": "en", "listed_count": 565, "location": "Around ", "name": "sara karimi", "profile_background_color": "2F641A", "profile_background_image_url": "http://pbs.twimg.com/profile_background_images/283861988/twitter_4_iran.jpg", "profile_background_tile": false, "profile_banner_url": "https://pbs.twimg.com/profile_banners/20097381/1449528617", "profile_image_url": "https://pbs.twimg.com/profile_images/539070228752527360/Z_FkPvD-_normal.jpeg", "profile_link_color": "54B32B", "profile_sidebar_fill_color": "167318", "profile_text_color": "000000", "protected": false, "screen_name": "sara_HR4All", "statuses_count": 224542, "time_zone": "International Date Line West", "utc_offset": -39600}}
{"created_at": "Tue Jul 28 07:54:16 +0000 2015", "favorited": false, "id": 625937302598987777, "lang": "en", "retweeted": false, "source": "<a href=\"http://publicize.wp.com/\" rel=\"nofollow\">WordPress.com</a>", "text": "Watch: Chinese Woman Saves Child Before Dying in Escalator\u00a0Accident http://t.co/FraBxOJ9g0", "truncated": false, "urls": {"http://t.co/FraBxOJ9g0": "http://iamdigitalent.com/2015/07/28/watch-chinese-woman-saves-child-before-dying-in-escalator-accident"}, "user": {"created_at": "Sun Jun 24 04:43:33 +0000 2012", "description": "http://t.co/rPohqtjaPB", "favourites_count": 14, "followers_count": 1657, "friends_count": 399, "geo_enabled": true, "id": 616851006, "lang": "en", "listed_count": 328, "location": "iamdigitalent.com", "name": "#IAMDIGITAL", "profile_background_color": "000000", "profile_background_image_url": "http://abs.twimg.com/images/themes/theme1/bg.png", "profile_background_tile": true, "profile_banner_url": "https://pbs.twimg.com/profile_banners/616851006/1434891276", "profile_image_url": "https://pbs.twimg.com/profile_images/618182292893237248/WYPUs8GA_normal.jpg", "profile_link_color": "B30000", "profile_sidebar_fill_color": "DDEEF6", "profile_text_color": "333333", "protected": false, "screen_name": "IAMDIGITALENT", "statuses_count": 798188, "url": "http://t.co/tzElsWpWF7"}}
{"created_at": "Tue Jul 28 08:00:18 +0000 2015", "favorited": false, "id": 625938817065873409, "lang": "en", "retweeted": false, "source": "<a href=\"http://ifttt.com\" rel=\"nofollow\">IFTTT</a>", "text": "Watch:  Chinese Woman Saves Child Before Dying in Escalator Accident http://t.co/7reVOr5lnj", "truncated": false, "urls": {"http://t.co/7reVOr5lnj": "http://ift.tt/1I5GN3j"}, "user": {"created_at": "Sun Jun 24 04:43:33 +0000 2012", "description": "http://t.co/rPohqtjaPB", "favourites_count": 14, "followers_count": 1657, "friends_count": 399, "geo_enabled": true, "id": 616851006, "lang": "en", "listed_count": 328, "location": "iamdigitalent.com", "name": "#IAMDIGITAL", "profile_background_color": "000000", "profile_background_image_url": "http://abs.twimg.com/images/themes/theme1/bg.png", "profile_background_tile": true, "profile_banner_url": "https://pbs.twimg.com/profile_banners/616851006/1434891276", "profile_image_url": "https://pbs.twimg.com/profile_images/618182292893237248/WYPUs8GA_normal.jpg", "profile_link_color": "B30000", "profile_sidebar_fill_color": "DDEEF6", "profile_text_color": "333333", "protected": false, "screen_name": "IAMDIGITALENT", "statuses_count": 798188, "url": "http://t.co/tzElsWpWF7"}}
{"created_at": "Tue Jul 28 08:09:24 +0000 2015", "favorited": false, "hashtags": ["International"], "id": 625941110410481664, "lang": "en", "media": [{"display_url": "pic.twitter.com/t3C78NjfjX", "expanded_url": "http://twitter.com/rkeyserling/status/625941110410481664/photo/1", "id": 625941110343385088, "id_str": "625941110343385088", "indices": [106, 128], "media_url": "http://pbs.twimg.com/media/CK_KH5xUwAASOyg.jpg", "media_url_https": "https://pbs.twimg.com/media/CK_KH5xUwAASOyg.jpg", "sizes": {"large": {"h": 558, "resize": "fit", "w": 992}, "medium": {"h": 337, "resize": "fit", "w": 600}, "small": {"h": 191, "resize": "fit", "w": 340}, "thumb": {"h": 150, "resize": "crop", "w": 150}}, "type": "photo", "url": "http://t.co/t3C78NjfjX"}], "retweeted": false, "source": "<a href=\"http://dlvr.it\" rel=\"nofollow\">dlvr.it</a>", "text": "Watch: Chinese Woman Saves Child Before Dying in Escalator Accident http://t.co/Nftmkz9QoX #International http://t.co/t3C78NjfjX", "truncated": false, "urls": {"http://t.co/Nftmkz9QoX": "http://dlvr.it/Bg5Mps"}, "user": {"created_at": "Tue Jun 26 05:24:59 +0000 2012", "description": "eBay anchor store owner of Keywebco A to Z items all included buy 3 save 10% buy 5 Save 15% all free shipping USA and GSP Worldwide", "favourites_count": 650, "followers_count": 13120, "friends_count": 9326, "id": 618840573, "lang": "en", "listed_count": 1819, "location": "missouri USA", "name": "roger keyserling", "profile_background_color": "000000", "profile_background_image_url": "http://abs.twimg.com/images/themes/theme1/bg.png", "profile_background_tile": false, "profile_banner_url": "https://pbs.twimg.com/profile_banners/618840573/1450082061", "profile_image_url": "https://pbs.twimg.com/profile_images/674762269226438656/SFPZrWLt_normal.jpg", "profile_link_color": "4A913C", "profile_sidebar_fill_color": "000000", "profile_text_color": "000000", "protected": false, "screen_name": "rkeyserling", "statuses_count": 168088, "time_zone": "Central Time (US & Canada)", "url": "https://t.co/T5oPgKX7am", "utc_offset": -21600}}
{"created_at": "Tue Jul 28 09:41:48 +0000 2015", "favorited": false, "hashtags": ["India", "Women", "IndiaWomen", "News"], "id": 625964362704928769, "lang": "en", "retweeted": false, "source": "<a href=\"http://twitterfeed.com\" rel=\"nofollow\">twitterfeed</a>", "text": "#India #Women Woman saves child before dying in horrific escalator accident : World, News - ... http://t.co/5R7aAAOQvo #IndiaWomen #News", "truncated": false, "urls": {"http://t.co/5R7aAAOQvo": "http://bit.ly/1h23KOc"}, "user": {"created_at": "Thu Jul 02 02:24:14 +0000 2015", "description": "#Women #News Worldwide #Feminism #LikeAGirl #LGBT #Islamophobia #DomesticViolence #UniteBlue #AnimalRights #Gunsense Powered by @AnimalRightsJen", "favourites_count": 1136, "followers_count": 16566, "friends_count": 8967, "id": 3265559538, "lang": "en", "listed_count": 920, "location": "New Jersey, USA", "name": "Women's News", "profile_background_color": "000000", "profile_background_image_url": "http://abs.twimg.com/images/themes/theme1/bg.png", "profile_background_tile": false, "profile_banner_url": "https://pbs.twimg.com/profile_banners/3265559538/1436067279", "profile_image_url": "https://pbs.twimg.com/profile_images/618300291260137472/4Lpu_agg_normal.png", "profile_link_color": "4A913C", "profile_sidebar_fill_color": "000000", "profile_text_color": "000000", "protected": false, "screen_name": "WomenWorldNews1", "statuses_count": 476166, "time_zone": "America/New_York", "utc_offset": -18000}}
{"created_at": "Tue Jul 28 13:16:07 +0000 2015", "favorited": false, "hashtags": ["IndiaVideos", "Yeh_Nahi_Dekha"], "id": 626018298778550272, "lang": "en", "retweeted": false, "source": "<a href=\"http://ifttt.com\" rel=\"nofollow\">IFTTT</a>", "text": "Woman saves child before dying in escalator accident http://t.co/j0CxVYyo5x #IndiaVideos #Yeh_Nahi_Dekha", "truncated": false, "urls": {"http://t.co/j0CxVYyo5x": "http://ift.tt/1D8xbIq"}, "user": {"created_at": "Tue May 20 19:38:28 +0000 2014", "description": "Get the latest #funny \u2600Videos \u2600 Photos \u2600News \u2600Music. Join @Yeh_Nahi_Dekha for the updates. Everything is here - agar aapne #yehnahidekhatohphirkyadekha", "favourites_count": 71, "followers_count": 752, "friends_count": 1544, "id": 2511280609, "lang": "en", "listed_count": 16, "location": "New Delhi, India", "name": "\u092f\u0939 \u0928\u0939\u0940\u0902  \u0926\u0947\u0916\u093e!", "profile_background_color": "000000", "profile_background_image_url": "http://abs.twimg.com/images/themes/theme1/bg.png", "profile_background_tile": false, "profile_banner_url": "https://pbs.twimg.com/profile_banners/2511280609/1400798742", "profile_image_url": "https://pbs.twimg.com/profile_images/469609940798029824/Gbcr7_ju_normal.jpeg", "profile_link_color": "F78A05", "profile_sidebar_fill_color": "000000", "profile_text_color": "000000", "protected": false, "screen_name": "Yeh_Nahi_Dekha", "statuses_count": 23973, "url": "http://t.co/tBfGEidITQ"}}
{"created_at": "Tue Jul 28 14:20:36 +0000 2015", "favorited": false, "id": 626034524074438656, "lang": "en", "retweeted": false, "source": "<a href=\"http://www.apple.com\" rel=\"nofollow\">iOS</a>", "text": "Watch Chinese Woman Saves Child Before Dying in Escalator Accident via @OnFrequency  http://t.co/VSuZTzTh0h", "truncated": false, "urls": {"http://t.co/VSuZTzTh0h": "http://www.frequency.com/video/chinese-woman-saves-child-before-dying/239994360?cid=4-1287506"}, "user": {"created_at": "Mon Dec 30 14:20:02 +0000 2013", "description": "Free your mind! #Nofear #NoRegrets #evolve #openmind #geek #republic #USNavyVet #freedom #Jediism #StarWars #AllLivesMatter #SciFi #LiveLongAndProsper \u3299\ufe0f #WGU", "favourites_count": 94, "followers_count": 942, "friends_count": 1074, "id": 2268929852, "lang": "en", "listed_count": 21, "location": "Washington, DC", "name": "Jedi", "profile_background_color": "000000", "profile_background_image_url": "http://abs.twimg.com/images/themes/theme15/bg.png", "profile_background_tile": false, "profile_banner_url": "https://pbs.twimg.com/profile_banners/2268929852/1433770694", "profile_image_url": "https://pbs.twimg.com/profile_images/607904720838000640/dHEnOphi_normal.jpg", "profile_link_color": "3B94D9", "profile_sidebar_fill_color": "000000", "profile_text_color": "000000", "protected": false, "screen_name": "patchrhythm", "statuses_count": 6486, "time_zone": "Eastern Time (US & Canada)", "url": "https://t.co/cjdSNBDA3e", "utc_offset": -18000}, "user_mentions": [{"id": 133912110, "name": "Frequency", "screen_name": "OnFrequency"}]}
{"created_at": "Tue Jul 28 17:19:09 +0000 2015", "favorited": false, "id": 626079456763838464, "lang": "en", "retweeted": false, "source": "<a href=\"http://www.facebook.com/twitter\" rel=\"nofollow\">Facebook</a>", "text": "Woman Saves Her Child Just Before Being Killed By Escalator (Video) http://t.co/87vny3QWyy", "truncated": false, "urls": {"http://t.co/87vny3QWyy": "http://fb.me/3d1Cf7EzP"}, "user": {"created_at": "Mon Aug 25 21:48:39 +0000 2014", "description": "Lonliness is not happiness :(", "favourites_count": 270, "followers_count": 81, "friends_count": 347, "geo_enabled": true, "id": 2751224597, "lang": "en", "listed_count": 26, "location": "Ellerslie, GA", "name": "Michael Mort", "profile_background_color": "000000", "profile_background_image_url": "http://abs.twimg.com/images/themes/theme1/bg.png", "profile_background_tile": false, "profile_banner_url": "https://pbs.twimg.com/profile_banners/2751224597/1445898475", "profile_image_url": "https://pbs.twimg.com/profile_images/674043507531714560/3JYorN70_normal.jpg", "profile_link_color": "9266CC", "profile_sidebar_fill_color": "000000", "profile_text_color": "000000", "protected": false, "screen_name": "MMORT1997", "statuses_count": 29450, "time_zone": "Eastern Time (US & Canada)", "utc_offset": -18000}}
{"created_at": "Wed Jul 29 08:39:04 +0000 2015", "favorited": false, "id": 626310962082115584, "lang": "en", "retweeted": false, "source": "<a href=\"http://gtspirit.com\" rel=\"nofollow\">GTRi</a>", "text": "http://t.co/imrRyjbCnV A woman was sucked into an escalator shaft when a crate at the top came loose.", "truncated": false, "urls": {"http://t.co/imrRyjbCnV": "http://is.gd/V5e01e"}, "user": {"created_at": "Mon Feb 09 16:27:34 +0000 2015", "default_profile": true, "default_profile_image": true, "followers_count": 61, "friends_count": 246, "id": 3026698822, "lang": "en", "listed_count": 1, "name": "\u0424\u0438\u043b\u0430\u0442 \u041a\u0430\u0434\u0430\u0448\u043e\u0432D0", "profile_background_color": "C0DEED", "profile_background_image_url": "http://abs.twimg.com/images/themes/theme1/bg.png", "profile_background_tile": false, "profile_image_url": "https://abs.twimg.com/sticky/default_profile_images/default_profile_0_normal.png", "profile_link_color": "0084B4", "profile_sidebar_fill_color": "DDEEF6", "profile_text_color": "333333", "protected": false, "screen_name": "Clinton93896D0", "statuses_count": 928}}
{"created_at": "Wed Jul 29 08:52:44 +0000 2015", "favorited": false, "id": 626314401105100800, "lang": "en", "retweeted": false, "source": "<a href=\"http://twitter.com\" rel=\"nofollow\">Twitter Web Client</a>", "text": "Woman saves child before dying in horrific escalator accident http://t.co/Bdosju9Emy via @indiatoday", "truncated": false, "urls": {"http://t.co/Bdosju9Emy": "http://indiatoday.intoday.in/story/woman-saves-child-women-dead-in-escalator-china/1/454561.html"}, "user": {"created_at": "Tue Jul 28 14:54:34 +0000 2015", "default_profile": true, "description": "Software Programmer", "favourites_count": 1, "followers_count": 28, "friends_count": 62, "id": 3299648995, "lang": "en", "location": "Mangalore, Karnataka", "name": "Ritu Rana", "profile_background_color": "C0DEED", "profile_background_image_url": "http://abs.twimg.com/images/themes/theme1/bg.png", "profile_background_tile": false, "profile_banner_url": "https://pbs.twimg.com/profile_banners/3299648995/1438245766", "profile_image_url": "https://pbs.twimg.com/profile_images/626668792945348609/KukcV6Nj_normal.jpg", "profile_link_color": "0084B4", "profile_sidebar_fill_color": "DDEEF6", "profile_text_color": "333333", "protected": false, "screen_name": "tanuroy39", "statuses_count": 144}, "user_mentions": [{"id": 19897138, "name": "India Today", "screen_name": "IndiaToday"}]}
{"created_at": "Wed Jul 29 13:40:55 +0000 2015", "favorited": false, "id": 626386927722217473, "lang": "en", "retweeted": false, "source": "<a href=\"http://twitter.com\" rel=\"nofollow\">Twitter Web Client</a>", "text": "Woman saves child before dying in horrific escalator accident http://t.co/0mvpYtOUgl via @indiatoday", "truncated": false, "urls": {"http://t.co/0mvpYtOUgl": "http://indiatoday.intoday.in/story/woman-saves-child-women-dead-in-escalator-china/1/454561.html"}, "user": {"created_at": "Wed Jul 29 07:13:15 +0000 2015", "default_profile": true, "description": "IT Consultant", "followers_count": 20, "friends_count": 51, "id": 3300221334, "lang": "en", "listed_count": 1, "location": "Gurgaon, Haryana", "name": "Suresh Kannan", "profile_background_color": "C0DEED", "profile_background_image_url": "http://abs.twimg.com/images/themes/theme1/bg.png", "profile_background_tile": false, "profile_banner_url": "https://pbs.twimg.com/profile_banners/3300221334/1438247026", "profile_image_url": "https://pbs.twimg.com/profile_images/626679184207687680/fR2ohBFx_normal.jpg", "profile_link_color": "0084B4", "profile_sidebar_fill_color": "DDEEF6", "profile_text_color": "333333", "protected": false, "screen_name": "sureshkannan505", "statuses_count": 498}, "user_mentions": [{"id": 19897138, "name": "India Today", "screen_name": "IndiaToday"}]}
{"created_at": "Wed Jul 29 15:15:05 +0000 2015", "favorited": false, "id": 626410622218031105, "lang": "en", "retweeted": false, "source": "<a href=\"http://gtspirit.com\" rel=\"nofollow\">GTRi</a>", "text": "http://t.co/YOGHSzsmjP A woman was sucked into an escalator shaft when a crate at the top came loose.", "truncated": false, "urls": {"http://t.co/YOGHSzsmjP": "http://is.gd/V5e01e"}, "user": {"created_at": "Mon Feb 09 17:50:40 +0000 2015", "default_profile": true, "followers_count": 57, "friends_count": 242, "id": 3026921650, "lang": "en", "listed_count": 1, "name": "\u0410\u0433\u0430\u043f\u0438\u0442 \u0420\u0443\u0431\u0430\u043dB", "profile_background_color": "C0DEED", "profile_background_image_url": "http://abs.twimg.com/images/themes/theme1/bg.png", "profile_background_tile": false, "profile_image_url": "https://pbs.twimg.com/profile_images/572788857835532288/b6k9zHcM_normal.jpeg", "profile_link_color": "0084B4", "profile_sidebar_fill_color": "DDEEF6", "profile_text_color": "333333", "protected": false, "screen_name": "BGino52008", "statuses_count": 1014}}
{"created_at": "Thu Jul 30 02:37:38 +0000 2015", "favorited": false, "id": 626582391599968256, "lang": "en", "possibly_sensitive": true, "retweeted": false, "source": "<a href=\"http://mobile.twitter.com\" rel=\"nofollow\">Mobile Web</a>", "text": "Woman saves child before dying in escalator accident http://t.co/CwrtHTdTHr", "truncated": false, "urls": {"http://t.co/CwrtHTdTHr": "http://a.msn.com/09/en-in/AAdB5xy?ocid=st"}, "user": {"created_at": "Tue Jun 30 10:16:00 +0000 2015", "default_profile": true, "followers_count": 12, "friends_count": 226, "geo_enabled": true, "id": 3261184592, "lang": "en", "name": "AAR NEWS TRUST", "profile_background_color": "C0DEED", "profile_background_image_url": "http://abs.twimg.com/images/themes/theme1/bg.png", "profile_background_tile": false, "profile_banner_url": "https://pbs.twimg.com/profile_banners/3261184592/1435660142", "profile_image_url": "https://pbs.twimg.com/profile_images/615827342494072833/d3eJiHyk_normal.jpg", "profile_link_color": "0084B4", "profile_sidebar_fill_color": "DDEEF6", "profile_text_color": "333333", "protected": false, "screen_name": "aar_news", "statuses_count": 65, "time_zone": "Pacific Time (US & Canada)", "utc_offset": -28800}}
{"created_at": "Sun Aug 02 12:27:01 +0000 2015", "favorited": false, "id": 627817878876782592, "lang": "en", "retweeted": false, "source": "<a href=\"http://gtspirit.com\" rel=\"nofollow\">GTRi</a>", "text": "http://t.co/X8DtQQ8xhg A woman was sucked into an escalator shaft when a crate at the top came loose.", "truncated": false, "urls": {"http://t.co/X8DtQQ8xhg": "http://v.gd/tiiEeZ"}, "user": {"created_at": "Mon Feb 09 08:04:39 +0000 2015", "default_profile": true, "default_profile_image": true, "followers_count": 48, "friends_count": 274, "id": 3026193952, "lang": "en", "listed_count": 2, "name": "\u0423\u0441\u0442\u0438\u043d\u0430 \u0420\u0443\u0441\u0438\u043d\u043e\u0432a", "profile_background_color": "C0DEED", "profile_background_image_url": "http://abs.twimg.com/images/themes/theme1/bg.png", "profile_background_tile": false, "profile_image_url": "https://abs.twimg.com/sticky/default_profile_images/default_profile_5_normal.png", "profile_link_color": "0084B4", "profile_sidebar_fill_color": "DDEEF6", "profile_text_color": "333333", "protected": false, "screen_name": "Edris26677A", "statuses_count": 1665}}
{"created_at": "Mon Aug 03 17:02:44 +0000 2015", "favorited": false, "id": 628249655747440645, "lang": "en", "possibly_sensitive": true, "retweeted": false, "source": "<a href=\"http://www.facebook.com/twitter\" rel=\"nofollow\">Facebook</a>", "text": "Woman saves child before dying in horrific escalator accident : World, News - India Today http://t.co/uOF8TMYEZ3", "truncated": false, "urls": {"http://t.co/uOF8TMYEZ3": "http://fb.me/6Jkr3ZaEP"}, "user": {"created_at": "Mon Feb 09 13:40:58 +0000 2009", "favourites_count": 3, "followers_count": 64, "friends_count": 150, "geo_enabled": true, "id": 20435337, "lang": "en", "listed_count": 4, "location": "Netherland", "name": "Hamid Hashim", "profile_background_color": "1A1B1F", "profile_background_image_url": "http://pbs.twimg.com/profile_background_images/179317319/image", "profile_background_tile": false, "profile_banner_url": "https://pbs.twimg.com/profile_banners/20435337/1398942165", "profile_image_url": "https://pbs.twimg.com/profile_images/76718679/--------------------------_normal.jpg", "profile_link_color": "3B94D9", "profile_sidebar_fill_color": "252429", "profile_text_color": "666666", "protected": false, "screen_name": "Sculpman", "statuses_count": 10082, "time_zone": "Amsterdam", "url": "http://t.co/mtqe0lPnzX", "utc_offset": 3600}}
