{"created_at": "Mon May 25 20:43:56 +0000 2015", "favorite_count": 1, "favorited": false, "hashtags": ["scuba", "diving", "sealife", "aquarium"], "id": 602938168548163585, "lang": "en", "media": [{"display_url": "pic.twitter.com/1z0BSYVUnD", "expanded_url": "http://twitter.com/arieldivers/status/602938168548163585/photo/1", "id": 602937987949830145, "id_str": "602937987949830145", "indices": [55, 77], "media_url": "http://pbs.twimg.com/media/CF4Q59FWoAEP0We.jpg", "media_url_https": "https://pbs.twimg.com/media/CF4Q59FWoAEP0We.jpg", "sizes": {"large": {"h": 1024, "resize": "fit", "w": 1024}, "medium": {"h": 600, "resize": "fit", "w": 600}, "small": {"h": 340, "resize": "fit", "w": 340}, "thumb": {"h": 150, "resize": "crop", "w": 150}}, "type": "photo", "url": "http://t.co/1z0BSYVUnD"}], "retweet_count": 1, "retweeted": false, "source": "<a href=\"http://twitter.com/download/iphone\" rel=\"nofollow\">Twitter for iPhone</a>", "text": "Little baby stingray #scuba #diving #sealife #aquarium http://t.co/1z0BSYVUnD", "truncated": false, "user": {"created_at": "Wed Mar 24 16:48:30 +0000 2010", "default_profile": true, "description": "Ariel divers dive around the UK and the World #livetoscuba", "favourites_count": 87, "followers_count": 94, "friends_count": 105, "id": 126035574, "lang": "en", "listed_count": 6, "location": "London, England", "name": "Ariel Divers", "profile_background_color": "C0DEED", "profile_background_image_url": "http://abs.twimg.com/images/themes/theme1/bg.png", "profile_background_tile": false, "profile_banner_url": "https://pbs.twimg.com/profile_banners/126035574/1430929182", "profile_image_url": "https://pbs.twimg.com/profile_images/2257387397/asaclogo_normal.png", "profile_link_color": "0084B4", "profile_sidebar_fill_color": "DDEEF6", "profile_text_color": "333333", "protected": false, "screen_name": "arieldivers", "statuses_count": 104, "time_zone": "London"}}
{"created_at": "Tue Jun 02 12:08:02 +0000 2015", "favorited": false, "hashtags": ["Baby", "Undulate", "Ray", "Raja", "undulata", "Hatching", "MarineBiology"], "id": 605707442207526912, "lang": "en", "retweeted": false, "source": "<a href=\"http://instagram.com\" rel=\"nofollow\">Instagram</a>", "text": "#Baby #Undulate #Ray (#Raja #undulata) #Hatching out over the course of a week!\n\n#MarineBiology\u2026 https://t.co/WAOOh3bSq9", "truncated": false, "urls": {"https://t.co/WAOOh3bSq9": "https://instagram.com/p/3bRuASDtPI/"}, "user": {"created_at": "Tue Jul 06 22:13:07 +0000 2010", "description": "Professional marine biologist, seasoned aquarist, budding filmmaker... Studying for an MA in Wildlife Documentary Production at Salford University.", "favourites_count": 28, "followers_count": 42, "friends_count": 83, "id": 163624738, "lang": "en", "listed_count": 4, "location": "Salford, England", "name": "Matt Haworth", "profile_background_color": "131516", "profile_background_image_url": "http://abs.twimg.com/images/themes/theme14/bg.gif", "profile_background_tile": true, "profile_banner_url": "https://pbs.twimg.com/profile_banners/163624738/1446298187", "profile_image_url": "https://pbs.twimg.com/profile_images/660447410519416832/iHWETBPL_normal.jpg", "profile_link_color": "3B94D9", "profile_sidebar_fill_color": "3B3B3B", "profile_text_color": "696969", "protected": false, "screen_name": "maquarist", "statuses_count": 1505, "time_zone": "London", "url": "https://t.co/SBVQYCq9rD"}}
{"coordinates": {"coordinates": [-122.3429794, 47.60783], "type": "Point"}, "created_at": "Tue Jun 16 01:59:37 +0000 2015", "favorite_count": 1, "favorited": false, "geo": {"coordinates": [47.60783, -122.3429794], "type": "Point"}, "hashtags": ["Seattle", "sea", "squee", "stingray", "touristing"], "id": 610627761464582145, "lang": "en", "place": {"attributes": {}, "bounding_box": {"coordinates": [[[-122.436232, 47.4953154], [-122.2249728, 47.4953154], [-122.2249728, 47.734561], [-122.436232, 47.734561]]], "type": "Polygon"}, "contained_within": [], "country": "United States", "country_code": "US", "full_name": "Seattle, WA", "id": "300bcc6e23a88361", "name": "Seattle", "place_type": "city", "url": "https://api.twitter.com/1.1/geo/id/300bcc6e23a88361.json"}, "retweeted": false, "source": "<a href=\"http://instagram.com\" rel=\"nofollow\">Instagram</a>", "text": "Baby squee IRL!! #Seattle #sea #squee #stingray #touristing @ Seattle Aquarium https://t.co/H1kVKQQnkh", "truncated": false, "urls": {"https://t.co/H1kVKQQnkh": "https://instagram.com/p/3-POJonn_h/"}, "user": {"created_at": "Mon Apr 13 02:02:26 +0000 2009", "description": "Be excellent to each other.", "favourites_count": 89, "followers_count": 210, "friends_count": 658, "geo_enabled": true, "id": 30779739, "lang": "en", "listed_count": 6, "location": "New York Shitty", "name": "Emily Gawlak", "profile_background_color": "642D8B", "profile_background_image_url": "http://pbs.twimg.com/profile_background_images/293167283/Wood_floor_by_gnrbishop.jpg", "profile_background_tile": true, "profile_banner_url": "https://pbs.twimg.com/profile_banners/30779739/1446097526", "profile_image_url": "https://pbs.twimg.com/profile_images/659607323288215552/f5AJ5WHu_normal.jpg", "profile_link_color": "CC19C6", "profile_sidebar_fill_color": "7AC3EE", "profile_text_color": "3D1957", "protected": false, "screen_name": "GawlakAttack", "statuses_count": 850, "time_zone": "Eastern Time (US & Canada)", "utc_offset": -18000}}
{"created_at": "Sun Jun 21 02:06:16 +0000 2015", "favorite_count": 1, "favorited": false, "id": 612441373468266497, "lang": "en", "retweeted": false, "source": "<a href=\"http://twitter.com/download/iphone\" rel=\"nofollow\">Twitter for iPhone</a>", "text": "Aquarium was fun today, touched a baby sting ray and a baby shark", "truncated": false, "user": {"created_at": "Thu Jun 17 17:48:54 +0000 2010", "description": "Food and Travel is what keeps me sane", "favourites_count": 1174, "followers_count": 348, "friends_count": 199, "geo_enabled": true, "id": 156708542, "lang": "en", "listed_count": 4, "location": "Laois", "name": "\u00c1ine Bennett", "profile_background_color": "ACDED6", "profile_background_image_url": "http://pbs.twimg.com/profile_background_images/817346590/4d17ad217c6fa821cb3c870f4fb01ffe.jpeg", "profile_background_tile": true, "profile_banner_url": "https://pbs.twimg.com/profile_banners/156708542/1435901033", "profile_image_url": "https://pbs.twimg.com/profile_images/530852961535414272/86mpXNk2_normal.jpeg", "profile_link_color": "038543", "profile_sidebar_fill_color": "F6F6F6", "profile_text_color": "333333", "protected": false, "screen_name": "eats_likeabeast", "statuses_count": 5129, "time_zone": "Amsterdam", "utc_offset": 3600}}
{"created_at": "Wed Jul 15 06:27:48 +0000 2015", "favorite_count": 1, "favorited": false, "id": 621204497243762688, "in_reply_to_screen_name": "Globe_Pics", "in_reply_to_status_id": 621122044139315200, "in_reply_to_user_id": 1132090693, "lang": "en", "retweeted": false, "source": "<a href=\"http://twitter.com\" rel=\"nofollow\">Twitter Web Client</a>", "text": ".@Globe_Pics This \"stringray\" is an old photoshop contest entry http://t.co/I2RK3ibyBg", "truncated": false, "urls": {"http://t.co/I2RK3ibyBg": "http://www.fark.com/comments/2873201/Photoshop-this-baby-undulate-ray"}, "user": {"created_at": "Fri Apr 03 08:02:31 +0000 2015", "default_profile": true, "description": "Hoax fighter and fact finder. Main tools: reverse image search and coffee. Operated by @JanneFI", "favourites_count": 4275, "followers_count": 1197, "friends_count": 135, "id": 3131585530, "lang": "en", "listed_count": 41, "name": "HoaxEye", "profile_background_color": "C0DEED", "profile_background_image_url": "http://abs.twimg.com/images/themes/theme1/bg.png", "profile_background_tile": false, "profile_image_url": "https://pbs.twimg.com/profile_images/669473921616490496/3kKyd3na_normal.jpg", "profile_link_color": "0084B4", "profile_sidebar_fill_color": "DDEEF6", "profile_text_color": "333333", "protected": false, "screen_name": "hoaxeye", "statuses_count": 2362, "time_zone": "Helsinki", "url": "https://t.co/c860PbeKZv", "utc_offset": 7200}, "user_mentions": [{"id": 1132090693, "name": "Globe Pics", "screen_name": "Globe_Pics"}]}
{"created_at": "Wed Jul 15 17:14:29 +0000 2015", "favorite_count": 3, "favorited": false, "id": 621367241968234496, "lang": "en", "media": [{"display_url": "pic.twitter.com/j5vKKZVTRv", "expanded_url": "http://twitter.com/tonyswaltz/status/621367241968234496/photo/1", "id": 621367049332240384, "id_str": "621367049332240384", "indices": [102, 124], "media_url": "http://pbs.twimg.com/media/CJ-KCgqUsAAdpzV.jpg", "media_url_https": "https://pbs.twimg.com/media/CJ-KCgqUsAAdpzV.jpg", "sizes": {"large": {"h": 1024, "resize": "fit", "w": 768}, "medium": {"h": 800, "resize": "fit", "w": 600}, "small": {"h": 453, "resize": "fit", "w": 340}, "thumb": {"h": 150, "resize": "crop", "w": 150}}, "type": "photo", "url": "http://t.co/j5vKKZVTRv"}, {"display_url": "pic.twitter.com/j5vKKZVTRv", "expanded_url": "http://twitter.com/tonyswaltz/status/621367241968234496/photo/1", "id": 621367049390981120, "id_str": "621367049390981120", "indices": [102, 124], "media_url": "http://pbs.twimg.com/media/CJ-KCg4VAAAaXnT.jpg", "media_url_https": "https://pbs.twimg.com/media/CJ-KCg4VAAAaXnT.jpg", "sizes": {"large": {"h": 1024, "resize": "fit", "w": 768}, "medium": {"h": 800, "resize": "fit", "w": 600}, "small": {"h": 453, "resize": "fit", "w": 340}, "thumb": {"h": 150, "resize": "crop", "w": 150}}, "type": "photo", "url": "http://t.co/j5vKKZVTRv"}, {"display_url": "pic.twitter.com/j5vKKZVTRv", "expanded_url": "http://twitter.com/tonyswaltz/status/621367241968234496/photo/1", "id": 621367049470676992, "id_str": "621367049470676992", "indices": [102, 124], "media_url": "http://pbs.twimg.com/media/CJ-KChLVEAA4izK.jpg", "media_url_https": "https://pbs.twimg.com/media/CJ-KChLVEAA4izK.jpg", "sizes": {"large": {"h": 1024, "resize": "fit", "w": 768}, "medium": {"h": 800, "resize": "fit", "w": 600}, "small": {"h": 453, "resize": "fit", "w": 340}, "thumb": {"h": 150, "resize": "crop", "w": 150}}, "type": "photo", "url": "http://t.co/j5vKKZVTRv"}], "retweeted": false, "source": "<a href=\"http://twitter.com/download/iphone\" rel=\"nofollow\">Twitter for iPhone</a>", "text": "i went to an aquarium the other day and a lil baby sting ray wanted to say hi. he kept floppin around http://t.co/j5vKKZVTRv", "truncated": false, "user": {"created_at": "Tue Nov 04 16:45:54 +0000 2014", "default_profile": true, "description": "Queer Feminist. Chicanx. Jewish. Pro-Palestine. UNF '19 \u24cb (they/she) #YaMeCans\u00e9 #BlackLivesMatter #WeAreSeeds", "favourites_count": 9475, "followers_count": 723, "friends_count": 199, "geo_enabled": true, "id": 2860997560, "lang": "en", "listed_count": 26, "location": "Rat's Mouth", "name": "\u2022\u2022Tony\u2022\u2022", "profile_background_color": "C0DEED", "profile_background_image_url": "http://abs.twimg.com/images/themes/theme1/bg.png", "profile_background_tile": false, "profile_banner_url": "https://pbs.twimg.com/profile_banners/2860997560/1447720143", "profile_image_url": "https://pbs.twimg.com/profile_images/657056124349358080/Vagxdcwi_normal.jpg", "profile_link_color": "0084B4", "profile_sidebar_fill_color": "DDEEF6", "profile_text_color": "333333", "protected": false, "screen_name": "tonyswaltz", "statuses_count": 26311, "time_zone": "Pacific Time (US & Canada)", "utc_offset": -28800}}
{"created_at": "Fri Jul 24 01:35:43 +0000 2015", "favorited": false, "hashtags": ["wildlife", "aquarium"], "id": 624392484337098752, "lang": "en", "retweeted": false, "source": "<a href=\"http://instagram.com\" rel=\"nofollow\">Instagram</a>", "text": "baby stingray #wildlife #aquarium https://t.co/FLUm5LfGpk", "truncated": false, "urls": {"https://t.co/FLUm5LfGpk": "https://instagram.com/p/5gCsUbBmuq/"}, "user": {"created_at": "Fri Sep 11 05:19:36 +0000 2009", "description": "Enjoy every single day of life.", "favourites_count": 5, "followers_count": 41, "friends_count": 149, "geo_enabled": true, "id": 73316197, "lang": "en", "listed_count": 2, "location": "Bangkok", "name": "Beeja", "profile_background_color": "5F677A", "profile_background_image_url": "http://pbs.twimg.com/profile_background_images/251983888/x77834ac441d9571e748a568c3a8920d.png", "profile_background_tile": true, "profile_banner_url": "https://pbs.twimg.com/profile_banners/73316197/1439888799", "profile_image_url": "https://pbs.twimg.com/profile_images/683306010073677824/Hl5JjANB_normal.jpg", "profile_link_color": "665DB3", "profile_sidebar_fill_color": "9FC7FB", "profile_text_color": "6D422F", "protected": false, "screen_name": "bj7766", "statuses_count": 7157, "time_zone": "Jakarta", "utc_offset": 25200}}
{"created_at": "Fri Jul 24 15:42:55 +0000 2015", "favorite_count": 5, "favorited": false, "id": 624605687666995200, "lang": "en", "media": [{"display_url": "pic.twitter.com/s78W6Sb3FU", "expanded_url": "http://twitter.com/snopes/status/624605687666995200/photo/1", "id": 624605687000109057, "id_str": "624605687000109057", "indices": [90, 112], "media_url": "http://pbs.twimg.com/media/CKsLkCJUkAEg08J.png", "media_url_https": "https://pbs.twimg.com/media/CKsLkCJUkAEg08J.png", "sizes": {"large": {"h": 368, "resize": "fit", "w": 493}, "medium": {"h": 368, "resize": "fit", "w": 493}, "small": {"h": 253, "resize": "fit", "w": 340}, "thumb": {"h": 150, "resize": "crop", "w": 150}}, "type": "photo", "url": "http://t.co/s78W6Sb3FU"}], "retweet_count": 3, "retweeted": false, "source": "<a href=\"http://twitter.com\" rel=\"nofollow\">Twitter Web Client</a>", "text": "\"Welcome to my aquarium,\" says this baby undulate ray?  Maybe not:\nhttp://t.co/6HpA5aWG1B http://t.co/s78W6Sb3FU", "truncated": false, "urls": {"http://t.co/6HpA5aWG1B": "http://bit.ly/1HXS0Dh"}, "user": {"created_at": "Thu Apr 03 17:00:11 +0000 2008", "description": "The definitive Internet reference source for urban legends, folklore, myths, rumors, and misinformation.", "favourites_count": 12, "followers_count": 118563, "id": 14294848, "lang": "en", "listed_count": 3235, "name": "snopes.com", "profile_background_color": "C7F2B1", "profile_background_image_url": "http://pbs.twimg.com/profile_background_images/840081271/d90db0daf7c81f75aea62d88c084e755.png", "profile_background_tile": false, "profile_banner_url": "https://pbs.twimg.com/profile_banners/14294848/1365714336", "profile_image_url": "https://pbs.twimg.com/profile_images/3507964197/be9d1840411bca2d8101382340f58957_normal.png", "profile_link_color": "81D159", "profile_sidebar_fill_color": "DDEEF6", "profile_text_color": "333333", "protected": false, "screen_name": "snopes", "statuses_count": 4852, "time_zone": "Pacific Time (US & Canada)", "url": "http://t.co/10Or8rl3ff", "utc_offset": -28800, "verified": true}}
{"created_at": "Fri Jul 24 15:51:57 +0000 2015", "favorited": false, "id": 624607960455495680, "lang": "en", "media": [{"display_url": "pic.twitter.com/i6iqA5sgjd", "expanded_url": "http://twitter.com/snopes/status/624605687666995200/photo/1", "id": 624605687000109057, "id_str": "624605687000109057", "indices": [90, 112], "media_url": "http://pbs.twimg.com/media/CKsLkCJUkAEg08J.png", "media_url_https": "https://pbs.twimg.com/media/CKsLkCJUkAEg08J.png", "sizes": {"large": {"h": 368, "resize": "fit", "w": 493}, "medium": {"h": 368, "resize": "fit", "w": 493}, "small": {"h": 253, "resize": "fit", "w": 340}, "thumb": {"h": 150, "resize": "crop", "w": 150}}, "source_status_id": 624605687666995200, "source_status_id_str": "624605687666995200", "source_user_id": 14294848, "source_user_id_str": "14294848", "type": "photo", "url": "http://t.co/i6iqA5sgjd"}], "retweeted": false, "source": "<a href=\"http://ifttt.com\" rel=\"nofollow\">IFTTT</a>", "text": "\"Welcome to my aquarium,\" says this baby undulate ray?  Maybe not:\nhttp://t.co/G4iwmK1mR5 http://t.co/i6iqA5sgjd", "truncated": false, "urls": {"http://t.co/G4iwmK1mR5": "http://bit.ly/1HXS0Dh"}, "user": {"created_at": "Mon Jan 28 14:40:52 +0000 2013", "default_profile": true, "description": "I tweet about all things in Cape Town. #CapeFact The Mother City. For info in events: #CapeEvents. Also #capetownfairy me for any quests", "favourites_count": 661, "followers_count": 2623, "friends_count": 2736, "id": 1128255048, "lang": "en", "listed_count": 90, "location": "Cape Town", "name": "Cape Town Fairy", "profile_background_color": "C0DEED", "profile_background_image_url": "http://abs.twimg.com/images/themes/theme1/bg.png", "profile_background_tile": false, "profile_banner_url": "https://pbs.twimg.com/profile_banners/1128255048/1359385361", "profile_image_url": "https://pbs.twimg.com/profile_images/3175089990/ddcec258fe970be63266d343dc094577_normal.png", "profile_link_color": "0084B4", "profile_sidebar_fill_color": "DDEEF6", "profile_text_color": "333333", "protected": false, "screen_name": "CapeTownFairy", "statuses_count": 73055, "time_zone": "Athens", "utc_offset": 7200}}
{"created_at": "Sat Jul 25 20:37:14 +0000 2015", "favorite_count": 7, "favorited": false, "id": 625042141979484164, "lang": "en", "retweet_count": 1, "retweeted": false, "source": "<a href=\"http://twitter.com/download/iphone\" rel=\"nofollow\">Twitter for iPhone</a>", "text": "Why today was a dub @ fort fisher aquarium : 1, petted a baby shark 2, touched a stingray 3, @KobeLeeWheeler bought me a stuffed shark\ud83d\udc1a\u2764\ufe0f", "truncated": false, "user": {"created_at": "Mon Jan 13 18:58:21 +0000 2014", "default_profile": true, "description": "|varsity lacrosse| |#5| |golf|", "favourites_count": 5744, "followers_count": 864, "friends_count": 1850, "id": 2279726632, "lang": "en", "listed_count": 4, "location": "leesville '17", "name": "Lindsey", "profile_background_color": "C0DEED", "profile_background_image_url": "http://abs.twimg.com/images/themes/theme1/bg.png", "profile_background_tile": false, "profile_banner_url": "https://pbs.twimg.com/profile_banners/2279726632/1428546216", "profile_image_url": "https://pbs.twimg.com/profile_images/620808030448304129/uevSvtVn_normal.jpg", "profile_link_color": "0084B4", "profile_sidebar_fill_color": "DDEEF6", "profile_text_color": "333333", "protected": false, "screen_name": "LindseyBateman1", "statuses_count": 915}, "user_mentions": [{"id": 285724184, "name": "K\u00d8B3 WH33\u01413R", "screen_name": "KobeLeeWheeler"}]}
{"coordinates": {"coordinates": [103.82058503, 1.25774483], "type": "Point"}, "created_at": "Tue Jul 28 11:41:44 +0000 2015", "favorited": false, "geo": {"coordinates": [1.25774483, 103.82058503], "type": "Point"}, "hashtags": ["cute", "stingray", "aquarium", "Singapore", "baby"], "id": 625994546284003328, "lang": "en", "place": {"attributes": {}, "bounding_box": {"coordinates": [[[103.749959507073, 1.2123138339349], [103.918426999964, 1.2123138339349], [103.918426999964, 1.36874499902569], [103.749959507073, 1.36874499902569]]], "type": "Polygon"}, "contained_within": [], "country": "Singapore", "country_code": "SG", "full_name": "Central Region, Singapore", "id": "58a4c3a0d54e1400", "name": "Central Region", "place_type": "admin", "url": "https://api.twitter.com/1.1/geo/id/58a4c3a0d54e1400.json"}, "retweeted": false, "source": "<a href=\"http://instagram.com\" rel=\"nofollow\">Instagram</a>", "text": "#cute #stingray #aquarium #Singapore #baby @ S.E.A. Aquarium, Marine Life Park https://t.co/H8PULeNQBo", "truncated": false, "urls": {"https://t.co/H8PULeNQBo": "https://instagram.com/p/5rbOdGqUxY/"}, "user": {"created_at": "Fri Jul 11 18:43:04 +0000 2008", "description": "Photographer, Designer, Fencer, Taiji. Loves good Food, Wine & Travels. Blogs: Food - http://t.co/HIqFlqoQx2 Photo/Design - http://t.co/U39QSrDDvB", "favourites_count": 88, "followers_count": 166, "friends_count": 315, "geo_enabled": true, "id": 15395055, "lang": "en", "listed_count": 36, "location": "London", "name": "Yvanne", "profile_background_color": "1A1B1F", "profile_background_image_url": "http://abs.twimg.com/images/themes/theme9/bg.gif", "profile_background_tile": false, "profile_banner_url": "https://pbs.twimg.com/profile_banners/15395055/1399545942", "profile_image_url": "https://pbs.twimg.com/profile_images/63038014/YT01_normal.jpg", "profile_link_color": "DD2E44", "profile_sidebar_fill_color": "252429", "profile_text_color": "666666", "protected": false, "screen_name": "yvanneteo", "statuses_count": 2475, "time_zone": "London", "url": "http://t.co/BgIBruCN45"}}
{"created_at": "Tue Jul 28 21:30:05 +0000 2015", "favorite_count": 1, "favorited": false, "id": 626142608088297472, "in_reply_to_screen_name": "JimSpim", "in_reply_to_status_id": 626142273739341824, "in_reply_to_user_id": 234527654, "lang": "en", "retweeted": false, "source": "<a href=\"http://twitter.com/download/iphone\" rel=\"nofollow\">Twitter for iPhone</a>", "text": "@JimSpim aww don't say that! It's cute ! It's an undulate skate ray baby :)", "truncated": false, "user": {"created_at": "Wed Apr 08 13:25:44 +0000 2009", "description": "Actress & TV Presenter - Wildlife Presenter. voice over artist - Animal lover.", "favourites_count": 420, "followers_count": 865, "friends_count": 2051, "geo_enabled": true, "id": 29713459, "lang": "en", "listed_count": 14, "location": "London, England", "name": "Nicola Kelleher", "profile_background_color": "131516", "profile_background_image_url": "http://abs.twimg.com/images/themes/theme14/bg.gif", "profile_background_tile": true, "profile_banner_url": "https://pbs.twimg.com/profile_banners/29713459/1361839867", "profile_image_url": "https://pbs.twimg.com/profile_images/378800000061242577/23af97e57528cfe94e706d97b99fa634_normal.jpeg", "profile_link_color": "009999", "profile_sidebar_fill_color": "EFEFEF", "profile_text_color": "333333", "protected": false, "screen_name": "nicolakelleher", "statuses_count": 1850, "time_zone": "Casablanca", "url": "http://t.co/RCEOB8XibR"}, "user_mentions": [{"id": 234527654, "name": "Jim Martin", "screen_name": "JimSpim"}]}
{"created_at": "Thu Jul 30 23:04:20 +0000 2015", "favorited": false, "id": 626891101052473344, "lang": "en", "retweeted": false, "source": "<a href=\"http://instagram.com\" rel=\"nofollow\">Instagram</a>", "text": "took my baby to shark reef aquarium today. it took her min but she  touched the stingray.  im so\u2026 https://t.co/brPe5X85XX", "truncated": false, "urls": {"https://t.co/brPe5X85XX": "https://instagram.com/p/5xy7S_CYxm/"}, "user": {"created_at": "Wed Jul 29 23:41:05 +0000 2009", "description": "#PHOTOGRAPHER #jfridapope", "favourites_count": 108, "followers_count": 920, "friends_count": 1980, "id": 61328575, "lang": "en", "listed_count": 2, "location": "#jfridapope #lasvegas", "name": "JFRIDA POPE ", "profile_background_color": "0099B9", "profile_background_image_url": "http://abs.twimg.com/images/themes/theme4/bg.gif", "profile_background_tile": false, "profile_banner_url": "https://pbs.twimg.com/profile_banners/61328575/1439633299", "profile_image_url": "https://pbs.twimg.com/profile_images/632494030585135104/b3QWtxis_normal.jpg", "profile_link_color": "0099B9", "profile_sidebar_fill_color": "95E8EC", "profile_text_color": "3C3940", "protected": false, "screen_name": "JFRIDA", "statuses_count": 10502, "url": "http://t.co/7bQPNptNZI"}}
{"created_at": "Fri Jul 31 01:24:07 +0000 2015", "favorite_count": 10, "favorited": false, "id": 626926278772330496, "lang": "en", "media": [{"display_url": "pic.twitter.com/Z4A8hkjElH", "expanded_url": "http://twitter.com/cptcmndrboss/status/626926278772330496/photo/1", "id": 626926248502034432, "id_str": "626926248502034432", "indices": [84, 106], "media_url": "http://pbs.twimg.com/media/CLNKGfZVAAAvLxF.jpg", "media_url_https": "https://pbs.twimg.com/media/CLNKGfZVAAAvLxF.jpg", "sizes": {"large": {"h": 1024, "resize": "fit", "w": 913}, "medium": {"h": 672, "resize": "fit", "w": 600}, "small": {"h": 381, "resize": "fit", "w": 340}, "thumb": {"h": 150, "resize": "crop", "w": 150}}, "type": "photo", "url": "http://t.co/Z4A8hkjElH"}], "retweet_count": 3, "retweeted": false, "source": "<a href=\"http://twitter.com/download/iphone\" rel=\"nofollow\">Twitter for iPhone</a>", "text": "Oh I sent this to the wrong acct earlier LOOK AT THIS BABY STINGRAY AT THE AQUARIUM http://t.co/Z4A8hkjElH", "truncated": false, "user": {"created_at": "Mon Aug 03 04:11:45 +0000 2009", "description": "\u2623 26 year old dude who thinks about video games a lot \u269c \u269c \u269c (\u096d\u2310\u25a0\u0644\u035f\u25a0)\u096d", "favourites_count": 12506, "followers_count": 276, "friends_count": 228, "geo_enabled": true, "id": 62433108, "lang": "en", "listed_count": 13, "location": "Mother Base", "name": "Diamond Dog", "profile_background_color": "243E31", "profile_background_image_url": "http://pbs.twimg.com/profile_background_images/729700622/c4cd281830eda5941872fca53b2da439.jpeg", "profile_background_tile": false, "profile_banner_url": "https://pbs.twimg.com/profile_banners/62433108/1439611439", "profile_image_url": "https://pbs.twimg.com/profile_images/681542577963704320/pvZ7Jx7u_normal.jpg", "profile_link_color": "819E5C", "profile_sidebar_fill_color": "3D4532", "profile_text_color": "79ACB3", "protected": false, "screen_name": "cptcmndrboss", "statuses_count": 37745, "time_zone": "Mountain Time (US & Canada)", "url": "https://t.co/JOPAjXxOIH", "utc_offset": -25200}}
{"created_at": "Wed Aug 12 02:00:07 +0000 2015", "favorited": false, "id": 631283995226034176, "lang": "en", "retweeted": false, "source": "<a href=\"http://twitter.com/download/iphone\" rel=\"nofollow\">Twitter for iPhone</a>", "text": "In about 8 years when I purchase my first home the house needs to big enough for me to fit a baby Stingray in a mini aquarium in my bedroom!", "truncated": false, "user": {"created_at": "Tue Jun 26 23:17:11 +0000 2012", "favourites_count": 874, "followers_count": 308, "friends_count": 224, "id": 619503646, "lang": "en", "name": "Gone", "profile_background_color": "C0DEED", "profile_background_image_url": "http://pbs.twimg.com/profile_background_images/871730865/23c13eac3ab863361555e345aae6d40e.jpeg", "profile_background_tile": true, "profile_image_url": "https://pbs.twimg.com/profile_images/685892881744269314/a5HB7Apm_normal.jpg", "profile_link_color": "0084B4", "profile_sidebar_fill_color": "DDEEF6", "profile_text_color": "333333", "protected": false, "screen_name": "_ErikaBelle", "statuses_count": 9129, "time_zone": "Atlantic Time (Canada)", "utc_offset": -14400}}
{"created_at": "Sun Aug 16 22:06:11 +0000 2015", "favorited": false, "hashtags": ["diver", "blowing", "bubbles", "playing", "baby", "stingray", "aquarium", "ripleysbelieveitornot"], "id": 633037060186722304, "lang": "en", "retweeted": false, "source": "<a href=\"http://instagram.com\" rel=\"nofollow\">Instagram</a>", "text": "#diver #blowing #bubbles #playing with #baby #stingray in the #aquarium #ripleysbelieveitornot\u2026 https://t.co/7DLm0MQW4Y", "truncated": false, "urls": {"https://t.co/7DLm0MQW4Y": "https://instagram.com/p/6ddx_6yF0c/"}, "user": {"created_at": "Wed May 20 22:52:37 +0000 2009", "favourites_count": 422, "followers_count": 51, "friends_count": 107, "geo_enabled": true, "id": 41471601, "lang": "en", "listed_count": 12, "location": "Ontario, Canada", "name": "Jessica Tan", "profile_background_color": "642D8B", "profile_background_image_url": "http://abs.twimg.com/images/themes/theme10/bg.gif", "profile_background_tile": true, "profile_banner_url": "https://pbs.twimg.com/profile_banners/41471601/1399958465", "profile_image_url": "https://pbs.twimg.com/profile_images/3307600950/6b951c2b68d395bdeecb454f301e620b_normal.jpeg", "profile_link_color": "00AEFF", "profile_sidebar_fill_color": "7AC3EE", "profile_text_color": "3D1957", "protected": false, "screen_name": "JessicaHC_Tan", "statuses_count": 806, "time_zone": "Eastern Time (US & Canada)", "utc_offset": -18000}}
