{"created_at": "Wed Jul 22 17:35:57 +0000 2015", "favorited": false, "id": 623909360754917377, "lang": "en", "retweeted": false, "source": "<a href=\"http://www.facebook.com/twitter\" rel=\"nofollow\">Facebook</a>", "text": "Obama changes newly naturalized \u2018illegal\u2019 Americans pledge to accommodate those of Islamic faith - they will not... http://t.co/0OpsLpJuBY", "truncated": false, "urls": {"http://t.co/0OpsLpJuBY": "http://fb.me/1NpvKWwgp"}, "user": {"created_at": "Wed May 27 19:01:30 +0000 2015", "default_profile": true, "followers_count": 56, "friends_count": 17, "id": 3300716229, "lang": "en", "listed_count": 1, "name": "Truth Uncensored", "profile_background_color": "C0DEED", "profile_background_image_url": "http://abs.twimg.com/images/themes/theme1/bg.png", "profile_background_tile": false, "profile_banner_url": "https://pbs.twimg.com/profile_banners/3300716229/1432776573", "profile_image_url": "https://pbs.twimg.com/profile_images/603727542374137856/YIZeXhMt_normal.jpg", "profile_link_color": "0084B4", "profile_sidebar_fill_color": "DDEEF6", "profile_text_color": "333333", "protected": false, "screen_name": "TruthUncensore", "statuses_count": 3774}}
{"created_at": "Wed Jul 22 21:20:59 +0000 2015", "favorited": false, "id": 623965989839867904, "lang": "en", "retweeted": false, "source": "<a href=\"http://www.facebook.com/twitter\" rel=\"nofollow\">Facebook</a>", "text": "More evil from Obama: Naturalized Citizens no longer need to take oath to defend USA http://t.co/gYv2Jisal6", "truncated": false, "urls": {"http://t.co/gYv2Jisal6": "http://fb.me/7GCMKsr6l"}, "user": {"created_at": "Fri Dec 05 22:10:00 +0000 2014", "description": "Curated News. Inquiry & Opinion on the who, what, when & where as the world descends into chaos.", "favourites_count": 2155, "followers_count": 244, "friends_count": 245, "id": 2920023271, "lang": "en", "listed_count": 15, "name": "Ann Inquirer", "profile_background_color": "000000", "profile_background_image_url": "http://abs.twimg.com/images/themes/theme1/bg.png", "profile_background_tile": false, "profile_banner_url": "https://pbs.twimg.com/profile_banners/2920023271/1427902572", "profile_image_url": "https://pbs.twimg.com/profile_images/673629517676740608/M-CmCSsw_normal.jpg", "profile_link_color": "3B94D9", "profile_sidebar_fill_color": "000000", "profile_text_color": "000000", "protected": false, "screen_name": "AnnInquirer", "statuses_count": 6499, "time_zone": "Eastern Time (US & Canada)", "url": "http://t.co/cPkggTtReA", "utc_offset": -18000}}
{"created_at": "Wed Jul 22 21:34:24 +0000 2015", "favorited": false, "id": 623969366246166528, "lang": "en", "retweeted": false, "source": "<a href=\"http://twitterfeed.com\" rel=\"nofollow\">twitterfeed</a>", "text": "Obama Changes Oath of Allegiance for New Americans, Takes Out Pledge to Defend the USA: Newly naturalized Amer...  http://t.co/CO7NAb334O", "truncated": false, "urls": {"http://t.co/CO7NAb334O": "http://bit.ly/1eHgR6k"}, "user": {"created_at": "Fri Jan 03 03:58:42 +0000 2014", "default_profile": true, "description": "History & Current Affairs On USA. Include #VOFNUSA In Your Tweets. Member: The VOFN NETWORK. For Sponsored Tweets, Mail: vofnmail@gmail.com.", "favourites_count": 3, "followers_count": 284, "friends_count": 303, "id": 2273931408, "lang": "en", "listed_count": 8, "location": "USA", "name": "VOFN USA", "profile_background_color": "C0DEED", "profile_background_image_url": "http://abs.twimg.com/images/themes/theme1/bg.png", "profile_background_tile": false, "profile_image_url": "https://pbs.twimg.com/profile_images/418954796104572928/svvJapst_normal.jpeg", "profile_link_color": "0084B4", "profile_sidebar_fill_color": "DDEEF6", "profile_text_color": "333333", "protected": false, "screen_name": "vofnusa", "statuses_count": 32032, "url": "http://t.co/N16wttUnOR"}}
{"created_at": "Wed Jul 22 21:51:01 +0000 2015", "favorited": false, "id": 623973548466442241, "lang": "en", "retweet_count": 2, "retweeted": false, "source": "<a href=\"http://twitter.com\" rel=\"nofollow\">Twitter Web Client</a>", "text": "Why some naturalized US citizens swear a different Oath of Allegiance, Obama's.\nhttp://t.co/Fbt2v5YzkZ", "truncated": false, "urls": {"http://t.co/Fbt2v5YzkZ": "http://news.yahoo.com/why-naturalized-us-citizens-swear-different-oath-allegiance-194318204.html"}, "user": {"created_at": "Tue Jul 05 13:35:29 +0000 2011", "default_profile": true, "description": "Lots of Anti-Obamacare News. 2A Supporter, Conservative and Christian. No Effity F'n Here, Please.", "favourites_count": 7397, "followers_count": 6465, "friends_count": 5681, "id": 329688737, "lang": "en", "listed_count": 228, "location": "Mid-South", "name": "JT", "profile_background_color": "C0DEED", "profile_background_image_url": "http://abs.twimg.com/images/themes/theme1/bg.png", "profile_background_tile": false, "profile_image_url": "https://pbs.twimg.com/profile_images/378800000135417349/24c16ba0eed7d10ce9fe471073384fb6_normal.jpeg", "profile_link_color": "0084B4", "profile_sidebar_fill_color": "DDEEF6", "profile_text_color": "333333", "protected": false, "screen_name": "cbinflux", "statuses_count": 219389, "time_zone": "Central Time (US & Canada)", "url": "http://t.co/d3Q2uWx4pp", "utc_offset": -21600}}
{"created_at": "Thu Jul 23 01:08:13 +0000 2015", "favorited": false, "id": 624023174091411457, "lang": "en", "possibly_sensitive": true, "retweeted": false, "source": "<a href=\"http://www.facebook.com/twitter\" rel=\"nofollow\">Facebook</a>", "text": "Obama changes newly naturalized \u2018illegal\u2019 Americans pledge to accommodate those of Islamic faith - they will not... http://t.co/90TTiHsSgc", "truncated": false, "urls": {"http://t.co/90TTiHsSgc": "http://fb.me/3BFgvkUoL"}, "user": {"created_at": "Tue Feb 15 16:13:02 +0000 2011", "description": "is a content writer and social media junkie. She loves dogs, Her Music, and Sandra Bullock movies.", "favourites_count": 76, "followers_count": 88, "friends_count": 526, "id": 252638548, "lang": "en", "listed_count": 2, "location": "Chicago", "name": "De Divine", "profile_background_color": "000000", "profile_background_image_url": "http://pbs.twimg.com/profile_background_images/629176682172170240/k_W2SUi-.jpg", "profile_background_tile": false, "profile_banner_url": "https://pbs.twimg.com/profile_banners/252638548/1439541610", "profile_image_url": "https://pbs.twimg.com/profile_images/632108705660538881/vUnCbEWc_normal.jpg", "profile_link_color": "FA743E", "profile_sidebar_fill_color": "131214", "profile_text_color": "B6B6BD", "protected": false, "screen_name": "DivineHarlow", "statuses_count": 4172, "time_zone": "Central Time (US & Canada)", "url": "http://t.co/w2paZrcPZw", "utc_offset": -21600}}
{"created_at": "Thu Jul 23 01:23:54 +0000 2015", "favorite_count": 1, "favorited": false, "id": 624027122927951872, "lang": "en", "retweeted": false, "source": "<a href=\"http://blackberry.com/twitter\" rel=\"nofollow\">Twitter for BlackBerry\u00ae</a>", "text": "Effective 7/21/15, Obama removes having to defend USA against enemies, from naturalized citizen swearing in. no joke! http://t.co/RTibNjhmo9", "truncated": false, "urls": {"http://t.co/RTibNjhmo9": "http://rightwingnews.com/democrats/obama-changes-oath-of-allegiance-for-new-americans-takes-out-pledge-to-defend-the-usa/"}, "user": {"created_at": "Sat Jul 11 21:39:24 +0000 2009", "description": "It's easier to build strong children than to fix broken men.", "favourites_count": 2525, "followers_count": 1299, "friends_count": 1000, "id": 55937427, "lang": "en", "listed_count": 31, "name": "Marine Sniper Dude", "profile_background_color": "131516", "profile_background_image_url": "http://pbs.twimg.com/profile_background_images/569123510/gw26n6xhbi23mxni6w9g.jpeg", "profile_background_tile": true, "profile_banner_url": "https://pbs.twimg.com/profile_banners/55937427/1392595432", "profile_image_url": "https://pbs.twimg.com/profile_images/539997418197352449/SyWIACxo_normal.jpeg", "profile_link_color": "009999", "profile_sidebar_fill_color": "EFEFEF", "profile_text_color": "333333", "protected": false, "screen_name": "SniperMarine", "statuses_count": 5816, "time_zone": "Eastern Time (US & Canada)", "utc_offset": -18000}}
{"created_at": "Thu Jul 23 01:26:22 +0000 2015", "favorited": false, "id": 624027745010388992, "lang": "en", "retweet_count": 1, "retweeted": false, "source": "<a href=\"http://blackberry.com/twitter\" rel=\"nofollow\">Twitter for BlackBerry\u00ae</a>", "text": "If naturalized citizens don't have to swear to defend the country, what are they \"swearing in\" to? A paycheck!? http://t.co/RTibNjhmo9", "truncated": false, "urls": {"http://t.co/RTibNjhmo9": "http://rightwingnews.com/democrats/obama-changes-oath-of-allegiance-for-new-americans-takes-out-pledge-to-defend-the-usa/"}, "user": {"created_at": "Sat Jul 11 21:39:24 +0000 2009", "description": "It's easier to build strong children than to fix broken men.", "favourites_count": 2525, "followers_count": 1299, "friends_count": 1000, "id": 55937427, "lang": "en", "listed_count": 31, "name": "Marine Sniper Dude", "profile_background_color": "131516", "profile_background_image_url": "http://pbs.twimg.com/profile_background_images/569123510/gw26n6xhbi23mxni6w9g.jpeg", "profile_background_tile": true, "profile_banner_url": "https://pbs.twimg.com/profile_banners/55937427/1392595432", "profile_image_url": "https://pbs.twimg.com/profile_images/539997418197352449/SyWIACxo_normal.jpeg", "profile_link_color": "009999", "profile_sidebar_fill_color": "EFEFEF", "profile_text_color": "333333", "protected": false, "screen_name": "SniperMarine", "statuses_count": 5816, "time_zone": "Eastern Time (US & Canada)", "utc_offset": -18000}}
{"created_at": "Thu Jul 23 14:11:33 +0000 2015", "favorited": false, "id": 624220305809084416, "lang": "en", "retweeted": false, "source": "<a href=\"http://www.facebook.com/twitter\" rel=\"nofollow\">Facebook</a>", "text": "Obama changes newly naturalized \u2018illegal\u2019 Americans pledge to accommodate those of Islamic faith - they will not... http://t.co/LLKYbahJTq", "truncated": false, "urls": {"http://t.co/LLKYbahJTq": "http://fb.me/2ghdt1iX2"}, "user": {"created_at": "Wed May 27 19:01:30 +0000 2015", "default_profile": true, "followers_count": 56, "friends_count": 17, "id": 3300716229, "lang": "en", "listed_count": 1, "name": "Truth Uncensored", "profile_background_color": "C0DEED", "profile_background_image_url": "http://abs.twimg.com/images/themes/theme1/bg.png", "profile_background_tile": false, "profile_banner_url": "https://pbs.twimg.com/profile_banners/3300716229/1432776573", "profile_image_url": "https://pbs.twimg.com/profile_images/603727542374137856/YIZeXhMt_normal.jpg", "profile_link_color": "0084B4", "profile_sidebar_fill_color": "DDEEF6", "profile_text_color": "333333", "protected": false, "screen_name": "TruthUncensore", "statuses_count": 3774}}
{"created_at": "Fri Jul 24 16:15:25 +0000 2015", "favorited": false, "id": 624613869227372544, "lang": "en", "retweeted": false, "source": "<a href=\"http://www.facebook.com/twitter\" rel=\"nofollow\">Facebook</a>", "text": "YOUR ACTION NEEDED! Obama just let naturalized citizens off the hook for defending the U.S. READ &amp; SHARE!... http://t.co/WHZh7lfENn", "truncated": false, "urls": {"http://t.co/WHZh7lfENn": "http://fb.me/5nm1Ri3bM"}, "user": {"created_at": "Fri May 15 22:22:29 +0000 2009", "description": "Where conservatives gather to take back our culture, because no one else is going to do it for you. Patriot Nation, Politichicks.tv, Missouri Grassroots Radio", "favourites_count": 421, "followers_count": 554, "friends_count": 520, "geo_enabled": true, "id": 40348738, "lang": "en", "listed_count": 28, "location": "MIssouri", "name": "Culture Vigilante", "profile_background_color": "B2B2DE", "profile_background_image_url": "http://abs.twimg.com/images/themes/theme13/bg.gif", "profile_background_tile": true, "profile_banner_url": "https://pbs.twimg.com/profile_banners/40348738/1381264973", "profile_image_url": "https://pbs.twimg.com/profile_images/1151888237/Screen_shot_2010-01-30_at_6.54.20_AM_normal.png", "profile_link_color": "2172EB", "profile_sidebar_fill_color": "F6FFD1", "profile_text_color": "333333", "protected": false, "screen_name": "CultureVglante", "statuses_count": 4685, "time_zone": "Central Time (US & Canada)", "url": "http://t.co/NwRB31B0ck", "utc_offset": -21600}}
{"created_at": "Fri Jul 24 16:30:42 +0000 2015", "favorited": false, "id": 624617712505884673, "lang": "en", "retweeted": false, "source": "<a href=\"http://sproutsocial.com\" rel=\"nofollow\">Sprout Social</a>", "text": "Check This Out! You Won\u2019t Believe What Obama Omitted From The Oath Of Allegiance For Naturalized Citizens, But You... http://t.co/XLBQ55lZ5x", "truncated": false, "urls": {"http://t.co/XLBQ55lZ5x": "http://bit.ly/1KpkUBZ"}, "user": {"created_at": "Mon Mar 17 15:19:19 +0000 2014", "default_profile": true, "description": "Breaking em down, one at a time...", "favourites_count": 20, "followers_count": 3237, "friends_count": 3162, "id": 2417826549, "lang": "en", "listed_count": 42, "location": "Richmond, VA", "name": "Breaking Liberals", "profile_background_color": "C0DEED", "profile_background_image_url": "http://abs.twimg.com/images/themes/theme1/bg.png", "profile_background_tile": false, "profile_image_url": "https://pbs.twimg.com/profile_images/445660263304667136/w7EYxBo0_normal.jpeg", "profile_link_color": "0084B4", "profile_sidebar_fill_color": "DDEEF6", "profile_text_color": "333333", "protected": false, "screen_name": "BreakingLibs", "statuses_count": 102225, "url": "http://t.co/x05DG6H8Oc"}}
{"created_at": "Fri Jul 24 16:32:17 +0000 2015", "favorited": false, "id": 624618113410019328, "lang": "en", "retweeted": false, "source": "<a href=\"http://sproutsocial.com\" rel=\"nofollow\">Sprout Social</a>", "text": "You Won\u2019t Believe What Obama Omitted From The Oath Of Allegiance For Naturalized Citizens, But You Can Fight Back! http://t.co/QUA2SMzAOB", "truncated": false, "urls": {"http://t.co/QUA2SMzAOB": "http://bit.ly/1KpkUBZ"}, "user": {"created_at": "Thu Dec 20 03:25:00 +0000 2012", "favourites_count": 4, "followers_count": 2126, "friends_count": 628, "id": 1023408246, "lang": "en", "listed_count": 36, "name": "The Patriot Nation", "profile_background_color": "131516", "profile_background_image_url": "http://abs.twimg.com/images/themes/theme14/bg.gif", "profile_background_tile": true, "profile_banner_url": "https://pbs.twimg.com/profile_banners/1023408246/1377032488", "profile_image_url": "https://pbs.twimg.com/profile_images/3004346324/0780ba955cefc3ca53acb599a635a53a_normal.jpeg", "profile_link_color": "009999", "profile_sidebar_fill_color": "EFEFEF", "profile_text_color": "333333", "protected": false, "screen_name": "Last_Patriots", "statuses_count": 37659, "url": "http://t.co/vULInKkkJB"}}
{"created_at": "Fri Jul 24 16:47:43 +0000 2015", "favorited": false, "id": 624621996408594432, "lang": "en", "retweeted": false, "source": "<a href=\"http://twitterfeed.com\" rel=\"nofollow\">twitterfeed</a>", "text": "In another step to fundamentally transform America, Barack Obama has now given an exemption to any newly natur... http://t.co/2VLghLtFqs", "truncated": false, "urls": {"http://t.co/2VLghLtFqs": "http://bit.ly/1DCg0tu"}, "user": {"created_at": "Thu Aug 27 05:05:53 +0000 2009", "description": "Paragraph11 brings you one step closer to The Truth. #Obama #President #Kabbalah #books #Spiritual #Awakening", "favourites_count": 17, "followers_count": 11070, "friends_count": 5649, "id": 69207268, "lang": "en", "listed_count": 168, "location": "Los Angeles", "name": "Paragraph11", "profile_background_color": "2B0817", "profile_background_image_url": "http://pbs.twimg.com/profile_background_images/32371037/background-paragraph11-aliens_1_.jpg", "profile_background_tile": false, "profile_banner_url": "https://pbs.twimg.com/profile_banners/69207268/1424929828", "profile_image_url": "https://pbs.twimg.com/profile_images/505851595536334848/3jlfKjJ1_normal.jpeg", "profile_link_color": "69171A", "profile_sidebar_fill_color": "C99672", "profile_text_color": "CC2D35", "protected": false, "screen_name": "Paragraph11", "statuses_count": 53359, "time_zone": "Pacific Time (US & Canada)", "url": "http://t.co/0KxPrGmvfp", "utc_offset": -28800}}
{"created_at": "Sat Jul 25 00:09:43 +0000 2015", "favorited": false, "id": 624733230349090820, "lang": "en", "retweet_count": 1, "retweeted": false, "source": "<a href=\"http://linkis.com\" rel=\"nofollow\">Linkis.com</a>", "text": "You Won\u2019t Believe What Obama Omitted From The Oath Of Allegiance For Naturalized Citizens,  http://t.co/9WL37m0iDn via @last_patriots", "truncated": false, "urls": {"http://t.co/9WL37m0iDn": "http://ln.is/threepercenternation.com/yQBdg"}, "user": {"created_at": "Tue Oct 07 19:06:31 +0000 2008", "default_profile": true, "description": "Liberals make me nuts.   A Conservative with a little bit of Libertarian.", "favourites_count": 1100, "followers_count": 4365, "friends_count": 4784, "geo_enabled": true, "id": 16634544, "lang": "en", "listed_count": 88, "name": "Shirley Baldwin", "profile_background_color": "C0DEED", "profile_background_image_url": "http://abs.twimg.com/images/themes/theme1/bg.png", "profile_background_tile": false, "profile_banner_url": "https://pbs.twimg.com/profile_banners/16634544/1372088047", "profile_image_url": "https://pbs.twimg.com/profile_images/378800000266847569/a49f4992c1dac49cca7c21dcaef402ab_normal.jpeg", "profile_link_color": "0084B4", "profile_sidebar_fill_color": "DDEEF6", "profile_text_color": "333333", "protected": false, "screen_name": "nutjob", "statuses_count": 223192, "time_zone": "Central Time (US & Canada)", "url": "http://t.co/d6KftF5Z29", "utc_offset": -21600}, "user_mentions": [{"id": 1023408246, "name": "The Patriot Nation", "screen_name": "Last_Patriots"}]}
{"created_at": "Sat Jul 25 06:31:35 +0000 2015", "favorited": false, "hashtags": ["Obama", "Oath", "citizens", "islam", "quakers", "conscientiousobjector"], "id": 624829330196140032, "lang": "en", "retweeted": false, "source": "<a href=\"http://twitter.com\" rel=\"nofollow\">Twitter Web Client</a>", "text": "Did President #Obama change the #Oath of Allegiance for naturalized #citizens? http://t.co/gZatAeszEJ #islam #quakers #conscientiousobjector", "truncated": false, "urls": {"http://t.co/gZatAeszEJ": "http://goo.gl/WROYBI"}, "user": {"created_at": "Mon Dec 02 19:59:41 +0000 2013", "description": "#Hungarian #American in #Britain w/ M.A. #Literature. I believe in Observation, Reason and Experience -R. Ingersoll.", "favourites_count": 3372, "followers_count": 720, "friends_count": 1590, "geo_enabled": true, "id": 2227201987, "lang": "en", "listed_count": 10, "location": "World ", "name": "Ajournaler", "profile_background_color": "000000", "profile_background_image_url": "http://abs.twimg.com/images/themes/theme5/bg.gif", "profile_background_tile": false, "profile_banner_url": "https://pbs.twimg.com/profile_banners/2227201987/1448103780", "profile_image_url": "https://pbs.twimg.com/profile_images/668020880014970880/xetj0O8u_normal.jpg", "profile_link_color": "9266CC", "profile_sidebar_fill_color": "000000", "profile_text_color": "000000", "protected": false, "screen_name": "AJournaler", "statuses_count": 9133, "time_zone": "London"}}
{"created_at": "Sat Jul 25 12:45:33 +0000 2015", "favorited": false, "id": 624923442794512385, "lang": "en", "retweeted": false, "source": "<a href=\"http://mobile.twitter.com\" rel=\"nofollow\">Mobile Web</a>", "text": "You Won\u2019t Believe What Obama Omitted From The Oath Of Allegiance For Naturalized Citizens, But You Can Fight Back! http://t.co/awsQZazrSs", "truncated": false, "urls": {"http://t.co/awsQZazrSs": "http://po.st/1zwyks"}, "user": {"created_at": "Sat Apr 04 10:53:55 +0000 2009", "description": "Conservative/Berean Christian \u2661 Israel raised n the Columbia Gorge, OnlineMarketing,My Tweetheart is @NettaShort Psm 40:7 Ezk38&39 Jhn1:1-14 Rev 22:13 #CCOT", "favourites_count": 15877, "followers_count": 2397, "friends_count": 4469, "geo_enabled": true, "id": 28774609, "lang": "en", "listed_count": 88, "location": "SW Portland area", "name": "Jeffrey Aalvik", "profile_background_color": "0099B9", "profile_background_image_url": "http://pbs.twimg.com/profile_background_images/378800000103299721/8bf7c0d89e931aeeca0980c11576dae2.jpeg", "profile_background_tile": true, "profile_banner_url": "https://pbs.twimg.com/profile_banners/28774609/1419183300", "profile_image_url": "https://pbs.twimg.com/profile_images/651038292918464512/FftSaKQO_normal.jpg", "profile_link_color": "0099B9", "profile_sidebar_fill_color": "95E8EC", "profile_text_color": "3C3940", "protected": false, "screen_name": "jcrew756", "statuses_count": 67473, "time_zone": "America/Los_Angeles", "url": "https://t.co/e4hXBz4oWA", "utc_offset": -28800}}
{"created_at": "Mon Aug 03 19:12:23 +0000 2015", "favorited": false, "id": 628282283368316928, "lang": "en", "retweeted": false, "source": "<a href=\"http://twitter.com\" rel=\"nofollow\">Twitter Web Client</a>", "text": "Oath Of Allegiance Changed: Pledge To Military Service No Longer Required For Naturalized Citizens http://t.co/xy9U4tLNY5 Treason STOP Obama", "truncated": false, "urls": {"http://t.co/xy9U4tLNY5": "http://www.ibtimes.com/oath-allegiance-changed-pledge-military-service-no-longer-required-naturalized-2021564#.Vb-88-KXl9c.twitter"}, "user": {"created_at": "Tue Mar 13 23:01:52 +0000 2012", "default_profile": true, "description": "Owner, Writer, Petillo Masterpiece Guitars, Strings & Acc. started in 1966 w/ Phillip J. Petillo PhD Master Luthier, Engineer, Inventor. CEO, Phil-Lu Inc.", "favourites_count": 1069, "followers_count": 522, "friends_count": 844, "geo_enabled": true, "id": 523773033, "lang": "en", "listed_count": 19, "location": "Ocean, NJ", "name": "Lucille Petillo", "profile_background_color": "C0DEED", "profile_background_image_url": "http://abs.twimg.com/images/themes/theme1/bg.png", "profile_background_tile": false, "profile_banner_url": "https://pbs.twimg.com/profile_banners/523773033/1404334808", "profile_image_url": "https://pbs.twimg.com/profile_images/2842434608/0331ae61ea568b9e9ea0b011eaa3cb1d_normal.jpeg", "profile_link_color": "0084B4", "profile_sidebar_fill_color": "DDEEF6", "profile_text_color": "333333", "protected": false, "screen_name": "littlelulu89", "statuses_count": 8966, "url": "http://t.co/x5nCOAj9U8"}}
{"created_at": "Wed Aug 05 06:27:28 +0000 2015", "favorited": false, "id": 628814557813866496, "in_reply_to_screen_name": "BernardChapin", "in_reply_to_user_id": 30829875, "lang": "en", "retweeted": false, "source": "<a href=\"http://twitter.com\" rel=\"nofollow\">Twitter Web Client</a>", "text": "@BernardChapin \nhttp://t.co/qxIUtwmBGw\nif naturalized citizens object to defending the u.s why become citizens in the first place?", "truncated": false, "urls": {"http://t.co/qxIUtwmBGw": "http://m.snopes.com/obama-changes-oath-of-allegiance/"}, "user": {"created_at": "Sun May 24 18:46:28 +0000 2015", "description": "tate'n round the world", "favourites_count": 3, "followers_count": 1, "friends_count": 6, "id": 3225592369, "lang": "en", "location": "Brisbane, Queensland", "name": "(ip)juic(y)", "profile_background_color": "1A1B1F", "profile_background_image_url": "http://abs.twimg.com/images/themes/theme9/bg.gif", "profile_background_tile": false, "profile_image_url": "https://pbs.twimg.com/profile_images/628792000226000896/toTW4DAP_normal.jpg", "profile_link_color": "ABB8C2", "profile_sidebar_fill_color": "252429", "profile_text_color": "666666", "protected": false, "screen_name": "ipjuicy", "statuses_count": 8, "time_zone": "Brisbane", "utc_offset": 36000}, "user_mentions": [{"id": 30829875, "name": "Bernard Chapin", "screen_name": "BernardChapin"}]}
