{"created_at": "Fri May 29 15:04:39 +0000 2015", "favorited": false, "id": 604302337096732673, "lang": "en", "retweeted": false, "source": "<a href=\"http://tapbots.com/software/tweetbot/mac\" rel=\"nofollow\">Tweetbot for Mac</a>", "text": "HEADS UP FAIRFAX COUNTY, VIRGINIA - Your Kids Will Be Taught That They Can Be Any Gender That They Choose.\nhttp://t.co/WNncgBwpM5\nPARENTS?", "truncated": false, "urls": {"http://t.co/WNncgBwpM5": "http://patriotupdate.com/2015/05/school-system-votes-to-teach-students-to-determine-their-own-gender/"}, "user": {"created_at": "Tue Aug 24 08:44:10 +0000 2010", "description": "Patriot. Love my Country and Flag. \nAnti-Illegal Alien,  Anti-Insider Trading by Elected Officials. Trump 100% Make America Great Again!", "favourites_count": 586, "followers_count": 6927, "friends_count": 7595, "id": 182301577, "lang": "en", "listed_count": 138, "name": "IWantFacts", "profile_background_color": "89C9FA", "profile_background_image_url": "http://abs.twimg.com/images/themes/theme10/bg.gif", "profile_background_tile": true, "profile_image_url": "https://pbs.twimg.com/profile_images/1563144919/Hawk_-_01_normal.jpg", "profile_link_color": "9266CC", "profile_sidebar_fill_color": "7AC3EE", "profile_text_color": "3D1957", "protected": false, "screen_name": "sjh2222", "statuses_count": 155326, "time_zone": "Central Time (US & Canada)", "utc_offset": -21600}}
{"created_at": "Fri Jun 19 23:40:18 +0000 2015", "favorited": false, "id": 612042250076430336, "lang": "en", "retweeted": false, "source": "<a href=\"http://tapbots.com/software/tweetbot/mac\" rel=\"nofollow\">Tweetbot for Mac</a>", "text": "HEADS UP FAIRFAX COUNTY, VIRGINIA - Your Kids Will Be Taught That They Can Be Any Gender That They Choose. http://t.co/WNncgBwpM5 PARENTS?", "truncated": false, "urls": {"http://t.co/WNncgBwpM5": "http://patriotupdate.com/2015/05/school-system-votes-to-teach-students-to-determine-their-own-gender/"}, "user": {"created_at": "Tue Aug 24 08:44:10 +0000 2010", "description": "Patriot. Love my Country and Flag. \nAnti-Illegal Alien,  Anti-Insider Trading by Elected Officials. Trump 100% Make America Great Again!", "favourites_count": 586, "followers_count": 6927, "friends_count": 7595, "id": 182301577, "lang": "en", "listed_count": 138, "name": "IWantFacts", "profile_background_color": "89C9FA", "profile_background_image_url": "http://abs.twimg.com/images/themes/theme10/bg.gif", "profile_background_tile": true, "profile_image_url": "https://pbs.twimg.com/profile_images/1563144919/Hawk_-_01_normal.jpg", "profile_link_color": "9266CC", "profile_sidebar_fill_color": "7AC3EE", "profile_text_color": "3D1957", "protected": false, "screen_name": "sjh2222", "statuses_count": 155326, "time_zone": "Central Time (US & Canada)", "utc_offset": -21600}}
{"created_at": "Thu Jun 25 07:35:00 +0000 2015", "favorited": false, "hashtags": ["NoLiberals", "Freedom", "Education"], "id": 613973653592543233, "lang": "en", "retweeted": false, "source": "<a href=\"http://sproutsocial.com\" rel=\"nofollow\">Sprout Social</a>", "text": "http://t.co/jIRqmGHrRs... #NoLiberals #Freedom #Education\n\nDo you want YOUR kids taught this in school?", "truncated": false, "urls": {"http://t.co/jIRqmGHrRs": "http://bit.ly/FXGenderIdentityBull"}, "user": {"created_at": "Fri Sep 27 12:06:17 +0000 2013", "default_profile": true, "description": "http://t.co/Hmu2GhmXzK is a liberty based news organization produced in America, by Americans.", "favourites_count": 99, "followers_count": 17950, "friends_count": 17526, "id": 1910919804, "lang": "en", "listed_count": 274, "location": "Washington DC", "name": "UFPnews.com ", "profile_background_color": "C0DEED", "profile_background_image_url": "http://abs.twimg.com/images/themes/theme1/bg.png", "profile_background_tile": false, "profile_banner_url": "https://pbs.twimg.com/profile_banners/1910919804/1404315993", "profile_image_url": "https://pbs.twimg.com/profile_images/501758545592074241/tgESS4Se_normal.jpeg", "profile_link_color": "0084B4", "profile_sidebar_fill_color": "DDEEF6", "profile_text_color": "333333", "protected": false, "screen_name": "UFPnews", "statuses_count": 67022, "time_zone": "Eastern Time (US & Canada)", "url": "http://t.co/8YjCZHdna7", "utc_offset": -18000}}
{"created_at": "Thu Jun 25 07:35:00 +0000 2015", "favorited": false, "hashtags": ["NoLiberals", "Freedom", "Education"], "id": 613973653600927744, "lang": "en", "retweeted": false, "source": "<a href=\"http://sproutsocial.com\" rel=\"nofollow\">Sprout Social</a>", "text": "http://t.co/NQcUjkV4oa... #NoLiberals #Freedom #Education\n\nDo you want YOUR kids taught this in school?", "truncated": false, "urls": {"http://t.co/NQcUjkV4oa": "http://bit.ly/FXGenderIdentityBull"}, "user": {"created_at": "Thu Mar 20 19:29:41 +0000 2014", "default_profile": true, "description": "Promoting Self Defense Rights World Wide USAu", "favourites_count": 9, "followers_count": 1464, "friends_count": 1311, "id": 2425339875, "lang": "en", "listed_count": 32, "location": "USA", "name": "I Love Guns", "profile_background_color": "C0DEED", "profile_background_image_url": "http://abs.twimg.com/images/themes/theme1/bg.png", "profile_background_tile": false, "profile_banner_url": "https://pbs.twimg.com/profile_banners/2425339875/1395428864", "profile_image_url": "https://pbs.twimg.com/profile_images/447087184404041728/rkz7x421_normal.jpeg", "profile_link_color": "0084B4", "profile_sidebar_fill_color": "DDEEF6", "profile_text_color": "333333", "protected": false, "screen_name": "I_luvgunz", "statuses_count": 49274}}
{"created_at": "Thu Jun 25 07:35:00 +0000 2015", "favorited": false, "hashtags": ["NoLiberals", "Freedom", "Education"], "id": 613973653621878784, "lang": "en", "retweeted": false, "source": "<a href=\"http://sproutsocial.com\" rel=\"nofollow\">Sprout Social</a>", "text": "http://t.co/Wd6LpUk5PG... #NoLiberals #Freedom #Education\n\nDo you want YOUR kids taught this in school?", "truncated": false, "urls": {"http://t.co/Wd6LpUk5PG": "http://bit.ly/FXGenderIdentityBull"}, "user": {"created_at": "Mon Jun 16 14:00:15 +0000 2014", "default_profile": true, "description": "Reading the Nation's Pulse (We Follow Back)", "followers_count": 2574, "friends_count": 1996, "id": 2571012091, "lang": "en", "listed_count": 40, "location": "Washing DC", "name": "The Dc Gazette", "profile_background_color": "C0DEED", "profile_background_image_url": "http://abs.twimg.com/images/themes/theme1/bg.png", "profile_background_tile": false, "profile_banner_url": "https://pbs.twimg.com/profile_banners/2571012091/1402944594", "profile_image_url": "https://pbs.twimg.com/profile_images/478610078090539008/_0o9ERQf_normal.jpeg", "profile_link_color": "0084B4", "profile_sidebar_fill_color": "DDEEF6", "profile_text_color": "333333", "protected": false, "screen_name": "TheDcGazette", "statuses_count": 49533, "time_zone": "Eastern Time (US & Canada)", "url": "http://t.co/M3HjJxBznj", "utc_offset": -18000}}
{"created_at": "Thu Jun 25 07:35:00 +0000 2015", "favorited": false, "hashtags": ["NoLiberals", "Freedom", "Education"], "id": 613973653651197952, "lang": "en", "retweeted": false, "source": "<a href=\"http://sproutsocial.com\" rel=\"nofollow\">Sprout Social</a>", "text": "http://t.co/lwrSemXjyW... #NoLiberals #Freedom #Education\n\nDo you want YOUR kids taught this in school?", "truncated": false, "urls": {"http://t.co/lwrSemXjyW": "http://bit.ly/FXGenderIdentityBull"}, "user": {"created_at": "Sat Jul 05 14:35:15 +0000 2014", "default_profile": true, "followers_count": 910, "friends_count": 486, "id": 2605559922, "lang": "en", "listed_count": 18, "name": "PatriotNewswire.com", "profile_background_color": "C0DEED", "profile_background_image_url": "http://abs.twimg.com/images/themes/theme1/bg.png", "profile_background_tile": false, "profile_banner_url": "https://pbs.twimg.com/profile_banners/2605559922/1404673275", "profile_image_url": "https://pbs.twimg.com/profile_images/485860026183995392/LPayiFEX_normal.png", "profile_link_color": "0084B4", "profile_sidebar_fill_color": "DDEEF6", "profile_text_color": "333333", "protected": false, "screen_name": "Patriot_Wire", "statuses_count": 30014}}
{"created_at": "Thu Jun 25 07:35:00 +0000 2015", "favorited": false, "hashtags": ["NoLiberals", "Freedom", "Education"], "id": 613973653663801344, "lang": "en", "retweeted": false, "source": "<a href=\"http://sproutsocial.com\" rel=\"nofollow\">Sprout Social</a>", "text": "http://t.co/1bkkbXiySJ... #NoLiberals #Freedom #Education\n\nDo you want YOUR kids taught this in school?", "truncated": false, "urls": {"http://t.co/1bkkbXiySJ": "http://bit.ly/FXGenderIdentityBull"}, "user": {"created_at": "Mon Mar 17 15:19:19 +0000 2014", "default_profile": true, "description": "Breaking em down, one at a time...", "favourites_count": 20, "followers_count": 3215, "friends_count": 3169, "id": 2417826549, "lang": "en", "listed_count": 42, "location": "Richmond, VA", "name": "Breaking Liberals", "profile_background_color": "C0DEED", "profile_background_image_url": "http://abs.twimg.com/images/themes/theme1/bg.png", "profile_background_tile": false, "profile_image_url": "https://pbs.twimg.com/profile_images/445660263304667136/w7EYxBo0_normal.jpeg", "profile_link_color": "0084B4", "profile_sidebar_fill_color": "DDEEF6", "profile_text_color": "333333", "protected": false, "screen_name": "BreakingLibs", "statuses_count": 100213, "url": "http://t.co/x05DG6H8Oc"}}
{"created_at": "Thu Jun 25 07:35:00 +0000 2015", "favorited": false, "hashtags": ["NoLiberals", "Freedom", "Education"], "id": 613973653680603136, "lang": "en", "retweeted": false, "source": "<a href=\"http://sproutsocial.com\" rel=\"nofollow\">Sprout Social</a>", "text": "http://t.co/vkcMZO9k5i... #NoLiberals #Freedom #Education\n\nDo you want YOUR kids taught this in school?", "truncated": false, "urls": {"http://t.co/vkcMZO9k5i": "http://bit.ly/FXGenderIdentityBull"}, "user": {"created_at": "Mon Jan 27 18:14:00 +0000 2014", "default_profile": true, "description": "Arrest and Deport", "favourites_count": 47, "followers_count": 8730, "friends_count": 8354, "id": 2314075110, "lang": "en", "listed_count": 83, "name": "Seal TheUSborder NOW", "profile_background_color": "C0DEED", "profile_background_image_url": "http://abs.twimg.com/images/themes/theme1/bg.png", "profile_background_tile": false, "profile_banner_url": "https://pbs.twimg.com/profile_banners/2314075110/1390850690", "profile_image_url": "https://pbs.twimg.com/profile_images/427882646924820480/gu-13QKZ_normal.jpeg", "profile_link_color": "0084B4", "profile_sidebar_fill_color": "DDEEF6", "profile_text_color": "333333", "protected": false, "screen_name": "SealTheUSBorder", "statuses_count": 61489}}
{"created_at": "Thu Jun 25 07:35:00 +0000 2015", "favorited": false, "hashtags": ["NoLiberals", "Freedom", "Education"], "id": 613973653684760576, "lang": "en", "retweeted": false, "source": "<a href=\"http://sproutsocial.com\" rel=\"nofollow\">Sprout Social</a>", "text": "http://t.co/oqDvgP9vVP... #NoLiberals #Freedom #Education\n\nDo you want YOUR kids taught this in school?", "truncated": false, "urls": {"http://t.co/oqDvgP9vVP": "http://bit.ly/FXGenderIdentityBull"}, "user": {"created_at": "Thu Jan 15 15:02:19 +0000 2015", "default_profile": true, "description": "America's Best Newsfeed", "followers_count": 624, "friends_count": 507, "id": 2979909976, "lang": "en", "listed_count": 24, "location": "USA", "name": "X Tribune", "profile_background_color": "C0DEED", "profile_background_image_url": "http://abs.twimg.com/images/themes/theme1/bg.png", "profile_background_tile": false, "profile_image_url": "https://pbs.twimg.com/profile_images/573272733137698819/E_bmyQsw_normal.jpeg", "profile_link_color": "0084B4", "profile_sidebar_fill_color": "DDEEF6", "profile_text_color": "333333", "protected": false, "screen_name": "XTribune", "statuses_count": 44258, "url": "http://t.co/9bN4SlMdZk"}}
{"created_at": "Thu Jun 25 07:35:00 +0000 2015", "favorited": false, "hashtags": ["NoLiberals", "Freedom", "Education"], "id": 613973653684813824, "lang": "en", "retweeted": false, "source": "<a href=\"http://sproutsocial.com\" rel=\"nofollow\">Sprout Social</a>", "text": "http://t.co/6EFfH2sVM5... #NoLiberals #Freedom #Education\n\nDo you want YOUR kids taught this in school?", "truncated": false, "urls": {"http://t.co/6EFfH2sVM5": "http://bit.ly/FXGenderIdentityBull"}, "user": {"created_at": "Mon Jan 13 10:43:04 +0000 2014", "default_profile": true, "description": "JOIN OR DIE! ~Ben Franklin", "favourites_count": 93, "followers_count": 18061, "friends_count": 17010, "id": 2289476006, "lang": "en", "listed_count": 188, "location": "USA", "name": "The Revolution", "profile_background_color": "C0DEED", "profile_background_image_url": "http://abs.twimg.com/images/themes/theme1/bg.png", "profile_background_tile": false, "profile_banner_url": "https://pbs.twimg.com/profile_banners/2289476006/1389611189", "profile_image_url": "https://pbs.twimg.com/profile_images/451084878147100672/OnSySUyt_normal.jpeg", "profile_link_color": "0084B4", "profile_sidebar_fill_color": "DDEEF6", "profile_text_color": "333333", "protected": false, "screen_name": "BreakingTyranny", "statuses_count": 67845, "url": "http://t.co/pfnSvv4xva"}}
{"created_at": "Fri Jun 26 02:58:46 +0000 2015", "favorited": false, "id": 614266524774170624, "lang": "en", "retweet_count": 2, "retweeted": false, "source": "<a href=\"http://www.facebook.com/twitter\" rel=\"nofollow\">Facebook</a>", "text": "Fairfax Co. school board votes for gender identity and sexual orientation topics to curriculum... http://t.co/60TDSRHSsY", "truncated": false, "urls": {"http://t.co/60TDSRHSsY": "http://fb.me/6ImEKgxkG"}, "user": {"created_at": "Thu Mar 12 06:39:06 +0000 2009", "description": "Reporter & Anchor now @Fox5DC", "favourites_count": 166, "followers_count": 4328, "friends_count": 449, "geo_enabled": true, "id": 23912997, "lang": "en", "listed_count": 145, "location": "Washington, DC", "name": "Tisha Lewis FOX 5 DC", "profile_background_color": "C0DEED", "profile_background_image_url": "http://pbs.twimg.com/profile_background_images/711625397/9862e1289ce7c3a4d25952ae3330d428.jpeg", "profile_background_tile": false, "profile_banner_url": "https://pbs.twimg.com/profile_banners/23912997/1450817555", "profile_image_url": "https://pbs.twimg.com/profile_images/609674526666981376/VYy-_oz9_normal.jpg", "profile_link_color": "0084B4", "profile_sidebar_fill_color": "DDEEF6", "profile_text_color": "333333", "protected": false, "screen_name": "TishaLewis", "statuses_count": 27818, "time_zone": "Eastern Time (US & Canada)", "url": "https://t.co/vaOvoTIeS2", "utc_offset": -18000, "verified": true}}
{"created_at": "Fri Jun 26 03:09:33 +0000 2015", "favorite_count": 10, "favorited": false, "hashtags": ["fox5dc"], "id": 614269239021699072, "lang": "en", "retweet_count": 10, "retweeted": false, "source": "<a href=\"http://twitter.com\" rel=\"nofollow\">Twitter Web Client</a>", "text": "Fairfax Co. school board votes for gender identity, sexual orientation topics to curriculum http://t.co/yE2PLwJb6k #fox5dc", "truncated": false, "urls": {"http://t.co/yE2PLwJb6k": "http://www.myfoxdc.com/story/29413259/fairfax-co-school-board-gender-identity-curriculum"}, "user": {"created_at": "Sun Feb 24 23:13:59 +0000 2008", "description": "We cover breaking news in Washington #DC, Maryland & Virginia. NEWS TIPS: 202-895-3000 or fox5tips@wttg.com. Online: http://t.co/kxTWevUZu9. Facebook: FOX 5 DC", "favourites_count": 6977, "followers_count": 141697, "friends_count": 6376, "geo_enabled": true, "id": 13918492, "lang": "en", "listed_count": 1630, "location": "Washington DC", "name": "FOX 5 DC", "profile_background_color": "9AE4E8", "profile_background_image_url": "http://pbs.twimg.com/profile_background_images/431839962753814528/j0tSUug9.jpeg", "profile_background_tile": false, "profile_banner_url": "https://pbs.twimg.com/profile_banners/13918492/1441743029", "profile_image_url": "https://pbs.twimg.com/profile_images/595294603546329089/LOBqEAyr_normal.png", "profile_link_color": "0084B4", "profile_sidebar_fill_color": "DDFFCC", "profile_text_color": "333333", "protected": false, "screen_name": "fox5dc", "statuses_count": 107189, "time_zone": "Eastern Time (US & Canada)", "utc_offset": -18000, "verified": true}}
{"created_at": "Fri Jun 26 03:20:29 +0000 2015", "favorited": false, "id": 614271987540692992, "lang": "en", "media": [{"display_url": "pic.twitter.com/QkxlagEbFr", "expanded_url": "http://twitter.com/DCnowApp/status/614271987540692992/photo/1", "id": 614271987490418688, "id_str": "614271987490418688", "indices": [115, 137], "media_url": "http://pbs.twimg.com/media/CIZVHjnW8AAwgXy.jpg", "media_url_https": "https://pbs.twimg.com/media/CIZVHjnW8AAwgXy.jpg", "sizes": {"large": {"h": 360, "resize": "fit", "w": 640}, "medium": {"h": 337, "resize": "fit", "w": 600}, "small": {"h": 191, "resize": "fit", "w": 340}, "thumb": {"h": 150, "resize": "crop", "w": 150}}, "type": "photo", "url": "http://t.co/QkxlagEbFr"}], "retweeted": false, "source": "<a href=\"http://ifttt.com\" rel=\"nofollow\">IFTTT</a>", "text": "http://t.co/XOJC3bsvUd Fairfax Co. school board votes for gender identity, sexual orientation topics to curriculu\u2026 http://t.co/QkxlagEbFr", "truncated": false, "urls": {"http://t.co/XOJC3bsvUd": "http://ift.tt/1fHYVZM"}, "user": {"created_at": "Thu Dec 04 20:12:33 +0000 2014", "default_profile": true, "description": "Washington DC Breaking News, Weather, Sports, Events, Jobs and more...", "followers_count": 204, "friends_count": 40, "id": 2905564414, "lang": "en", "listed_count": 65, "name": "DCnow", "profile_background_color": "C0DEED", "profile_background_image_url": "http://abs.twimg.com/images/themes/theme1/bg.png", "profile_background_tile": false, "profile_banner_url": "https://pbs.twimg.com/profile_banners/2905564414/1417724043", "profile_image_url": "https://pbs.twimg.com/profile_images/540599683085660160/9h_39Tc2_normal.png", "profile_link_color": "0084B4", "profile_sidebar_fill_color": "DDEEF6", "profile_text_color": "333333", "protected": false, "screen_name": "DCnowApp", "statuses_count": 151796}}
{"created_at": "Fri Jun 26 03:41:31 +0000 2015", "favorited": false, "id": 614277283650519040, "lang": "en", "retweeted": false, "source": "<a href=\"http://twitterfeed.com\" rel=\"nofollow\">twitterfeed</a>", "text": "Fairfax Co. school board votes for gender identity, sexual orientation topics to curriculum http://t.co/q979a2uz5F", "truncated": false, "urls": {"http://t.co/q979a2uz5F": "http://bit.ly/1RBmlvG"}, "user": {"created_at": "Sun Jul 13 03:52:31 +0000 2014", "default_profile": true, "description": "Local News from across the country.", "followers_count": 580, "friends_count": 1, "id": 2634586843, "lang": "en", "listed_count": 162, "location": "USA", "name": "Local News Feeds", "profile_background_color": "C0DEED", "profile_background_image_url": "http://abs.twimg.com/images/themes/theme1/bg.png", "profile_background_tile": false, "profile_image_url": "https://pbs.twimg.com/profile_images/488169430753357824/wwuaE2rr_normal.png", "profile_link_color": "0084B4", "profile_sidebar_fill_color": "DDEEF6", "profile_text_color": "333333", "protected": false, "screen_name": "localnewsfeeds", "statuses_count": 582005}}
{"created_at": "Fri Jun 26 03:56:40 +0000 2015", "favorited": false, "hashtags": ["DCMetro"], "id": 614281093466828804, "lang": "en", "retweeted": false, "source": "<a href=\"http://twitterfeed.com\" rel=\"nofollow\">twitterfeed</a>", "text": "Fairfax Co. school board votes for gender identity, sexual orientation topics to curriculum #DCMetro http://t.co/2uA1hfeubU", "truncated": false, "urls": {"http://t.co/2uA1hfeubU": "http://bit.ly/1GvO2AW"}, "user": {"created_at": "Mon Oct 04 18:13:00 +0000 2010", "description": "All your Washington DC Metro News in One Place", "followers_count": 3400, "friends_count": 2488, "id": 198586842, "lang": "en", "listed_count": 32, "location": "USA", "name": "Washington DC Newz", "profile_background_color": "131516", "profile_background_image_url": "http://abs.twimg.com/images/themes/theme14/bg.gif", "profile_background_tile": true, "profile_banner_url": "https://pbs.twimg.com/profile_banners/198586842/1369800508", "profile_image_url": "https://pbs.twimg.com/profile_images/3725883182/aad427675b62d854b5d0c0d89b9328ba_normal.jpeg", "profile_link_color": "009999", "profile_sidebar_fill_color": "EFEFEF", "profile_text_color": "333333", "protected": false, "screen_name": "TheDCNewz", "statuses_count": 48110, "time_zone": "Eastern Time (US & Canada)", "url": "http://t.co/ieaW7eokAy", "utc_offset": -18000}}
{"created_at": "Fri Jun 26 06:24:07 +0000 2015", "favorited": false, "hashtags": ["DCMetro"], "id": 614318201892048901, "lang": "en", "retweeted": false, "source": "<a href=\"http://twitterfeed.com\" rel=\"nofollow\">twitterfeed</a>", "text": "Fairfax County school board approves teaching gender identity #DCMetro http://t.co/ajBTVGkzrA", "truncated": false, "urls": {"http://t.co/ajBTVGkzrA": "http://bit.ly/1eKWwh1"}, "user": {"created_at": "Mon Oct 04 18:13:00 +0000 2010", "description": "All your Washington DC Metro News in One Place", "followers_count": 3400, "friends_count": 2488, "id": 198586842, "lang": "en", "listed_count": 32, "location": "USA", "name": "Washington DC Newz", "profile_background_color": "131516", "profile_background_image_url": "http://abs.twimg.com/images/themes/theme14/bg.gif", "profile_background_tile": true, "profile_banner_url": "https://pbs.twimg.com/profile_banners/198586842/1369800508", "profile_image_url": "https://pbs.twimg.com/profile_images/3725883182/aad427675b62d854b5d0c0d89b9328ba_normal.jpeg", "profile_link_color": "009999", "profile_sidebar_fill_color": "EFEFEF", "profile_text_color": "333333", "protected": false, "screen_name": "TheDCNewz", "statuses_count": 48110, "time_zone": "Eastern Time (US & Canada)", "url": "http://t.co/ieaW7eokAy", "utc_offset": -18000}}
{"created_at": "Fri Jun 26 12:23:36 +0000 2015", "favorite_count": 5, "favorited": false, "id": 614408670269558784, "lang": "en", "retweet_count": 11, "retweeted": false, "source": "<a href=\"http://twitter.com\" rel=\"nofollow\">Twitter Web Client</a>", "text": "Fairfax County school board approves teaching gender identity http://t.co/KqsVHcsSCr", "truncated": false, "urls": {"http://t.co/KqsVHcsSCr": "http://on.wusa9.com/1GNnYU4"}, "user": {"created_at": "Fri Jul 11 13:19:21 +0000 2008", "description": "Your stop for breaking news, weather & traffic in DC, Maryland & Virginia. Home of @nfl #SuperBowl50. Story ideas? Email newstips@wusa9.com. (@CBS, @TEGNA)", "favourites_count": 2718, "followers_count": 76455, "friends_count": 5307, "geo_enabled": true, "id": 15391102, "lang": "en", "listed_count": 2300, "location": "Washington, DC", "name": "WUSA9", "profile_background_color": "14365A", "profile_background_image_url": "http://pbs.twimg.com/profile_background_images/766235784/5c76ace0a4955f5f3e68e99930aaa56b.jpeg", "profile_background_tile": false, "profile_banner_url": "https://pbs.twimg.com/profile_banners/15391102/1438114567", "profile_image_url": "https://pbs.twimg.com/profile_images/528571657326055424/3rKkWO5L_normal.png", "profile_link_color": "990000", "profile_sidebar_fill_color": "F3F3F3", "profile_text_color": "333333", "protected": false, "screen_name": "wusa9", "statuses_count": 144621, "time_zone": "Eastern Time (US & Canada)", "url": "http://t.co/I3iBZoIuRk", "utc_offset": -18000, "verified": true}}
{"created_at": "Fri Jun 26 12:32:16 +0000 2015", "favorited": false, "id": 614410849382498304, "lang": "en", "retweeted": false, "source": "<a href=\"http://twitter.com/download/android\" rel=\"nofollow\">Twitter for Android</a>", "text": "Fairfax County school board approves teaching gender identity http://t.co/prTwfAtQvU", "truncated": false, "urls": {"http://t.co/prTwfAtQvU": "http://on.wusa9.com/1Nh2914"}, "user": {"created_at": "Thu Jan 30 20:27:05 +0000 2014", "description": "#HeyNow!  Producer, Announcer for Magic 95.9,Radio One Baltimore, Traffic Anchor @ Total Traffic & Weather Network #LoveTheLord instagram @teacups96", "favourites_count": 635, "followers_count": 584, "friends_count": 1051, "id": 2319490003, "lang": "en", "listed_count": 7, "location": "DMV", "name": "Maileka Flippen", "profile_background_color": "C0DEED", "profile_background_image_url": "http://pbs.twimg.com/profile_background_images/446782199560290305/exPBdeZy.jpeg", "profile_background_tile": true, "profile_banner_url": "https://pbs.twimg.com/profile_banners/2319490003/1450995696", "profile_image_url": "https://pbs.twimg.com/profile_images/643901528886124544/ecrqF0K0_normal.jpg", "profile_link_color": "3D0099", "profile_sidebar_fill_color": "DDEEF6", "profile_text_color": "333333", "protected": false, "screen_name": "MailekaFlippen", "statuses_count": 6482, "time_zone": "Atlantic Time (Canada)", "utc_offset": -14400}}
{"created_at": "Fri Jun 26 12:32:55 +0000 2015", "favorited": false, "hashtags": ["Virginia"], "id": 614411012188581888, "lang": "en", "retweeted": false, "source": "<a href=\"http://twitter.com\" rel=\"nofollow\">Twitter Web Client</a>", "text": "#Virginia - RT @wusa9 Fairfax County school board approves teaching gender identity http://t.co/B7GPC8azM5", "truncated": false, "urls": {"http://t.co/B7GPC8azM5": "http://on.wusa9.com/1GNnYU4"}, "user": {"created_at": "Tue Jul 22 15:17:14 +0000 2008", "description": "Tweet tons of DC-Bmore area/Nat'l news, sports, & crazy stuff; Worked at a huge cable sports network; Emmy winner; My opinions; RT's aren't co-signs;", "favourites_count": 56, "followers_count": 1197, "friends_count": 1865, "id": 15532037, "lang": "en", "listed_count": 75, "location": "DC-Baltimore area, Earth ", "name": "ChuckyT3", "profile_background_color": "999999", "profile_background_image_url": "http://pbs.twimg.com/profile_background_images/641790832174080000/2549GtNy.png", "profile_background_tile": true, "profile_banner_url": "https://pbs.twimg.com/profile_banners/15532037/1442082486", "profile_image_url": "https://pbs.twimg.com/profile_images/456320058696798208/u-5wAV_G_normal.jpeg", "profile_link_color": "DD2E44", "profile_sidebar_fill_color": "000000", "profile_text_color": "000000", "protected": false, "screen_name": "ChuckyT3", "statuses_count": 69616, "time_zone": "Eastern Time (US & Canada)", "utc_offset": -18000}, "user_mentions": [{"id": 15391102, "name": "WUSA9", "screen_name": "wusa9"}]}
{"created_at": "Fri Jun 26 13:43:06 +0000 2015", "favorited": false, "hashtags": ["fox5dc"], "id": 614428677087084544, "lang": "en", "retweet_count": 1, "retweeted": false, "source": "<a href=\"http://twitter.com/download/iphone\" rel=\"nofollow\">Twitter for iPhone</a>", "text": "ICYMI Fairfax Co. school board votes for gender identity, sexual orientation topics to curriculum #fox5dc http://t.co/maNwBxCYcr", "truncated": false, "urls": {"http://t.co/maNwBxCYcr": "http://www.myfoxdc.com/story/29413259/fairfax-co-school-board-gender-identity-curriculum"}, "user": {"created_at": "Thu Mar 12 06:39:06 +0000 2009", "description": "Reporter & Anchor now @Fox5DC", "favourites_count": 166, "followers_count": 4328, "friends_count": 449, "geo_enabled": true, "id": 23912997, "lang": "en", "listed_count": 145, "location": "Washington, DC", "name": "Tisha Lewis FOX 5 DC", "profile_background_color": "C0DEED", "profile_background_image_url": "http://pbs.twimg.com/profile_background_images/711625397/9862e1289ce7c3a4d25952ae3330d428.jpeg", "profile_background_tile": false, "profile_banner_url": "https://pbs.twimg.com/profile_banners/23912997/1450817555", "profile_image_url": "https://pbs.twimg.com/profile_images/609674526666981376/VYy-_oz9_normal.jpg", "profile_link_color": "0084B4", "profile_sidebar_fill_color": "DDEEF6", "profile_text_color": "333333", "protected": false, "screen_name": "TishaLewis", "statuses_count": 27818, "time_zone": "Eastern Time (US & Canada)", "url": "https://t.co/vaOvoTIeS2", "utc_offset": -18000, "verified": true}}
{"created_at": "Fri Jun 26 16:05:31 +0000 2015", "favorited": false, "id": 614464516869459971, "lang": "en", "retweet_count": 1, "retweeted": false, "source": "<a href=\"http://www.hootsuite.com\" rel=\"nofollow\">Hootsuite</a>", "text": "Fairfax County school board approves teaching gender identity http://t.co/ALEbkBPmsf", "truncated": false, "urls": {"http://t.co/ALEbkBPmsf": "http://ow.ly/OQrO1"}, "user": {"created_at": "Thu Jun 19 15:44:45 +0000 2008", "description": "NLADA, the collective voice for excellence in civil legal aid and public defense, advocates for access to justice for all. \n\nTweets do not imply endorsement.", "favourites_count": 871, "followers_count": 3227, "friends_count": 1672, "geo_enabled": true, "id": 15170263, "lang": "en", "listed_count": 170, "location": "Washington, DC", "name": "NLADA", "profile_background_color": "C0DEED", "profile_background_image_url": "http://pbs.twimg.com/profile_background_images/166821363/02.-Square-Stamp-CMYK.png", "profile_background_tile": true, "profile_image_url": "https://pbs.twimg.com/profile_images/444147928450334720/r10kRWjX_normal.jpeg", "profile_link_color": "0084B4", "profile_sidebar_fill_color": "DDEEF6", "profile_text_color": "333333", "protected": false, "screen_name": "NLADA", "statuses_count": 3836, "time_zone": "Eastern Time (US & Canada)", "url": "http://t.co/qcQgVP2dwu", "utc_offset": -18000}}
{"created_at": "Fri Jun 26 16:22:40 +0000 2015", "favorited": false, "id": 614468831092674560, "lang": "en", "media": [{"display_url": "pic.twitter.com/xGhTkDE205", "expanded_url": "http://twitter.com/MDBrookman/status/614468831092674560/photo/1", "id": 614468830144806912, "id_str": "614468830144806912", "indices": [100, 122], "media_url": "http://pbs.twimg.com/media/CIcIJTpUwAAhddH.png", "media_url_https": "https://pbs.twimg.com/media/CIcIJTpUwAAhddH.png", "sizes": {"large": {"h": 16, "resize": "fit", "w": 16}, "medium": {"h": 16, "resize": "fit", "w": 16}, "small": {"h": 16, "resize": "fit", "w": 16}, "thumb": {"h": 16, "resize": "crop", "w": 16}}, "type": "photo", "url": "http://t.co/xGhTkDE205"}], "retweeted": false, "source": "<a href=\"http://publicize.wp.com/\" rel=\"nofollow\">WordPress.com</a>", "text": "Fairfax Co. school board adds lessons on gender identity, sexual\u00a0orientation http://t.co/DLIz1byS7H http://t.co/xGhTkDE205", "truncated": false, "urls": {"http://t.co/DLIz1byS7H": "http://blog.dieogo.com/2015/06/26/fairfax-co-school-board-adds-lessons-on-gender-identity-sexual-orientation/"}, "user": {"created_at": "Fri Apr 17 12:29:54 +0000 2009", "description": "Just another reblogger I try my best to find the best blogs to reblog if not then I will blog it out. Follow me at http://t.co/khF8qVvtT1", "favourites_count": 6, "followers_count": 1068, "friends_count": 2181, "geo_enabled": true, "id": 32385154, "lang": "en", "listed_count": 110, "location": "Iowa USA", "name": "MDB", "profile_background_color": "9FE0DB", "profile_background_image_url": "http://pbs.twimg.com/profile_background_images/729799179/525e2f1258f15b1013ad38d04e5adba1.jpeg", "profile_background_tile": true, "profile_banner_url": "https://pbs.twimg.com/profile_banners/32385154/1431398234", "profile_image_url": "https://pbs.twimg.com/profile_images/549772029356826624/s_R2MvQy_normal.jpeg", "profile_link_color": "FA743E", "profile_sidebar_fill_color": "FFFFFF", "profile_text_color": "93A644", "protected": false, "screen_name": "MDBrookman", "statuses_count": 117982, "time_zone": "Central Time (US & Canada)", "url": "http://t.co/ChQE3PViWV", "utc_offset": -21600}}
{"created_at": "Fri Jun 26 16:29:02 +0000 2015", "favorited": false, "hashtags": ["local", "news"], "id": 614470434256367616, "lang": "en", "retweeted": false, "source": "<a href=\"http://twitterfeed.com\" rel=\"nofollow\">twitterfeed</a>", "text": "#local #news Fairfax Co. school board adds lessons on gender identity, sexual orientation", "truncated": false, "user": {"created_at": "Fri Aug 15 07:33:02 +0000 2014", "description": "Breaking news, weather, traffic and more for Washington. DM us anytime. RTs not endorsements", "favourites_count": 9, "followers_count": 29340, "friends_count": 22674, "geo_enabled": true, "id": 2743327187, "lang": "en", "listed_count": 176, "location": "Washington, D.C.", "name": "Washington Online", "profile_background_color": "000000", "profile_background_image_url": "http://abs.twimg.com/images/themes/theme18/bg.gif", "profile_background_tile": false, "profile_banner_url": "https://pbs.twimg.com/profile_banners/2743327187/1449946679", "profile_image_url": "https://pbs.twimg.com/profile_images/677424492696637440/jM8Rqlel_normal.png", "profile_link_color": "000000", "profile_sidebar_fill_color": "000000", "profile_text_color": "000000", "protected": false, "screen_name": "WashingtOnline", "statuses_count": 24909, "time_zone": "Eastern Time (US & Canada)", "utc_offset": -18000}}
{"created_at": "Fri Jun 26 18:16:46 +0000 2015", "favorited": false, "id": 614497547667808256, "lang": "en", "retweeted": false, "source": "<a href=\"http://twitter.com\" rel=\"nofollow\">Twitter Web Client</a>", "text": "Fairfax Co. school board adds lessons on gender identity, sexual orientation - http://t.co/o3qXzPHoYH", "truncated": false, "urls": {"http://t.co/o3qXzPHoYH": "http://www.washingtontimes.com/news/2015/jun/26/fairfax-co-school-board-adds-lessons-on-gender-ide/"}, "user": {"created_at": "Fri Jul 03 15:30:27 +0000 2009", "description": "This is the official Twitter feed of The Washington Times Metro desk, following news in the District, Virginia and Maryland.", "favourites_count": 1, "followers_count": 2099, "friends_count": 363, "id": 53414028, "lang": "en", "listed_count": 131, "location": "Washington, DC", "name": "The Washington Times", "profile_background_color": "000000", "profile_background_image_url": "http://pbs.twimg.com/profile_background_images/357629523/Twitter-BGs.jpg", "profile_background_tile": false, "profile_image_url": "https://pbs.twimg.com/profile_images/2296430512/gailfe92a0rmsn7at4h9_normal.jpeg", "profile_link_color": "0F0102", "profile_sidebar_fill_color": "EFEFEF", "profile_text_color": "333333", "protected": false, "screen_name": "WashTimesLocal", "statuses_count": 6330, "url": "http://t.co/37qf7GNAqI"}}
{"created_at": "Sat Jun 27 13:57:15 +0000 2015", "favorited": false, "id": 614794624125796352, "lang": "en", "retweeted": false, "source": "<a href=\"http://www.facebook.com/twitter\" rel=\"nofollow\">Facebook</a>", "text": "Fairfax Co. school board adds lessons on gender identity, sexual orientation\nThe Fairfax County School Board... http://t.co/8PZo4xyjqb", "truncated": false, "urls": {"http://t.co/8PZo4xyjqb": "http://fb.me/7EjR0VmbQ"}, "user": {"created_at": "Tue Apr 26 10:53:40 +0000 2011", "description": "Sounding the warning to a lost world that Jesus Christ is Lord! End Times Watchmen! It is our duty to save souls for the Kingdom of Jesus Christ!", "favourites_count": 69, "followers_count": 2026, "friends_count": 369, "id": 288164866, "lang": "en", "listed_count": 53, "name": "Tribulation Now", "profile_background_color": "0099B9", "profile_background_image_url": "http://pbs.twimg.com/profile_background_images/378800000096781942/796dac6e9ea3f9ad3282af99242c4813.jpeg", "profile_background_tile": true, "profile_banner_url": "https://pbs.twimg.com/profile_banners/288164866/1382058959", "profile_image_url": "https://pbs.twimg.com/profile_images/1536996771/TribNowLogo_normal.jpg", "profile_link_color": "0099B9", "profile_sidebar_fill_color": "95E8EC", "profile_text_color": "685C78", "protected": false, "screen_name": "TribulationNow", "statuses_count": 74061, "time_zone": "Central Time (US & Canada)", "utc_offset": -21600}}
{"created_at": "Sun Jun 28 17:27:53 +0000 2015", "favorited": false, "id": 615210019471159296, "lang": "en", "retweeted": false, "source": "<a href=\"http://www.facebook.com/twitter\" rel=\"nofollow\">Facebook</a>", "text": "Virgnia Fairfax Co. school board adds lessons on gender identity, sexual orientation http://t.co/OjX9PppmT8", "truncated": false, "urls": {"http://t.co/OjX9PppmT8": "http://fb.me/6FTcslTYF"}, "user": {"created_at": "Tue Oct 21 02:48:21 +0000 2008", "description": "Breaking news matching Bible prophecy", "favourites_count": 1, "followers_count": 108, "friends_count": 40, "geo_enabled": true, "id": 16879934, "lang": "en", "listed_count": 4, "location": "Chambersburg,Pa.", "name": "q4061", "profile_background_color": "00020A", "profile_background_image_url": "http://pbs.twimg.com/profile_background_images/76585272/background-settings.jpg", "profile_background_tile": true, "profile_banner_url": "https://pbs.twimg.com/profile_banners/16879934/1415764698", "profile_image_url": "https://pbs.twimg.com/profile_images/1470398041/23ef289e0e2113f2b0eee21a9c4e0f80_normal.jpg", "profile_link_color": "3B94D9", "profile_sidebar_fill_color": "252429", "profile_text_color": "666666", "protected": false, "screen_name": "q4061", "statuses_count": 22728, "time_zone": "Eastern Time (US & Canada)", "url": "https://t.co/WasImniiT0", "utc_offset": -18000}}
{"created_at": "Tue Jun 30 12:23:26 +0000 2015", "favorited": false, "id": 615858180107603968, "lang": "en", "retweeted": false, "source": "<a href=\"http://investmentwatchblog.com\" rel=\"nofollow\">InvestmentWatch</a>", "text": "Fairfax Virginia School Board Adds \"gender equality\" curriculum. - http://t.co/ZQ0CzPoKGP", "truncated": false, "urls": {"http://t.co/ZQ0CzPoKGP": "http://investmentwatchblog.com/fairfax-virginia-school-board-adds-gender-equality-curriculum/"}, "user": {"created_at": "Wed Feb 10 02:24:58 +0000 2010", "description": "Spreading the truth. Empowering the people. \nFacebook Page: https://t.co/h6aQUOPMM7", "favourites_count": 5, "followers_count": 2625, "friends_count": 478, "geo_enabled": true, "id": 112902058, "lang": "en", "listed_count": 154, "location": "USA", "name": "InvestmentWatch", "profile_background_color": "642D8B", "profile_background_image_url": "http://abs.twimg.com/images/themes/theme10/bg.gif", "profile_background_tile": true, "profile_image_url": "https://pbs.twimg.com/profile_images/603357884009680896/VguTpI5V_normal.png", "profile_link_color": "FF0000", "profile_sidebar_fill_color": "7AC3EE", "profile_text_color": "3D1957", "protected": false, "screen_name": "InvestWatchBlog", "statuses_count": 190309, "time_zone": "Eastern Time (US & Canada)", "url": "http://t.co/ifVqaDurrD", "utc_offset": -18000}}
{"created_at": "Tue Jun 30 12:34:37 +0000 2015", "favorited": false, "id": 615860992774291456, "lang": "en", "retweeted": false, "source": "<a href=\"http://twitterfeed.com\" rel=\"nofollow\">twitterfeed</a>", "text": "Fairfax Virginia School Board Adds \"gender equality\" curriculum. http://t.co/s2Yoxr7TwA", "truncated": false, "urls": {"http://t.co/s2Yoxr7TwA": "http://bit.ly/1U3KXkP"}, "user": {"created_at": "Sat Sep 04 20:22:07 +0000 2010", "description": "UFOs, Conspiracy Theorists, Lunatic Fringe", "followers_count": 9611, "friends_count": 1348, "id": 186936248, "lang": "en", "listed_count": 318, "name": "Godlike Productions", "profile_background_color": "FFFFFF", "profile_background_image_url": "http://pbs.twimg.com/profile_background_images/149564361/godlikelogo_white-small.png", "profile_background_tile": false, "profile_image_url": "https://pbs.twimg.com/profile_images/1117377543/glplogo_normal.jpg", "profile_link_color": "373838", "profile_sidebar_fill_color": "F5F5F5", "profile_text_color": "424242", "protected": false, "screen_name": "glptweets", "statuses_count": 79303, "time_zone": "Eastern Time (US & Canada)", "url": "http://t.co/XScXJ8DMrr", "utc_offset": -18000}}
{"created_at": "Tue Jun 30 12:40:33 +0000 2015", "favorited": false, "id": 615862484251992064, "lang": "en", "retweet_count": 1, "retweeted": false, "source": "<a href=\"http://publicize.wp.com/\" rel=\"nofollow\">WordPress.com</a>", "text": "Fairfax Virginia School Board Adds \u201cgender equality\u201d\u00a0curriculum. https://t.co/O5HzeOBYKZ", "truncated": false, "urls": {"https://t.co/O5HzeOBYKZ": "https://ftsnnews.wordpress.com/2015/06/30/fairfax-virginia-school-board-adds-gender-equality-curriculum"}, "user": {"created_at": "Tue Nov 11 22:25:55 +0000 2008", "description": "Also check out our newsroom pages @ftsnnewsdesk, and @ftsnnewsdeskm", "favourites_count": 2, "followers_count": 980, "friends_count": 441, "id": 17324110, "lang": "en", "listed_count": 160, "location": "Bronx, New York", "name": "FTSN", "profile_background_color": "131516", "profile_background_image_url": "http://pbs.twimg.com/profile_background_images/86648042/overlay_2.png", "profile_background_tile": true, "profile_banner_url": "https://pbs.twimg.com/profile_banners/17324110/1398738380", "profile_image_url": "https://pbs.twimg.com/profile_images/460966364631408640/OEiFAJwa_normal.jpeg", "profile_link_color": "0A000A", "profile_sidebar_fill_color": "EFEFEF", "profile_text_color": "333333", "protected": false, "screen_name": "fightingtyranny", "statuses_count": 343497, "time_zone": "Eastern Time (US & Canada)", "url": "http://t.co/MTgZCjZynb", "utc_offset": -18000}}
{"created_at": "Tue Jun 30 20:57:24 +0000 2015", "favorited": false, "id": 615987524457103360, "lang": "en", "retweeted": false, "source": "<a href=\"http://ifttt.com\" rel=\"nofollow\">IFTTT</a>", "text": "Fairfax Virginia School Board Adds \"gender equality\" curriculum http://t.co/HhugbwBXUs\n\"FAIRFAX, Va. (WUSA9) -- \u2026 http://t.co/lNA8h1ti7G", "truncated": false, "urls": {"http://t.co/HhugbwBXUs": "http://ift.tt/1R2I5FR", "http://t.co/lNA8h1ti7G": "http://ift.tt/1NtcfN5"}, "user": {"created_at": "Fri Mar 11 04:24:13 +0000 2011", "default_profile": true, "description": "Love God, love freedom found in Christ, love hiphop.\r\n\r\n#JesusIsLord #FreedomInHim #ResistSin #Go2Heaven #FollowJesus #RepentNow #FreedomFoundInChrist #LoveGod", "favourites_count": 1292, "followers_count": 2396, "friends_count": 816, "id": 264004582, "lang": "en", "listed_count": 179, "location": "On My Way To Heaven", "name": "FREEDOM \\\u263a/ FTW", "profile_background_color": "C0DEED", "profile_background_image_url": "http://abs.twimg.com/images/themes/theme1/bg.png", "profile_background_tile": false, "profile_banner_url": "https://pbs.twimg.com/profile_banners/264004582/1359771746", "profile_image_url": "https://pbs.twimg.com/profile_images/3195103201/d007d427360af414882d21915d094964_normal.jpeg", "profile_link_color": "0084B4", "profile_sidebar_fill_color": "DDEEF6", "profile_text_color": "333333", "protected": false, "screen_name": "freedomforthwin", "statuses_count": 914680, "time_zone": "Pacific Time (US & Canada)", "url": "http://t.co/u5DEv8Agxm", "utc_offset": -28800}}
{"created_at": "Sat Jul 04 16:35:33 +0000 2015", "favorited": false, "hashtags": ["tcot", "cbn", "news"], "id": 617371176755576832, "lang": "en", "retweeted": false, "source": "<a href=\"http://dlvr.it\" rel=\"nofollow\">dlvr.it</a>", "text": "#tcot #cbn #news Gender Identity Curriculum Angers Parents in Virginia: The Fairfax County Public school board\u2026 http://t.co/Jyntc1P0uh", "truncated": false, "urls": {"http://t.co/Jyntc1P0uh": "http://dlvr.it/BQM51g"}, "user": {"created_at": "Thu Jan 31 01:53:37 +0000 2008", "description": "SAHM/blogger;tweet abt politics to parenting&everything in btwn[autofeed]#Catholic #prolife #tcot #news #tech http://t.co/rvyd3mkLkJ submit parenting news", "favourites_count": 1217535, "followers_count": 24491, "friends_count": 21421, "id": 12896172, "lang": "en", "listed_count": 1401, "location": "USA", "name": "Patty", "profile_background_color": "E7E0B4", "profile_background_image_url": "http://pbs.twimg.com/profile_background_images/357230677/1320266541peach-polka-dots.jpg", "profile_background_tile": false, "profile_banner_url": "https://pbs.twimg.com/profile_banners/12896172/1409009923", "profile_image_url": "https://pbs.twimg.com/profile_images/625749074986164224/foH1QTeQ_normal.png", "profile_link_color": "8B0508", "profile_sidebar_fill_color": "F0A8AA", "profile_text_color": "000000", "protected": false, "screen_name": "littlebytesnews", "statuses_count": 1064511, "time_zone": "Arizona", "url": "http://t.co/3P15XpDxer", "utc_offset": -25200}}
{"created_at": "Sun Jul 05 05:09:24 +0000 2015", "favorited": false, "hashtags": ["tcot", "cbn", "news"], "id": 617560890796195840, "lang": "en", "retweeted": false, "source": "<a href=\"http://dlvr.it\" rel=\"nofollow\">dlvr.it</a>", "text": "#tcot #cbn #news Gender Identity Curriculum Angers Parents in Virginia: The Fairfax County Public school board\u2026 http://t.co/5attOBxLvV", "truncated": false, "urls": {"http://t.co/5attOBxLvV": "http://dlvr.it/BQZ5hV"}, "user": {"created_at": "Thu Jan 31 01:53:37 +0000 2008", "description": "SAHM/blogger;tweet abt politics to parenting&everything in btwn[autofeed]#Catholic #prolife #tcot #news #tech http://t.co/rvyd3mkLkJ submit parenting news", "favourites_count": 1217533, "followers_count": 24491, "friends_count": 21420, "id": 12896172, "lang": "en", "listed_count": 1401, "location": "USA", "name": "Patty", "profile_background_color": "E7E0B4", "profile_background_image_url": "http://pbs.twimg.com/profile_background_images/357230677/1320266541peach-polka-dots.jpg", "profile_background_tile": false, "profile_banner_url": "https://pbs.twimg.com/profile_banners/12896172/1409009923", "profile_image_url": "https://pbs.twimg.com/profile_images/625749074986164224/foH1QTeQ_normal.png", "profile_link_color": "8B0508", "profile_sidebar_fill_color": "F0A8AA", "profile_text_color": "000000", "protected": false, "screen_name": "littlebytesnews", "statuses_count": 1064511, "time_zone": "Arizona", "url": "http://t.co/3P15XpDxer", "utc_offset": -25200}}
{"created_at": "Mon Jul 06 05:20:34 +0000 2015", "favorite_count": 1, "favorited": false, "hashtags": ["tcot", "cbn", "news"], "id": 617926086198833152, "lang": "en", "retweet_count": 2, "retweeted": false, "source": "<a href=\"http://dlvr.it\" rel=\"nofollow\">dlvr.it</a>", "text": "#tcot #cbn #news Gender Identity Curriculum Angers Parents in Virginia: The Fairfax County Public school board\u2026 http://t.co/kAECnyeZCm", "truncated": false, "urls": {"http://t.co/kAECnyeZCm": "http://dlvr.it/BR3Ftl"}, "user": {"created_at": "Thu Jan 31 01:53:37 +0000 2008", "description": "SAHM/blogger;tweet abt politics to parenting&everything in btwn[autofeed]#Catholic #prolife #tcot #news #tech http://t.co/rvyd3mkLkJ submit parenting news", "favourites_count": 1217533, "followers_count": 24491, "friends_count": 21420, "id": 12896172, "lang": "en", "listed_count": 1401, "location": "USA", "name": "Patty", "profile_background_color": "E7E0B4", "profile_background_image_url": "http://pbs.twimg.com/profile_background_images/357230677/1320266541peach-polka-dots.jpg", "profile_background_tile": false, "profile_banner_url": "https://pbs.twimg.com/profile_banners/12896172/1409009923", "profile_image_url": "https://pbs.twimg.com/profile_images/625749074986164224/foH1QTeQ_normal.png", "profile_link_color": "8B0508", "profile_sidebar_fill_color": "F0A8AA", "profile_text_color": "000000", "protected": false, "screen_name": "littlebytesnews", "statuses_count": 1064511, "time_zone": "Arizona", "url": "http://t.co/3P15XpDxer", "utc_offset": -25200}}
{"created_at": "Mon Jul 06 21:14:35 +0000 2015", "favorite_count": 2, "favorited": false, "hashtags": ["tcot", "cbn", "news"], "id": 618166172257628160, "lang": "en", "retweeted": false, "source": "<a href=\"http://dlvr.it\" rel=\"nofollow\">dlvr.it</a>", "text": "#tcot #cbn #news Grandmother Sounds Off Gender Identity Curriculum: School board members in Fairfax County,\u2026 http://t.co/DUGyUQ1JCR", "truncated": false, "urls": {"http://t.co/DUGyUQ1JCR": "http://dlvr.it/BRSlK6"}, "user": {"created_at": "Thu Jan 31 01:53:37 +0000 2008", "description": "SAHM/blogger;tweet abt politics to parenting&everything in btwn[autofeed]#Catholic #prolife #tcot #news #tech http://t.co/rvyd3mkLkJ submit parenting news", "favourites_count": 1217533, "followers_count": 24491, "friends_count": 21420, "id": 12896172, "lang": "en", "listed_count": 1401, "location": "USA", "name": "Patty", "profile_background_color": "E7E0B4", "profile_background_image_url": "http://pbs.twimg.com/profile_background_images/357230677/1320266541peach-polka-dots.jpg", "profile_background_tile": false, "profile_banner_url": "https://pbs.twimg.com/profile_banners/12896172/1409009923", "profile_image_url": "https://pbs.twimg.com/profile_images/625749074986164224/foH1QTeQ_normal.png", "profile_link_color": "8B0508", "profile_sidebar_fill_color": "F0A8AA", "profile_text_color": "000000", "protected": false, "screen_name": "littlebytesnews", "statuses_count": 1064511, "time_zone": "Arizona", "url": "http://t.co/3P15XpDxer", "utc_offset": -25200}}
{"created_at": "Tue Jul 07 04:01:01 +0000 2015", "favorited": false, "hashtags": ["news", "christians"], "id": 618268458086629376, "lang": "en", "retweeted": false, "source": "<a href=\"http://twitterfeed.com\" rel=\"nofollow\">twitterfeed</a>", "text": "Grandmother Sounds Off Gender Identity Curriculum: School board members in Fairfax County, V... http://t.co/KOADrZQ2ys #news #christians", "truncated": false, "urls": {"http://t.co/KOADrZQ2ys": "http://bit.ly/1H5P5YK"}, "user": {"created_at": "Thu Jan 08 02:53:06 +0000 2009", "description": "Missionaries Of Prayer: Christian Prayer Ministry, http://t.co/lxhoarlfrd and http://t.co/ma1UX1Ubvm Loving God & Loving others through prayers.", "favourites_count": 2, "followers_count": 4717, "friends_count": 1089, "id": 18750762, "lang": "en", "listed_count": 222, "location": "Worldwide", "name": "Prayer Ministry", "profile_background_color": "FFFFFF", "profile_background_image_url": "http://pbs.twimg.com/profile_background_images/837771859/9067b6daba480baa11c1591812cdf12e.jpeg", "profile_background_tile": false, "profile_image_url": "https://pbs.twimg.com/profile_images/70947792/prayer_image_normal.jpg", "profile_link_color": "0B8F5A", "profile_sidebar_fill_color": "17451B", "profile_text_color": "000000", "protected": false, "screen_name": "PrayerMinistry", "statuses_count": 23628, "time_zone": "Eastern Time (US & Canada)", "url": "http://t.co/w0YYlnxtEG", "utc_offset": -18000}}
{"created_at": "Tue Jul 07 04:24:35 +0000 2015", "favorited": false, "hashtags": ["tcot", "cbn", "news"], "id": 618274386391400448, "lang": "en", "retweeted": false, "source": "<a href=\"http://dlvr.it\" rel=\"nofollow\">dlvr.it</a>", "text": "#tcot #cbn #news Gender Identity Curriculum Angers Parents in Virginia: The Fairfax County Public school board\u2026 http://t.co/qSDJRMx8t8", "truncated": false, "urls": {"http://t.co/qSDJRMx8t8": "http://dlvr.it/BRbMpt"}, "user": {"created_at": "Thu Jan 31 01:53:37 +0000 2008", "description": "SAHM/blogger;tweet abt politics to parenting&everything in btwn[autofeed]#Catholic #prolife #tcot #news #tech http://t.co/rvyd3mkLkJ submit parenting news", "favourites_count": 1217533, "followers_count": 24491, "friends_count": 21420, "id": 12896172, "lang": "en", "listed_count": 1401, "location": "USA", "name": "Patty", "profile_background_color": "E7E0B4", "profile_background_image_url": "http://pbs.twimg.com/profile_background_images/357230677/1320266541peach-polka-dots.jpg", "profile_background_tile": false, "profile_banner_url": "https://pbs.twimg.com/profile_banners/12896172/1409009923", "profile_image_url": "https://pbs.twimg.com/profile_images/625749074986164224/foH1QTeQ_normal.png", "profile_link_color": "8B0508", "profile_sidebar_fill_color": "F0A8AA", "profile_text_color": "000000", "protected": false, "screen_name": "littlebytesnews", "statuses_count": 1064511, "time_zone": "Arizona", "url": "http://t.co/3P15XpDxer", "utc_offset": -25200}}
{"created_at": "Tue Jul 07 05:31:05 +0000 2015", "favorited": false, "hashtags": ["tcot", "cbn", "news"], "id": 618291121207164928, "lang": "en", "retweeted": false, "source": "<a href=\"http://dlvr.it\" rel=\"nofollow\">dlvr.it</a>", "text": "#tcot #cbn #news Grandmother Sounds Off Gender Identity Curriculum: School board members in Fairfax County,\u2026 http://t.co/Zl9GHcTHBo", "truncated": false, "urls": {"http://t.co/Zl9GHcTHBo": "http://dlvr.it/BRcM8q"}, "user": {"created_at": "Thu Jan 31 01:53:37 +0000 2008", "description": "SAHM/blogger;tweet abt politics to parenting&everything in btwn[autofeed]#Catholic #prolife #tcot #news #tech http://t.co/rvyd3mkLkJ submit parenting news", "favourites_count": 1217533, "followers_count": 24491, "friends_count": 21420, "id": 12896172, "lang": "en", "listed_count": 1401, "location": "USA", "name": "Patty", "profile_background_color": "E7E0B4", "profile_background_image_url": "http://pbs.twimg.com/profile_background_images/357230677/1320266541peach-polka-dots.jpg", "profile_background_tile": false, "profile_banner_url": "https://pbs.twimg.com/profile_banners/12896172/1409009923", "profile_image_url": "https://pbs.twimg.com/profile_images/625749074986164224/foH1QTeQ_normal.png", "profile_link_color": "8B0508", "profile_sidebar_fill_color": "F0A8AA", "profile_text_color": "000000", "protected": false, "screen_name": "littlebytesnews", "statuses_count": 1064511, "time_zone": "Arizona", "url": "http://t.co/3P15XpDxer", "utc_offset": -25200}}
{"created_at": "Wed Jul 08 05:02:16 +0000 2015", "favorited": false, "hashtags": ["tcot", "cbn", "news"], "id": 618646258421403649, "lang": "en", "retweeted": false, "source": "<a href=\"http://dlvr.it\" rel=\"nofollow\">dlvr.it</a>", "text": "#tcot #cbn #news Grandmother Sounds Off on Gender Identity Curriculum: School board members in Fairfax County,\u2026 http://t.co/JOLk3skTa4", "truncated": false, "urls": {"http://t.co/JOLk3skTa4": "http://dlvr.it/BSB4Ss"}, "user": {"created_at": "Thu Jan 31 01:53:37 +0000 2008", "description": "SAHM/blogger;tweet abt politics to parenting&everything in btwn[autofeed]#Catholic #prolife #tcot #news #tech http://t.co/rvyd3mkLkJ submit parenting news", "favourites_count": 1217533, "followers_count": 24491, "friends_count": 21420, "id": 12896172, "lang": "en", "listed_count": 1401, "location": "USA", "name": "Patty", "profile_background_color": "E7E0B4", "profile_background_image_url": "http://pbs.twimg.com/profile_background_images/357230677/1320266541peach-polka-dots.jpg", "profile_background_tile": false, "profile_banner_url": "https://pbs.twimg.com/profile_banners/12896172/1409009923", "profile_image_url": "https://pbs.twimg.com/profile_images/625749074986164224/foH1QTeQ_normal.png", "profile_link_color": "8B0508", "profile_sidebar_fill_color": "F0A8AA", "profile_text_color": "000000", "protected": false, "screen_name": "littlebytesnews", "statuses_count": 1064511, "time_zone": "Arizona", "url": "http://t.co/3P15XpDxer", "utc_offset": -25200}}
{"created_at": "Thu Jul 09 04:01:34 +0000 2015", "favorited": false, "hashtags": ["tcot", "cbn", "news"], "id": 618993370900226048, "lang": "en", "retweet_count": 1, "retweeted": false, "source": "<a href=\"http://dlvr.it\" rel=\"nofollow\">dlvr.it</a>", "text": "#tcot #cbn #news Grandmother Sounds Off on Gender Identity Curriculum: School board members in Fairfax County,\u2026 http://t.co/rpFu5meBGQ", "truncated": false, "urls": {"http://t.co/rpFu5meBGQ": "http://dlvr.it/BSlC7C"}, "user": {"created_at": "Thu Jan 31 01:53:37 +0000 2008", "description": "SAHM/blogger;tweet abt politics to parenting&everything in btwn[autofeed]#Catholic #prolife #tcot #news #tech http://t.co/rvyd3mkLkJ submit parenting news", "favourites_count": 1217533, "followers_count": 24491, "friends_count": 21420, "id": 12896172, "lang": "en", "listed_count": 1401, "location": "USA", "name": "Patty", "profile_background_color": "E7E0B4", "profile_background_image_url": "http://pbs.twimg.com/profile_background_images/357230677/1320266541peach-polka-dots.jpg", "profile_background_tile": false, "profile_banner_url": "https://pbs.twimg.com/profile_banners/12896172/1409009923", "profile_image_url": "https://pbs.twimg.com/profile_images/625749074986164224/foH1QTeQ_normal.png", "profile_link_color": "8B0508", "profile_sidebar_fill_color": "F0A8AA", "profile_text_color": "000000", "protected": false, "screen_name": "littlebytesnews", "statuses_count": 1064511, "time_zone": "Arizona", "url": "http://t.co/3P15XpDxer", "utc_offset": -25200}}
{"created_at": "Sat Jul 11 04:06:00 +0000 2015", "favorite_count": 1, "favorited": false, "id": 619719260835676160, "lang": "en", "retweeted": false, "source": "<a href=\"http://tapbots.com/software/tweetbot/mac\" rel=\"nofollow\">Tweetbot for Mac</a>", "text": "HEADS UP FAIRFAX COUNTY, VIRGINIA - Your Kids Will Be Taught That They Can Be Any Gender That They Choose. http://t.co/WNncgBeOnv PARENTS?", "truncated": false, "urls": {"http://t.co/WNncgBeOnv": "http://patriotupdate.com/2015/05/school-system-votes-to-teach-students-to-determine-their-own-gender/"}, "user": {"created_at": "Tue Aug 24 08:44:10 +0000 2010", "description": "Patriot. Love my Country and Flag. \nAnti-Illegal Alien,  Anti-Insider Trading by Elected Officials. Trump 100% Make America Great Again!", "favourites_count": 586, "followers_count": 6927, "friends_count": 7595, "id": 182301577, "lang": "en", "listed_count": 138, "name": "IWantFacts", "profile_background_color": "89C9FA", "profile_background_image_url": "http://abs.twimg.com/images/themes/theme10/bg.gif", "profile_background_tile": true, "profile_image_url": "https://pbs.twimg.com/profile_images/1563144919/Hawk_-_01_normal.jpg", "profile_link_color": "9266CC", "profile_sidebar_fill_color": "7AC3EE", "profile_text_color": "3D1957", "protected": false, "screen_name": "sjh2222", "statuses_count": 155326, "time_zone": "Central Time (US & Canada)", "utc_offset": -21600}}
{"created_at": "Fri Jul 24 21:58:34 +0000 2015", "favorite_count": 1, "favorited": false, "id": 624700224099880960, "in_reply_to_screen_name": "JesusRBerriz", "in_reply_to_status_id": 613338023955156992, "in_reply_to_user_id": 861445334, "lang": "en", "retweeted": false, "source": "<a href=\"http://twitter.com\" rel=\"nofollow\">Twitter Web Client</a>", "text": "@JesusRBerriz FALSE http://t.co/rWer0uK67H", "truncated": false, "urls": {"http://t.co/rWer0uK67H": "http://m.snopes.com/fairfax-school-gender-controversy/"}, "user": {"created_at": "Sun Dec 26 20:25:36 +0000 2010", "description": "Offensive Coordinator  Married to the Joy of my life with  3 kids (Shuga, Buddy, dough boy). Onion enthusiast,  pork craver, professional vacation driver.", "favourites_count": 940, "followers_count": 602, "friends_count": 1177, "geo_enabled": true, "id": 230828651, "lang": "en", "listed_count": 7, "name": "Corey Russell", "profile_background_color": "C0DEED", "profile_background_image_url": "http://pbs.twimg.com/profile_background_images/185503597/Idabel_OK1.png", "profile_background_tile": false, "profile_banner_url": "https://pbs.twimg.com/profile_banners/230828651/1420943606", "profile_image_url": "https://pbs.twimg.com/profile_images/417718048582148096/-DSs9E1G_normal.jpeg", "profile_link_color": "0084B4", "profile_sidebar_fill_color": "DDEEF6", "profile_text_color": "333333", "protected": false, "screen_name": "CoachC_Russell", "statuses_count": 6003, "time_zone": "Central Time (US & Canada)", "utc_offset": -21600}, "user_mentions": [{"id": 861445334, "name": "Jesus R. Berriz", "screen_name": "JesusRBerriz"}]}
{"created_at": "Fri Jul 24 21:58:53 +0000 2015", "favorite_count": 1, "favorited": false, "hashtags": ["doyourresearch"], "id": 624700304345292800, "in_reply_to_screen_name": "tsadiqwah", "in_reply_to_status_id": 615951080438890496, "in_reply_to_user_id": 274118075, "lang": "en", "retweeted": false, "source": "<a href=\"http://twitter.com\" rel=\"nofollow\">Twitter Web Client</a>", "text": "@sortalikearose FALSE http://t.co/rWer0uK67H #doyourresearch", "truncated": false, "urls": {"http://t.co/rWer0uK67H": "http://m.snopes.com/fairfax-school-gender-controversy/"}, "user": {"created_at": "Sun Dec 26 20:25:36 +0000 2010", "description": "Offensive Coordinator  Married to the Joy of my life with  3 kids (Shuga, Buddy, dough boy). Onion enthusiast,  pork craver, professional vacation driver.", "favourites_count": 940, "followers_count": 602, "friends_count": 1177, "geo_enabled": true, "id": 230828651, "lang": "en", "listed_count": 7, "name": "Corey Russell", "profile_background_color": "C0DEED", "profile_background_image_url": "http://pbs.twimg.com/profile_background_images/185503597/Idabel_OK1.png", "profile_background_tile": false, "profile_banner_url": "https://pbs.twimg.com/profile_banners/230828651/1420943606", "profile_image_url": "https://pbs.twimg.com/profile_images/417718048582148096/-DSs9E1G_normal.jpeg", "profile_link_color": "0084B4", "profile_sidebar_fill_color": "DDEEF6", "profile_text_color": "333333", "protected": false, "screen_name": "CoachC_Russell", "statuses_count": 6003, "time_zone": "Central Time (US & Canada)", "utc_offset": -21600}}
{"created_at": "Wed Jul 29 15:20:32 +0000 2015", "favorited": false, "id": 626411994480926720, "lang": "en", "retweeted": false, "source": "<a href=\"http://tapbots.com/software/tweetbot/mac\" rel=\"nofollow\">Tweetbot for Mac</a>", "text": "HEADS UP FAIRFAX COUNTY, VIRGINIA - Your Kids Will Be Taught That They Can Be Any Gender That They Choose. http://t.co/WNncgBeOnv PARENTS?", "truncated": false, "urls": {"http://t.co/WNncgBeOnv": "http://patriotupdate.com/2015/05/school-system-votes-to-teach-students-to-determine-their-own-gender/"}, "user": {"created_at": "Tue Aug 24 08:44:10 +0000 2010", "description": "Patriot. Love my Country and Flag. \nAnti-Illegal Alien,  Anti-Insider Trading by Elected Officials. Trump 100% Make America Great Again!", "favourites_count": 631, "followers_count": 7069, "friends_count": 7768, "id": 182301577, "lang": "en", "listed_count": 145, "name": "IWantFacts", "profile_background_color": "89C9FA", "profile_background_image_url": "http://abs.twimg.com/images/themes/theme10/bg.gif", "profile_background_tile": true, "profile_image_url": "https://pbs.twimg.com/profile_images/1563144919/Hawk_-_01_normal.jpg", "profile_link_color": "9266CC", "profile_sidebar_fill_color": "7AC3EE", "profile_text_color": "3D1957", "protected": false, "screen_name": "sjh2222", "statuses_count": 157807, "time_zone": "Central Time (US & Canada)", "utc_offset": -21600}}
