{"created_at": "Mon Jun 01 15:26:12 +0000 2015", "favorited": false, "id": 605394926717779968, "lang": "en", "retweeted": false, "source": "<a href=\"http://twitter.com/download/iphone\" rel=\"nofollow\">Twitter for iPhone</a>", "text": "Nice to see you again @DavidRagan! I feel inspired to have an Andy Griffith marathon now!", "truncated": false, "user": {"created_at": "Sat Oct 10 01:16:52 +0000 2009", "description": "Journalist. Writer. Producer.Storyteller.\nFormer CNNer. I get paid to ask cool people questions.", "favourites_count": 3270, "followers_count": 1139, "friends_count": 746, "id": 81248420, "lang": "en", "listed_count": 37, "location": "Charlotte, NC", "name": "rebecca angel baer", "profile_background_color": "0099B9", "profile_background_image_url": "http://abs.twimg.com/images/themes/theme4/bg.gif", "profile_background_tile": false, "profile_banner_url": "https://pbs.twimg.com/profile_banners/81248420/1444433279", "profile_image_url": "https://pbs.twimg.com/profile_images/1585800791/smile_normal.jpg", "profile_link_color": "0099B9", "profile_sidebar_fill_color": "95E8EC", "profile_text_color": "3C3940", "protected": false, "screen_name": "rebangelbaer", "statuses_count": 8872, "time_zone": "Eastern Time (US & Canada)", "utc_offset": -18000}, "user_mentions": [{"id": 20598586, "name": "David Ragan", "screen_name": "DavidRagan"}]}
{"created_at": "Thu Jun 04 11:03:34 +0000 2015", "favorite_count": 1, "favorited": false, "id": 606415996136521728, "lang": "en", "retweeted": false, "source": "<a href=\"https://about.twitter.com/products/tweetdeck\" rel=\"nofollow\">TweetDeck</a>", "text": "\u201cA Face in the Crowd\u201d looms on @TCM. A Kazan classic-and Andy Griffith like he was never again seen. All time great. http://t.co/qa7ABjx0di", "truncated": false, "urls": {"http://t.co/qa7ABjx0di": "http://www.imdb.com/title/tt0050371/?ref_=nv_sr_1"}, "user": {"created_at": "Wed Jul 09 14:35:44 +0000 2008", "description": "Consultant and founder and president of Less Government.", "favourites_count": 18, "followers_count": 4512, "friends_count": 4710, "geo_enabled": true, "id": 15365985, "lang": "en", "listed_count": 198, "location": "Holland Point, Maryland", "name": "Seton Motley", "profile_background_color": "022330", "profile_background_image_url": "http://abs.twimg.com/images/themes/theme15/bg.png", "profile_background_tile": false, "profile_banner_url": "https://pbs.twimg.com/profile_banners/15365985/1450233020", "profile_image_url": "https://pbs.twimg.com/profile_images/686893952998354945/fqnIphe9_normal.jpg", "profile_link_color": "0084B4", "profile_sidebar_fill_color": "C0DFEC", "profile_text_color": "333333", "protected": false, "screen_name": "SetonMotley", "statuses_count": 18387, "time_zone": "Arizona", "url": "https://t.co/Mz3qVwv9LH", "utc_offset": -25200}, "user_mentions": [{"id": 25071402, "name": "TCM", "screen_name": "tcm"}]}
{"created_at": "Tue Jun 09 17:03:21 +0000 2015", "favorited": false, "hashtags": ["McKinney"], "id": 608318475145199616, "lang": "en", "place": {"attributes": {}, "bounding_box": {"coordinates": [[[-91.912482, 36.706513], [-91.819154, 36.706513], [-91.819154, 36.794472], [-91.912482, 36.794472]]], "type": "Polygon"}, "contained_within": [], "country": "United States", "country_code": "US", "full_name": "West Plains, MO", "id": "f0114bbb5ae8e330", "name": "West Plains", "place_type": "city", "url": "https://api.twitter.com/1.1/geo/id/f0114bbb5ae8e330.json"}, "retweeted": false, "source": "<a href=\"http://twitter.com/download/android\" rel=\"nofollow\">Twitter for Android</a>", "text": "If police tried to act more like Andy Griffith and less like Rambo then maybe communities would trust them again...\n#McKinney", "truncated": false, "user": {"created_at": "Fri Jul 09 10:41:51 +0000 2010", "description": "Operation Iraqi Freedom Veteran, BA in Criminal Justice from Columbia College 2012, current Grad Student. Missouri politics junkie.", "favourites_count": 1381, "followers_count": 171, "friends_count": 330, "geo_enabled": true, "id": 164635778, "lang": "en", "listed_count": 5, "location": "Jefferson City, MO", "name": "Nick", "profile_background_color": "C0DEED", "profile_background_image_url": "http://pbs.twimg.com/profile_background_images/121378853/Work_in_progress_svg.png", "profile_background_tile": true, "profile_banner_url": "https://pbs.twimg.com/profile_banners/164635778/1436328148", "profile_image_url": "https://pbs.twimg.com/profile_images/669909816463130624/HtwM_kuG_normal.jpg", "profile_link_color": "0084B4", "profile_sidebar_fill_color": "DDEEF6", "profile_text_color": "333333", "protected": false, "screen_name": "condorianflex", "statuses_count": 1871, "url": "https://t.co/lCpEH3ESEP"}}
{"created_at": "Tue Jun 09 19:25:24 +0000 2015", "favorite_count": 7, "favorited": false, "id": 608354225026920448, "lang": "en", "retweeted": false, "source": "<a href=\"http://twitter.com/download/iphone\" rel=\"nofollow\">Twitter for iPhone</a>", "text": "Man I need to get my haircut again. I'm starting to look like XXXL Opie from the Andy Griffith show", "truncated": false, "user": {"created_at": "Wed Jan 16 22:44:37 +0000 2013", "description": "Nothing is given, everything is earned;              Missouri State offensive lineman #72 #BearUp", "favourites_count": 8766, "followers_count": 1095, "friends_count": 577, "geo_enabled": true, "id": 1096550502, "lang": "en", "location": "EBDB B&B", "name": "Anthony Lippillo", "profile_background_color": "000000", "profile_background_image_url": "http://abs.twimg.com/images/themes/theme1/bg.png", "profile_background_tile": false, "profile_banner_url": "https://pbs.twimg.com/profile_banners/1096550502/1451930681", "profile_image_url": "https://pbs.twimg.com/profile_images/686287888913272832/fu46aGzV_normal.jpg", "profile_link_color": "DD2E44", "profile_sidebar_fill_color": "000000", "profile_text_color": "000000", "protected": false, "screen_name": "Netflix_Y_Chill", "statuses_count": 8513, "time_zone": "Pacific Time (US & Canada)", "utc_offset": -28800}}
{"created_at": "Thu Jun 11 00:04:54 +0000 2015", "favorite_count": 1, "favorited": false, "hashtags": ["Playbill", "Broadway"], "id": 608786950426730497, "lang": "en", "retweeted": false, "source": "<a href=\"http://twitterfeed.com\" rel=\"nofollow\">twitterfeed</a>", "text": "AUTHENTIC 1959 Destry Rides Again PLAYBILL AUTOGRAPH Hand Signed ANDY GRIFFITH:  $69.99End... http://t.co/kVEwf6nwrX #Playbill #Broadway", "truncated": false, "urls": {"http://t.co/kVEwf6nwrX": "http://ebay.to/1IHdIAn"}, "user": {"created_at": "Wed Jan 14 06:27:44 +0000 2009", "favourites_count": 3, "followers_count": 93, "friends_count": 1, "id": 18969128, "lang": "en", "listed_count": 27, "name": "Aahz", "profile_background_color": "000000", "profile_background_image_url": "http://abs.twimg.com/images/themes/theme1/bg.png", "profile_background_tile": false, "profile_image_url": "https://pbs.twimg.com/profile_images/516375071791669248/JWEt0SH__normal.jpeg", "profile_link_color": "ABB8C2", "profile_sidebar_fill_color": "000000", "profile_text_color": "000000", "protected": false, "screen_name": "MrAahz", "statuses_count": 79515}}
{"created_at": "Sun Jun 14 02:43:58 +0000 2015", "favorited": false, "hashtags": ["gocubsgo"], "id": 609914146738405376, "lang": "en", "retweeted": false, "source": "<a href=\"http://twitter.com/download/android\" rel=\"nofollow\">Twitter for Android</a>", "text": "Good god I hope they start playing again soon. FOX is playing the Andy Griffith show. @cubs #gocubsgo", "truncated": false, "user": {"created_at": "Sun Mar 29 19:51:39 +0000 2009", "description": "Follower of the summer soap-opera that is the Chicago Cubs.", "favourites_count": 2892, "followers_count": 143, "friends_count": 191, "id": 27489942, "lang": "en", "listed_count": 2, "location": "Terre Haute, IN", "name": "Jon Frank", "profile_background_color": "000000", "profile_background_image_url": "http://abs.twimg.com/images/themes/theme5/bg.gif", "profile_background_tile": false, "profile_banner_url": "https://pbs.twimg.com/profile_banners/27489942/1444015237", "profile_image_url": "https://pbs.twimg.com/profile_images/637414798460760064/d9Qk37Dv_normal.jpg", "profile_link_color": "3B94D9", "profile_sidebar_fill_color": "000000", "profile_text_color": "000000", "protected": false, "screen_name": "JonFrank", "statuses_count": 2481, "time_zone": "Mountain Time (US & Canada)", "utc_offset": -25200}, "user_mentions": [{"id": 41144996, "name": "Chicago Cubs", "screen_name": "Cubs"}]}
{"created_at": "Mon Jun 15 15:31:51 +0000 2015", "favorited": false, "id": 610469776046075904, "lang": "en", "retweeted": false, "source": "<a href=\"http://twitter.com/download/iphone\" rel=\"nofollow\">Twitter for iPhone</a>", "text": "The Andy Griffith Show - Wyatt Earp Rides Again.\n\nAired on CBS - Monday 31st January 1966.\n\nhttp://t.co/XeUZSm215J", "truncated": false, "urls": {"http://t.co/XeUZSm215J": "http://youtu.be/aqnqGNBQFJE"}, "user": {"created_at": "Thu Apr 23 10:21:54 +0000 2015", "default_profile": true, "description": "I started this project during the Cuban Missile Crisis and I've been working my way through time ever since. Today's date: Thursday 9th June, 1966.", "favourites_count": 43, "followers_count": 1363, "friends_count": 1543, "id": 3197488343, "lang": "en-gb", "listed_count": 10, "name": "1966 Tweets", "profile_background_color": "C0DEED", "profile_background_image_url": "http://abs.twimg.com/images/themes/theme1/bg.png", "profile_background_tile": false, "profile_image_url": "https://pbs.twimg.com/profile_images/675577745921941504/I8f7HXxS_normal.jpg", "profile_link_color": "0084B4", "profile_sidebar_fill_color": "DDEEF6", "profile_text_color": "333333", "protected": false, "screen_name": "1966tweets", "statuses_count": 1594, "time_zone": "Pacific Time (US & Canada)", "utc_offset": -28800}}
{"created_at": "Tue Jun 23 04:46:03 +0000 2015", "favorited": false, "id": 613206357605421056, "lang": "hi", "retweeted": false, "source": "<a href=\"http://twitter.com\" rel=\"nofollow\">Twitter Web Client</a>", "text": "Wyatt Earp Rides Again via @tvdotcom http://t.co/kiNFl2HVmh", "truncated": false, "urls": {"http://t.co/kiNFl2HVmh": "http://www.tv.com/shows/the-andy-griffith-show/wyatt-earp-rides-again-44291/"}, "user": {"created_at": "Fri Feb 03 14:15:41 +0000 2012", "description": "Screens movies, IT Network Administrator,  Loves to travel and explore different cities/towns. Living life like if there is no tomorrow. One thing at a time.", "favourites_count": 85, "followers_count": 279, "friends_count": 246, "geo_enabled": true, "id": 482081611, "lang": "en", "listed_count": 9, "location": "San Antonio, TX", "name": "Fernando Perez", "profile_background_color": "022330", "profile_background_image_url": "http://abs.twimg.com/images/themes/theme15/bg.png", "profile_background_tile": false, "profile_banner_url": "https://pbs.twimg.com/profile_banners/482081611/1398305133", "profile_image_url": "https://pbs.twimg.com/profile_images/2675429460/20ffb9b5e57e17c562fb48485cf72d92_normal.jpeg", "profile_link_color": "0084B4", "profile_sidebar_fill_color": "C0DFEC", "profile_text_color": "333333", "protected": false, "screen_name": "Fernando_JPerez", "statuses_count": 39355, "time_zone": "Central Time (US & Canada)", "utc_offset": -21600}, "user_mentions": [{"id": 69135840, "name": "tv.com", "screen_name": "tvdotcom"}]}
{"created_at": "Tue Jun 23 23:50:54 +0000 2015", "favorited": false, "id": 613494471506948097, "lang": "en", "media": [{"display_url": "pic.twitter.com/foKlCIaB1X", "expanded_url": "http://twitter.com/sobrinoteoberto/status/613494471506948097/photo/1", "id": 613494471406317572, "id_str": "613494471406317572", "indices": [99, 121], "media_url": "http://pbs.twimg.com/media/CIOR-KfW8AQycJK.jpg", "media_url_https": "https://pbs.twimg.com/media/CIOR-KfW8AQycJK.jpg", "sizes": {"large": {"h": 750, "resize": "fit", "w": 1000}, "medium": {"h": 450, "resize": "fit", "w": 600}, "small": {"h": 255, "resize": "fit", "w": 340}, "thumb": {"h": 150, "resize": "crop", "w": 150}}, "type": "photo", "url": "http://t.co/foKlCIaB1X"}], "retweeted": false, "source": "<a href=\"http://ifttt.com\" rel=\"nofollow\">IFTTT</a>", "text": "DESTRY Rides Again ANDY GRIFFITH DOLORES GREY ORGINAL CAST 1959 DECCA DG LP http://t.co/wb9l0IzJcE http://t.co/foKlCIaB1X", "truncated": false, "urls": {"http://t.co/wb9l0IzJcE": "http://high-class-last-minute-offer.newoffers.info/buy/01/?query=121686353068"}, "user": {"created_at": "Mon Apr 13 23:45:39 +0000 2015", "default_profile": true, "description": "extremely splendid product", "followers_count": 130, "friends_count": 40, "id": 3154028431, "lang": "es", "listed_count": 79, "name": "extremely splendid p", "profile_background_color": "C0DEED", "profile_background_image_url": "http://abs.twimg.com/images/themes/theme1/bg.png", "profile_background_tile": false, "profile_banner_url": "https://pbs.twimg.com/profile_banners/3154028431/1428969114", "profile_image_url": "https://pbs.twimg.com/profile_images/587765131116855296/YUQnIft4_normal.jpg", "profile_link_color": "0084B4", "profile_sidebar_fill_color": "DDEEF6", "profile_text_color": "333333", "protected": false, "screen_name": "sobrinoteoberto", "statuses_count": 117729}}
{"created_at": "Thu Jun 25 20:23:47 +0000 2015", "favorited": false, "id": 614167123456188416, "lang": "en", "retweeted": false, "source": "<a href=\"http://twitter.com/#!/download/ipad\" rel=\"nofollow\">Twitter for iPad</a>", "text": "Station @WFMY cut the last 4 min (best part) of Andy Griffith's \"The Loaded Goat\". Won't waste my time watching @WFMY again.", "truncated": false, "user": {"created_at": "Sat Mar 07 14:16:39 +0000 2009", "description": "Christian,Conservative,MedicalTechnologist,BestHubby, \u2665Animals,Astronomy,Dinosaurs,MyJeep,Gamer,Sparklies, FantasySciFi,Miniatures,RUSH2112,ProcrastinatorRex.", "favourites_count": 2775, "followers_count": 5662, "friends_count": 6206, "id": 23195481, "lang": "en", "listed_count": 119, "location": "Middle Earth dweller in VA", "name": "kathy", "profile_background_color": "0D45DE", "profile_background_image_url": "http://pbs.twimg.com/profile_background_images/107777579/transformers2.jpg", "profile_background_tile": true, "profile_banner_url": "https://pbs.twimg.com/profile_banners/23195481/1452743991", "profile_image_url": "https://pbs.twimg.com/profile_images/684120264410546181/hABq-YTx_normal.jpg", "profile_link_color": "0D45DE", "profile_sidebar_fill_color": "FCDC29", "profile_text_color": "0E11B0", "protected": false, "screen_name": "CelestiaKat", "statuses_count": 34612, "time_zone": "Quito", "utc_offset": -18000}, "user_mentions": [{"id": 14361260, "name": "WFMY News 2", "screen_name": "WFMY"}, {"id": 14361260, "name": "WFMY News 2", "screen_name": "WFMY"}]}
{"created_at": "Sat Jul 04 00:34:33 +0000 2015", "favorited": false, "id": 617129332348198913, "in_reply_to_screen_name": "USPS", "in_reply_to_user_id": 386507775, "lang": "en", "retweeted": false, "source": "<a href=\"https://twitter.com/download/android\" rel=\"nofollow\">Twitter for Android Tablets</a>", "text": "@USPS three years ago today Andy Griffith died. Put him on a stamp or I will never buy another stamp again. Ty.", "truncated": false, "user": {"created_at": "Thu Oct 17 17:32:06 +0000 2013", "default_profile": true, "description": "My childhood was spent waiting for the big white flash to vaporize everyone in my family.", "favourites_count": 754, "followers_count": 31, "friends_count": 109, "id": 1967275208, "lang": "en", "location": "Outer reaches, Milky Way.", "name": "ColdWarBaby", "profile_background_color": "C0DEED", "profile_background_image_url": "http://abs.twimg.com/images/themes/theme1/bg.png", "profile_background_tile": false, "profile_banner_url": "https://pbs.twimg.com/profile_banners/1967275208/1382031867", "profile_image_url": "https://pbs.twimg.com/profile_images/482041243682095104/qWQve5N9_normal.jpeg", "profile_link_color": "0084B4", "profile_sidebar_fill_color": "DDEEF6", "profile_text_color": "333333", "protected": false, "screen_name": "ColdWarBabyLife", "statuses_count": 1771}, "user_mentions": [{"id": 386507775, "name": "U.S. Postal Service", "screen_name": "USPS"}]}
{"created_at": "Sat Jul 04 01:32:50 +0000 2015", "favorite_count": 1, "favorited": false, "id": 617144002534617088, "lang": "en", "retweeted": false, "source": "<a href=\"http://twitter.com\" rel=\"nofollow\">Twitter Web Client</a>", "text": "Here we go again... People, Andy Griffith has been dead for three years.", "truncated": false, "user": {"created_at": "Fri Mar 27 01:57:54 +0000 2009", "description": "I write, produce, direct & sometimes cast and been known to act. I like cupcakes.", "favourites_count": 5148, "followers_count": 4660, "friends_count": 3976, "geo_enabled": true, "id": 26920457, "lang": "en", "listed_count": 161, "location": "Los Angeles, CA", "name": "Chad Darnell", "profile_background_color": "9AE4E8", "profile_background_image_url": "http://pbs.twimg.com/profile_background_images/491814395391926272/9C7iC9ib.jpeg", "profile_background_tile": true, "profile_banner_url": "https://pbs.twimg.com/profile_banners/26920457/1407353331", "profile_image_url": "https://pbs.twimg.com/profile_images/494679010928914432/FSUz9GpR_normal.jpeg", "profile_link_color": "0084B4", "profile_sidebar_fill_color": "DDFFCC", "profile_text_color": "333333", "protected": false, "screen_name": "ChadDarnell", "statuses_count": 32759, "time_zone": "Pacific Time (US & Canada)", "url": "http://t.co/aKmF1mAjhs", "utc_offset": -28800}}
{"created_at": "Sat Jul 04 01:44:23 +0000 2015", "favorited": false, "id": 617146905865396224, "in_reply_to_screen_name": "sycamoreskid", "in_reply_to_user_id": 124531278, "lang": "en", "retweeted": false, "source": "<a href=\"http://twitter.com/download/iphone\" rel=\"nofollow\">Twitter for iPhone</a>", "text": "@sycamoreskid I started Andy Griffith Show over again. Just gold. Every time.", "truncated": false, "user": {"created_at": "Sat Aug 22 04:50:09 +0000 2009", "description": "Minister at the Holland Park Church and severely outnumbered in my own home", "favourites_count": 469, "followers_count": 533, "friends_count": 167, "geo_enabled": true, "id": 67817610, "lang": "en", "listed_count": 10, "location": "Greenville, SC", "name": "Matt Atnip", "profile_background_color": "C0DEED", "profile_background_image_url": "http://abs.twimg.com/images/themes/theme1/bg.png", "profile_background_tile": false, "profile_banner_url": "https://pbs.twimg.com/profile_banners/67817610/1398398356", "profile_image_url": "https://pbs.twimg.com/profile_images/3343734841/d67426d7f58c11eb22f949452a9abd9e_normal.jpeg", "profile_link_color": "0033B3", "profile_sidebar_fill_color": "DDEEF6", "profile_text_color": "333333", "protected": false, "screen_name": "matnip", "statuses_count": 4281, "time_zone": "Central Time (US & Canada)", "utc_offset": -21600}, "user_mentions": [{"id": 124531278, "name": "David Skidmore", "screen_name": "sycamoreskid"}]}
{"created_at": "Sat Jul 04 13:16:29 +0000 2015", "favorited": false, "id": 617321080638713858, "lang": "en", "retweet_count": 1, "retweeted": false, "source": "<a href=\"http://www.facebook.com/twitter\" rel=\"nofollow\">Facebook</a>", "text": "Well, according to facebook, Andy Griffith has died.\n\nAgain.", "truncated": false, "user": {"created_at": "Fri Apr 03 18:15:34 +0000 2009", "description": "Actress, Authoress, Activist, Asshole...", "favourites_count": 173, "followers_count": 818, "friends_count": 1762, "id": 28620261, "lang": "en", "listed_count": 13, "location": "New York City", "name": "The Divine Grace", "profile_background_color": "131516", "profile_background_image_url": "http://pbs.twimg.com/profile_background_images/801381482/116ca73a77087ca48fed45de4958e39a.png", "profile_background_tile": true, "profile_image_url": "https://pbs.twimg.com/profile_images/273801596/face_normal.jpg", "profile_link_color": "ABB8C2", "profile_sidebar_fill_color": "EFEFEF", "profile_text_color": "333333", "protected": false, "screen_name": "TheDivineGrace", "statuses_count": 2179, "time_zone": "Eastern Time (US & Canada)", "url": "http://t.co/HhKwqo392Z", "utc_offset": -18000}}
{"created_at": "Sat Jul 04 21:04:04 +0000 2015", "favorited": false, "id": 617438751262814208, "lang": "en", "retweeted": false, "source": "<a href=\"http://twitter.com/download/android\" rel=\"nofollow\">Twitter for Android</a>", "text": "Andy Griffith just died. On Facebook. Again. The people there are very sharp.", "truncated": false, "user": {"created_at": "Wed Apr 27 20:31:18 +0000 2011", "description": "Born on Purim, but not last Purim. Cigars and Horse Racing, mostly. Will go to the dogs on occasion. Warning: spontaneous Yiddish may occur.", "favourites_count": 7152, "followers_count": 4491, "friends_count": 112, "geo_enabled": true, "id": 288990877, "lang": "en", "listed_count": 37, "location": "PNW USA", "name": "Kaplowitz", "profile_background_color": "FFFFFF", "profile_background_image_url": "http://abs.twimg.com/images/themes/theme9/bg.gif", "profile_background_tile": false, "profile_banner_url": "https://pbs.twimg.com/profile_banners/288990877/1448235750", "profile_image_url": "https://pbs.twimg.com/profile_images/668555847023267840/e9OR5V9j_normal.jpg", "profile_link_color": "000000", "profile_sidebar_fill_color": "252429", "profile_text_color": "666666", "protected": false, "screen_name": "iamkap", "statuses_count": 26970, "time_zone": "Pacific Time (US & Canada)", "url": "https://t.co/5UEqFqEjeu", "utc_offset": -28800}}
{"created_at": "Sun Jul 05 00:39:39 +0000 2015", "favorited": false, "id": 617493003524009984, "lang": "en", "retweeted": false, "source": "<a href=\"http://www.facebook.com/twitter\" rel=\"nofollow\">Facebook</a>", "text": "Why are you people resurrecting the dead to re-declare them dead again? Andy Griffith died in 2012.", "truncated": false, "user": {"created_at": "Wed Feb 15 17:45:08 +0000 2012", "description": "Just another person with something to share. We may not always agree, but let's agree to disagree.", "favourites_count": 10, "followers_count": 74, "friends_count": 97, "geo_enabled": true, "id": 493324464, "lang": "en", "listed_count": 2, "location": "Illinois", "name": "Laurette Williams", "profile_background_color": "C0DEED", "profile_background_image_url": "http://pbs.twimg.com/profile_background_images/557830610/full_moon.jpg", "profile_background_tile": true, "profile_banner_url": "https://pbs.twimg.com/profile_banners/493324464/1353040045", "profile_image_url": "https://pbs.twimg.com/profile_images/639588095055126529/R_6T06Ao_normal.jpg", "profile_link_color": "3B94D9", "profile_sidebar_fill_color": "DDEEF6", "profile_text_color": "333333", "protected": false, "screen_name": "radicalrevn", "statuses_count": 28689, "time_zone": "Central Time (US & Canada)", "url": "http://t.co/irxWdUNWHo", "utc_offset": -21600}}
{"created_at": "Sun Jul 05 02:26:43 +0000 2015", "favorite_count": 5, "favorited": false, "id": 617519947732910081, "lang": "en", "retweeted": false, "source": "<a href=\"https://about.twitter.com/products/tweetdeck\" rel=\"nofollow\">TweetDeck</a>", "text": "People on my Facebook feed think Andy Griffith died again.", "truncated": false, "user": {"created_at": "Sun Sep 25 04:01:47 +0000 2011", "description": "I'm going to hell. You guys need anything? | My outlandish radio soap opera, THE RICH AND THE FILTHY, is a podcast on iTunes & Stitcher.", "favourites_count": 140936, "followers_count": 2460, "friends_count": 996, "geo_enabled": true, "id": 379535010, "lang": "en", "listed_count": 251, "location": "Indianapolis IN", "name": "Stephen Spoonatic", "profile_background_color": "000000", "profile_background_image_url": "http://pbs.twimg.com/profile_background_images/626352292896243712/P3Yb2Ybn.png", "profile_background_tile": true, "profile_banner_url": "https://pbs.twimg.com/profile_banners/379535010/1440929115", "profile_image_url": "https://pbs.twimg.com/profile_images/649685268795011072/1ewH0Zkz_normal.jpg", "profile_link_color": "3B94D9", "profile_sidebar_fill_color": "000000", "profile_text_color": "000000", "protected": false, "screen_name": "Drangula", "statuses_count": 21842, "time_zone": "Indiana (East)", "url": "https://t.co/9uYGhG9OcV", "utc_offset": -18000}}
{"created_at": "Sun Jul 05 04:52:34 +0000 2015", "favorite_count": 1, "favorited": false, "id": 617556651818786816, "lang": "en", "retweeted": false, "source": "<a href=\"http://www.hootsuite.com\" rel=\"nofollow\">Hootsuite</a>", "text": "People think Andy Griffith died - again. FYI: He died in 2012. Read the newest comments for a laugh. http://t.co/y7M11OIKyk", "truncated": false, "urls": {"http://t.co/y7M11OIKyk": "http://ow.ly/PbJ3F"}, "user": {"created_at": "Mon Nov 15 01:57:04 +0000 2010", "description": "Writer, Filmmaker, Theater. I also write about pulp fiction, history and spirituality. Writing my first #book.", "favourites_count": 203, "followers_count": 3008, "friends_count": 2895, "id": 215839576, "lang": "en", "listed_count": 72, "location": "Southeast US/Alabama", "name": "Laura Axelrod", "profile_background_color": "131516", "profile_background_image_url": "http://abs.twimg.com/images/themes/theme14/bg.gif", "profile_background_tile": true, "profile_banner_url": "https://pbs.twimg.com/profile_banners/215839576/1406604617", "profile_image_url": "https://pbs.twimg.com/profile_images/571885718742368256/kISxLWTu_normal.jpeg", "profile_link_color": "000000", "profile_sidebar_fill_color": "EFEFEF", "profile_text_color": "333333", "protected": false, "screen_name": "Laura_Axelrod", "statuses_count": 12494, "time_zone": "Mountain Time (US & Canada)", "url": "http://t.co/SJIjgYePJB", "utc_offset": -25200}}
{"created_at": "Sun Jul 05 05:09:27 +0000 2015", "favorite_count": 6, "favorited": false, "id": 617560900887666688, "lang": "en", "retweeted": false, "source": "<a href=\"http://twitter.com\" rel=\"nofollow\">Twitter Web Client</a>", "text": "Poor Andy Griffith. He died in 2012 but has died again on Facebook because PEOPLE HAVE NO READING COMPREHENSION SKILLS.", "truncated": false, "user": {"created_at": "Tue Oct 13 17:30:19 +0000 2009", "description": "#COMEDIAN #ACTOR: Curb Your Enthusiasm, Seinfeld: #AUTHOR: Celebrity sTalker. http://t.co/qJ9eFNZtBm New book: Mommy Tried to Kill Me.", "favourites_count": 4920, "followers_count": 5211, "friends_count": 2986, "geo_enabled": true, "id": 82145204, "lang": "en", "listed_count": 400, "location": "Los Angeles", "name": "Suzy Soro", "profile_background_color": "07090B", "profile_background_image_url": "http://pbs.twimg.com/profile_background_images/353662368/MEDIUMWHC2D.png", "profile_background_tile": false, "profile_banner_url": "https://pbs.twimg.com/profile_banners/82145204/1452109011", "profile_image_url": "https://pbs.twimg.com/profile_images/669709348986159104/8VyGqRA1_normal.jpg", "profile_link_color": "ED0E37", "profile_sidebar_fill_color": "C9C9C9", "profile_text_color": "1C1F23", "protected": false, "screen_name": "HotComesToDie", "statuses_count": 33924, "time_zone": "Pacific Time (US & Canada)", "url": "http://t.co/8J6YxQIxAZ", "utc_offset": -28800}}
{"created_at": "Sun Jul 05 17:47:01 +0000 2015", "favorite_count": 1, "favorited": false, "id": 617751548790116352, "lang": "en", "retweeted": false, "source": "<a href=\"http://twitter.com\" rel=\"nofollow\">Twitter Web Client</a>", "text": "It is going around the internet that Andy Griffith died again. Truth is Mayberry has not been the same for 3 years. ;(", "truncated": false, "user": {"created_at": "Sun Feb 26 00:57:41 +0000 2012", "description": "Official page of a REAL person with 100K followers but not yet verified.\nEvents - Movies - Outings \nFollowback. Funny random tweets & RTs. #FF Nice guy. #F4F :)", "favourites_count": 100, "followers_count": 103857, "friends_count": 73568, "geo_enabled": true, "id": 503786103, "lang": "en", "listed_count": 587, "location": "Los Angeles, CA", "name": "Sci-Fi MonStar", "profile_background_color": "C0DEED", "profile_background_image_url": "http://pbs.twimg.com/profile_background_images/435233372/scifi_1a.jpg", "profile_background_tile": true, "profile_banner_url": "https://pbs.twimg.com/profile_banners/503786103/1384787861", "profile_image_url": "https://pbs.twimg.com/profile_images/680073134729474048/X6Rc1RPA_normal.png", "profile_link_color": "0084B4", "profile_sidebar_fill_color": "DDEEF6", "profile_text_color": "333333", "protected": false, "screen_name": "FantasySci", "statuses_count": 35848, "time_zone": "Pacific Time (US & Canada)", "url": "https://t.co/a0FnNAXVuj", "utc_offset": -28800}}
{"created_at": "Sun Jul 05 18:12:26 +0000 2015", "favorited": false, "id": 617757948090028032, "lang": "en", "retweet_count": 1, "retweeted": false, "source": "<a href=\"http://twitter.com/download/iphone\" rel=\"nofollow\">Twitter for iPhone</a>", "text": "Today Facebook tells me Andy Griffith is dead. Again.", "truncated": false, "user": {"created_at": "Thu Apr 08 14:31:07 +0000 2010", "description": "Host of @Hey_Lang on 1630 @KCJJ. Known troublemaker. Lover of @bojamesbar burger baskets. Iowa City native/@uiowa alum.", "favourites_count": 2124, "followers_count": 1295, "friends_count": 1175, "geo_enabled": true, "id": 130852019, "lang": "en", "listed_count": 29, "location": "\u00dcT: 41.681476,-91.583633", "name": "Tommy Lang", "profile_background_color": "C0DEED", "profile_background_image_url": "http://pbs.twimg.com/profile_background_images/443577316/goldrecords01.jpg", "profile_background_tile": true, "profile_banner_url": "https://pbs.twimg.com/profile_banners/130852019/1452524405", "profile_image_url": "https://pbs.twimg.com/profile_images/687309176071008256/Reeo_lQQ_normal.jpg", "profile_link_color": "0084B4", "profile_sidebar_fill_color": "DDEEF6", "profile_text_color": "333333", "protected": false, "screen_name": "tommylang1630", "statuses_count": 26835, "time_zone": "Central Time (US & Canada)", "url": "https://t.co/WrME0NqnyS", "utc_offset": -21600}}
{"created_at": "Sun Jul 05 18:13:36 +0000 2015", "favorited": false, "id": 617758240198250496, "lang": "en", "retweeted": false, "source": "<a href=\"http://twitter.com\" rel=\"nofollow\">Twitter Web Client</a>", "text": "Poor Andy Griffith died again. Gone since 2012, but he seems to die again every year around this time.", "truncated": false, "user": {"created_at": "Tue Apr 24 04:11:28 +0000 2007", "description": "Co-founder of @CaliCanRescue with a chihuahua tattoo on my bicep. My views and opinions are my own and not of my employer or charity", "favourites_count": 441, "followers_count": 1910, "friends_count": 1397, "geo_enabled": true, "id": 5453202, "lang": "en", "listed_count": 105, "location": "Edmonton, Alberta", "name": "Kylo Rene", "profile_background_color": "022330", "profile_background_image_url": "http://abs.twimg.com/images/themes/theme15/bg.png", "profile_background_tile": false, "profile_banner_url": "https://pbs.twimg.com/profile_banners/5453202/1445272371", "profile_image_url": "https://pbs.twimg.com/profile_images/674650368349896704/MXN4BZ2k_normal.jpg", "profile_link_color": "0084B4", "profile_sidebar_fill_color": "C0DFEC", "profile_text_color": "333333", "protected": false, "screen_name": "Rainyfool", "statuses_count": 46733, "time_zone": "Midway Island", "url": "http://t.co/4WibwqEM4M", "utc_offset": -39600}}
{"created_at": "Sun Jul 05 19:06:22 +0000 2015", "favorited": false, "id": 617771518265679872, "lang": "en", "retweeted": false, "source": "<a href=\"http://twitter.com/download/iphone\" rel=\"nofollow\">Twitter for iPhone</a>", "text": "Andy Griffith died in 2012, but for some reason it's making the news again. Same thing happened with Rue McClanahan a few weeks ago.", "truncated": false, "user": {"created_at": "Fri Apr 18 22:38:41 +0000 2008", "description": "florida, cat enthusiast, vegetarian, atheist, sometimes artist, often a fangirl.", "favourites_count": 654, "followers_count": 316, "friends_count": 209, "id": 14438301, "lang": "en", "listed_count": 26, "location": "Port Orange, FL", "name": "Amie", "profile_background_color": "131516", "profile_background_image_url": "http://abs.twimg.com/images/themes/theme14/bg.gif", "profile_background_tile": true, "profile_banner_url": "https://pbs.twimg.com/profile_banners/14438301/1398391526", "profile_image_url": "https://pbs.twimg.com/profile_images/641734953521278977/k_yf44Ue_normal.jpg", "profile_link_color": "009999", "profile_sidebar_fill_color": "EFEFEF", "profile_text_color": "333333", "protected": false, "screen_name": "amiryfenn", "statuses_count": 31186, "time_zone": "Eastern Time (US & Canada)", "url": "https://t.co/yOxQetfR8r", "utc_offset": -18000}}
{"created_at": "Sun Jul 05 19:15:35 +0000 2015", "favorite_count": 1, "favorited": false, "hashtags": ["AndyGriffith"], "id": 617773840832294912, "lang": "en", "media": [{"display_url": "pic.twitter.com/yrjJxtvuVD", "expanded_url": "http://twitter.com/Hoaxolizer/status/617773840832294912/photo/1", "id": 617773840534491136, "id_str": "617773840534491136", "indices": [49, 71], "media_url": "http://pbs.twimg.com/media/CJLGCOyWUAA81mK.png", "media_url_https": "https://pbs.twimg.com/media/CJLGCOyWUAA81mK.png", "sizes": {"large": {"h": 416, "resize": "fit", "w": 709}, "medium": {"h": 352, "resize": "fit", "w": 600}, "small": {"h": 199, "resize": "fit", "w": 340}, "thumb": {"h": 150, "resize": "crop", "w": 150}}, "type": "photo", "url": "http://t.co/yrjJxtvuVD"}], "retweeted": false, "source": "<a href=\"http://leadstories.com\" rel=\"nofollow\">Lead Stories Feed Publisher</a>", "text": "RIP (Again) #AndyGriffith http://t.co/Lo0bssPPhO http://t.co/yrjJxtvuVD", "truncated": false, "urls": {"http://t.co/Lo0bssPPhO": "http://hoax.trendolizer.com/2015/07/rip-again-andy-griffith.html"}, "user": {"created_at": "Tue Oct 21 09:02:21 +0000 2014", "default_profile": true, "description": "The most trending news about hoaxes as collected by Trendolizer", "followers_count": 660, "friends_count": 429, "id": 2839486181, "lang": "en", "listed_count": 65, "name": "Trending Hoax News", "profile_background_color": "C0DEED", "profile_background_image_url": "http://abs.twimg.com/images/themes/theme1/bg.png", "profile_background_tile": false, "profile_banner_url": "https://pbs.twimg.com/profile_banners/2839486181/1413882440", "profile_image_url": "https://pbs.twimg.com/profile_images/524486681945067520/woFPZPVc_normal.jpeg", "profile_link_color": "0084B4", "profile_sidebar_fill_color": "DDEEF6", "profile_text_color": "333333", "protected": false, "screen_name": "Hoaxolizer", "statuses_count": 13010, "url": "http://t.co/7pRPb4ABpu"}}
{"created_at": "Sun Jul 05 19:52:02 +0000 2015", "favorited": false, "hashtags": ["Snopes", "Andy", "Griffith"], "id": 617783012885966848, "lang": "en", "retweeted": false, "source": "<a href=\"http://momknowsshopping.com/UFOParanormal\" rel=\"nofollow\">UFOParanormalNews</a>", "text": "#Snopes RIP Again #Andy #Griffith http://t.co/vBPSsvepaA", "truncated": false, "urls": {"http://t.co/vBPSsvepaA": "http://goo.gl/XPP10T"}, "user": {"created_at": "Wed Oct 01 13:34:46 +0000 2014", "description": "We provide the latest news on #UFO's, #Paranormal, #Ghosts and everything that is strange or weird. Plus #Software, #Camera's and #Computer items.", "favourites_count": 3, "followers_count": 12360, "friends_count": 11541, "geo_enabled": true, "id": 2797963749, "lang": "en", "listed_count": 413, "name": "UFO Paranormal", "profile_background_color": "000000", "profile_background_image_url": "http://abs.twimg.com/images/themes/theme1/bg.png", "profile_background_tile": false, "profile_banner_url": "https://pbs.twimg.com/profile_banners/2797963749/1419626990", "profile_image_url": "https://pbs.twimg.com/profile_images/517311356198858753/OkOTy-q6_normal.jpeg", "profile_link_color": "FA743E", "profile_sidebar_fill_color": "000000", "profile_text_color": "000000", "protected": false, "screen_name": "UFOParanormNews", "statuses_count": 77085, "url": "https://t.co/I4rmVNErYQ"}}
{"created_at": "Sun Jul 05 20:20:33 +0000 2015", "favorited": false, "id": 617790187108704256, "lang": "en", "place": {"attributes": {}, "bounding_box": {"coordinates": [[[-84.329998, 35.755996], [-84.208158, 35.755996], [-84.208158, 35.876542], [-84.329998, 35.876542]]], "type": "Polygon"}, "contained_within": [], "country": "United States", "country_code": "US", "full_name": "Lenoir City, TN", "id": "77ba99c153c2336c", "name": "Lenoir City", "place_type": "city", "url": "https://api.twitter.com/1.1/geo/id/77ba99c153c2336c.json"}, "retweeted": false, "source": "<a href=\"http://twitter.com/download/iphone\" rel=\"nofollow\">Twitter for iPhone</a>", "text": "If I say Andy Griffith . I wonder if he will tweet me again", "truncated": false, "user": {"created_at": "Sat Jun 20 15:58:21 +0000 2009", "description": "great to be a Tennessee vol- titanup", "favourites_count": 19935, "followers_count": 1067, "friends_count": 1897, "geo_enabled": true, "id": 49039466, "lang": "en", "listed_count": 11, "location": "knoxville TN", "name": "JohnnyBfromTN\u26a1\ufe0f", "profile_background_color": "FFFFFF", "profile_background_image_url": "http://pbs.twimg.com/profile_background_images/517349380643233792/tXUvwHTM.jpeg", "profile_background_tile": true, "profile_banner_url": "https://pbs.twimg.com/profile_banners/49039466/1452437921", "profile_image_url": "https://pbs.twimg.com/profile_images/677315243782066176/dlXGLMR6_normal.jpg", "profile_link_color": "0084B4", "profile_sidebar_fill_color": "C0DFEC", "profile_text_color": "333333", "protected": false, "screen_name": "JohnnyBFromTN", "statuses_count": 30859, "time_zone": "Central Time (US & Canada)", "utc_offset": -21600}}
{"created_at": "Sun Jul 05 20:51:06 +0000 2015", "favorited": false, "id": 617797876719026176, "lang": "en", "retweeted": false, "source": "<a href=\"http://dragplus.com\" rel=\"nofollow\">DragPlus</a>", "text": "RIP (Again) Andy Griffith http://t.co/m3HgUIsvUM", "truncated": false, "urls": {"http://t.co/m3HgUIsvUM": "http://dragplus.com/post/id/30943928"}, "user": {"created_at": "Fri Jun 20 10:38:14 +0000 2014", "default_profile": true, "description": "rationality, Symbol,\r\nIrrationality,\r\nBounded Rationality,\r\nThought,\r\nThinking,\r\nLogical Thinking,", "followers_count": 526, "friends_count": 1914, "id": 2578431786, "lang": "en", "listed_count": 18, "name": "Rationality AGENT", "profile_background_color": "C0DEED", "profile_background_image_url": "http://abs.twimg.com/images/themes/theme1/bg.png", "profile_background_tile": false, "profile_image_url": "https://pbs.twimg.com/profile_images/481004180358713345/SRru4CWv_normal.jpeg", "profile_link_color": "0084B4", "profile_sidebar_fill_color": "DDEEF6", "profile_text_color": "333333", "protected": false, "screen_name": "rationality_age", "statuses_count": 4031, "url": "http://t.co/1qbV1uWj8Q"}}
{"created_at": "Sun Jul 05 23:21:54 +0000 2015", "favorite_count": 2, "favorited": false, "id": 617835827759042560, "lang": "en", "retweet_count": 1, "retweeted": false, "source": "<a href=\"http://twitter.com\" rel=\"nofollow\">Twitter Web Client</a>", "text": "Funny how celebrities die ... and then re-die a few years later on social media. I learned Andy Griffith died again today. Tragic.", "truncated": false, "user": {"created_at": "Sat Feb 23 08:54:32 +0000 2013", "description": "writes stories and draws pictures", "favourites_count": 8161, "followers_count": 2500, "friends_count": 2530, "id": 1211115859, "lang": "en", "listed_count": 45, "location": "Georgia, USA", "name": "Matthew Curry", "profile_background_color": "C0DEED", "profile_background_image_url": "http://pbs.twimg.com/profile_background_images/452522405580120065/QfyER51e.jpeg", "profile_background_tile": true, "profile_banner_url": "https://pbs.twimg.com/profile_banners/1211115859/1449284680", "profile_image_url": "https://pbs.twimg.com/profile_images/667129179113185280/eqJCHBFd_normal.jpg", "profile_link_color": "0084B4", "profile_sidebar_fill_color": "DDEEF6", "profile_text_color": "333333", "protected": false, "screen_name": "Curry_in_a_box", "statuses_count": 5545, "time_zone": "Atlantic Time (Canada)", "url": "https://t.co/KLCxCl6bAz", "utc_offset": -14400}}
{"created_at": "Sun Jul 05 23:38:43 +0000 2015", "favorited": false, "id": 617840060399001600, "lang": "en", "retweeted": false, "source": "<a href=\"http://www.facebook.com/twitter\" rel=\"nofollow\">Facebook</a>", "text": "If my Facebook feed is any indication, it looks like Andy Griffith died again recently.\n\nI doubt that they dug... http://t.co/BgeyvDbMaI", "truncated": false, "urls": {"http://t.co/BgeyvDbMaI": "http://fb.me/3WfTMG6ln"}, "user": {"created_at": "Wed Mar 07 17:19:58 +0000 2007", "description": "We plant trees today in order that our children may enjoy them tomorrow.", "favourites_count": 9209, "followers_count": 649, "friends_count": 1156, "geo_enabled": true, "id": 818805, "lang": "en", "listed_count": 31, "location": "Seattle WA", "name": "stephen matlock", "profile_background_color": "352726", "profile_background_image_url": "http://pbs.twimg.com/profile_background_images/547628102973521920/WAI-51bj.jpeg", "profile_background_tile": false, "profile_banner_url": "https://pbs.twimg.com/profile_banners/818805/1448426816", "profile_image_url": "https://pbs.twimg.com/profile_images/669376781002997760/pFgZpLUp_normal.jpg", "profile_link_color": "9266CC", "profile_sidebar_fill_color": "C0DFEC", "profile_text_color": "333333", "protected": false, "screen_name": "stephenmatlock", "statuses_count": 19476, "time_zone": "America/Los_Angeles", "url": "http://t.co/OGwl406R5p", "utc_offset": -28800}}
{"created_at": "Mon Jul 06 03:22:33 +0000 2015", "favorited": false, "id": 617896387141894144, "lang": "en", "retweeted": false, "source": "<a href=\"http://twitter.com\" rel=\"nofollow\">Twitter Web Client</a>", "text": "Ya'll having Andy Griffith die again on social media too?\ud83d\ude02", "truncated": false, "user": {"created_at": "Mon Feb 18 01:37:08 +0000 2008", "description": "Old millennial. Mother. Blerd. Cam Newton's Other Girlfriend (in my head).", "favourites_count": 4692, "followers_count": 818, "friends_count": 687, "geo_enabled": true, "id": 13604312, "lang": "en", "listed_count": 17, "location": "Charlotte, NC", "name": "The Other Serena", "profile_background_color": "ABB8C2", "profile_background_image_url": "http://pbs.twimg.com/profile_background_images/622560822489927680/BAHOdAqb.jpg", "profile_background_tile": true, "profile_banner_url": "https://pbs.twimg.com/profile_banners/13604312/1451482569", "profile_image_url": "https://pbs.twimg.com/profile_images/682181734578835456/M4OBfEIN_normal.jpg", "profile_link_color": "F5ABB5", "profile_sidebar_fill_color": "EADEAA", "profile_text_color": "333333", "protected": false, "screen_name": "ReenuhGee", "statuses_count": 21846, "time_zone": "Eastern Time (US & Canada)", "url": "https://t.co/Bgrq9Jpx0X", "utc_offset": -18000}}
{"created_at": "Mon Jul 06 11:09:06 +0000 2015", "favorited": false, "id": 618013799438786560, "lang": "en", "media": [{"display_url": "pic.twitter.com/UzWS5EcPjR", "expanded_url": "http://twitter.com/PhilMondor1/status/618013799438786560/photo/1", "id": 618013798348124161, "id_str": "618013798348124161", "indices": [75, 97], "media_url": "http://pbs.twimg.com/media/CJOgRnTUcAEv2ef.jpg", "media_url_https": "https://pbs.twimg.com/media/CJOgRnTUcAEv2ef.jpg", "sizes": {"large": {"h": 400, "resize": "fit", "w": 400}, "medium": {"h": 400, "resize": "fit", "w": 400}, "small": {"h": 340, "resize": "fit", "w": 340}, "thumb": {"h": 150, "resize": "crop", "w": 150}}, "type": "photo", "url": "http://t.co/UzWS5EcPjR"}], "retweeted": false, "source": "<a href=\"http://twitter.com\" rel=\"nofollow\">Twitter Web Client</a>", "text": "\"Good to see you again Ange:.\nAndy Griffith Dead: Actor Buried Hours Later http://t.co/UzWS5EcPjR", "truncated": false, "user": {"created_at": "Tue Aug 14 23:03:14 +0000 2012", "description": "Smitty Werbenjagermanjensen He Was Number One!", "favourites_count": 100, "followers_count": 53, "friends_count": 34, "geo_enabled": true, "id": 758058870, "lang": "en", "location": "Saying what you are thinking", "name": "Phil Mondor near #1", "profile_background_color": "000000", "profile_background_image_url": "http://abs.twimg.com/images/themes/theme1/bg.png", "profile_background_tile": false, "profile_banner_url": "https://pbs.twimg.com/profile_banners/758058870/1450265096", "profile_image_url": "https://pbs.twimg.com/profile_images/482964357966340097/rHc372_W_normal.jpeg", "profile_link_color": "DD2E44", "profile_sidebar_fill_color": "000000", "profile_text_color": "000000", "protected": false, "screen_name": "PhilMondor1", "statuses_count": 1616, "url": "http://t.co/TDarF6yQqj"}}
{"created_at": "Mon Jul 06 13:00:18 +0000 2015", "favorited": false, "hashtags": ["Periscope"], "id": 618041783499530240, "lang": "en", "retweeted": false, "source": "<a href=\"https://periscope.tv\" rel=\"nofollow\">Periscope</a>", "text": "LIVE on #Periscope: Andy Griffith is dead ... Again  https://t.co/995c7kYFCK", "truncated": false, "urls": {"https://t.co/995c7kYFCK": "https://www.periscope.tv/w/aGpzYTEyNjU2MzR8MzQ4MjQxNjmPTwcyyCSw7tXM8Q3M0azJ0Z5I6x_lv0Od0es9Q2pTog=="}, "user": {"created_at": "Tue Apr 07 02:29:12 +0000 2009", "default_profile": true, "description": "America's Got Talent, Best Time Ever, The View, Good Morning America's Concerts and more!", "favourites_count": 5741, "followers_count": 23106, "friends_count": 3401, "geo_enabled": true, "id": 29357762, "lang": "en", "listed_count": 73, "location": "New York, NY", "name": "Tom Kelly Comedian", "profile_background_color": "C0DEED", "profile_background_image_url": "http://abs.twimg.com/images/themes/theme1/bg.png", "profile_background_tile": false, "profile_banner_url": "https://pbs.twimg.com/profile_banners/29357762/1372701164", "profile_image_url": "https://pbs.twimg.com/profile_images/589610405984608256/3JrEj9hW_normal.jpg", "profile_link_color": "0084B4", "profile_sidebar_fill_color": "DDEEF6", "profile_text_color": "333333", "protected": false, "screen_name": "TomKellyShow", "statuses_count": 14753, "time_zone": "Eastern Time (US & Canada)", "url": "https://t.co/DhvdXO48DE", "utc_offset": -18000}}
{"created_at": "Mon Jul 06 14:13:25 +0000 2015", "favorited": false, "id": 618060185815396352, "lang": "en", "retweeted": false, "source": "<a href=\"http://www.facebook.com/twitter\" rel=\"nofollow\">Facebook</a>", "text": "RIP (Again) Andy Griffith \nhttp://t.co/MRoaxuE4Vu", "truncated": false, "urls": {"http://t.co/MRoaxuE4Vu": "http://m.snopes.com/2015/07/05/rip-andy-griffith/"}, "user": {"created_at": "Sat May 29 19:32:50 +0000 2010", "description": "Romantic, Writer, xTV producer and film critic,Tech Guru, USN Veteran", "favourites_count": 52, "followers_count": 252, "friends_count": 471, "geo_enabled": true, "id": 149623199, "lang": "en", "listed_count": 46, "location": "Somewhere in Oceanside, CA", "name": "Patrick C. Morrissey", "profile_background_color": "C0DEED", "profile_background_image_url": "http://pbs.twimg.com/profile_background_images/591349999537008640/flPVFYI0.jpg", "profile_background_tile": false, "profile_banner_url": "https://pbs.twimg.com/profile_banners/149623199/1440727397", "profile_image_url": "https://pbs.twimg.com/profile_images/680727230863937537/k35V9OtW_normal.jpg", "profile_link_color": "0084B4", "profile_sidebar_fill_color": "DDEEF6", "profile_text_color": "333333", "protected": false, "screen_name": "P_C_Morrissey", "statuses_count": 7885, "time_zone": "Pacific Time (US & Canada)", "utc_offset": -28800}}
{"created_at": "Mon Jul 06 14:54:13 +0000 2015", "favorited": false, "id": 618070450715754497, "lang": "en", "retweet_count": 1, "retweeted": false, "source": "<a href=\"http://twitter.com\" rel=\"nofollow\">Twitter Web Client</a>", "text": "FB is killing Andy Griffith again. Started throughout the weekend and is continuing. -_-", "truncated": false, "user": {"created_at": "Tue May 25 19:40:36 +0000 2010", "description": "Brains, power, and hustle, like Dame, Puffy, and Russell.", "favourites_count": 754, "followers_count": 504, "friends_count": 442, "id": 148075550, "lang": "en", "listed_count": 12, "name": "Randi Watson", "profile_background_color": "022330", "profile_background_image_url": "http://pbs.twimg.com/profile_background_images/378800000031817734/fc0986acacb0a5f2757bd3d5c5836a9a.jpeg", "profile_background_tile": true, "profile_banner_url": "https://pbs.twimg.com/profile_banners/148075550/1435418902", "profile_image_url": "https://pbs.twimg.com/profile_images/667907591435976705/BFbGzmA2_normal.jpg", "profile_link_color": "0084B4", "profile_sidebar_fill_color": "EFEFEF", "profile_text_color": "333333", "protected": false, "screen_name": "kayevalley", "statuses_count": 47369, "time_zone": "Central Time (US & Canada)", "utc_offset": -21600}}
{"created_at": "Mon Jul 06 16:05:39 +0000 2015", "favorited": false, "hashtags": ["andygriffith"], "id": 618088427976835072, "lang": "en", "retweeted": false, "source": "<a href=\"http://twitter.com/download/iphone\" rel=\"nofollow\">Twitter for iPhone</a>", "text": "Andy Griffith Died again and so sad! #andygriffith", "truncated": false, "user": {"created_at": "Fri Feb 13 00:13:45 +0000 2009", "default_profile": true, "description": "Work in Media, married and love movies, comedy and fun!", "favourites_count": 799, "followers_count": 547, "friends_count": 984, "geo_enabled": true, "id": 20734359, "lang": "en", "listed_count": 17, "location": "Poughkeepsie NY", "name": "JTV", "profile_background_color": "C0DEED", "profile_background_image_url": "http://abs.twimg.com/images/themes/theme1/bg.png", "profile_background_tile": false, "profile_banner_url": "https://pbs.twimg.com/profile_banners/20734359/1385450873", "profile_image_url": "https://pbs.twimg.com/profile_images/503727209946025984/JaPp3uFv_normal.jpeg", "profile_link_color": "0084B4", "profile_sidebar_fill_color": "DDEEF6", "profile_text_color": "333333", "protected": false, "screen_name": "jayv1974", "statuses_count": 5887, "time_zone": "Eastern Time (US & Canada)", "utc_offset": -18000}}
{"created_at": "Mon Jul 06 16:13:49 +0000 2015", "favorited": false, "id": 618090484951592960, "lang": "en", "retweeted": false, "source": "<a href=\"http://twitter.com/download/iphone\" rel=\"nofollow\">Twitter for iPhone</a>", "text": "RIP (Again) Andy Griffith http://t.co/ncKWSiTcmq", "truncated": false, "urls": {"http://t.co/ncKWSiTcmq": "http://po.st/5bDChX"}, "user": {"created_at": "Wed Dec 10 23:49:22 +0000 2008", "description": "News Producer. Amateur Television Critic. @UGAGrady alum. Love Atlanta, Beltway politics, maps, the media, NPR, pop culture & the SEC. I still watch Survivor.", "favourites_count": 5521, "followers_count": 1449, "friends_count": 342, "geo_enabled": true, "id": 18034714, "lang": "en", "listed_count": 103, "location": "Greensboro, NC", "name": "Lynox Rolfe Norman", "profile_background_color": "EBEBEB", "profile_background_image_url": "http://abs.twimg.com/images/themes/theme7/bg.gif", "profile_background_tile": false, "profile_banner_url": "https://pbs.twimg.com/profile_banners/18034714/1445034599", "profile_image_url": "https://pbs.twimg.com/profile_images/666374134813892608/zs3qcO1G_normal.jpg", "profile_link_color": "990000", "profile_sidebar_fill_color": "A0C5C7", "profile_text_color": "333333", "protected": false, "screen_name": "rolfenorman", "statuses_count": 43848, "time_zone": "Eastern Time (US & Canada)", "url": "https://t.co/P6JHa7MAxE", "utc_offset": -18000, "verified": true}}
{"created_at": "Mon Jul 06 17:12:48 +0000 2015", "favorited": false, "id": 618105327456645120, "lang": "en", "retweeted": false, "source": "<a href=\"http://www.apple.com\" rel=\"nofollow\">iOS</a>", "text": "RIP (Again) Andy Griffith : http://t.co/OjiGYEmzXI http://t.co/OzuqesqJeX", "truncated": false, "urls": {"http://t.co/OjiGYEmzXI": "http://snopes.com", "http://t.co/OzuqesqJeX": "http://m.snopes.com/2015/07/05/rip-andy-griffith/"}, "user": {"created_at": "Fri Mar 02 21:01:14 +0000 2012", "description": "Music lover, animal lover, armchair activist, living with MS, reader, married gay man, socially and spiritually empathetic.", "favourites_count": 6223, "followers_count": 313, "friends_count": 1174, "geo_enabled": true, "id": 512444877, "lang": "en", "listed_count": 8, "location": "California", "name": "David Bruce-Casares", "profile_background_color": "000000", "profile_background_image_url": "http://abs.twimg.com/images/themes/theme1/bg.png", "profile_background_tile": false, "profile_banner_url": "https://pbs.twimg.com/profile_banners/512444877/1403285987", "profile_image_url": "https://pbs.twimg.com/profile_images/513939337407660033/r0iN_OVg_normal.jpeg", "profile_link_color": "0579A3", "profile_sidebar_fill_color": "000000", "profile_text_color": "000000", "protected": false, "screen_name": "DavidBruCas", "statuses_count": 2719, "time_zone": "Pacific Time (US & Canada)", "utc_offset": -28800}}
{"created_at": "Mon Jul 06 18:18:25 +0000 2015", "favorite_count": 2, "favorited": false, "id": 618121841480085504, "lang": "en", "retweeted": false, "source": "<a href=\"http://twitter.com\" rel=\"nofollow\">Twitter Web Client</a>", "text": "Andy Griffith obituary is going around again. In other news, I understand that \"Generallissimo Francisco Franco is still dead.\"", "truncated": false, "user": {"created_at": "Mon Nov 03 23:10:56 +0000 2008", "description": "Follower of Jesus, Husband and Dad, United Methodist Minister. Views expressed here are not necessarily mine, but I think they are at the time.", "favourites_count": 364, "followers_count": 1278, "friends_count": 1311, "geo_enabled": true, "id": 17143308, "lang": "en", "listed_count": 31, "location": "Frisco, TX (USA)", "name": "Alan Hitt", "profile_background_color": "FFFFFF", "profile_background_image_url": "http://pbs.twimg.com/profile_background_images/432867893/Blue_Dots.png", "profile_background_tile": false, "profile_banner_url": "https://pbs.twimg.com/profile_banners/17143308/1452036783", "profile_image_url": "https://pbs.twimg.com/profile_images/2250345956/hitt05_ssmall_cropped_normal.jpg", "profile_link_color": "142645", "profile_sidebar_fill_color": "91C5ED", "profile_text_color": "260226", "protected": false, "screen_name": "alanhitt", "statuses_count": 3798, "time_zone": "Central Time (US & Canada)", "url": "http://t.co/UdcqfCSTTv", "utc_offset": -21600}}
{"created_at": "Mon Jul 06 19:02:20 +0000 2015", "favorite_count": 3, "favorited": false, "id": 618132892519149568, "lang": "en", "retweeted": false, "source": "<a href=\"http://www.facebook.com/twitter\" rel=\"nofollow\">Facebook</a>", "text": "So looking at my stream, apparently Andy Griffith died again today. Check your facts, peeps.", "truncated": false, "user": {"created_at": "Wed Apr 01 22:05:15 +0000 2009", "description": "Find my main tweets at @KristenDaukas. Helping parents navigate the #teen & #tween years w/o going crazy. 10 years, blogging strong!", "favourites_count": 104, "followers_count": 4007, "friends_count": 3799, "geo_enabled": true, "id": 28208668, "lang": "en", "listed_count": 143, "location": "North Carolina", "name": "Kristen Daukas", "profile_background_color": "FFFFFF", "profile_background_image_url": "http://pbs.twimg.com/profile_background_images/378800000172614312/_2k9lntf.png", "profile_background_tile": false, "profile_banner_url": "https://pbs.twimg.com/profile_banners/28208668/1390400095", "profile_image_url": "https://pbs.twimg.com/profile_images/425994872076509184/GRLScjyh_normal.jpeg", "profile_link_color": "B84C4C", "profile_sidebar_fill_color": "100E0E", "profile_text_color": "EB6F6F", "protected": false, "screen_name": "4Hens1Rooster", "statuses_count": 20802, "time_zone": "Eastern Time (US & Canada)", "url": "http://t.co/6dLaRY8nid", "utc_offset": -18000}}
{"created_at": "Mon Jul 06 20:01:26 +0000 2015", "favorited": false, "id": 618147764325740548, "lang": "en", "retweeted": false, "source": "<a href=\"http://twitter.com/download/iphone\" rel=\"nofollow\">Twitter for iPhone</a>", "text": "How many times is Andy Griffith going to die before the news stick? It's making the Facebook rounds again. Is this \"Griffrolling?\"", "truncated": false, "user": {"created_at": "Fri Jan 28 03:11:35 +0000 2011", "description": "Coffee-dependent, liberal social worker/psychotherapist. Serious at times...throw in a bit of irreverence, peppered with sarcastic tendencies. That's me.", "favourites_count": 9037, "followers_count": 302, "friends_count": 503, "id": 243924129, "lang": "en", "listed_count": 9, "location": "Bedford Falls, NY", "name": "Suzette Pomeroy", "profile_background_color": "352726", "profile_background_image_url": "http://abs.twimg.com/images/themes/theme5/bg.gif", "profile_background_tile": false, "profile_image_url": "https://pbs.twimg.com/profile_images/590692542137692160/4I6e0lnx_normal.jpg", "profile_link_color": "D02B55", "profile_sidebar_fill_color": "99CC33", "profile_text_color": "3E4415", "protected": false, "screen_name": "Ab_Normal75", "statuses_count": 14212}}
{"created_at": "Mon Jul 06 22:06:50 +0000 2015", "favorite_count": 1, "favorited": false, "id": 618179324559159297, "lang": "en", "place": {"attributes": {}, "bounding_box": {"coordinates": [[[-86.935419, 35.85036], [-86.766934, 35.85036], [-86.766934, 36.019674], [-86.935419, 36.019674]]], "type": "Polygon"}, "contained_within": [], "country": "United States", "country_code": "US", "full_name": "Franklin, TN", "id": "cc631a80adacd459", "name": "Franklin", "place_type": "city", "url": "https://api.twitter.com/1.1/geo/id/cc631a80adacd459.json"}, "retweet_count": 1, "retweeted": false, "source": "<a href=\"http://twitter.com\" rel=\"nofollow\">Twitter Web Client</a>", "text": "Andy Griffith has succumbed to Rue McClanahan disease... died several years ago, and apparently died again this week", "truncated": false, "user": {"created_at": "Wed Feb 17 04:02:30 +0000 2010", "description": "2014 & 2015 You Are So Nashville If winner. Country music radio weekend guy. I've high-fived Jimmy Fallon and shook the hand of Pat Sajak. Not at the same time.", "favourites_count": 417, "followers_count": 641, "friends_count": 1264, "geo_enabled": true, "id": 114952733, "lang": "en", "listed_count": 48, "location": "Nashville, Tennessee", "name": "Zack Bennett", "profile_background_color": "131516", "profile_background_image_url": "http://abs.twimg.com/images/themes/theme14/bg.gif", "profile_background_tile": true, "profile_banner_url": "https://pbs.twimg.com/profile_banners/114952733/1398193723", "profile_image_url": "https://pbs.twimg.com/profile_images/686036262399119360/kovbNAq9_normal.jpg", "profile_link_color": "0D2080", "profile_sidebar_fill_color": "EFEFEF", "profile_text_color": "333333", "protected": false, "screen_name": "ZackTN", "statuses_count": 79649, "time_zone": "Central Time (US & Canada)", "utc_offset": -21600}}
{"created_at": "Mon Jul 06 22:11:17 +0000 2015", "favorite_count": 3, "favorited": false, "id": 618180444434132992, "lang": "en", "retweeted": false, "source": "<a href=\"http://twitter.com/download/iphone\" rel=\"nofollow\">Twitter for iPhone</a>", "text": "Poor Andy Griffith died today. Again. This makes twice since 2013", "truncated": false, "user": {"created_at": "Wed Jun 06 09:24:18 +0000 2012", "description": "The Houndztooth Powered By BamaHammer on the @Fansided Network (Partner of SI) | Master of the Interwebs | Fancred https://t.co/8SaT2Atj9a", "favourites_count": 3766, "followers_count": 9132, "friends_count": 7630, "geo_enabled": true, "id": 600824714, "lang": "en", "listed_count": 96, "name": "TheHoundztooth", "profile_background_color": "C0DEED", "profile_background_image_url": "http://pbs.twimg.com/profile_background_images/500124764078223360/fJ_DJ4jp.jpeg", "profile_background_tile": true, "profile_banner_url": "https://pbs.twimg.com/profile_banners/600824714/1452606846", "profile_image_url": "https://pbs.twimg.com/profile_images/682368333656797185/r1N_9Cu6_normal.png", "profile_link_color": "0084B4", "profile_sidebar_fill_color": "DDEEF6", "profile_text_color": "333333", "protected": false, "screen_name": "TheHoundztooth", "statuses_count": 47535, "url": "https://t.co/VgV8A17pNK"}}
{"created_at": "Mon Jul 06 22:39:44 +0000 2015", "favorited": false, "id": 618187603733532673, "lang": "en", "retweeted": false, "source": "<a href=\"http://twitter.com/download/iphone\" rel=\"nofollow\">Twitter for iPhone</a>", "text": "Watchin The Andy Griffith Show before I go to work.. Again. \ud83d\udcfa\ud83d\udc4d\ud83c\udffd\ud83d\ude01\ud83d\udcaf\ud83d\udcb0", "truncated": false, "user": {"created_at": "Thu Apr 30 23:28:45 +0000 2009", "description": "Delight thyself also in the Lord; and he shall give thee the desires of thine heart. Psalms 37:4", "favourites_count": 1539, "followers_count": 27, "friends_count": 85, "id": 36810733, "lang": "en", "listed_count": 1, "location": "Mattoon, IL", "name": "Kendra", "profile_background_color": "ACDED6", "profile_background_image_url": "http://abs.twimg.com/images/themes/theme18/bg.gif", "profile_background_tile": false, "profile_banner_url": "https://pbs.twimg.com/profile_banners/36810733/1451403460", "profile_image_url": "https://pbs.twimg.com/profile_images/682879612712521728/SmoJjFjI_normal.jpg", "profile_link_color": "038543", "profile_sidebar_fill_color": "F6F6F6", "profile_text_color": "333333", "protected": false, "screen_name": "KennyB_93", "statuses_count": 2091, "time_zone": "Central Time (US & Canada)", "utc_offset": -21600}}
{"created_at": "Mon Jul 06 23:20:53 +0000 2015", "favorite_count": 585, "favorited": false, "id": 618197957418991619, "lang": "en", "retweet_count": 93, "retweeted": false, "source": "<a href=\"http://www.facebook.com/twitter\" rel=\"nofollow\">Facebook</a>", "text": "Oh, no!  Andy Griffith died again!", "truncated": false, "user": {"created_at": "Thu Mar 19 20:49:18 +0000 2009", "description": "Actor, writer, single parent, romantic idjit.", "favourites_count": 88, "followers_count": 756415, "friends_count": 686, "geo_enabled": true, "id": 25382170, "lang": "en", "listed_count": 7383, "location": "\u00dcT: -34.14806,118.39361", "name": "Jim Beaver", "profile_background_color": "8A3498", "profile_background_image_url": "http://pbs.twimg.com/profile_background_images/91604973/LTW_paperback.jpg", "profile_background_tile": true, "profile_banner_url": "https://pbs.twimg.com/profile_banners/25382170/1403139286", "profile_image_url": "https://pbs.twimg.com/profile_images/103916273/4182_normal.jpg", "profile_link_color": "0DD1F8", "profile_sidebar_fill_color": "C80FFF", "profile_text_color": "0A0000", "protected": false, "screen_name": "jumblejim", "statuses_count": 20425, "time_zone": "Pacific Time (US & Canada)", "url": "http://t.co/y72EbjobnB", "utc_offset": -28800, "verified": true}}
{"created_at": "Tue Jul 07 00:29:56 +0000 2015", "favorited": false, "hashtags": ["andygriffith", "rip", "july032012", "iusedtowatchthis"], "id": 618215335259414528, "lang": "en", "retweeted": false, "source": "<a href=\"http://instagram.com\" rel=\"nofollow\">Instagram</a>", "text": "Since rumors says he died again. #andygriffith #rip #july032012 #iusedtowatchthis @ andy griffith  show https://t.co/BEwpcQwO9O", "truncated": false, "urls": {"https://t.co/BEwpcQwO9O": "https://instagram.com/p/40JocZI1Mn/"}, "user": {"created_at": "Sun Dec 21 10:12:59 +0000 2014", "default_profile": true, "favourites_count": 76, "followers_count": 53, "friends_count": 99, "geo_enabled": true, "id": 2938008944, "lang": "en", "listed_count": 5, "name": "David Mullen", "profile_background_color": "C0DEED", "profile_background_image_url": "http://abs.twimg.com/images/themes/theme1/bg.png", "profile_background_tile": false, "profile_image_url": "https://pbs.twimg.com/profile_images/558712614365061120/0In33BWc_normal.jpeg", "profile_link_color": "0084B4", "profile_sidebar_fill_color": "DDEEF6", "profile_text_color": "333333", "protected": false, "screen_name": "islandcruza", "statuses_count": 817}}
{"created_at": "Tue Jul 07 11:02:45 +0000 2015", "favorited": false, "id": 618374588980826114, "lang": "en", "retweeted": false, "source": "<a href=\"http://www.facebook.com/twitter\" rel=\"nofollow\">Facebook</a>", "text": "RIP (Again) Andy Griffith http://t.co/VQJUOYnSIP", "truncated": false, "urls": {"http://t.co/VQJUOYnSIP": "http://fb.me/1PwFegfNw"}, "user": {"created_at": "Mon Mar 23 19:26:32 +0000 2009", "description": "A Yankee in love with his Southern Belle", "favourites_count": 2579, "followers_count": 187, "friends_count": 435, "geo_enabled": true, "id": 26069773, "lang": "en", "listed_count": 8, "location": "West by God Virgina", "name": "Brian Blinn", "profile_background_color": "EDECE9", "profile_background_image_url": "http://abs.twimg.com/images/themes/theme3/bg.gif", "profile_background_tile": false, "profile_banner_url": "https://pbs.twimg.com/profile_banners/26069773/1387251408", "profile_image_url": "https://pbs.twimg.com/profile_images/2910905212/e82388f546c77935f45d5db884246a84_normal.jpeg", "profile_link_color": "088253", "profile_sidebar_fill_color": "E3E2DE", "profile_text_color": "634047", "protected": false, "screen_name": "WVYankee", "statuses_count": 65378, "time_zone": "Eastern Time (US & Canada)", "utc_offset": -18000}}
{"created_at": "Tue Jul 07 19:16:14 +0000 2015", "favorited": false, "id": 618498779310911488, "lang": "en", "retweeted": false, "source": "<a href=\"http://tapbots.com/software/tweetbot/mac\" rel=\"nofollow\">Tweetbot for Mac</a>", "text": "Andy Griffith died again. :(", "truncated": false, "user": {"created_at": "Thu Oct 04 21:11:29 +0000 2007", "description": "Software engineer at about.me (@aboutdotme). \n\nYou\u2019ll probably like my photos better than my tweets: https://t.co/lPeQrdxkzP", "favourites_count": 5394, "followers_count": 2967, "friends_count": 143, "id": 9252192, "lang": "en", "listed_count": 32, "location": "Portland, Maine", "name": "Nathan Fitzsimmons", "profile_background_color": "000000", "profile_background_image_url": "http://pbs.twimg.com/profile_background_images/489828850130354176/Dcfc3GPD.jpeg", "profile_background_tile": false, "profile_banner_url": "https://pbs.twimg.com/profile_banners/9252192/1447357182", "profile_image_url": "https://pbs.twimg.com/profile_images/684042838066085889/zuFnsnR4_normal.jpg", "profile_link_color": "333333", "profile_sidebar_fill_color": "030516", "profile_text_color": "16818E", "protected": false, "screen_name": "notthatnathan", "statuses_count": 23443, "time_zone": "Eastern Time (US & Canada)", "url": "http://t.co/PGfEPJ4jnO", "utc_offset": -18000}}
{"created_at": "Tue Jul 07 22:48:28 +0000 2015", "favorited": false, "id": 618552189036924928, "lang": "en", "retweeted": false, "source": "<a href=\"http://www.facebook.com/twitter\" rel=\"nofollow\">Facebook</a>", "text": "RIP (Again) Andy Griffith http://t.co/nraG99LrAx", "truncated": false, "urls": {"http://t.co/nraG99LrAx": "http://fb.me/6Im1bVilM"}, "user": {"created_at": "Wed May 29 13:57:32 +0000 2013", "description": "stagehand for musicians", "favourites_count": 1, "followers_count": 21, "friends_count": 57, "id": 1467348944, "lang": "en", "location": "glenwood il.", "name": "tim urtz", "profile_background_color": "131516", "profile_background_image_url": "http://pbs.twimg.com/profile_background_images/880685883/eaf31b025e230bd9dea2c0aef56f6e7f.jpeg", "profile_background_tile": true, "profile_banner_url": "https://pbs.twimg.com/profile_banners/1467348944/1369839126", "profile_image_url": "https://pbs.twimg.com/profile_images/3727464481/24cbfe1bb4b64e4fa0fc2b9074913aca_normal.jpeg", "profile_link_color": "17191A", "profile_sidebar_fill_color": "DDEEF6", "profile_text_color": "333333", "protected": false, "screen_name": "kissasylum", "statuses_count": 3686}}
{"created_at": "Wed Jul 08 00:39:21 +0000 2015", "favorited": false, "id": 618580094748094464, "lang": "en", "retweeted": false, "source": "<a href=\"http://twitter.com\" rel=\"nofollow\">Twitter Web Client</a>", "text": "Apparently Andy Griffith died (again) today. Lived an extra 3 years after his last death in 2012. No zombie apocalypse yet, so that's good.", "truncated": false, "user": {"created_at": "Mon Dec 28 03:54:42 +0000 2009", "description": "Kansas City sports fan. Socially awkward and sarcastic. Registered Independent. May contain nuts.", "favourites_count": 5015, "followers_count": 281, "friends_count": 363, "id": 99853804, "lang": "en", "listed_count": 5, "location": "LV-426 ", "name": "Brett", "profile_background_color": "022330", "profile_background_image_url": "http://pbs.twimg.com/profile_background_images/613212936778194944/RsRpuRYn.jpg", "profile_background_tile": false, "profile_banner_url": "https://pbs.twimg.com/profile_banners/99853804/1446172201", "profile_image_url": "https://pbs.twimg.com/profile_images/575806104027815938/ZLmrb80u_normal.png", "profile_link_color": "0084B4", "profile_sidebar_fill_color": "000000", "profile_text_color": "000000", "protected": false, "screen_name": "DrunkenDonuts_", "statuses_count": 5676, "time_zone": "Eastern Time (US & Canada)", "url": "https://t.co/Fw1Td8NfZw", "utc_offset": -18000}}
{"created_at": "Wed Jul 08 04:07:48 +0000 2015", "favorited": false, "id": 618632553264615424, "lang": "en", "retweeted": false, "source": "<a href=\"http://www.apple.com\" rel=\"nofollow\">iOS</a>", "text": "RIP (Again) Andy Griffith : http://t.co/kOYolnbi0c http://t.co/XZjdZ5XgiN", "truncated": false, "urls": {"http://t.co/XZjdZ5XgiN": "http://m.snopes.com/2015/07/05/rip-andy-griffith/", "http://t.co/kOYolnbi0c": "http://snopes.com"}, "user": {"created_at": "Sat Apr 05 04:25:30 +0000 2014", "default_profile": true, "description": "Vine/Snapchat/Pinterest/Instagram: @jtpepper02-these words are my own-sagittarius-66/409 national parks visited-will follow back", "favourites_count": 20132, "followers_count": 565, "friends_count": 1868, "id": 2461560309, "lang": "en", "listed_count": 5, "location": "United States", "name": "Taylor Pepper", "profile_background_color": "C0DEED", "profile_background_image_url": "http://abs.twimg.com/images/themes/theme1/bg.png", "profile_background_tile": false, "profile_banner_url": "https://pbs.twimg.com/profile_banners/2461560309/1449883504", "profile_image_url": "https://pbs.twimg.com/profile_images/662796729637433344/0mHhjUA6_normal.jpg", "profile_link_color": "0084B4", "profile_sidebar_fill_color": "DDEEF6", "profile_text_color": "333333", "protected": false, "screen_name": "jtpepper02", "statuses_count": 5761}}
{"created_at": "Wed Jul 08 06:29:28 +0000 2015", "favorited": false, "id": 618668204123136000, "lang": "en", "place": {"attributes": {}, "bounding_box": {"coordinates": [[[-88.070827, 42.920822], [-87.863758, 42.920822], [-87.863758, 43.1926225], [-88.070827, 43.1926225]]], "type": "Polygon"}, "contained_within": [], "country": "United States", "country_code": "US", "full_name": "Milwaukee, WI", "id": "2a93711775303f90", "name": "Milwaukee", "place_type": "city", "url": "https://api.twitter.com/1.1/geo/id/2a93711775303f90.json"}, "retweeted": false, "source": "<a href=\"http://twitter.com\" rel=\"nofollow\">Twitter Web Client</a>", "text": "Facebook just told me Andy Griffith died again this morning. R.I.P.", "truncated": false, "user": {"created_at": "Mon Feb 02 03:34:02 +0000 2009", "description": "Remind me to take my meds.", "favourites_count": 2760, "followers_count": 2263, "friends_count": 1889, "id": 19891385, "lang": "en", "listed_count": 50, "name": "Fuck You", "profile_background_color": "000000", "profile_background_image_url": "http://abs.twimg.com/images/themes/theme6/bg.gif", "profile_background_tile": false, "profile_banner_url": "https://pbs.twimg.com/profile_banners/19891385/1421967572", "profile_image_url": "https://pbs.twimg.com/profile_images/2246648280/200593_10150437408340437_536335436_17580945_7224874_n_normal.jpg", "profile_link_color": "3B94D9", "profile_sidebar_fill_color": "000000", "profile_text_color": "000000", "protected": false, "screen_name": "millerjr99", "statuses_count": 26305, "time_zone": "Central Time (US & Canada)", "utc_offset": -21600}}
{"created_at": "Fri Jul 10 15:54:45 +0000 2015", "favorite_count": 1, "favorited": false, "id": 619535235265376256, "lang": "en", "retweeted": false, "source": "<a href=\"http://twitter.com\" rel=\"nofollow\">Twitter Web Client</a>", "text": "Doctors Say Andy Griffith Will Probably Never Live Again.", "truncated": false, "user": {"created_at": "Wed Feb 04 00:22:22 +0000 2009", "description": "Conservative, NOT Republican. Former ACU Asst Media Director. Recovering professional journalist. Homeless.", "favourites_count": 7318, "followers_count": 4744, "friends_count": 3894, "id": 20016443, "lang": "en", "listed_count": 287, "location": "Houston, Texas USA", "name": "Chicago News Bench\u2122", "profile_background_color": "FFFFFF", "profile_background_image_url": "http://pbs.twimg.com/profile_background_images/661706901600604160/xq_CGKN7.jpg", "profile_background_tile": true, "profile_banner_url": "https://pbs.twimg.com/profile_banners/20016443/1449854934", "profile_image_url": "https://pbs.twimg.com/profile_images/673332322142257155/3iyaKDz0_normal.jpg", "profile_link_color": "4A913C", "profile_sidebar_fill_color": "EFEFEF", "profile_text_color": "333333", "protected": false, "screen_name": "ChiNewsBench", "statuses_count": 88370, "time_zone": "Central Time (US & Canada)", "url": "https://t.co/oygRUzNJOp", "utc_offset": -21600}}
{"created_at": "Sun Jul 12 04:58:59 +0000 2015", "favorited": false, "id": 620094983010430976, "lang": "en", "retweeted": false, "source": "<a href=\"http://www.facebook.com/twitter\" rel=\"nofollow\">Facebook</a>", "text": "he resurrected and died again, wholly second coming... wow, who knew? http://t.co/0B7wA4P9Nm", "truncated": false, "urls": {"http://t.co/0B7wA4P9Nm": "http://fb.me/4kyPyYUDy"}, "user": {"created_at": "Wed Apr 14 21:26:42 +0000 2010", "description": "professional artist and art teacher all ages in all mediums Bronte art gallery 3157914247", "favourites_count": 11, "followers_count": 102, "friends_count": 114, "geo_enabled": true, "id": 133038260, "lang": "en", "listed_count": 9, "location": "oakville ontario", "name": "Paul Ross Sandilands", "profile_background_color": "ACDED6", "profile_background_image_url": "http://abs.twimg.com/images/themes/theme18/bg.gif", "profile_background_tile": false, "profile_banner_url": "https://pbs.twimg.com/profile_banners/133038260/1359958417", "profile_image_url": "https://pbs.twimg.com/profile_images/3084395263/5cfbf357962b655b0316868b87387b7c_normal.jpeg", "profile_link_color": "038543", "profile_sidebar_fill_color": "F6F6F6", "profile_text_color": "333333", "protected": false, "screen_name": "rosssandilands", "statuses_count": 9673, "time_zone": "Eastern Time (US & Canada)", "url": "http://t.co/ack4sn5ZlH", "utc_offset": -18000}}
{"created_at": "Wed Jul 22 03:28:26 +0000 2015", "favorited": false, "id": 623696074444828672, "lang": "en", "retweeted": false, "source": "<a href=\"http://amazon.ca/?tag=i-ca-20\" rel=\"nofollow\">Info CA</a>", "text": "Ashley Madison: Christmas Is Here Again   [Import]: Actors: Andy Griffith - Brad Garrett - Jay Leno - Kathy Bates - S http://t.co/QAhffZBDyL", "truncated": false, "urls": {"http://t.co/QAhffZBDyL": "http://www.amazon.ca/dp/B001DZOD0E/?tag=i-ca-20"}, "user": {"created_at": "Tue Sep 10 15:21:49 +0000 2013", "default_profile": true, "description": "Info CA", "followers_count": 14189, "friends_count": 15524, "id": 1851744114, "lang": "en", "listed_count": 390, "location": "Canada", "name": "Info CA", "profile_background_color": "C0DEED", "profile_background_image_url": "http://abs.twimg.com/images/themes/theme1/bg.png", "profile_background_tile": false, "profile_banner_url": "https://pbs.twimg.com/profile_banners/1851744114/1378826747", "profile_image_url": "https://pbs.twimg.com/profile_images/378800000439018332/4ea1c59f009738d303c8bcbc24c65a1b_normal.jpeg", "profile_link_color": "0084B4", "profile_sidebar_fill_color": "DDEEF6", "profile_text_color": "333333", "protected": false, "screen_name": "Info__CA", "statuses_count": 555178, "time_zone": "Pacific Time (US & Canada)", "utc_offset": -28800}}
{"created_at": "Fri Jul 24 04:42:26 +0000 2015", "favorited": false, "id": 624439471900106752, "lang": "en", "retweeted": false, "source": "<a href=\"http://amazon.ca/?tag=i-ca-20\" rel=\"nofollow\">Info CA</a>", "text": "Ashley Madison: Christmas Is Here Again   [Import]: Actors: Andy Griffith - Brad Garrett - Jay Leno - Kathy Bates - S http://t.co/QAhffZBDyL", "truncated": false, "urls": {"http://t.co/QAhffZBDyL": "http://www.amazon.ca/dp/B001DZOD0E/?tag=i-ca-20"}, "user": {"created_at": "Tue Sep 10 15:21:49 +0000 2013", "default_profile": true, "description": "Info CA", "followers_count": 14189, "friends_count": 15524, "id": 1851744114, "lang": "en", "listed_count": 390, "location": "Canada", "name": "Info CA", "profile_background_color": "C0DEED", "profile_background_image_url": "http://abs.twimg.com/images/themes/theme1/bg.png", "profile_background_tile": false, "profile_banner_url": "https://pbs.twimg.com/profile_banners/1851744114/1378826747", "profile_image_url": "https://pbs.twimg.com/profile_images/378800000439018332/4ea1c59f009738d303c8bcbc24c65a1b_normal.jpeg", "profile_link_color": "0084B4", "profile_sidebar_fill_color": "DDEEF6", "profile_text_color": "333333", "protected": false, "screen_name": "Info__CA", "statuses_count": 555178, "time_zone": "Pacific Time (US & Canada)", "utc_offset": -28800}}
{"created_at": "Fri Jul 24 15:28:22 +0000 2015", "favorited": false, "id": 624602027121704960, "in_reply_to_screen_name": "WorldHistory101", "in_reply_to_status_id": 624565087991234561, "in_reply_to_user_id": 114518329, "lang": "en", "retweeted": false, "source": "<a href=\"http://twitter.com/download/android\" rel=\"nofollow\">Twitter for Android</a>", "text": "@WorldHistory101 ...later again in Aunt Bea's on Andy Griffith thanks to Barney", "truncated": false, "user": {"created_at": "Wed May 11 19:53:07 +0000 2011", "default_profile": true, "description": "A free man with a price.  Aspiring/Perspiring Risible Comic?  I follow comedians and such!!! JUST PIDDLIN", "favourites_count": 12957, "followers_count": 473, "friends_count": 264, "geo_enabled": true, "id": 297018051, "lang": "en", "listed_count": 21, "location": "Sylacauga, Alabama", "name": "Damon Earl Warren", "profile_background_color": "C0DEED", "profile_background_image_url": "http://abs.twimg.com/images/themes/theme1/bg.png", "profile_background_tile": false, "profile_banner_url": "https://pbs.twimg.com/profile_banners/297018051/1372983537", "profile_image_url": "https://pbs.twimg.com/profile_images/556001185560551424/yPQfMPxa_normal.jpeg", "profile_link_color": "0084B4", "profile_sidebar_fill_color": "DDEEF6", "profile_text_color": "333333", "protected": false, "screen_name": "DamonEarl", "statuses_count": 30626, "time_zone": "Central Time (US & Canada)", "utc_offset": -21600}, "user_mentions": [{"id": 114518329, "name": "World History 101", "screen_name": "WorldHistory101"}]}
{"created_at": "Sun Jul 26 07:38:27 +0000 2015", "favorited": false, "id": 625208543680032768, "lang": "en", "retweeted": false, "source": "<a href=\"http://amazon.ca/?tag=i-ca-20\" rel=\"nofollow\">Info CA</a>", "text": "Ashley Madison: Christmas Is Here Again   [Import]: Actors: Andy Griffith - Brad Garrett - Jay Leno - Kathy Bates - S http://t.co/QAhffZBDyL", "truncated": false, "urls": {"http://t.co/QAhffZBDyL": "http://www.amazon.ca/dp/B001DZOD0E/?tag=i-ca-20"}, "user": {"created_at": "Tue Sep 10 15:21:49 +0000 2013", "default_profile": true, "description": "Info CA", "followers_count": 14189, "friends_count": 15524, "id": 1851744114, "lang": "en", "listed_count": 390, "location": "Canada", "name": "Info CA", "profile_background_color": "C0DEED", "profile_background_image_url": "http://abs.twimg.com/images/themes/theme1/bg.png", "profile_background_tile": false, "profile_banner_url": "https://pbs.twimg.com/profile_banners/1851744114/1378826747", "profile_image_url": "https://pbs.twimg.com/profile_images/378800000439018332/4ea1c59f009738d303c8bcbc24c65a1b_normal.jpeg", "profile_link_color": "0084B4", "profile_sidebar_fill_color": "DDEEF6", "profile_text_color": "333333", "protected": false, "screen_name": "Info__CA", "statuses_count": 555178, "time_zone": "Pacific Time (US & Canada)", "utc_offset": -28800}}
{"created_at": "Wed Jul 29 00:07:39 +0000 2015", "favorite_count": 1, "favorited": false, "id": 626182259251417089, "in_reply_to_screen_name": "Joe_Daddy_", "in_reply_to_status_id": 626181444868517888, "in_reply_to_user_id": 2369091678, "lang": "en", "place": {"attributes": {}, "bounding_box": {"coordinates": [[[-122.655374, 45.424593], [-122.5887907, 45.424593], [-122.5887907, 45.4615366], [-122.655374, 45.4615366]]], "type": "Polygon"}, "contained_within": [], "country": "United States", "country_code": "US", "full_name": "Milwaukie, OR", "id": "0834e7769aa05fce", "name": "Milwaukie", "place_type": "city", "url": "https://api.twitter.com/1.1/geo/id/0834e7769aa05fce.json"}, "retweeted": false, "source": "<a href=\"http://twitter.com/download/iphone\" rel=\"nofollow\">Twitter for iPhone</a>", "text": "@Joe_Daddy_ do you watch the Andy Griffith show over and over again? Jus curious is all...", "truncated": false, "user": {"created_at": "Tue Dec 04 03:10:59 +0000 2012", "description": "God, Country, Family, Blazers, Seahawks & Kasey Kahne!! #seahawkfollowback #blazerfollowback", "favourites_count": 15685, "followers_count": 664, "friends_count": 702, "geo_enabled": true, "id": 987926119, "lang": "en", "listed_count": 15, "location": "Orygun", "name": "Diana", "profile_background_color": "FCEBB6", "profile_background_image_url": "http://pbs.twimg.com/profile_background_images/878682704/736274bfc82093c9c308689fc801ffeb.png", "profile_background_tile": true, "profile_banner_url": "https://pbs.twimg.com/profile_banners/987926119/1437852300", "profile_image_url": "https://pbs.twimg.com/profile_images/641064603292557312/uantZZ1q_normal.jpg", "profile_link_color": "ED7513", "profile_sidebar_fill_color": "78C0A8", "profile_text_color": "5E412F", "protected": false, "screen_name": "hueyjujubee3", "statuses_count": 15655, "time_zone": "Pacific Time (US & Canada)", "utc_offset": -28800}, "user_mentions": [{"id": 2369091678, "name": "JoeChapo", "screen_name": "Joe_Daddy_"}]}
{"created_at": "Fri Jul 31 02:55:59 +0000 2015", "favorited": false, "hashtags": ["AFaceInTheCrowd"], "id": 626949399499804672, "in_reply_to_screen_name": "GraceLipnicki", "in_reply_to_status_id": 626943632298237956, "in_reply_to_user_id": 3095880292, "lang": "en", "media": [{"display_url": "pic.twitter.com/kO6ylCoQdJ", "expanded_url": "http://twitter.com/GraceLipnicki/status/626949399499804672/photo/1", "id": 626949389366341632, "id_str": "626949389366341632", "indices": [118, 140], "media_url": "http://pbs.twimg.com/media/CLNfJd1UMAALg3x.jpg", "media_url_https": "https://pbs.twimg.com/media/CLNfJd1UMAALg3x.jpg", "sizes": {"large": {"h": 820, "resize": "fit", "w": 640}, "medium": {"h": 768, "resize": "fit", "w": 600}, "small": {"h": 435, "resize": "fit", "w": 340}, "thumb": {"h": 150, "resize": "crop", "w": 150}}, "type": "photo", "url": "http://t.co/kO6ylCoQdJ"}], "retweeted": false, "source": "<a href=\"http://twitter.com/download/iphone\" rel=\"nofollow\">Twitter for iPhone</a>", "text": "#AFaceInTheCrowd affected Andy Griffith so badly that he'd never do that genre again @WhoopiGoldberg @rosieperezbklyn http://t.co/kO6ylCoQdJ", "truncated": false, "user": {"created_at": "Thu Mar 19 02:35:00 +0000 2015", "favourites_count": 1729, "followers_count": 53, "friends_count": 203, "geo_enabled": true, "id": 3095880292, "lang": "en", "listed_count": 3, "location": "bowling alley", "name": "Gracie", "profile_background_color": "DD2E44", "profile_background_image_url": "http://abs.twimg.com/images/themes/theme1/bg.png", "profile_background_tile": false, "profile_banner_url": "https://pbs.twimg.com/profile_banners/3095880292/1452016482", "profile_image_url": "https://pbs.twimg.com/profile_images/684432851350228992/Km4qnrWf_normal.jpg", "profile_link_color": "DD2E44", "profile_sidebar_fill_color": "DDEEF6", "profile_text_color": "333333", "protected": false, "screen_name": "GraceLipnicki", "statuses_count": 2209, "time_zone": "Central Time (US & Canada)", "url": "https://t.co/o70iIIqbBb", "utc_offset": -21600}, "user_mentions": [{"id": 284602545, "name": "Whoopi Goldberg", "screen_name": "WhoopiGoldberg"}, {"id": 804942871, "name": "Rosie Perez", "screen_name": "rosieperezbklyn"}]}
{"created_at": "Fri Jul 31 18:52:49 +0000 2015", "favorite_count": 1, "favorited": false, "id": 627190194085597184, "in_reply_to_screen_name": "RealRonHoward", "in_reply_to_user_id": 125481462, "lang": "en", "retweeted": false, "source": "<a href=\"http://twitter.com\" rel=\"nofollow\">Twitter Web Client</a>", "text": "@RealRonHoward I am 2 years older than you &amp; I grew up with The Andy Griffith Show.  I am so enjoying it all over again on Netflix. Thanks!", "truncated": false, "user": {"created_at": "Sat Mar 12 22:20:40 +0000 2011", "description": "...and I'm married to 1LuckyMan", "favourites_count": 265, "followers_count": 78, "friends_count": 66, "id": 265033045, "lang": "en", "listed_count": 1, "location": "USA", "name": "IM1LuckyWoman", "profile_background_color": "1A1B1F", "profile_background_image_url": "http://pbs.twimg.com/profile_background_images/375491479/tumblr_lgr3qi6B1b1qbeqzto1_500.jpg", "profile_background_tile": true, "profile_image_url": "https://pbs.twimg.com/profile_images/2530065324/zf9ibtd8i2efz1lvomx3_normal.jpeg", "profile_link_color": "2FC2EF", "profile_sidebar_fill_color": "252429", "profile_text_color": "666666", "protected": false, "screen_name": "IM1LuckyWoman", "statuses_count": 2482, "time_zone": "Pacific Time (US & Canada)", "utc_offset": -28800}, "user_mentions": [{"id": 125481462, "name": "Ron Howard", "screen_name": "RealRonHoward"}]}
