{"created_at": "Wed Jun 10 16:28:23 +0000 2015", "favorited": false, "id": 608672064778698752, "lang": "en", "retweeted": false, "source": "<a href=\"http://twitter.com\" rel=\"nofollow\">Twitter Web Client</a>", "text": "YOU MUST SEE this. Brazilian pastor dresses as @cher as a vendetta against the Christ crucifixion in SP's gay pride!  http://t.co/F6gJDfiuA7", "truncated": false, "urls": {"http://t.co/F6gJDfiuA7": "http://www.diariopernambucano.com.br/noticias/pastor-se-vinga-de-lgbts-ao-interpretar-cher-durante-ato-evangelico/"}, "user": {"created_at": "Mon May 03 06:52:27 +0000 2010", "description": "Addicted to anything related to music; vinyls, cds, dvds, concerts, etc.", "favourites_count": 1, "followers_count": 188, "friends_count": 832, "id": 139638358, "lang": "en", "listed_count": 1, "name": "Tales Kiss", "profile_background_color": "0099B9", "profile_background_image_url": "http://pbs.twimg.com/profile_background_images/378800000067241856/7546644624e8d14b8986b49c058a0da9.jpeg", "profile_background_tile": true, "profile_banner_url": "https://pbs.twimg.com/profile_banners/139638358/1440446741", "profile_image_url": "https://pbs.twimg.com/profile_images/635905844815753221/oPtY9sRV_normal.jpg", "profile_link_color": "0099B9", "profile_sidebar_fill_color": "95E8EC", "profile_text_color": "171515", "protected": false, "screen_name": "taleskiss", "statuses_count": 483, "time_zone": "Brasilia", "utc_offset": -7200}, "user_mentions": [{"id": 124003770, "name": "Cher", "screen_name": "cher"}]}
{"created_at": "Thu Jun 11 11:57:16 +0000 2015", "favorited": false, "id": 608966222827409409, "lang": "en", "retweet_count": 2, "retweeted": false, "source": "<a href=\"http://twitter.com\" rel=\"nofollow\">Twitter Web Client</a>", "text": "Brazilian lawmaker introduces bill to make 'cristofobia' a crime after mock Crucifixion at gay pride parade. http://t.co/BZeXqP2YYw", "truncated": false, "urls": {"http://t.co/BZeXqP2YYw": "http://www1.folha.uol.com.br/cotidiano/2015/06/1640253-apos-parada-gay-deputado-quer-que-cristofobia-vire-crime-hediondo.shtml"}, "user": {"created_at": "Thu Feb 10 16:58:36 +0000 2011", "default_profile": true, "description": "South America Correspondent for @npr Former Middle East Bureau Chief. Journalist, story-teller (but not fabulist), mother", "favourites_count": 2958, "followers_count": 7747, "friends_count": 871, "geo_enabled": true, "id": 250211424, "lang": "en", "listed_count": 475, "location": "Rio de Janeiro Brazil", "name": "Lulu Garcia-Navarro", "profile_background_color": "C0DEED", "profile_background_image_url": "http://abs.twimg.com/images/themes/theme1/bg.png", "profile_background_tile": false, "profile_banner_url": "https://pbs.twimg.com/profile_banners/250211424/1446768567", "profile_image_url": "https://pbs.twimg.com/profile_images/647895715935592448/jRQ6XZPt_normal.jpg", "profile_link_color": "0084B4", "profile_sidebar_fill_color": "DDEEF6", "profile_text_color": "333333", "protected": false, "screen_name": "lourdesgnavarro", "statuses_count": 4254, "time_zone": "Cairo", "url": "http://t.co/SoL86ga4RI", "utc_offset": 7200, "verified": true}}
{"created_at": "Thu Jun 11 21:03:04 +0000 2015", "favorite_count": 1, "favorited": false, "id": 609103577227886593, "lang": "en", "retweet_count": 1, "retweeted": false, "source": "<a href=\"http://twitter.com\" rel=\"nofollow\">Twitter Web Client</a>", "text": "Brazil's Catholic Bishops criticise 'disrespect' over Sao Paulo gay pride crucifixion protest over homophobia (Port) http://t.co/b1pVKdg6Jh", "truncated": false, "urls": {"http://t.co/b1pVKdg6Jh": "http://g1.globo.com/sao-paulo/noticia/2015/06/bispos-divulgam-nota-contra-uso-de-imagens-religiosas-na-parada-gay.html"}, "user": {"created_at": "Wed Jan 27 15:09:52 +0000 2010", "description": "Head of Global Media Unit, Save the Children. Former BBC correspondent and editor, Brazil, Ireland, UK. Views mine. Tweets English, Portuguese.", "favourites_count": 829, "followers_count": 6358, "friends_count": 4586, "geo_enabled": true, "id": 108964710, "lang": "en", "listed_count": 377, "location": "London, England", "name": "Gary Duffy", "profile_background_color": "709397", "profile_background_image_url": "http://pbs.twimg.com/profile_background_images/176701405/24768_119244538091822_100000188305403_298716_3011997_n.jpg", "profile_background_tile": true, "profile_banner_url": "https://pbs.twimg.com/profile_banners/108964710/1443565326", "profile_image_url": "https://pbs.twimg.com/profile_images/445557753474723840/eGr10ey1_normal.jpeg", "profile_link_color": "FF3300", "profile_sidebar_fill_color": "A0C5C7", "profile_text_color": "333333", "protected": false, "screen_name": "Duffygary", "statuses_count": 12632, "time_zone": "London", "url": "https://t.co/udiYjE5CFV"}}
{"created_at": "Sun Jun 28 18:03:45 +0000 2015", "favorite_count": 1, "favorited": false, "id": 615219047827927041, "lang": "en", "media": [{"display_url": "pic.twitter.com/24Xz2UTuHC", "expanded_url": "http://twitter.com/kidrevmusic/status/615219047827927041/photo/1", "id": 615218976692523008, "id_str": "615218976692523008", "indices": [118, 140], "media_url": "http://pbs.twimg.com/media/CImyZlTWUAAN7d5.jpg", "media_url_https": "https://pbs.twimg.com/media/CImyZlTWUAAN7d5.jpg", "sizes": {"large": {"h": 239, "resize": "fit", "w": 402}, "medium": {"h": 239, "resize": "fit", "w": 402}, "small": {"h": 201, "resize": "fit", "w": 340}, "thumb": {"h": 150, "resize": "crop", "w": 150}}, "type": "photo", "url": "http://t.co/24Xz2UTuHC"}, {"display_url": "pic.twitter.com/24Xz2UTuHC", "expanded_url": "http://twitter.com/kidrevmusic/status/615219047827927041/photo/1", "id": 615218976692523009, "id_str": "615218976692523009", "indices": [118, 140], "media_url": "http://pbs.twimg.com/media/CImyZlTWUAEYaSc.jpg", "media_url_https": "https://pbs.twimg.com/media/CImyZlTWUAEYaSc.jpg", "sizes": {"large": {"h": 239, "resize": "fit", "w": 369}, "medium": {"h": 239, "resize": "fit", "w": 369}, "small": {"h": 220, "resize": "fit", "w": 340}, "thumb": {"h": 150, "resize": "crop", "w": 150}}, "type": "photo", "url": "http://t.co/24Xz2UTuHC"}, {"display_url": "pic.twitter.com/24Xz2UTuHC", "expanded_url": "http://twitter.com/kidrevmusic/status/615219047827927041/photo/1", "id": 615218976726122497, "id_str": "615218976726122497", "indices": [118, 140], "media_url": "http://pbs.twimg.com/media/CImyZlbXAAEvLGD.jpg", "media_url_https": "https://pbs.twimg.com/media/CImyZlbXAAEvLGD.jpg", "sizes": {"large": {"h": 266, "resize": "fit", "w": 400}, "medium": {"h": 266, "resize": "fit", "w": 400}, "small": {"h": 226, "resize": "fit", "w": 340}, "thumb": {"h": 150, "resize": "crop", "w": 150}}, "type": "photo", "url": "http://t.co/24Xz2UTuHC"}], "retweeted": false, "source": "<a href=\"http://twitter.com/download/iphone\" rel=\"nofollow\">Twitter for iPhone</a>", "text": "Some choose to express Gay Pride by mocking Jesus's crucifixion while carrying signs saying \"Jesus was Gay\" Okay then http://t.co/24Xz2UTuHC", "truncated": false, "user": {"created_at": "Tue Oct 08 23:29:56 +0000 2013", "description": "Gluten Free, Sucka Free, Chiraq Savage", "favourites_count": 2635, "followers_count": 248, "friends_count": 236, "geo_enabled": true, "id": 1948155535, "lang": "en", "location": "Frank Block with the 40 on me", "name": "Branden Valdez", "profile_background_color": "000000", "profile_background_image_url": "http://abs.twimg.com/images/themes/theme1/bg.png", "profile_background_tile": false, "profile_banner_url": "https://pbs.twimg.com/profile_banners/1948155535/1452288368", "profile_image_url": "https://pbs.twimg.com/profile_images/685573223090642944/jcC3Tyzv_normal.jpg", "profile_link_color": "89C9FA", "profile_sidebar_fill_color": "000000", "profile_text_color": "000000", "protected": false, "screen_name": "kidrevmusic", "statuses_count": 3428, "time_zone": "Central Time (US & Canada)", "utc_offset": -21600}}
{"created_at": "Tue Jun 30 21:09:42 +0000 2015", "favorited": false, "id": 615990615965351937, "lang": "en", "retweeted": false, "source": "<a href=\"http://twitter.com\" rel=\"nofollow\">Twitter Web Client</a>", "text": "La gay pride de Rio parodie le Christ/2 Million Homosexuals Flood The Streets To Preform Mock Crucifixion Of Jesus | http://t.co/FmgNIqdgFG", "truncated": false, "urls": {"http://t.co/FmgNIqdgFG": "http://truthuncensored.net/2-million-homosexuals-flood-the-streets-and-preform-mock-crucifixion-of-jesus/#.VZMEbR0mWKA.twitter"}, "user": {"created_at": "Tue Dec 02 21:11:48 +0000 2008", "description": "Padamalgam 500mg\n#PADAMALGAM  #FOPASTIGMATIS\u00e9", "favourites_count": 185, "followers_count": 41, "friends_count": 111, "id": 17818808, "lang": "fr", "listed_count": 4, "location": "Lyon - ", "name": "halagy", "profile_background_color": "000000", "profile_background_image_url": "http://abs.twimg.com/images/themes/theme1/bg.png", "profile_background_tile": false, "profile_banner_url": "https://pbs.twimg.com/profile_banners/17818808/1448882690", "profile_image_url": "https://pbs.twimg.com/profile_images/554414663786438656/r-6kw0Vb_normal.jpeg", "profile_link_color": "89C9FA", "profile_sidebar_fill_color": "000000", "profile_text_color": "000000", "protected": false, "screen_name": "halagy", "statuses_count": 1976, "time_zone": "Ljubljana", "utc_offset": 3600}}
{"created_at": "Tue Jun 30 22:28:40 +0000 2015", "favorite_count": 12, "favorited": false, "hashtags": ["SCOTUS", "marriageequality"], "id": 616010489726914561, "lang": "en", "media": [{"display_url": "pic.twitter.com/3jXBIglplA", "expanded_url": "http://twitter.com/snopes/status/616010489726914561/photo/1", "id": 616010489190088705, "id_str": "616010489190088705", "indices": [108, 130], "media_url": "http://pbs.twimg.com/media/CIyCRrIXAAEhHDj.jpg", "media_url_https": "https://pbs.twimg.com/media/CIyCRrIXAAEhHDj.jpg", "sizes": {"large": {"h": 584, "resize": "fit", "w": 640}, "medium": {"h": 547, "resize": "fit", "w": 600}, "small": {"h": 310, "resize": "fit", "w": 340}, "thumb": {"h": 150, "resize": "crop", "w": 150}}, "type": "photo", "url": "http://t.co/3jXBIglplA"}], "retweet_count": 15, "retweeted": false, "source": "<a href=\"http://twitter.com\" rel=\"nofollow\">Twitter Web Client</a>", "text": "This circulating photo set isn't from after the #SCOTUS #marriageequality decision:\n\nhttp://t.co/jUyfdMIxyD http://t.co/3jXBIglplA", "truncated": false, "urls": {"http://t.co/jUyfdMIxyD": "http://m.snopes.com/2015/06/30/gay-pride-crucifixion-photos/"}, "user": {"created_at": "Thu Apr 03 17:00:11 +0000 2008", "description": "The definitive Internet reference source for urban legends, folklore, myths, rumors, and misinformation.", "favourites_count": 12, "followers_count": 118630, "id": 14294848, "lang": "en", "listed_count": 3239, "name": "snopes.com", "profile_background_color": "C7F2B1", "profile_background_image_url": "http://pbs.twimg.com/profile_background_images/840081271/d90db0daf7c81f75aea62d88c084e755.png", "profile_background_tile": false, "profile_banner_url": "https://pbs.twimg.com/profile_banners/14294848/1365714336", "profile_image_url": "https://pbs.twimg.com/profile_images/3507964197/be9d1840411bca2d8101382340f58957_normal.png", "profile_link_color": "81D159", "profile_sidebar_fill_color": "DDEEF6", "profile_text_color": "333333", "protected": false, "screen_name": "snopes", "statuses_count": 4864, "time_zone": "Pacific Time (US & Canada)", "url": "http://t.co/10Or8rl3ff", "utc_offset": -28800, "verified": true}}
{"created_at": "Tue Jun 30 22:35:42 +0000 2015", "favorited": false, "hashtags": ["SCOTUS", "marriageequality"], "id": 616012262189477888, "lang": "en", "media": [{"display_url": "pic.twitter.com/8l3ooxqZIl", "expanded_url": "http://twitter.com/snopes/status/616010489726914561/photo/1", "id": 616010489190088705, "id_str": "616010489190088705", "indices": [108, 130], "media_url": "http://pbs.twimg.com/media/CIyCRrIXAAEhHDj.jpg", "media_url_https": "https://pbs.twimg.com/media/CIyCRrIXAAEhHDj.jpg", "sizes": {"large": {"h": 584, "resize": "fit", "w": 640}, "medium": {"h": 547, "resize": "fit", "w": 600}, "small": {"h": 310, "resize": "fit", "w": 340}, "thumb": {"h": 150, "resize": "crop", "w": 150}}, "source_status_id": 616010489726914561, "source_status_id_str": "616010489726914561", "source_user_id": 14294848, "source_user_id_str": "14294848", "type": "photo", "url": "http://t.co/8l3ooxqZIl"}], "retweeted": false, "source": "<a href=\"http://ifttt.com\" rel=\"nofollow\">IFTTT</a>", "text": "This circulating photo set isn't from after the #SCOTUS #marriageequality decision:\n\nhttp://t.co/KTkFizj2nG http://t.co/8l3ooxqZIl", "truncated": false, "urls": {"http://t.co/KTkFizj2nG": "http://m.snopes.com/2015/06/30/gay-pride-crucifixion-photos/"}, "user": {"created_at": "Mon Jan 28 14:40:52 +0000 2013", "default_profile": true, "description": "I tweet about all things in Cape Town. #CapeFact The Mother City. For info in events: #CapeEvents. Also #capetownfairy me for any quests", "favourites_count": 661, "followers_count": 2627, "friends_count": 2735, "id": 1128255048, "lang": "en", "listed_count": 90, "location": "Cape Town", "name": "Cape Town Fairy", "profile_background_color": "C0DEED", "profile_background_image_url": "http://abs.twimg.com/images/themes/theme1/bg.png", "profile_background_tile": false, "profile_banner_url": "https://pbs.twimg.com/profile_banners/1128255048/1359385361", "profile_image_url": "https://pbs.twimg.com/profile_images/3175089990/ddcec258fe970be63266d343dc094577_normal.png", "profile_link_color": "0084B4", "profile_sidebar_fill_color": "DDEEF6", "profile_text_color": "333333", "protected": false, "screen_name": "CapeTownFairy", "statuses_count": 73259, "time_zone": "Athens", "utc_offset": 7200}}
{"created_at": "Tue Jun 30 23:11:39 +0000 2015", "favorited": false, "id": 616021306643886080, "lang": "en", "retweet_count": 2, "retweeted": false, "source": "<a href=\"http://twitter.com/download/iphone\" rel=\"nofollow\">Twitter for iPhone</a>", "text": "Gay marriage is legal yay but is this necessary? i'm appalled at this form of disrespect and mockery to God. http://t.co/UAb3fgY0ig", "truncated": false, "urls": {"http://t.co/UAb3fgY0ig": "http://m.snopes.com/2015/06/30/gay-pride-crucifixion-photos/"}, "user": {"created_at": "Fri Jun 21 17:34:24 +0000 2013", "default_profile": true, "description": "ahhh you again", "favourites_count": 8472, "followers_count": 297, "friends_count": 161, "geo_enabled": true, "id": 1536960264, "lang": "en", "listed_count": 3, "name": "SVEDEN", "profile_background_color": "C0DEED", "profile_background_image_url": "http://abs.twimg.com/images/themes/theme1/bg.png", "profile_background_tile": false, "profile_banner_url": "https://pbs.twimg.com/profile_banners/1536960264/1442902088", "profile_image_url": "https://pbs.twimg.com/profile_images/646204286909583360/Mnz-O4Mp_normal.jpg", "profile_link_color": "0084B4", "profile_sidebar_fill_color": "DDEEF6", "profile_text_color": "333333", "protected": false, "screen_name": "joycieees", "statuses_count": 15268}}
{"created_at": "Wed Jul 01 00:37:50 +0000 2015", "favorited": false, "id": 616042997235355648, "lang": "en", "retweeted": false, "source": "<a href=\"http://twitter.com/download/iphone\" rel=\"nofollow\">Twitter for iPhone</a>", "text": "http://t.co/APtXk9e7VU\nOf course", "truncated": false, "urls": {"http://t.co/APtXk9e7VU": "http://m.snopes.com/2015/06/30/gay-pride-crucifixion-photos/"}, "user": {"created_at": "Tue Sep 11 23:02:41 +0000 2012", "default_profile": true, "description": "Drummer, Bartender, Cocktail and Taco aficionado. Every saint has a past, every sinner has a future.\nLife in the weeds.", "favourites_count": 2348, "followers_count": 155, "friends_count": 686, "id": 818372792, "lang": "en", "listed_count": 9, "location": "St. Louis, Missouri", "name": "Alec Wise", "profile_background_color": "C0DEED", "profile_background_image_url": "http://abs.twimg.com/images/themes/theme1/bg.png", "profile_background_tile": false, "profile_banner_url": "https://pbs.twimg.com/profile_banners/818372792/1401172192", "profile_image_url": "https://pbs.twimg.com/profile_images/471176439459377152/jTe9xqeY_normal.jpeg", "profile_link_color": "0084B4", "profile_sidebar_fill_color": "DDEEF6", "profile_text_color": "333333", "protected": false, "screen_name": "Alec_Wise", "statuses_count": 5403}}
{"created_at": "Wed Jul 01 14:07:30 +0000 2015", "favorited": false, "hashtags": ["TellEm"], "id": 616246757471600640, "lang": "en", "retweeted": false, "source": "<a href=\"http://www.facebook.com/twitter\" rel=\"nofollow\">Facebook</a>", "text": "So you want to have mock Crucifixion for gay pride? Makes no sense...certain things you shouldn't trifle with.  #TellEm", "truncated": false, "user": {"created_at": "Fri Apr 03 20:31:46 +0000 2009", "description": "Producer/Songwriter and creator of Freeway Music Entertainment, LLC and #FreewayNation Apparel @FreewayNation #TellEm #VTE #freewaymusic", "favourites_count": 471, "followers_count": 1267, "friends_count": 1446, "geo_enabled": true, "id": 28646088, "lang": "en", "listed_count": 51, "location": "Louisville, KY", "name": "VTE", "profile_background_color": "C0DEED", "profile_background_image_url": "http://pbs.twimg.com/profile_background_images/685388858/15efb8a6a4515f687ecf818edb87537a.jpeg", "profile_background_tile": false, "profile_banner_url": "https://pbs.twimg.com/profile_banners/28646088/1350313587", "profile_image_url": "https://pbs.twimg.com/profile_images/681681508042670080/6oyez7cZ_normal.jpg", "profile_link_color": "0084B4", "profile_sidebar_fill_color": "DDEEF6", "profile_text_color": "333333", "protected": false, "screen_name": "VTE502", "statuses_count": 9258, "time_zone": "Eastern Time (US & Canada)", "url": "https://t.co/mpuEkArC8s", "utc_offset": -18000}}
{"created_at": "Wed Jul 01 14:51:30 +0000 2015", "favorited": false, "hashtags": ["Snopes", "News"], "id": 616257828949504000, "lang": "en", "retweeted": false, "source": "<a href=\"http://momknowsshopping.com/UFOParanormal\" rel=\"nofollow\">UFOParanormalNews</a>", "text": "#Snopes #News A set of photographs appear to depict a mock crucifixion of Jesus at a http://t.co/FtdfI5rJwV", "truncated": false, "urls": {"http://t.co/FtdfI5rJwV": "http://goo.gl/6o8qcu"}, "user": {"created_at": "Wed Oct 01 13:34:46 +0000 2014", "description": "We provide the latest news on #UFO's, #Paranormal, #Ghosts and everything that is strange or weird. Plus #Software, #Camera's and #Computer items.", "favourites_count": 3, "followers_count": 12362, "friends_count": 11541, "geo_enabled": true, "id": 2797963749, "lang": "en", "listed_count": 413, "name": "UFO Paranormal", "profile_background_color": "000000", "profile_background_image_url": "http://abs.twimg.com/images/themes/theme1/bg.png", "profile_background_tile": false, "profile_banner_url": "https://pbs.twimg.com/profile_banners/2797963749/1419626990", "profile_image_url": "https://pbs.twimg.com/profile_images/517311356198858753/OkOTy-q6_normal.jpeg", "profile_link_color": "FA743E", "profile_sidebar_fill_color": "000000", "profile_text_color": "000000", "protected": false, "screen_name": "UFOParanormNews", "statuses_count": 77085, "url": "https://t.co/I4rmVNErYQ"}}
{"created_at": "Wed Jul 01 15:19:17 +0000 2015", "favorited": false, "id": 616264819923152896, "lang": "en", "retweeted": false, "source": "<a href=\"http://ifttt.com\" rel=\"nofollow\">IFTTT</a>", "text": "Rainbow Brag http://t.co/mY1yThW0bC", "truncated": false, "urls": {"http://t.co/mY1yThW0bC": "http://ift.tt/1Jvstno"}, "user": {"created_at": "Wed Apr 08 23:51:48 +0000 2009", "default_profile": true, "favourites_count": 3, "followers_count": 194, "friends_count": 368, "geo_enabled": true, "id": 29859603, "lang": "en", "listed_count": 21, "name": "D Jones", "profile_background_color": "C0DEED", "profile_background_image_url": "http://abs.twimg.com/images/themes/theme1/bg.png", "profile_background_tile": false, "profile_banner_url": "https://pbs.twimg.com/profile_banners/29859603/1396961286", "profile_image_url": "https://pbs.twimg.com/profile_images/378800000600116408/9b61d74dca328a57841fa8ed3c68c6e4_normal.jpeg", "profile_link_color": "0084B4", "profile_sidebar_fill_color": "DDEEF6", "profile_text_color": "333333", "protected": false, "screen_name": "dmax2001", "statuses_count": 47803, "url": "https://t.co/XmcfXgAN7C"}}
{"created_at": "Wed Jul 01 19:33:57 +0000 2015", "favorited": false, "id": 616328909387214848, "lang": "en", "retweeted": false, "source": "<a href=\"http://www.apple.com\" rel=\"nofollow\">iOS</a>", "text": "Rainbow Brag : http://t.co/JGWX6fibmp\nAlso false http://t.co/LJonLwvanF", "truncated": false, "urls": {"http://t.co/JGWX6fibmp": "http://snopes.com", "http://t.co/LJonLwvanF": "http://m.snopes.com/2015/06/30/gay-pride-crucifixion-photos/"}, "user": {"created_at": "Mon Mar 16 20:12:44 +0000 2015", "default_profile": true, "description": "I will not apologize for my life nor will I ask you to justify yours! Our fight as Women continues. Stand with me as I will you. retweets not endorsements", "favourites_count": 4406, "followers_count": 419, "friends_count": 462, "id": 3090920659, "lang": "en", "listed_count": 21, "name": "qbic247", "profile_background_color": "C0DEED", "profile_background_image_url": "http://abs.twimg.com/images/themes/theme1/bg.png", "profile_background_tile": false, "profile_banner_url": "https://pbs.twimg.com/profile_banners/3090920659/1439187675", "profile_image_url": "https://pbs.twimg.com/profile_images/638911942631948288/k26UyG2i_normal.jpg", "profile_link_color": "0084B4", "profile_sidebar_fill_color": "DDEEF6", "profile_text_color": "333333", "protected": false, "screen_name": "qbic427", "statuses_count": 6912, "url": "http://t.co/9HDrmofQVV"}}
{"created_at": "Wed Jul 01 19:42:57 +0000 2015", "favorited": false, "id": 616331176387678208, "lang": "en", "retweeted": false, "source": "<a href=\"http://twitter.com\" rel=\"nofollow\">Twitter Web Client</a>", "text": "Article explains '2 million homos mocking the crucifixion' as false propaganda after marriage eql ruling  http://t.co/p3Q6dQ391h via @po_st", "truncated": false, "urls": {"http://t.co/p3Q6dQ391h": "http://po.st/7Tn8Lf"}, "user": {"created_at": "Mon Feb 02 20:27:56 +0000 2009", "description": "Artist: Analitical futurist calculating from multiple views, what is the best deal in and throughout life.", "favourites_count": 7, "followers_count": 445, "friends_count": 695, "geo_enabled": true, "id": 19929173, "lang": "en", "listed_count": 17, "location": "Nomadic Southern Africa", "name": "Timothy", "profile_background_color": "8B542B", "profile_background_image_url": "http://pbs.twimg.com/profile_background_images/33041716/IMG_2108.JPG", "profile_background_tile": false, "profile_banner_url": "https://pbs.twimg.com/profile_banners/19929173/1392905539", "profile_image_url": "https://pbs.twimg.com/profile_images/2287612050/k8oppvvoawzr27qo3058_normal.jpeg", "profile_link_color": "4351F0", "profile_sidebar_fill_color": "6B1F03", "profile_text_color": "D96A09", "protected": false, "screen_name": "strandkind", "statuses_count": 2650, "time_zone": "Pretoria", "url": "http://t.co/yUD50w6BHp", "utc_offset": 7200}, "user_mentions": [{"id": 386270039, "name": "Po.st", "screen_name": "Po_st"}]}
{"created_at": "Wed Jul 01 21:46:49 +0000 2015", "favorited": false, "id": 616362348434079744, "lang": "en", "retweeted": false, "source": "<a href=\"http://www.facebook.com/twitter\" rel=\"nofollow\">Facebook</a>", "text": "The hypocrisy is real. This is freedom right?.... i wonder why they didnt mock any other religion save... http://t.co/KVfdlF026O", "truncated": false, "urls": {"http://t.co/KVfdlF026O": "http://fb.me/2bCeXgCVf"}, "user": {"created_at": "Tue Mar 29 23:34:09 +0000 2011", "description": "Love God, Love Music, Love Chelseafc", "favourites_count": 508, "followers_count": 372, "friends_count": 1290, "id": 274215867, "lang": "en", "listed_count": 9, "location": "Ghana", "name": "Miki Djan", "profile_background_color": "EDA532", "profile_background_image_url": "http://pbs.twimg.com/profile_background_images/224818216/mark5_19.jpg", "profile_background_tile": true, "profile_banner_url": "https://pbs.twimg.com/profile_banners/274215867/1439109187", "profile_image_url": "https://pbs.twimg.com/profile_images/647200170162147328/Ge8TTvzN_normal.jpg", "profile_link_color": "0084B4", "profile_sidebar_fill_color": "CBEB17", "profile_text_color": "333333", "protected": false, "screen_name": "miki_djan", "statuses_count": 4252, "time_zone": "Monrovia"}}
{"created_at": "Wed Jul 01 22:10:27 +0000 2015", "favorited": false, "id": 616368292605722624, "lang": "en", "retweeted": false, "source": "<a href=\"http://www.facebook.com/twitter\" rel=\"nofollow\">Facebook</a>", "text": "I have no words!\nhttp://t.co/qHAHjpa62K http://t.co/tna2F9XycN", "truncated": false, "urls": {"http://t.co/qHAHjpa62K": "http://m.snopes.com/2015/06/30/gay-pride-crucifixion-photos/", "http://t.co/tna2F9XycN": "http://fb.me/3WZ7jlIHn"}, "user": {"created_at": "Sat Jun 30 14:37:21 +0000 2012", "description": "music notes run through my veins \r\n(will follow back)", "favourites_count": 16, "followers_count": 232, "friends_count": 531, "id": 622945656, "lang": "en", "listed_count": 1, "location": "Cincinnati, OH", "name": "Sandi Nicole", "profile_background_color": "C0DEED", "profile_background_image_url": "http://pbs.twimg.com/profile_background_images/652116304/1fuatn9h1a0huhrdt64u.jpeg", "profile_background_tile": true, "profile_banner_url": "https://pbs.twimg.com/profile_banners/622945656/1448243323", "profile_image_url": "https://pbs.twimg.com/profile_images/624063925550743552/pjMO8Z4R_normal.jpg", "profile_link_color": "CF0F6F", "profile_sidebar_fill_color": "DDEEF6", "profile_text_color": "333333", "protected": false, "screen_name": "rawk_princess", "statuses_count": 1904, "url": "http://t.co/t4eYPXkCES"}}
{"created_at": "Thu Jul 02 01:14:20 +0000 2015", "favorite_count": 1, "favorited": false, "id": 616414568529661952, "lang": "en", "retweeted": false, "source": "<a href=\"http://twitter.com/download/iphone\" rel=\"nofollow\">Twitter for iPhone</a>", "text": "Just read an article \"mock crucifixion takes place at gay pride parade\" where they used a transgender women to depict Jesus Christ.", "truncated": false, "user": {"created_at": "Tue Apr 26 21:36:42 +0000 2011", "description": "spend a little more time trying to make something of yourself and a little less time trying to impress others // @thatgreekboy \u2764\ufe0f", "favourites_count": 4100, "followers_count": 470, "friends_count": 338, "id": 288448393, "lang": "en", "listed_count": 2, "location": "Ashland University '18", "name": "Gina Grace", "profile_background_color": "642D8B", "profile_background_image_url": "http://abs.twimg.com/images/themes/theme10/bg.gif", "profile_background_tile": true, "profile_banner_url": "https://pbs.twimg.com/profile_banners/288448393/1445057079", "profile_image_url": "https://pbs.twimg.com/profile_images/675556846837604352/RgcZt7bf_normal.jpg", "profile_link_color": "FF0000", "profile_sidebar_fill_color": "7AC3EE", "profile_text_color": "3D1957", "protected": false, "screen_name": "gennaaxoxo", "statuses_count": 16039, "time_zone": "Quito", "utc_offset": -18000}}
{"created_at": "Fri Jul 03 06:52:10 +0000 2015", "favorited": false, "id": 616861976237576192, "lang": "en", "retweeted": false, "source": "<a href=\"http://twitter.com/download/android\" rel=\"nofollow\">Twitter for Android</a>", "text": "When you see these things, know the end is here. \nhttp://t.co/xbl32i4KZD", "truncated": false, "urls": {"http://t.co/xbl32i4KZD": "http://m.snopes.com/2015/06/30/gay-pride-crucifixion-photos/"}, "user": {"created_at": "Thu Apr 14 12:13:13 +0000 2011", "description": "I'm responsible for what i say, but i'm not responsible\r\nfor what you understand", "favourites_count": 19, "followers_count": 157, "friends_count": 130, "id": 282022182, "lang": "en", "location": "Nigeria", "name": "ohumam", "profile_background_color": "352726", "profile_background_image_url": "http://pbs.twimg.com/profile_background_images/557726625/PhotoFunia-9bd797.jpg", "profile_background_tile": false, "profile_banner_url": "https://pbs.twimg.com/profile_banners/282022182/1403522376", "profile_image_url": "https://pbs.twimg.com/profile_images/481033470110875648/H_KM59tZ_normal.jpeg", "profile_link_color": "D02B55", "profile_sidebar_fill_color": "99CC33", "profile_text_color": "3E4415", "protected": false, "screen_name": "Ohumam", "statuses_count": 644, "time_zone": "West Central Africa", "utc_offset": 3600}}
{"created_at": "Mon Jul 06 10:21:22 +0000 2015", "favorited": false, "id": 618001786712911872, "lang": "en", "retweeted": false, "source": "<a href=\"http://www.facebook.com/twitter\" rel=\"nofollow\">Facebook</a>", "text": "Yup. If facts don't support you, LIE about it! http://t.co/HkLTmgQJwd", "truncated": false, "urls": {"http://t.co/HkLTmgQJwd": "http://fb.me/35OF4fXay"}, "user": {"created_at": "Sat Dec 20 10:15:05 +0000 2008", "description": "I'm old but I think young", "favourites_count": 22, "followers_count": 50, "friends_count": 126, "id": 18264469, "lang": "en", "listed_count": 7, "location": "near Chicago, Il", "name": "Grumpa", "profile_background_color": "352726", "profile_background_image_url": "http://abs.twimg.com/images/themes/theme5/bg.gif", "profile_background_tile": false, "profile_image_url": "https://pbs.twimg.com/profile_images/68076581/oldfart_normal.jpg", "profile_link_color": "D02B55", "profile_sidebar_fill_color": "99CC33", "profile_text_color": "3E4415", "protected": false, "screen_name": "Grumpa", "statuses_count": 5297, "time_zone": "Central Time (US & Canada)", "utc_offset": -21600}}
{"created_at": "Mon Jul 06 22:00:45 +0000 2015", "favorited": false, "id": 618177791364845569, "lang": "en", "retweet_count": 1, "retweeted": false, "source": "<a href=\"http://twitter.com/download/android\" rel=\"nofollow\">Twitter for Android</a>", "text": "saw some pics of folk at a gay pride event where some where nailed to crosses, a la crucifixion, depicting Jesus complete w/ crown of thorns", "truncated": false, "user": {"created_at": "Mon Jan 21 12:54:39 +0000 2013", "description": "full_stack.dev || poet. \nlover of: cake, books, gadgets, duvets, the sky, God, ruby, black people, comics.", "favourites_count": 4399, "followers_count": 527, "friends_count": 469, "geo_enabled": true, "id": 1108948494, "lang": "en", "listed_count": 32, "location": "LDN", "name": "a_dose_of_lola.rb", "profile_background_color": "FFF04D", "profile_background_image_url": "http://pbs.twimg.com/profile_background_images/505340003342241792/vNdZYJEI.jpeg", "profile_background_tile": true, "profile_banner_url": "https://pbs.twimg.com/profile_banners/1108948494/1450861978", "profile_image_url": "https://pbs.twimg.com/profile_images/679590513176088576/x3b4PdYL_normal.jpg", "profile_link_color": "94D487", "profile_sidebar_fill_color": "252429", "profile_text_color": "666666", "protected": false, "screen_name": "adoseofLola", "statuses_count": 54809, "time_zone": "Central Time (US & Canada)", "url": "https://t.co/UtdTEt7E5m", "utc_offset": -21600}}
{"created_at": "Sun Jul 12 11:47:33 +0000 2015", "favorited": false, "id": 620197803621523456, "lang": "en", "retweeted": false, "source": "<a href=\"http://www.facebook.com/twitter\" rel=\"nofollow\">Facebook</a>", "text": "If you haven't faqct checked don't post or even comment, that's a rule I have to follow with all the bullshit... http://t.co/uJqsMIm0gv", "truncated": false, "urls": {"http://t.co/uJqsMIm0gv": "http://fb.me/3Ky5JoYWf"}, "user": {"created_at": "Sat Jul 07 21:04:41 +0000 2007", "description": "Wife Cathy and I own several sites and want you to become friends as well as customers", "favourites_count": 31, "followers_count": 91, "friends_count": 118, "geo_enabled": true, "id": 7318332, "lang": "en", "location": "Labason, Mindanao, Philippines", "name": "Charles CM Bannister", "profile_background_color": "709673", "profile_background_image_url": "http://abs.twimg.com/images/themes/theme1/bg.png", "profile_background_tile": false, "profile_image_url": "https://pbs.twimg.com/profile_images/611306383787425792/UymtJcZR_normal.jpg", "profile_link_color": "3B94D9", "profile_sidebar_fill_color": "A0C5C7", "profile_text_color": "333333", "protected": false, "screen_name": "mbannist", "statuses_count": 5126, "time_zone": "Hawaii", "url": "http://t.co/YglKFkGgSq", "utc_offset": -36000}}
