{"created_at": "Fri May 01 15:50:40 +0000 2015", "favorited": false, "id": 594167058243399681, "lang": "en", "retweeted": false, "source": "<a href=\"http://www.tumblr.com/\" rel=\"nofollow\">Tumblr</a>", "text": "New app out (iPhone and Android) that\u2019s for people in abusive relationships. It\u2019s called Aspire News\u2026 http://t.co/6atpQioKif", "truncated": false, "urls": {"http://t.co/6atpQioKif": "http://tmblr.co/ZoGVBm1jn6y4N"}, "user": {"created_at": "Fri Aug 14 04:31:45 +0000 2009", "description": "News-junkie. People-watcher. Eavesdropper", "favourites_count": 22, "followers_count": 469, "friends_count": 412, "geo_enabled": true, "id": 65561893, "lang": "en", "listed_count": 19, "name": "Tasha", "profile_background_color": "DAE4E8", "profile_background_image_url": "http://pbs.twimg.com/profile_background_images/176305433/IMG_0009_2_2.JPG", "profile_background_tile": true, "profile_banner_url": "https://pbs.twimg.com/profile_banners/65561893/1425322135", "profile_image_url": "https://pbs.twimg.com/profile_images/492497613493895168/sc3SR6bv_normal.jpeg", "profile_link_color": "146E8F", "profile_sidebar_fill_color": "D3D4EB", "profile_text_color": "A37B55", "protected": false, "screen_name": "BKGurl208", "statuses_count": 35108, "time_zone": "Eastern Time (US & Canada)", "utc_offset": -18000}}
{"created_at": "Fri May 01 16:33:23 +0000 2015", "favorited": false, "id": 594177807703412736, "lang": "en", "retweeted": false, "source": "<a href=\"https://about.twitter.com/products/tweetdeck\" rel=\"nofollow\">TweetDeck</a>", "text": "Robin McGraw (Dr. Phil\u2019s wife) came up with this app that looks like a news reader but is actually a DV resource. https://t.co/ZjPbQEsFAs", "truncated": false, "urls": {"https://t.co/ZjPbQEsFAs": "https://itunes.apple.com/us/app/aspire-news/id733163167?mt=8"}, "user": {"created_at": "Wed Nov 04 17:45:38 +0000 2009", "description": "Writer & @Seattlish co-founder. Into feminism, politics, poems, radio, football, & Oxford commas. Curious to a fault & prone to profanity. She/her.", "favourites_count": 9091, "followers_count": 3430, "friends_count": 1366, "id": 87490820, "lang": "en", "listed_count": 157, "location": "Seattle", "name": "Hanna Brooks Olsen", "profile_background_color": "848E8F", "profile_background_image_url": "http://pbs.twimg.com/profile_background_images/193530610/P1010978.JPG", "profile_background_tile": false, "profile_banner_url": "https://pbs.twimg.com/profile_banners/87490820/1440010552", "profile_image_url": "https://pbs.twimg.com/profile_images/680233748076482560/IzAmXJVI_normal.jpg", "profile_link_color": "3B94D9", "profile_sidebar_fill_color": "708182", "profile_text_color": "333333", "protected": false, "screen_name": "mshannabrooks", "statuses_count": 18817, "time_zone": "Pacific Time (US & Canada)", "url": "http://t.co/3kL9O3kSw1", "utc_offset": -28800}}
{"created_at": "Sat May 02 01:26:48 +0000 2015", "favorited": false, "id": 594312049158725632, "lang": "en", "retweeted": false, "source": "<a href=\"http://twitter.com\" rel=\"nofollow\">Twitter Web Client</a>", "text": "The Aspire News App via @WGeorgiaSmiled https://t.co/oBX6zNMiVn Good app for those dealing with domestic violence", "truncated": false, "urls": {"https://t.co/oBX6zNMiVn": "https://www.whengeorgiasmiled.org/the-aspire-news-app/"}, "user": {"created_at": "Fri Apr 10 18:57:32 +0000 2009", "description": "2nd Amendment.", "favourites_count": 183, "followers_count": 27, "friends_count": 207, "id": 30284852, "lang": "en", "location": "Bed. Asleep.", "name": "Jenny P", "profile_background_color": "07090B", "profile_background_image_url": "http://pbs.twimg.com/profile_background_images/165829923/x693b62c9485638dc4b19055a5913e88.png", "profile_background_tile": true, "profile_banner_url": "https://pbs.twimg.com/profile_banners/30284852/1446925896", "profile_image_url": "https://pbs.twimg.com/profile_images/625357332185116672/NujAFoq-_normal.png", "profile_link_color": "FFCC4D", "profile_sidebar_fill_color": "C9C9C9", "profile_text_color": "1C1F23", "protected": false, "screen_name": "JPNinjaandChase", "statuses_count": 353, "time_zone": "Eastern Time (US & Canada)", "utc_offset": -18000}, "user_mentions": [{"id": 2798879671, "name": "When Georgia Smiled", "screen_name": "WGeorgiaSmiled"}]}
{"created_at": "Wed May 06 09:01:09 +0000 2015", "favorited": false, "id": 595875940216999936, "lang": "en", "retweeted": false, "source": "<a href=\"http://www.hootsuite.com\" rel=\"nofollow\">Hootsuite</a>", "text": "Our app includes all the most up to date news, offers, timetables and events. So download it now for all the latest. http://t.co/uZfeGAK4VO", "truncated": false, "urls": {"http://t.co/uZfeGAK4VO": "http://ow.ly/Mngvx"}, "user": {"created_at": "Tue Jun 09 14:03:19 +0000 2009", "description": "GL1 Leisure Centre in Gloucester offers 2 gyms, group exercise and spinning studios, a spa, 4 swimming pools, a sports hall, squash courts and conference rooms.", "favourites_count": 55, "followers_count": 1662, "friends_count": 1213, "id": 45842557, "lang": "en", "listed_count": 42, "location": "Gloucester, UK", "name": "GL1 Leisure Centre", "profile_background_color": "CD2D36", "profile_background_image_url": "http://pbs.twimg.com/profile_background_images/673972993/8ec391490fb1961672e189f2a3d4505f.jpeg", "profile_background_tile": false, "profile_banner_url": "https://pbs.twimg.com/profile_banners/45842557/1435826186", "profile_image_url": "https://pbs.twimg.com/profile_images/616525772845486080/m2kuAM9s_normal.jpg", "profile_link_color": "CD2D36", "profile_sidebar_fill_color": "FFFFFF", "profile_text_color": "333333", "protected": false, "screen_name": "GL1Leisure", "statuses_count": 2982, "time_zone": "London", "url": "http://t.co/K5rFqXbC5x"}}
{"created_at": "Wed May 06 14:27:18 +0000 2015", "favorited": false, "id": 595958016551313409, "lang": "en", "retweeted": false, "source": "<a href=\"http://twitter.com\" rel=\"nofollow\">Twitter Web Client</a>", "text": "The Aspire News App via @WGeorgiaSmiled https://t.co/D45RURahLp", "truncated": false, "urls": {"https://t.co/D45RURahLp": "https://www.whengeorgiasmiled.org/the-aspire-news-app/"}, "user": {"created_at": "Wed Jun 27 21:42:23 +0000 2012", "description": "Proud grandma, jewelry designer, eBay Top Rated Seller offering handmade jewelry & other items on eBay & Etsy. Love my shih tzu, Steelers, Donny & Marie", "favourites_count": 2229, "followers_count": 4533, "friends_count": 4839, "id": 620373496, "lang": "en", "listed_count": 107, "location": "Connellsville, PA USA", "name": "Teri Hirko", "profile_background_color": "CC6699", "profile_background_image_url": "http://pbs.twimg.com/profile_background_images/792583147/98840c220e15a8a6f9fb2f53422c0e7b.jpeg", "profile_background_tile": true, "profile_banner_url": "https://pbs.twimg.com/profile_banners/620373496/1359092552", "profile_image_url": "https://pbs.twimg.com/profile_images/567769246029991936/yES5STkR_normal.jpeg", "profile_link_color": "000000", "profile_sidebar_fill_color": "E5507E", "profile_text_color": "362720", "protected": false, "screen_name": "grammysbargains", "statuses_count": 36855, "url": "http://t.co/UiFxa0AxOK"}, "user_mentions": [{"id": 2798879671, "name": "When Georgia Smiled", "screen_name": "WGeorgiaSmiled"}]}
{"created_at": "Thu May 07 11:02:19 +0000 2015", "favorite_count": 1, "favorited": false, "id": 596268819682873344, "in_reply_to_screen_name": "RYOTnews", "in_reply_to_status_id": 596253168192761856, "in_reply_to_user_id": 380228140, "lang": "en", "retweeted": false, "source": "<a href=\"http://twitter.com/download/iphone\" rel=\"nofollow\">Twitter for iPhone</a>", "text": "@RYOTnews the Aspire News App", "truncated": false, "user": {"created_at": "Fri Mar 08 16:27:07 +0000 2013", "description": "*My Life is a Sitcom*", "favourites_count": 311, "followers_count": 72, "friends_count": 178, "geo_enabled": true, "id": 1252144824, "lang": "en", "listed_count": 1, "location": "Sunshine State\u2600\ufe0f", "name": "Sophia Eller", "profile_background_color": "E6AD93", "profile_background_image_url": "http://pbs.twimg.com/profile_background_images/378800000111484297/4a613b27bbd410fbc0329f4cb657d6f5.jpeg", "profile_background_tile": false, "profile_banner_url": "https://pbs.twimg.com/profile_banners/1252144824/1435606981", "profile_image_url": "https://pbs.twimg.com/profile_images/574922098361110528/UBclstfo_normal.jpeg", "profile_link_color": "7A3E28", "profile_sidebar_fill_color": "564837", "profile_text_color": "7BF2CE", "protected": false, "screen_name": "EllerSophia", "statuses_count": 1403}, "user_mentions": [{"id": 380228140, "name": "RYOT NEWS", "screen_name": "RYOTnews"}]}
{"created_at": "Sat May 09 21:47:32 +0000 2015", "favorite_count": 1, "favorited": false, "id": 597155971316625408, "lang": "en", "retweeted": false, "source": "<a href=\"http://www.echofon.com/\" rel=\"nofollow\">Echofon</a>", "text": "Not only killer app news, but keynote address quality that I aspire to. http://t.co/hF0df90LNj", "truncated": false, "urls": {"http://t.co/hF0df90LNj": "http://bit.ly/1FWmWXg"}, "user": {"created_at": "Wed May 06 20:39:30 +0000 2009", "description": "Steve Collier, Director Smart Grid Strategies\r\nMilsoft Utility Solutions\r\nIEEE Technical Expert", "favourites_count": 100, "followers_count": 2709, "friends_count": 210, "geo_enabled": true, "id": 38270779, "lang": "en", "listed_count": 146, "location": "Austin, Texas", "name": "SmartGridMan", "profile_background_color": "131516", "profile_background_image_url": "http://abs.twimg.com/images/themes/theme14/bg.gif", "profile_background_tile": true, "profile_banner_url": "https://pbs.twimg.com/profile_banners/38270779/1389203438", "profile_image_url": "https://pbs.twimg.com/profile_images/420972370677858304/m1pacrhM_normal.jpeg", "profile_link_color": "009999", "profile_sidebar_fill_color": "EFEFEF", "profile_text_color": "333333", "protected": false, "screen_name": "SmartGridMan", "statuses_count": 3175, "time_zone": "Central Time (US & Canada)", "url": "http://t.co/Ar1mKSmnJA", "utc_offset": -21600}}
{"created_at": "Wed May 20 13:27:05 +0000 2015", "favorited": false, "id": 601016292208840705, "lang": "en", "retweeted": false, "source": "<a href=\"http://www.echofon.com/\" rel=\"nofollow\">Echofon</a>", "text": "Elon Musk talks PowerWall. Not only killer app news, but keynote address quality that I aspire to. http://t.co/hF0df90LNj", "truncated": false, "urls": {"http://t.co/hF0df90LNj": "http://bit.ly/1FWmWXg"}, "user": {"created_at": "Wed May 06 20:39:30 +0000 2009", "description": "Steve Collier, Director Smart Grid Strategies\r\nMilsoft Utility Solutions\r\nIEEE Technical Expert", "favourites_count": 100, "followers_count": 2709, "friends_count": 210, "geo_enabled": true, "id": 38270779, "lang": "en", "listed_count": 146, "location": "Austin, Texas", "name": "SmartGridMan", "profile_background_color": "131516", "profile_background_image_url": "http://abs.twimg.com/images/themes/theme14/bg.gif", "profile_background_tile": true, "profile_banner_url": "https://pbs.twimg.com/profile_banners/38270779/1389203438", "profile_image_url": "https://pbs.twimg.com/profile_images/420972370677858304/m1pacrhM_normal.jpeg", "profile_link_color": "009999", "profile_sidebar_fill_color": "EFEFEF", "profile_text_color": "333333", "protected": false, "screen_name": "SmartGridMan", "statuses_count": 3175, "time_zone": "Central Time (US & Canada)", "url": "http://t.co/Ar1mKSmnJA", "utc_offset": -21600}}
{"created_at": "Wed May 27 04:25:18 +0000 2015", "favorited": false, "hashtags": ["DomesticViolence"], "id": 603416663594151937, "lang": "en", "retweeted": false, "source": "<a href=\"http://twitter.com/download/android\" rel=\"nofollow\">Twitter for Android</a>", "text": "1:4 women and 1:5 men will expierence domestic violence. #DomesticViolence The Aspire News App via @WGeorgiaSmiled https://t.co/nmExhX2KWG", "truncated": false, "urls": {"https://t.co/nmExhX2KWG": "https://www.whengeorgiasmiled.org/the-aspire-news-app/"}, "user": {"created_at": "Tue Jan 21 07:49:15 +0000 2014", "default_profile": true, "description": "@)\u203a-}--\u2122", "favourites_count": 7986, "followers_count": 125, "friends_count": 287, "id": 2302696669, "lang": "en", "listed_count": 5, "location": "house, california.", "name": "pedro bravo jr.\u2122", "profile_background_color": "C0DEED", "profile_background_image_url": "http://abs.twimg.com/images/themes/theme1/bg.png", "profile_background_tile": false, "profile_banner_url": "https://pbs.twimg.com/profile_banners/2302696669/1444289272", "profile_image_url": "https://pbs.twimg.com/profile_images/647408051247452160/5uWKWvY5_normal.jpg", "profile_link_color": "0084B4", "profile_sidebar_fill_color": "DDEEF6", "profile_text_color": "333333", "protected": false, "screen_name": "pedrobravojr", "statuses_count": 2398}, "user_mentions": [{"id": 2798879671, "name": "When Georgia Smiled", "screen_name": "WGeorgiaSmiled"}]}
{"created_at": "Wed May 27 16:59:32 +0000 2015", "favorited": false, "hashtags": ["app", "alertsystem", "womenatrisk", "DV"], "id": 603606475349630976, "lang": "en", "retweeted": false, "source": "<a href=\"http://twitter.com\" rel=\"nofollow\">Twitter Web Client</a>", "text": "Aspire News app looks like a generic #app but it's actually a secret/lifesaving #alertsystem for #womenatrisk of #DV http://t.co/bMMGyrS2l5", "truncated": false, "urls": {"http://t.co/bMMGyrS2l5": "http://bit.ly/1dT05zk"}, "user": {"created_at": "Sat Aug 25 18:06:38 +0000 2012", "description": "Restoring women escaping sex trafficking and the commercial sex industry.", "favourites_count": 155, "followers_count": 195, "friends_count": 248, "id": 780794023, "lang": "en", "listed_count": 5, "location": "Denver, Colorado", "name": "Street's Hope", "profile_background_color": "925B94", "profile_background_image_url": "http://pbs.twimg.com/profile_background_images/444226193735172096/mkXUNy2o.jpeg", "profile_background_tile": false, "profile_banner_url": "https://pbs.twimg.com/profile_banners/780794023/1450992775", "profile_image_url": "https://pbs.twimg.com/profile_images/680139054239727616/NsyrAHNz_normal.jpg", "profile_link_color": "925B94", "profile_sidebar_fill_color": "DDEEF6", "profile_text_color": "333333", "protected": false, "screen_name": "StreetsHope", "statuses_count": 470, "time_zone": "Arizona", "url": "http://t.co/vj2jZ3lTmd", "utc_offset": -25200}}
{"created_at": "Sun May 31 14:01:37 +0000 2015", "favorited": false, "hashtags": ["DV", "App", "VAW", "Psychology"], "id": 605011250767101953, "lang": "en", "retweeted": false, "source": "<a href=\"http://twitter.com\" rel=\"nofollow\">Twitter Web Client</a>", "text": "Tackling #DV: the ASPIRE News #App https://t.co/hkLpX61SfQ @Robin_McGraw @WGeorgiaSmiled @DrPhil @TheDrPhilShow @NOMOREorg #VAW #Psychology", "truncated": false, "urls": {"https://t.co/hkLpX61SfQ": "https://www.whengeorgiasmiled.org/the-aspire-news-app"}, "user": {"created_at": "Wed Nov 14 11:46:16 +0000 2012", "description": "#Psychology \u2022 #Psychiatry \u2022 #NLP \u2022 #Psychopharmacology & #Herbology \u2022 Ethical #Vegan https://t.co/XiFGS0alKg \u2022   In love with the #Ocean https://t.co/5u0v5yuwJp", "favourites_count": 669, "followers_count": 1720, "friends_count": 1017, "id": 947586372, "lang": "en", "listed_count": 86, "name": "Sara Elizabeth Sim\u00f6n", "profile_background_color": "EB3DE5", "profile_background_image_url": "http://pbs.twimg.com/profile_background_images/525054350914117633/O8ptjD6v.jpeg", "profile_background_tile": true, "profile_banner_url": "https://pbs.twimg.com/profile_banners/947586372/1414017731", "profile_image_url": "https://pbs.twimg.com/profile_images/378800000820724837/097d9ad920f7405d2e65bd64e7b2b03d_normal.jpeg", "profile_link_color": "C22382", "profile_sidebar_fill_color": "DDEEF6", "profile_text_color": "333333", "protected": false, "screen_name": "SaraBethSimon", "statuses_count": 3827, "time_zone": "Hawaii", "utc_offset": -36000}, "user_mentions": [{"id": 34418203, "name": "Robin McGraw", "screen_name": "Robin_McGraw"}, {"id": 2798879671, "name": "When Georgia Smiled", "screen_name": "WGeorgiaSmiled"}, {"id": 7025662, "name": "Dr. Phil", "screen_name": "DrPhil"}, {"id": 1656505459, "name": "The Dr. Phil Show", "screen_name": "TheDrPhilShow"}, {"id": 506038952, "name": "NO MORE Campaign", "screen_name": "NOMOREorg"}]}
{"created_at": "Thu Jun 04 14:35:41 +0000 2015", "favorited": false, "hashtags": ["aspire"], "id": 606469377765076992, "lang": "en", "retweeted": false, "source": "<a href=\"http://twitter.com/download/iphone\" rel=\"nofollow\">Twitter for iPhone</a>", "text": "Stem op goed idee award 2015\n#aspire news app a16. (Korps)", "truncated": false, "user": {"created_at": "Wed Apr 22 21:18:46 +0000 2015", "default_profile": true, "description": "Waar je ook bent, ik zal je altijd weer vinden :)", "favourites_count": 2, "followers_count": 11, "friends_count": 62, "id": 3196232200, "lang": "nl", "name": "Laura Dolleman", "profile_background_color": "C0DEED", "profile_background_image_url": "http://abs.twimg.com/images/themes/theme1/bg.png", "profile_background_tile": false, "profile_banner_url": "https://pbs.twimg.com/profile_banners/3196232200/1429807403", "profile_image_url": "https://pbs.twimg.com/profile_images/590997193114447872/IHL-O4fX_normal.jpg", "profile_link_color": "0084B4", "profile_sidebar_fill_color": "DDEEF6", "profile_text_color": "333333", "protected": false, "screen_name": "DolHenk", "statuses_count": 5}}
{"created_at": "Tue Jun 09 14:10:49 +0000 2015", "favorited": false, "hashtags": ["digital", "londonjobs"], "id": 608275057861894145, "lang": "en", "retweeted": false, "source": "<a href=\"http://www.hootsuite.com\" rel=\"nofollow\">Hootsuite</a>", "text": "Apple takes on facebook with we revamped news app http://t.co/WyiOw0buM2 #digital #londonjobs", "truncated": false, "urls": {"http://t.co/WyiOw0buM2": "http://ow.ly/O4KRm"}, "user": {"created_at": "Mon May 23 14:00:45 +0000 2011", "description": "Aspire specialise in recruiting for the media and marketing communications industry.", "favourites_count": 5, "followers_count": 4200, "friends_count": 2572, "id": 303831782, "lang": "en", "listed_count": 97, "location": "London", "name": "Aspire_Graduate", "profile_background_color": "C0DEED", "profile_background_image_url": "http://pbs.twimg.com/profile_background_images/464696162595774464/1mhP5KF2.jpeg", "profile_background_tile": false, "profile_banner_url": "https://pbs.twimg.com/profile_banners/303831782/1436774937", "profile_image_url": "https://pbs.twimg.com/profile_images/680005720117522432/tsBxIFB8_normal.jpg", "profile_link_color": "0084B4", "profile_sidebar_fill_color": "DDEEF6", "profile_text_color": "333333", "protected": false, "screen_name": "Aspire_Graduate", "statuses_count": 9319, "time_zone": "London", "url": "https://t.co/QtYnYMWWOC"}}
{"created_at": "Sun Jun 14 09:00:52 +0000 2015", "favorited": false, "id": 610008993805807616, "lang": "en", "retweeted": false, "source": "<a href=\"http://www.hootsuite.com\" rel=\"nofollow\">Hootsuite</a>", "text": "For the most up to date information, news and offers download the aspire app here: http://t.co/YqaEUovN9l", "truncated": false, "urls": {"http://t.co/YqaEUovN9l": "http://ow.ly/NRgKk"}, "user": {"created_at": "Mon Sep 28 11:19:26 +0000 2009", "description": "Oxstalls Sports Park offers a range of activities - something for all abilities, ages and experience.", "favourites_count": 58, "followers_count": 991, "friends_count": 921, "id": 77987699, "lang": "en", "listed_count": 26, "location": "Gloucester, UK", "name": "Oxstalls Sports Park", "profile_background_color": "E92E29", "profile_background_image_url": "http://pbs.twimg.com/profile_background_images/712212426/d2902589fab9e919bdc9bc5d7c59d98e.jpeg", "profile_background_tile": false, "profile_banner_url": "https://pbs.twimg.com/profile_banners/77987699/1435826127", "profile_image_url": "https://pbs.twimg.com/profile_images/616525519689900032/VHmUPlSy_normal.jpg", "profile_link_color": "E92E29", "profile_sidebar_fill_color": "FFFFFF", "profile_text_color": "333333", "protected": false, "screen_name": "OxstallsTennis", "statuses_count": 2162, "time_zone": "London", "url": "http://t.co/XUQM1AikkZ"}}
{"created_at": "Mon Jun 15 05:45:23 +0000 2015", "favorited": false, "hashtags": ["viralvideo", "adamscheinermd"], "id": 610322186197442560, "lang": "en", "media": [{"display_url": "pic.twitter.com/8w0mXtziLz", "expanded_url": "http://twitter.com/baggyeyelids/status/610322186197442560/photo/1", "id": 610322185039781888, "id_str": "610322185039781888", "indices": [116, 138], "media_url": "http://pbs.twimg.com/media/CHhMyy3WIAAqzYT.jpg", "media_url_https": "https://pbs.twimg.com/media/CHhMyy3WIAAqzYT.jpg", "sizes": {"large": {"h": 360, "resize": "fit", "w": 480}, "medium": {"h": 360, "resize": "fit", "w": 480}, "small": {"h": 255, "resize": "fit", "w": 340}, "thumb": {"h": 150, "resize": "crop", "w": 150}}, "type": "photo", "url": "http://t.co/8w0mXtziLz"}], "retweeted": false, "source": "<a href=\"http://www.staged.com\" rel=\"nofollow\">Staged Marketing Toolsuite</a>", "text": "Learn How the ASPIRE News App Works: With Robin McGraw -- The... http://t.co/nugrnFymf0 #viralvideo #adamscheinermd http://t.co/8w0mXtziLz", "truncated": false, "urls": {"http://t.co/nugrnFymf0": "http://vid.staged.com/EZIp"}, "user": {"created_at": "Wed Feb 04 01:23:05 +0000 2015", "default_profile": true, "description": "Laser Eyelid and Facial Plastic Surgeon", "followers_count": 541, "friends_count": 1922, "id": 3015947032, "lang": "en", "listed_count": 3, "name": "Eyelid Pro", "profile_background_color": "C0DEED", "profile_background_image_url": "http://abs.twimg.com/images/themes/theme1/bg.png", "profile_background_tile": false, "profile_banner_url": "https://pbs.twimg.com/profile_banners/3015947032/1423017049", "profile_image_url": "https://pbs.twimg.com/profile_images/562800490874806272/RNTsaGDZ_normal.jpeg", "profile_link_color": "0084B4", "profile_sidebar_fill_color": "DDEEF6", "profile_text_color": "333333", "protected": false, "screen_name": "baggyeyelids", "statuses_count": 794}}
{"created_at": "Sun Jun 21 12:30:48 +0000 2015", "favorited": false, "id": 612598542763446272, "lang": "en", "retweeted": false, "source": "<a href=\"http://www.hootsuite.com\" rel=\"nofollow\">Hootsuite</a>", "text": "Get the latest info, timetables, offers and news with our app - Download it here: http://t.co/gbagHuapx9", "truncated": false, "urls": {"http://t.co/gbagHuapx9": "http://ow.ly/NMbSY"}, "user": {"created_at": "Tue Jun 09 14:03:19 +0000 2009", "description": "GL1 Leisure Centre in Gloucester offers 2 gyms, group exercise and spinning studios, a spa, 4 swimming pools, a sports hall, squash courts and conference rooms.", "favourites_count": 55, "followers_count": 1662, "friends_count": 1213, "id": 45842557, "lang": "en", "listed_count": 42, "location": "Gloucester, UK", "name": "GL1 Leisure Centre", "profile_background_color": "CD2D36", "profile_background_image_url": "http://pbs.twimg.com/profile_background_images/673972993/8ec391490fb1961672e189f2a3d4505f.jpeg", "profile_background_tile": false, "profile_banner_url": "https://pbs.twimg.com/profile_banners/45842557/1435826186", "profile_image_url": "https://pbs.twimg.com/profile_images/616525772845486080/m2kuAM9s_normal.jpg", "profile_link_color": "CD2D36", "profile_sidebar_fill_color": "FFFFFF", "profile_text_color": "333333", "protected": false, "screen_name": "GL1Leisure", "statuses_count": 2982, "time_zone": "London", "url": "http://t.co/K5rFqXbC5x"}}
{"created_at": "Mon Jun 22 15:20:57 +0000 2015", "favorited": false, "id": 613003747959029762, "lang": "en", "retweeted": false, "source": "<a href=\"http://twitter.com\" rel=\"nofollow\">Twitter Web Client</a>", "text": "https://t.co/t9c9VcqCH9  Check out this site and get the Aspire News app regarding domestic violence.  Pass this on!!", "truncated": false, "urls": {"https://t.co/t9c9VcqCH9": "https://www.whengeorgiasmiled.org/"}, "user": {"created_at": "Tue Jun 09 20:57:05 +0000 2015", "default_profile": true, "favourites_count": 1, "followers_count": 39, "friends_count": 125, "id": 3315944092, "lang": "en", "name": "Charlotte Jennings", "profile_background_color": "C0DEED", "profile_background_image_url": "http://abs.twimg.com/images/themes/theme1/bg.png", "profile_background_tile": false, "profile_image_url": "https://pbs.twimg.com/profile_images/608380780411265024/-kPOSaWs_normal.jpg", "profile_link_color": "0084B4", "profile_sidebar_fill_color": "DDEEF6", "profile_text_color": "333333", "protected": false, "screen_name": "HopeHavenofCC", "statuses_count": 136}}
{"created_at": "Tue Jun 23 07:58:03 +0000 2015", "favorite_count": 1, "favorited": false, "id": 613254679120588801, "lang": "en", "media": [{"display_url": "pic.twitter.com/NzskeVtbh6", "expanded_url": "http://twitter.com/Arbara0728B/status/613254679120588801/photo/1", "id": 613254679066099713, "id_str": "613254679066099713", "indices": [101, 123], "media_url": "http://pbs.twimg.com/media/CIK34aaUwAEfluw.jpg", "media_url_https": "https://pbs.twimg.com/media/CIK34aaUwAEfluw.jpg", "sizes": {"large": {"h": 200, "resize": "fit", "w": 200}, "medium": {"h": 200, "resize": "fit", "w": 200}, "small": {"h": 200, "resize": "fit", "w": 200}, "thumb": {"h": 150, "resize": "crop", "w": 150}}, "type": "photo", "url": "http://t.co/NzskeVtbh6"}], "retweet_count": 1, "retweeted": false, "source": "<a href=\"http://www.apple.com\" rel=\"nofollow\">iOS</a>", "text": "Aspire News -app has help section for assisting someone in abuse situations  https://t.co/K4ZEXWZZrU http://t.co/NzskeVtbh6", "truncated": false, "urls": {"https://t.co/K4ZEXWZZrU": "https://appsto.re/us/F6YSR.i"}, "user": {"created_at": "Wed Nov 06 19:28:06 +0000 2013", "default_profile": true, "favourites_count": 63199, "followers_count": 1385, "friends_count": 1317, "id": 2178663834, "lang": "en", "listed_count": 155, "location": "US", "name": "Barbara", "profile_background_color": "C0DEED", "profile_background_image_url": "http://abs.twimg.com/images/themes/theme1/bg.png", "profile_background_tile": false, "profile_banner_url": "https://pbs.twimg.com/profile_banners/2178663834/1412524902", "profile_image_url": "https://pbs.twimg.com/profile_images/502033544428789760/AHShODh__normal.jpeg", "profile_link_color": "0084B4", "profile_sidebar_fill_color": "DDEEF6", "profile_text_color": "333333", "protected": false, "screen_name": "Arbara0728B", "statuses_count": 90815}}
{"created_at": "Tue Jun 23 16:16:23 +0000 2015", "favorited": false, "id": 613380085412929536, "lang": "en", "retweeted": false, "source": "<a href=\"http://twitter.com\" rel=\"nofollow\">Twitter Web Client</a>", "text": "The Aspire News App via @WGeorgiaSmiled https://t.co/JQtU86JI4p", "truncated": false, "urls": {"https://t.co/JQtU86JI4p": "https://www.whengeorgiasmiled.org/the-aspire-news-app/"}, "user": {"created_at": "Thu Mar 22 14:53:51 +0000 2012", "description": "Columbia-Greene Domestic Violence is the primary provider of comprehensive services for domestic violence victims and survivors in Columbia and Greene counties", "favourites_count": 13, "followers_count": 35, "friends_count": 57, "id": 533206852, "lang": "en", "listed_count": 1, "location": " NY", "name": "CGDV", "profile_background_color": "B2DFDA", "profile_background_image_url": "http://abs.twimg.com/images/themes/theme13/bg.gif", "profile_background_tile": false, "profile_banner_url": "https://pbs.twimg.com/profile_banners/533206852/1443706979", "profile_image_url": "https://pbs.twimg.com/profile_images/1930921386/397139_321360361219617_100000369681482_1096019_780146383_n_normal.jpg", "profile_link_color": "93A644", "profile_sidebar_fill_color": "FFFFFF", "profile_text_color": "333333", "protected": false, "screen_name": "ColumbiaGreenDV", "statuses_count": 405, "url": "http://t.co/skJMzrMOFt"}, "user_mentions": [{"id": 2798879671, "name": "When Georgia Smiled", "screen_name": "WGeorgiaSmiled"}]}
{"created_at": "Tue Jun 23 17:19:05 +0000 2015", "favorited": false, "id": 613395864313286656, "lang": "en", "retweeted": false, "source": "<a href=\"http://twitter.com\" rel=\"nofollow\">Twitter Web Client</a>", "text": "Have you heard of Aspire News app? It\u2019s a cleverly disguised app for helping those suffering from domestic violence http://t.co/hpsB0Rv6JR", "truncated": false, "urls": {"http://t.co/hpsB0Rv6JR": "http://www.makeuseof.com/tag/app-can-help-abusive-relationships-discreetly-reach-help/"}, "user": {"created_at": "Thu Dec 01 18:26:49 +0000 2011", "description": "Wayside Youth & Family Support Network is a non-profit human service agency with  counseling programs, a residential campus and family-based outreach services.", "favourites_count": 408, "followers_count": 657, "friends_count": 558, "id": 426003514, "lang": "en", "listed_count": 24, "location": "Framingham, MA", "name": "WaysideYouth&Family", "profile_background_color": "006A51", "profile_background_image_url": "http://abs.twimg.com/images/themes/theme1/bg.png", "profile_background_tile": true, "profile_banner_url": "https://pbs.twimg.com/profile_banners/426003514/1451327247", "profile_image_url": "https://pbs.twimg.com/profile_images/378800000016964147/80be0d384c861a7006d2794c5a5f1664_normal.jpeg", "profile_link_color": "3F5B93", "profile_sidebar_fill_color": "DDEEF6", "profile_text_color": "333333", "protected": false, "screen_name": "waysideyouthorg", "statuses_count": 1149, "time_zone": "Eastern Time (US & Canada)", "url": "http://t.co/KVYRWW2Wqz", "utc_offset": -18000}}
{"created_at": "Wed Jun 24 00:09:53 +0000 2015", "favorited": false, "id": 613499246122278912, "lang": "en", "retweeted": false, "source": "<a href=\"http://www.tumblr.com/\" rel=\"nofollow\">Tumblr</a>", "text": "This incredibly smart domestic violence app could save women\u2019s lives - The Aspire News app looks like a... http://t.co/34sJDv97oR", "truncated": false, "urls": {"http://t.co/34sJDv97oR": "http://tmblr.co/ZaFEqn1nvEMvo"}, "user": {"created_at": "Fri Aug 08 21:59:41 +0000 2008", "description": "Take a chunk of #HPAutonomy and add a bucketful of #IBMWatson with a rainbow of everything else and give it to the Peoples of the World.", "favourites_count": 847, "followers_count": 2188, "friends_count": 2369, "geo_enabled": true, "id": 15783601, "lang": "en", "listed_count": 80, "location": "Harlech", "name": "harlechnnorfolk", "profile_background_color": "F7FFFE", "profile_background_image_url": "http://pbs.twimg.com/profile_background_images/209444881/pr1mirrorwith_3.png", "profile_background_tile": true, "profile_banner_url": "https://pbs.twimg.com/profile_banners/15783601/1425990126", "profile_image_url": "https://pbs.twimg.com/profile_images/622410711482900480/IqJ3I68G_normal.jpg", "profile_link_color": "2DC23E", "profile_sidebar_fill_color": "FFFFFF", "profile_text_color": "D60D0D", "protected": false, "screen_name": "harlechnnorfolk", "statuses_count": 82230, "time_zone": "London", "url": "http://t.co/nyounFpFc8"}}
{"created_at": "Wed Jun 24 02:06:35 +0000 2015", "favorited": false, "id": 613528613833601025, "lang": "en", "retweeted": false, "source": "<a href=\"http://www.facebook.com/twitter\" rel=\"nofollow\">Facebook</a>", "text": "SHARE Share share!!!!!\n\"A lifesaving free smartphone app, Aspire News, allows the user to create pre-written text... http://t.co/HsJPjs7uyP", "truncated": false, "urls": {"http://t.co/HsJPjs7uyP": "http://fb.me/3Tg32FP7j"}, "user": {"created_at": "Sat Apr 04 18:18:08 +0000 2009", "description": "Happily Married, 2 Amazing Daughters, 1 a Navy Vet, 1 an angel to my adorable grandson. Cancer Survivor. Reality Show Junkie!", "favourites_count": 2595, "followers_count": 140, "friends_count": 438, "geo_enabled": true, "id": 28841404, "lang": "en", "listed_count": 6, "location": "All Over! But Ohio 4 Now :)", "name": "Tonda DaRe", "profile_background_color": "D923AF", "profile_background_image_url": "http://pbs.twimg.com/profile_background_images/863858671/c438b419c2c16e021798e02bb4ee997d.jpeg", "profile_background_tile": false, "profile_banner_url": "https://pbs.twimg.com/profile_banners/28841404/1368069548", "profile_image_url": "https://pbs.twimg.com/profile_images/3478407163/de3964fdd9795a667575f6eca3502bc9_normal.jpeg", "profile_link_color": "FA9E9E", "profile_sidebar_fill_color": "A57F8E", "profile_text_color": "721A2A", "protected": false, "screen_name": "MrsDaRe", "statuses_count": 4238, "time_zone": "America/New_York", "url": "https://t.co/avDJTSX9as", "utc_offset": -18000}}
{"created_at": "Wed Jun 24 10:15:45 +0000 2015", "favorited": false, "id": 613651720342798336, "lang": "en", "retweeted": false, "source": "<a href=\"http://www.hootsuite.com\" rel=\"nofollow\">Hootsuite</a>", "text": "Get the latest info, timetables, offers and news with our app - Download it here: http://t.co/nVUYYlRaBE", "truncated": false, "urls": {"http://t.co/nVUYYlRaBE": "http://ow.ly/NRC98"}, "user": {"created_at": "Mon Jul 09 15:06:54 +0000 2012", "description": "aspire Sports & Cultural Trust is a not-for-profit sports & cultural trust operating GL1 Leisure Centre, Oxstalls Tennis Centre & Xpress Fitness Cheltenham.", "favourites_count": 9, "followers_count": 217, "friends_count": 69, "id": 631165229, "lang": "en", "listed_count": 6, "location": "Cheltenham & Gloucester", "name": "aspire Trust", "profile_background_color": "CD2D36", "profile_background_image_url": "http://pbs.twimg.com/profile_background_images/599965402/8ds1m1yvbpk3rkm37hbj.jpeg", "profile_background_tile": false, "profile_banner_url": "https://pbs.twimg.com/profile_banners/631165229/1435913685", "profile_image_url": "https://pbs.twimg.com/profile_images/616892374770417664/7s7Vmbgr_normal.jpg", "profile_link_color": "0084B4", "profile_sidebar_fill_color": "DDEEF6", "profile_text_color": "333333", "protected": false, "screen_name": "aspireSCT", "statuses_count": 1131, "time_zone": "London", "url": "http://t.co/S1EvbLdxvc"}}
{"created_at": "Wed Jun 24 20:00:09 +0000 2015", "favorited": false, "id": 613798787224588288, "lang": "en", "retweet_count": 1, "retweeted": false, "source": "<a href=\"http://www.vocus.com\" rel=\"nofollow\">Vocus</a>", "text": "SHARE this app Aspire News! It can help get safety in DV situations. http://t.co/JIva4HvYn4", "truncated": false, "urls": {"http://t.co/JIva4HvYn4": "http://omkt.co/AAE54U"}, "user": {"created_at": "Thu Mar 04 17:44:15 +0000 2010", "description": "The Center Against Domestic Violence works toward a society free from violence by offering a range of programs for education, prevention, and intervention.", "favourites_count": 92, "followers_count": 3212, "friends_count": 1150, "id": 119799145, "lang": "en", "listed_count": 112, "location": "NYC", "name": "Center Against DV", "profile_background_color": "FFF04D", "profile_background_image_url": "http://pbs.twimg.com/profile_background_images/452981948/CADVLogoPro2.PNG", "profile_background_tile": false, "profile_banner_url": "https://pbs.twimg.com/profile_banners/119799145/1443644269", "profile_image_url": "https://pbs.twimg.com/profile_images/464049498709180416/FBjXp2RA_normal.jpeg", "profile_link_color": "F77D11", "profile_sidebar_fill_color": "542437", "profile_text_color": "D95B43", "protected": false, "screen_name": "CADVNY", "statuses_count": 3178, "time_zone": "Eastern Time (US & Canada)", "url": "http://t.co/b29RATyUEh", "utc_offset": -18000}}
{"created_at": "Fri Jun 26 07:30:29 +0000 2015", "favorite_count": 1, "favorited": false, "id": 614334902767456256, "lang": "en", "retweet_count": 1, "retweeted": false, "source": "<a href=\"http://twitter.com/download/android\" rel=\"nofollow\">Twitter for Android</a>", "text": "If anyone you know is in an abusive relationship, let them know about the Aspire News app. http://t.co/L4gE2fL5c9", "truncated": false, "urls": {"http://t.co/L4gE2fL5c9": "http://www.salon.com/2013/11/21/this_incredibly_smart_domestic_violence_app_could_save_womens_lives/"}, "user": {"created_at": "Thu Aug 20 12:52:06 +0000 2009", "description": "Freelance editor http://t.co/9g7497GqJo , Mom to 3 boys, Poet/Writer, Dyer/Knitter, Artist, Free spirit. I swear a LOT. http://t.co/UHD8T9qU4n.", "favourites_count": 3708, "followers_count": 823, "friends_count": 707, "geo_enabled": true, "id": 67305529, "lang": "en", "listed_count": 173, "location": "Somewhere in PA", "name": "Sue Baiman", "profile_background_color": "ADB7BA", "profile_background_image_url": "http://pbs.twimg.com/profile_background_images/158653417/Logo-poster.jpg", "profile_background_tile": true, "profile_banner_url": "https://pbs.twimg.com/profile_banners/67305529/1441472656", "profile_image_url": "https://pbs.twimg.com/profile_images/1784266865/4364ba9e-6f7a-411a-8cd6-23d25489c4d8_normal.JPG", "profile_link_color": "9266CC", "profile_sidebar_fill_color": "ABB6BA", "profile_text_color": "030505", "protected": false, "screen_name": "BrightEyedDyer", "statuses_count": 89941, "time_zone": "Eastern Time (US & Canada)", "url": "http://t.co/uDaAhUiCyn", "utc_offset": -18000}}
{"created_at": "Mon Jun 29 01:46:22 +0000 2015", "favorited": false, "hashtags": ["AspireNewsApp", "LetsMakeADifferenceNow", "endabuse", "stopdomesticviolence"], "id": 615335467312095232, "lang": "en", "retweeted": false, "source": "<a href=\"http://twitter.com/download/iphone\" rel=\"nofollow\">Twitter for iPhone</a>", "text": "The #AspireNewsApp could save a life.  https://t.co/L1eNSdDfwc #LetsMakeADifferenceNow #endabuse #stopdomesticviolence @RenataMikae6", "truncated": false, "urls": {"https://t.co/L1eNSdDfwc": "https://www.whengeorgiasmiled.org/the-aspire-news-app/"}, "user": {"created_at": "Sat Jun 18 03:57:17 +0000 2011", "description": "Gerald C. Anderson, Sr is the author of Standing Firm and co-owner of Righteous Productions.", "favourites_count": 281, "followers_count": 1965, "friends_count": 1909, "geo_enabled": true, "id": 319445259, "lang": "en", "listed_count": 13, "location": "Maryland ", "name": "geraldcandersonsr", "profile_background_color": "1A1B1F", "profile_background_image_url": "http://abs.twimg.com/images/themes/theme9/bg.gif", "profile_background_tile": false, "profile_banner_url": "https://pbs.twimg.com/profile_banners/319445259/1424274261", "profile_image_url": "https://pbs.twimg.com/profile_images/583730256466616320/sXQmPcho_normal.jpg", "profile_link_color": "2FC2EF", "profile_sidebar_fill_color": "252429", "profile_text_color": "666666", "protected": false, "screen_name": "geraldcanderson", "statuses_count": 2540, "time_zone": "Eastern Time (US & Canada)", "url": "http://t.co/kAH6LKic7W", "utc_offset": -18000}, "user_mentions": [{"id": 606829202, "name": "Renata Mikae'", "screen_name": "RenataMikae6"}]}
{"created_at": "Mon Jun 29 13:02:36 +0000 2015", "favorited": false, "id": 615505649024299008, "lang": "en", "retweet_count": 4, "retweeted": false, "source": "<a href=\"http://www.hootsuite.com\" rel=\"nofollow\">Hootsuite</a>", "text": "A new app called Aspire News could help domestic violence victims discreetly call for help http://t.co/wGqeib9U8B", "truncated": false, "urls": {"http://t.co/wGqeib9U8B": "http://ow.ly/ONAuP"}, "user": {"created_at": "Fri Jan 07 19:18:44 +0000 2011", "description": "Our programs reduce the incidence of domestic violence and sexual assault, support survivors in healing, & help break the intergenerational cycle of abuse", "favourites_count": 938, "followers_count": 1895, "friends_count": 1202, "geo_enabled": true, "id": 235263579, "lang": "en", "listed_count": 53, "location": "Indianapolis, IN", "name": "The Julian Center", "profile_background_color": "C6A3D4", "profile_background_image_url": "http://pbs.twimg.com/profile_background_images/229586231/jc.jpg", "profile_background_tile": true, "profile_banner_url": "https://pbs.twimg.com/profile_banners/235263579/1451943774", "profile_image_url": "https://pbs.twimg.com/profile_images/628571429798219778/rDcwhHJR_normal.jpg", "profile_link_color": "632C96", "profile_sidebar_fill_color": "C6A3D4", "profile_text_color": "000000", "protected": false, "screen_name": "juliancenter", "statuses_count": 2183, "time_zone": "Eastern Time (US & Canada)", "url": "http://t.co/Wm2xcYE8nf", "utc_offset": -18000}}
{"created_at": "Mon Jun 29 17:51:03 +0000 2015", "favorite_count": 7, "favorited": false, "id": 615578236605583360, "lang": "en", "media": [{"display_url": "pic.twitter.com/jsKi07aeDI", "expanded_url": "http://twitter.com/snopes/status/615578236605583360/photo/1", "id": 615578236102275072, "id_str": "615578236102275072", "indices": [87, 109], "media_url": "http://pbs.twimg.com/media/CIr5JO5WcAAXCkW.jpg", "media_url_https": "https://pbs.twimg.com/media/CIr5JO5WcAAXCkW.jpg", "sizes": {"large": {"h": 637, "resize": "fit", "w": 564}, "medium": {"h": 637, "resize": "fit", "w": 564}, "small": {"h": 384, "resize": "fit", "w": 340}, "thumb": {"h": 150, "resize": "crop", "w": 150}}, "type": "photo", "url": "http://t.co/jsKi07aeDI"}], "retweet_count": 10, "retweeted": false, "source": "<a href=\"http://twitter.com\" rel=\"nofollow\">Twitter Web Client</a>", "text": "Can the Aspire News app really save domestic violence victims?\n\nhttp://t.co/0Ss4cqVdYA http://t.co/jsKi07aeDI", "truncated": false, "urls": {"http://t.co/0Ss4cqVdYA": "http://m.snopes.com/2015/06/29/aspire-news-app/"}, "user": {"created_at": "Thu Apr 03 17:00:11 +0000 2008", "description": "The definitive Internet reference source for urban legends, folklore, myths, rumors, and misinformation.", "favourites_count": 12, "followers_count": 118993, "friends_count": 4, "id": 14294848, "lang": "en", "listed_count": 3241, "name": "snopes.com", "profile_background_color": "C7F2B1", "profile_background_image_url": "http://pbs.twimg.com/profile_background_images/840081271/d90db0daf7c81f75aea62d88c084e755.png", "profile_background_tile": false, "profile_banner_url": "https://pbs.twimg.com/profile_banners/14294848/1365714336", "profile_image_url": "https://pbs.twimg.com/profile_images/3507964197/be9d1840411bca2d8101382340f58957_normal.png", "profile_link_color": "81D159", "profile_sidebar_fill_color": "DDEEF6", "profile_text_color": "333333", "protected": false, "screen_name": "snopes", "statuses_count": 4888, "time_zone": "Pacific Time (US & Canada)", "url": "http://t.co/10Or8rl3ff", "utc_offset": -28800, "verified": true}}
{"created_at": "Mon Jun 29 17:57:31 +0000 2015", "favorited": false, "id": 615579866373705728, "lang": "en", "media": [{"display_url": "pic.twitter.com/fDwjh9eBww", "expanded_url": "http://twitter.com/snopes/status/615578236605583360/photo/1", "id": 615578236102275072, "id_str": "615578236102275072", "indices": [87, 109], "media_url": "http://pbs.twimg.com/media/CIr5JO5WcAAXCkW.jpg", "media_url_https": "https://pbs.twimg.com/media/CIr5JO5WcAAXCkW.jpg", "sizes": {"large": {"h": 637, "resize": "fit", "w": 564}, "medium": {"h": 637, "resize": "fit", "w": 564}, "small": {"h": 384, "resize": "fit", "w": 340}, "thumb": {"h": 150, "resize": "crop", "w": 150}}, "source_status_id": 615578236605583360, "source_status_id_str": "615578236605583360", "source_user_id": 14294848, "source_user_id_str": "14294848", "type": "photo", "url": "http://t.co/fDwjh9eBww"}], "retweeted": false, "source": "<a href=\"http://ifttt.com\" rel=\"nofollow\">IFTTT</a>", "text": "Can the Aspire News app really save domestic violence victims?\n\nhttp://t.co/gXsGtrpez9 http://t.co/fDwjh9eBww", "truncated": false, "urls": {"http://t.co/gXsGtrpez9": "http://m.snopes.com/2015/06/29/aspire-news-app/"}, "user": {"created_at": "Mon Jan 28 14:40:52 +0000 2013", "default_profile": true, "description": "I tweet about all things in Cape Town. #CapeFact The Mother City. For info in events: #CapeEvents. Also #capetownfairy me for any quests", "favourites_count": 663, "followers_count": 2631, "friends_count": 2747, "id": 1128255048, "lang": "en", "listed_count": 90, "location": "Cape Town", "name": "Cape Town Fairy", "profile_background_color": "C0DEED", "profile_background_image_url": "http://abs.twimg.com/images/themes/theme1/bg.png", "profile_background_tile": false, "profile_banner_url": "https://pbs.twimg.com/profile_banners/1128255048/1359385361", "profile_image_url": "https://pbs.twimg.com/profile_images/3175089990/ddcec258fe970be63266d343dc094577_normal.png", "profile_link_color": "0084B4", "profile_sidebar_fill_color": "DDEEF6", "profile_text_color": "333333", "protected": false, "screen_name": "CapeTownFairy", "statuses_count": 73728, "time_zone": "Athens", "utc_offset": 7200}}
{"created_at": "Mon Jun 29 18:22:36 +0000 2015", "favorited": false, "id": 615586178071416832, "lang": "en", "media": [{"display_url": "pic.twitter.com/29i030hGmP", "expanded_url": "http://twitter.com/Hoaxolizer/status/615586178071416832/photo/1", "id": 615586177987538944, "id_str": "615586177987538944", "indices": [39, 61], "media_url": "http://pbs.twimg.com/media/CIsAXguWcAAQeCV.jpg", "media_url_https": "https://pbs.twimg.com/media/CIsAXguWcAAQeCV.jpg", "sizes": {"large": {"h": 324, "resize": "fit", "w": 914}, "medium": {"h": 212, "resize": "fit", "w": 600}, "small": {"h": 120, "resize": "fit", "w": 340}, "thumb": {"h": 150, "resize": "crop", "w": 150}}, "type": "photo", "url": "http://t.co/29i030hGmP"}], "retweeted": false, "source": "<a href=\"http://leadstories.com\" rel=\"nofollow\">Lead Stories Feed Publisher</a>", "text": "Aspire News App http://t.co/LAub7RGLVH http://t.co/29i030hGmP", "truncated": false, "urls": {"http://t.co/LAub7RGLVH": "http://hoax.trendolizer.com/2015/06/aspire-news-app.html"}, "user": {"created_at": "Tue Oct 21 09:02:21 +0000 2014", "default_profile": true, "description": "The most trending news about hoaxes as collected by Trendolizer", "followers_count": 659, "friends_count": 429, "id": 2839486181, "lang": "en", "listed_count": 66, "name": "Trending Hoax News", "profile_background_color": "C0DEED", "profile_background_image_url": "http://abs.twimg.com/images/themes/theme1/bg.png", "profile_background_tile": false, "profile_banner_url": "https://pbs.twimg.com/profile_banners/2839486181/1413882440", "profile_image_url": "https://pbs.twimg.com/profile_images/524486681945067520/woFPZPVc_normal.jpeg", "profile_link_color": "0084B4", "profile_sidebar_fill_color": "DDEEF6", "profile_text_color": "333333", "protected": false, "screen_name": "Hoaxolizer", "statuses_count": 13059, "url": "http://t.co/7pRPb4ABpu"}}
{"created_at": "Wed Jul 01 03:05:36 +0000 2015", "favorited": false, "hashtags": ["domesticabuse", "DomesticViolence"], "id": 616080181418176512, "lang": "en", "retweeted": false, "source": "<a href=\"http://twitter.com\" rel=\"nofollow\">Twitter Web Client</a>", "text": "Just heard about the Aspire News app by @Robin_McGraw. Awesome idea. No more #domesticabuse. No more #DomesticViolence", "truncated": false, "user": {"created_at": "Thu Apr 09 20:46:24 +0000 2015", "description": "Just an author of YA LGBTQ+ fantasy.", "favourites_count": 38, "followers_count": 41, "friends_count": 24, "id": 3146591294, "lang": "en", "listed_count": 13, "name": "SaJa H.", "profile_background_color": "000000", "profile_background_image_url": "http://abs.twimg.com/images/themes/theme1/bg.png", "profile_background_tile": false, "profile_banner_url": "https://pbs.twimg.com/profile_banners/3146591294/1428613621", "profile_image_url": "https://pbs.twimg.com/profile_images/586270678019481600/qyE29ekB_normal.jpg", "profile_link_color": "4A913C", "profile_sidebar_fill_color": "000000", "profile_text_color": "000000", "protected": false, "screen_name": "SaJaH_ofArden", "statuses_count": 113, "url": "http://t.co/CG0rgT9Liq"}, "user_mentions": [{"id": 34418203, "name": "Robin McGraw", "screen_name": "Robin_McGraw"}]}
{"created_at": "Wed Jul 01 23:45:03 +0000 2015", "favorite_count": 2, "favorited": false, "id": 616392101400436736, "lang": "en", "retweet_count": 1, "retweeted": false, "source": "<a href=\"https://about.twitter.com/products/tweetdeck\" rel=\"nofollow\">TweetDeck</a>", "text": ".@Robin_McGraw and @WGeorgiaSmiled's Aspire News App puts help at the fingertips of domestic violence victims. http://t.co/gyVIbaM8Af", "truncated": false, "urls": {"http://t.co/gyVIbaM8Af": "http://bit.ly/AspireNewsApp"}, "user": {"created_at": "Fri Aug 09 00:10:32 +0000 2013", "description": "Your comments and photo may be used by Dr. Phil and Peteski Productions, including being published on the Web or on television.", "favourites_count": 333, "followers_count": 39986, "friends_count": 44, "id": 1656505459, "lang": "en", "listed_count": 77, "name": "The Dr. Phil Show", "profile_background_color": "C0DEED", "profile_background_image_url": "http://pbs.twimg.com/profile_background_images/378800000071571863/eb614e2265e2386395c53e45ab3fc467.jpeg", "profile_background_tile": false, "profile_banner_url": "https://pbs.twimg.com/profile_banners/1656505459/1377198091", "profile_image_url": "https://pbs.twimg.com/profile_images/523143787187404800/csElsqHP_normal.png", "profile_link_color": "0084B4", "profile_sidebar_fill_color": "DDEEF6", "profile_text_color": "333333", "protected": false, "screen_name": "TheDrPhilShow", "statuses_count": 4707, "time_zone": "Pacific Time (US & Canada)", "url": "http://t.co/3wpbZ4l15E", "utc_offset": -28800}, "user_mentions": [{"id": 34418203, "name": "Robin McGraw", "screen_name": "Robin_McGraw"}, {"id": 2798879671, "name": "When Georgia Smiled", "screen_name": "WGeorgiaSmiled"}]}
{"created_at": "Fri Jul 03 15:51:53 +0000 2015", "favorited": false, "hashtags": ["FunFactFriday"], "id": 616997798509023233, "lang": "en", "media": [{"display_url": "pic.twitter.com/GcrUq5GF0E", "expanded_url": "http://twitter.com/HopesDoorInc/status/616997798509023233/photo/1", "id": 616997796403544064, "id_str": "616997796403544064", "indices": [117, 139], "media_url": "http://pbs.twimg.com/media/CJAEOhHVAAA1PY2.jpg", "media_url_https": "https://pbs.twimg.com/media/CJAEOhHVAAA1PY2.jpg", "sizes": {"large": {"h": 335, "resize": "fit", "w": 512}, "medium": {"h": 335, "resize": "fit", "w": 512}, "small": {"h": 222, "resize": "fit", "w": 340}, "thumb": {"h": 150, "resize": "crop", "w": 150}}, "type": "photo", "url": "http://t.co/GcrUq5GF0E"}], "retweeted": false, "source": "<a href=\"http://twitter.com/download/android\" rel=\"nofollow\">Twitter for Android</a>", "text": "Do u know about the Aspire News app? It contains a HELP section with DV resources? Download it today! #FunFactFriday http://t.co/GcrUq5GF0E", "truncated": false, "user": {"created_at": "Thu Mar 04 22:19:20 +0000 2010", "description": "Helping families affected by domestic violence.", "favourites_count": 315, "followers_count": 970, "friends_count": 620, "geo_enabled": true, "id": 119901432, "lang": "en", "listed_count": 49, "location": "Plano, TX", "name": "Hope's Door", "profile_background_color": "930FFF", "profile_background_image_url": "http://pbs.twimg.com/profile_background_images/81087119/sunflower-dust-dl.jpg", "profile_background_tile": false, "profile_banner_url": "https://pbs.twimg.com/profile_banners/119901432/1448400726", "profile_image_url": "https://pbs.twimg.com/profile_images/654022104040378368/sbCduQNT_normal.png", "profile_link_color": "0808FF", "profile_sidebar_fill_color": "FFFFFF", "profile_text_color": "830FFF", "protected": false, "screen_name": "HopesDoorInc", "statuses_count": 1802, "time_zone": "Central Time (US & Canada)", "url": "http://t.co/S7OYzHS0Zd", "utc_offset": -21600}}
{"created_at": "Sat Jul 04 08:45:24 +0000 2015", "favorited": false, "id": 617252858220691456, "lang": "en", "retweeted": false, "source": "<a href=\"http://www.hootsuite.com\" rel=\"nofollow\">Hootsuite</a>", "text": "Get the latest info, timetables, offers and news with our app- Download it here: http://t.co/ejNGRUUwkr", "truncated": false, "urls": {"http://t.co/ejNGRUUwkr": "http://ow.ly/OJdhS"}, "user": {"created_at": "Tue Jun 09 14:03:19 +0000 2009", "description": "GL1 Leisure Centre in Gloucester offers 2 gyms, group exercise and spinning studios, a spa, 4 swimming pools, a sports hall, squash courts and conference rooms.", "favourites_count": 61, "followers_count": 1679, "friends_count": 1213, "id": 45842557, "lang": "en", "listed_count": 42, "location": "Gloucester, UK", "name": "GL1 Leisure Centre", "profile_background_color": "CD2D36", "profile_background_image_url": "http://pbs.twimg.com/profile_background_images/673972993/8ec391490fb1961672e189f2a3d4505f.jpeg", "profile_background_tile": false, "profile_banner_url": "https://pbs.twimg.com/profile_banners/45842557/1435826186", "profile_image_url": "https://pbs.twimg.com/profile_images/616525772845486080/m2kuAM9s_normal.jpg", "profile_link_color": "CD2D36", "profile_sidebar_fill_color": "FFFFFF", "profile_text_color": "333333", "protected": false, "screen_name": "GL1Leisure", "statuses_count": 3007, "time_zone": "London", "url": "http://t.co/K5rFqXbC5x"}}
{"created_at": "Sun Jul 05 06:46:41 +0000 2015", "favorite_count": 41, "favorited": false, "id": 617585371132657664, "lang": "en", "retweet_count": 58, "retweeted": false, "source": "<a href=\"https://about.twitter.com/products/tweetdeck\" rel=\"nofollow\">TweetDeck</a>", "text": "This is briliant. A domestic violence help app that is disguised as a news site. Available on iOS &amp; Android. https://t.co/Evg8mHBTrS", "truncated": false, "urls": {"https://t.co/Evg8mHBTrS": "https://itunes.apple.com/us/app/aspire-news/id733163167?mt=8"}, "user": {"created_at": "Sat Feb 23 07:27:19 +0000 2008", "description": "Author, @ggautoblocker. Founder, Online Abuse Prevention Initiative. https://t.co/okBqI4N0Pg https://t.co/zadlXVRLW5 randi@onlineabuseprevention.org", "favourites_count": 42873, "followers_count": 18602, "friends_count": 698, "geo_enabled": true, "id": 13857342, "lang": "en", "listed_count": 821, "location": "Portland, OR", "name": "Randi Lee Harper", "profile_background_color": "1A1B1F", "profile_background_image_url": "http://abs.twimg.com/images/themes/theme9/bg.gif", "profile_background_tile": false, "profile_banner_url": "https://pbs.twimg.com/profile_banners/13857342/1418112584", "profile_image_url": "https://pbs.twimg.com/profile_images/685350328884015106/N5-h9tIu_normal.jpg", "profile_link_color": "2FC2EF", "profile_sidebar_fill_color": "252429", "profile_text_color": "666666", "protected": false, "screen_name": "randileeharper", "statuses_count": 89744, "time_zone": "Pacific Time (US & Canada)", "url": "https://t.co/OWOqcXQCyx", "utc_offset": -28800}}
{"created_at": "Sun Jul 05 21:03:32 +0000 2015", "favorited": false, "hashtags": ["Snopes", "News", "smartphone"], "id": 617801003811905540, "lang": "en", "retweeted": false, "source": "<a href=\"http://momknowsshopping.com/UFOParanormal\" rel=\"nofollow\">UFOParanormalNews</a>", "text": "#Snopes News The Aspire #News #smartphone app reportedly enables victims of domestic http://t.co/xeKGIEMrQq", "truncated": false, "urls": {"http://t.co/xeKGIEMrQq": "http://goo.gl/o6fXUu"}, "user": {"created_at": "Wed Oct 01 13:34:46 +0000 2014", "description": "We provide the latest news on #UFO's, #Paranormal, #Ghosts and everything that is strange or weird. Plus #Software, #Camera's and #Computer items.", "favourites_count": 3, "followers_count": 12440, "friends_count": 11604, "geo_enabled": true, "id": 2797963749, "lang": "en", "listed_count": 416, "name": "UFO Paranormal", "profile_background_color": "000000", "profile_background_image_url": "http://abs.twimg.com/images/themes/theme1/bg.png", "profile_background_tile": false, "profile_banner_url": "https://pbs.twimg.com/profile_banners/2797963749/1419626990", "profile_image_url": "https://pbs.twimg.com/profile_images/517311356198858753/OkOTy-q6_normal.jpeg", "profile_link_color": "FA743E", "profile_sidebar_fill_color": "000000", "profile_text_color": "000000", "protected": false, "screen_name": "UFOParanormNews", "statuses_count": 77556, "url": "https://t.co/I4rmVNErYQ"}}
{"created_at": "Wed Jul 08 13:03:55 +0000 2015", "favorited": false, "id": 618767469902188544, "lang": "en", "retweeted": false, "source": "<a href=\"http://pocketinfopush.com\" rel=\"nofollow\">Stock News Alerts</a>", "text": "$DFS Discover Survey Finds Millennials Aspire to Be More Financially Responsible\nFrom our Stock News Alerts App", "truncated": false, "user": {"created_at": "Sat Feb 22 15:38:57 +0000 2014", "description": "Stock news alerts from press releases and SEC filings\r\nFind the custom app in the appstore at Stock News Alerts by Pocket Information LLC", "followers_count": 966, "friends_count": 10, "id": 2356524462, "lang": "en", "listed_count": 115, "name": "$Stocknewsalerts", "profile_background_color": "C0DEED", "profile_background_image_url": "http://abs.twimg.com/images/themes/theme1/bg.png", "profile_background_tile": false, "profile_banner_url": "https://pbs.twimg.com/profile_banners/2356524462/1400178006", "profile_image_url": "https://pbs.twimg.com/profile_images/467006854074077185/XoHDWrMG_normal.png", "profile_link_color": "052E3D", "profile_sidebar_fill_color": "DDEEF6", "profile_text_color": "333333", "protected": false, "screen_name": "Allstocknews", "statuses_count": 334139, "url": "https://t.co/PQSytGvcf6"}}
{"created_at": "Wed Jul 08 19:21:08 +0000 2015", "favorited": false, "id": 618862399303610368, "lang": "en", "retweet_count": 2, "retweeted": false, "source": "<a href=\"http://twitter.com\" rel=\"nofollow\">Twitter Web Client</a>", "text": "YO there's this helpful app calld aspire new (iphone+android) for domestic abuse victims which disguises itself as a news app", "truncated": false, "user": {"created_at": "Wed Jun 06 17:15:03 +0000 2012", "description": "I get really excited when a boy called Min Yoongi smiles", "favourites_count": 8128, "followers_count": 1062, "friends_count": 599, "geo_enabled": true, "id": 601214022, "lang": "en", "listed_count": 4, "location": "ig: mimimyah", "name": "\u2728myah\u2728", "profile_background_color": "C0DEED", "profile_background_image_url": "http://pbs.twimg.com/profile_background_images/555450444013522944/56gPk1oN.png", "profile_background_tile": true, "profile_banner_url": "https://pbs.twimg.com/profile_banners/601214022/1452472732", "profile_image_url": "https://pbs.twimg.com/profile_images/686346509705711617/P0nIoXi1_normal.jpg", "profile_link_color": "F5ABB5", "profile_sidebar_fill_color": "DDEEF6", "profile_text_color": "333333", "protected": false, "screen_name": "sujubeunmimi", "statuses_count": 17368, "time_zone": "London", "url": "https://t.co/01TGBVvQMS"}}
{"created_at": "Thu Jul 09 14:07:47 +0000 2015", "favorite_count": 2, "favorited": false, "hashtags": ["news", "property", "app", "plymouth", "latestproperties"], "id": 619145929476718597, "in_reply_to_screen_name": "Nicki_aspire", "in_reply_to_user_id": 199709802, "lang": "en", "media": [{"display_url": "pic.twitter.com/FThXB0Pilc", "expanded_url": "http://twitter.com/plymouthprop/status/619145929476718597/photo/1", "id": 619145877047914496, "id_str": "619145877047914496", "indices": [106, 128], "media_url": "http://pbs.twimg.com/media/CJel5RGWsAAUG_J.jpg", "media_url_https": "https://pbs.twimg.com/media/CJel5RGWsAAUG_J.jpg", "sizes": {"large": {"h": 1024, "resize": "fit", "w": 577}, "medium": {"h": 1024, "resize": "fit", "w": 577}, "small": {"h": 603, "resize": "fit", "w": 340}, "thumb": {"h": 150, "resize": "crop", "w": 150}}, "type": "photo", "url": "http://t.co/FThXB0Pilc"}, {"display_url": "pic.twitter.com/FThXB0Pilc", "expanded_url": "http://twitter.com/plymouthprop/status/619145929476718597/photo/1", "id": 619145877110845440, "id_str": "619145877110845440", "indices": [106, 128], "media_url": "http://pbs.twimg.com/media/CJel5RVW8AAYcUX.jpg", "media_url_https": "https://pbs.twimg.com/media/CJel5RVW8AAYcUX.jpg", "sizes": {"large": {"h": 1024, "resize": "fit", "w": 577}, "medium": {"h": 1024, "resize": "fit", "w": 577}, "small": {"h": 603, "resize": "fit", "w": 340}, "thumb": {"h": 150, "resize": "crop", "w": 150}}, "type": "photo", "url": "http://t.co/FThXB0Pilc"}], "retweet_count": 1, "retweeted": false, "source": "<a href=\"http://twitter.com/download/iphone\" rel=\"nofollow\">Twitter for iPhone</a>", "text": "@Nicki_aspire check out our new #news #property #app #plymouth #latestproperties \nhttps://t.co/aPEKFMTpCJ http://t.co/FThXB0Pilc", "truncated": false, "urls": {"https://t.co/aPEKFMTpCJ": "https://appsto.re/gb/oV4KR.i"}, "user": {"created_at": "Mon Jun 27 16:24:07 +0000 2011", "default_profile": true, "description": "Plymouth Property is Plymouth's first Property Portal, feel free to view all the latest properties and information on the local area.", "favourites_count": 1030, "followers_count": 2314, "friends_count": 2524, "id": 325024258, "lang": "en", "listed_count": 33, "location": "Plymouth", "name": "Plymouth Property", "profile_background_color": "C0DEED", "profile_background_image_url": "http://abs.twimg.com/images/themes/theme1/bg.png", "profile_background_tile": false, "profile_banner_url": "https://pbs.twimg.com/profile_banners/325024258/1433712095", "profile_image_url": "https://pbs.twimg.com/profile_images/430073831324409858/cElcui9c_normal.jpeg", "profile_link_color": "0084B4", "profile_sidebar_fill_color": "DDEEF6", "profile_text_color": "333333", "protected": false, "screen_name": "plymouthprop", "statuses_count": 16367, "time_zone": "Casablanca", "url": "http://t.co/oPmlZHwq3F"}, "user_mentions": [{"id": 199709802, "name": "Nicki Parker-Jones", "screen_name": "Nicki_aspire"}]}
{"created_at": "Fri Jul 10 20:00:13 +0000 2015", "favorite_count": 25, "favorited": false, "hashtags": ["Aspire"], "id": 619597009985482752, "lang": "en", "retweet_count": 18, "retweeted": false, "source": "<a href=\"https://about.twitter.com/products/tweetdeck\" rel=\"nofollow\">TweetDeck</a>", "text": "The Aspire News app is a MAJOR development for domestic violence safety. http://t.co/q8po0T3tSQ @WGeorgiaSmiled #Aspire", "truncated": false, "urls": {"http://t.co/q8po0T3tSQ": "http://bit.ly/AspireNewsApp"}, "user": {"created_at": "Fri Jun 22 22:37:45 +0000 2007", "description": "Your comments and photo may be used by Dr. Phil and Peteski Productions, including being published on the Web or on television. Also follow @thedrphilshow", "favourites_count": 89, "followers_count": 1400935, "friends_count": 13, "geo_enabled": true, "id": 7025662, "lang": "en", "listed_count": 8542, "name": "Dr. Phil", "profile_background_color": "9A270D", "profile_background_image_url": "http://pbs.twimg.com/profile_background_images/542739846096121857/Z-dIDi5h.jpeg", "profile_background_tile": false, "profile_banner_url": "https://pbs.twimg.com/profile_banners/7025662/1442280940", "profile_image_url": "https://pbs.twimg.com/profile_images/523141429472661504/6l1dUGNr_normal.jpeg", "profile_link_color": "333DCC", "profile_sidebar_fill_color": "0AF7D3", "profile_text_color": "030100", "protected": false, "screen_name": "DrPhil", "statuses_count": 8913, "time_zone": "Pacific Time (US & Canada)", "url": "http://t.co/5XjKfAqDHf", "utc_offset": -28800, "verified": true}, "user_mentions": [{"id": 2798879671, "name": "When Georgia Smiled", "screen_name": "WGeorgiaSmiled"}]}
{"created_at": "Fri Jul 10 21:00:28 +0000 2015", "favorited": false, "id": 619612174508388352, "lang": "en", "retweeted": false, "source": "<a href=\"http://www.facebook.com/twitter\" rel=\"nofollow\">Facebook</a>", "text": "If you know someone in an abusive relationship, have them download the Aspire News app.", "truncated": false, "user": {"created_at": "Mon Mar 24 18:39:57 +0000 2008", "description": "Aggregator of politically progressive news and commentary, religiously liberal, retired IT professional loving and learning about Asheville.", "favourites_count": 59, "followers_count": 218, "friends_count": 358, "geo_enabled": true, "id": 14209594, "lang": "en", "listed_count": 9, "location": "Asheville, NC", "name": "Paul Wilczynski", "profile_background_color": "709397", "profile_background_image_url": "http://abs.twimg.com/images/themes/theme6/bg.gif", "profile_background_tile": false, "profile_image_url": "https://pbs.twimg.com/profile_images/623159995312570368/YnhWxhKP_normal.jpg", "profile_link_color": "FF3300", "profile_sidebar_fill_color": "A0C5C7", "profile_text_color": "333333", "protected": false, "screen_name": "PaulWilczynski", "statuses_count": 6495, "time_zone": "Eastern Time (US & Canada)", "url": "http://t.co/BtKkB3y5t4", "utc_offset": -18000}}
{"created_at": "Wed Jul 15 11:02:51 +0000 2015", "favorited": false, "id": 621273716161421312, "lang": "en", "retweeted": false, "source": "<a href=\"http://www.hootsuite.com\" rel=\"nofollow\">Hootsuite</a>", "text": "Download our mobile app which includes up to date timetables, offers and the latest news: http://t.co/WsbBI6HO9D", "truncated": false, "urls": {"http://t.co/WsbBI6HO9D": "http://ow.ly/PAqo7"}, "user": {"created_at": "Mon Jul 09 15:06:54 +0000 2012", "description": "aspire Sports & Cultural Trust is a not-for-profit sports & cultural trust operating GL1 Leisure Centre, Oxstalls Tennis Centre & Xpress Fitness Cheltenham.", "favourites_count": 11, "followers_count": 218, "friends_count": 69, "id": 631165229, "lang": "en", "listed_count": 6, "location": "Cheltenham & Gloucester", "name": "aspire Trust", "profile_background_color": "CD2D36", "profile_background_image_url": "http://pbs.twimg.com/profile_background_images/599965402/8ds1m1yvbpk3rkm37hbj.jpeg", "profile_background_tile": false, "profile_banner_url": "https://pbs.twimg.com/profile_banners/631165229/1435913685", "profile_image_url": "https://pbs.twimg.com/profile_images/616892374770417664/7s7Vmbgr_normal.jpg", "profile_link_color": "0084B4", "profile_sidebar_fill_color": "DDEEF6", "profile_text_color": "333333", "protected": false, "screen_name": "aspireSCT", "statuses_count": 1140, "time_zone": "London", "url": "http://t.co/S1EvbLdxvc"}}
{"created_at": "Wed Jul 15 16:06:28 +0000 2015", "favorited": false, "hashtags": ["AspireNews", "app", "domesticviolence"], "id": 621350126603382784, "lang": "en", "retweeted": false, "source": "<a href=\"http://www.hootsuite.com\" rel=\"nofollow\">Hootsuite</a>", "text": "#AspireNews looks like a news #app but allows people in abusive relationships to secretly seek aid. http://t.co/DZQ2qYdv5U #domesticviolence", "truncated": false, "urls": {"http://t.co/DZQ2qYdv5U": "http://bit.ly/1CpHDLm"}, "user": {"created_at": "Sat Aug 21 01:01:11 +0000 2010", "description": "Public Relations for Verizon Wireless in the South East Market; For the latest and greatest Verizon Wireless news, follow us @VerizonNews.", "favourites_count": 319, "followers_count": 3018, "friends_count": 803, "geo_enabled": true, "id": 180995490, "lang": "en", "listed_count": 56, "location": "Alpharetta, GA", "name": "Kate Jay", "profile_background_color": "BFBFBF", "profile_background_image_url": "http://pbs.twimg.com/profile_background_images/378800000042580341/ae7c4dcbe5402df2ea51779ed5c801c1.jpeg", "profile_background_tile": false, "profile_banner_url": "https://pbs.twimg.com/profile_banners/180995490/1451051028", "profile_image_url": "https://pbs.twimg.com/profile_images/580438079531565056/LAL2ZvQh_normal.jpg", "profile_link_color": "EE3224", "profile_sidebar_fill_color": "000000", "profile_text_color": "FFFFFF", "protected": false, "screen_name": "KateHarrisJay", "statuses_count": 5349, "time_zone": "Eastern Time (US & Canada)", "url": "https://t.co/zHVdk8KbVF", "utc_offset": -18000}}
{"created_at": "Wed Jul 15 16:31:58 +0000 2015", "favorited": false, "hashtags": ["domesticviolence"], "id": 621356540843454465, "lang": "en", "retweeted": false, "source": "<a href=\"http://www.hootsuite.com\" rel=\"nofollow\">Hootsuite</a>", "text": "Women in Turkey use app to fight #domesticviolence. http://t.co/HbG48aTu5j via @FortuneMagazine (In US, Aspire News app by @WGeorgiaSmiled)", "truncated": false, "urls": {"http://t.co/HbG48aTu5j": "http://for.tn/1HssYRG"}, "user": {"created_at": "Mon Jan 13 15:51:30 +0000 2014", "default_profile": true, "description": "Leading Philadelphia-based consulting firm guiding nonprofits and philanthropic agencies to grow and thrive.", "favourites_count": 150, "followers_count": 601, "friends_count": 822, "geo_enabled": true, "id": 2289872376, "lang": "en", "listed_count": 44, "location": "Philadelphia, Pa.", "name": "Fairmount Ventures", "profile_background_color": "C0DEED", "profile_background_image_url": "http://abs.twimg.com/images/themes/theme1/bg.png", "profile_background_tile": false, "profile_banner_url": "https://pbs.twimg.com/profile_banners/2289872376/1398433408", "profile_image_url": "https://pbs.twimg.com/profile_images/422825775180435456/-iXnCHqh_normal.jpeg", "profile_link_color": "0084B4", "profile_sidebar_fill_color": "DDEEF6", "profile_text_color": "333333", "protected": false, "screen_name": "FairmountV", "statuses_count": 1527, "time_zone": "Pacific Time (US & Canada)", "url": "http://t.co/MW00Vyt1l9", "utc_offset": -28800}, "user_mentions": [{"id": 25053299, "name": "Fortune", "screen_name": "FortuneMagazine"}, {"id": 2798879671, "name": "When Georgia Smiled", "screen_name": "WGeorgiaSmiled"}]}
{"created_at": "Fri Jul 17 07:00:50 +0000 2015", "favorited": false, "id": 621937587809226752, "lang": "en", "retweeted": false, "source": "<a href=\"http://www.apple.com\" rel=\"nofollow\">iOS</a>", "text": "The Aspire News App - When Georgia Smiled: The Robin McGraw Revelation Foundation https://t.co/IIRbSV7GPb", "truncated": false, "urls": {"https://t.co/IIRbSV7GPb": "https://www.whengeorgiasmiled.org/the-aspire-news-app/"}, "user": {"created_at": "Tue Aug 31 04:34:08 +0000 2010", "description": "Quirky, Alaskan Raised, North Pole Patriot - I Love my daughters, family & friends, and my skates!!! Much Love for Alaska, and Roller Derby... :)", "favourites_count": 198, "followers_count": 243, "friends_count": 532, "id": 185073738, "lang": "en", "listed_count": 10, "location": "Alaska", "name": "Gracy", "profile_background_color": "8B542B", "profile_background_image_url": "http://abs.twimg.com/images/themes/theme8/bg.gif", "profile_background_tile": false, "profile_banner_url": "https://pbs.twimg.com/profile_banners/185073738/1443932616", "profile_image_url": "https://pbs.twimg.com/profile_images/460401021315842049/1ucQMK_O_normal.jpeg", "profile_link_color": "9D582E", "profile_sidebar_fill_color": "EADEAA", "profile_text_color": "333333", "protected": false, "screen_name": "GracyAK", "statuses_count": 3214, "time_zone": "Alaska", "utc_offset": -32400}}
{"created_at": "Fri Jul 17 10:03:19 +0000 2015", "favorited": false, "id": 621983511331897344, "lang": "en", "retweeted": false, "source": "<a href=\"http://twitter.com\" rel=\"nofollow\">Twitter Web Client</a>", "text": "Aspire News app looks like any other iPhone/Android news aggregator but its actually a potentially lifesaving domestic violence alert system", "truncated": false, "user": {"created_at": "Thu Mar 19 21:47:24 +0000 2015", "description": "Human Rights Law, Equality, Homelessness, Poverty.Researcher, LIC Homeopath., Mother to two beautiful boys. All Opinions My Own, Retweet not an endorsement.", "favourites_count": 2553, "followers_count": 352, "friends_count": 585, "id": 3097825300, "lang": "en", "listed_count": 11, "name": "Louise Glynn", "profile_background_color": "000000", "profile_background_image_url": "http://abs.twimg.com/images/themes/theme1/bg.png", "profile_background_tile": false, "profile_image_url": "https://pbs.twimg.com/profile_images/633944479528026112/HGLvwDOJ_normal.jpg", "profile_link_color": "9266CC", "profile_sidebar_fill_color": "000000", "profile_text_color": "000000", "protected": false, "screen_name": "louiseglynn11", "statuses_count": 2665}}
{"created_at": "Sun Jul 19 17:26:45 +0000 2015", "favorited": false, "id": 622819881906515968, "lang": "en", "retweeted": false, "source": "<a href=\"http://www.facebook.com/twitter\" rel=\"nofollow\">Facebook</a>", "text": "Robin McGraw and Dr. Phil Explain The Groundbreaking New App Called ASPIRE News http://t.co/xEe8mFIATh", "truncated": false, "urls": {"http://t.co/xEe8mFIATh": "http://fb.me/1ZS773zOX"}, "user": {"created_at": "Tue Sep 21 20:45:27 +0000 2010", "description": "Global Domestic Violence Advocate for Break the Silence, Say No to Violence. Author-Survivor of Domestic Violence from an alcoholic spouse", "followers_count": 62, "friends_count": 49, "geo_enabled": true, "id": 193443074, "lang": "en", "listed_count": 5, "location": "Florida, United States", "name": "Sukree Boodram", "profile_background_color": "642D8B", "profile_background_image_url": "http://abs.twimg.com/images/themes/theme10/bg.gif", "profile_background_tile": true, "profile_image_url": "https://pbs.twimg.com/profile_images/1145548080/IMG_0935_normal.jpg", "profile_link_color": "FF0000", "profile_sidebar_fill_color": "7AC3EE", "profile_text_color": "3D1957", "protected": false, "screen_name": "SukreeBoodram", "statuses_count": 981, "time_zone": "Eastern Time (US & Canada)", "url": "http://t.co/beMtTQXPtZ", "utc_offset": -18000}}
{"created_at": "Mon Jul 20 13:05:21 +0000 2015", "favorited": false, "hashtags": ["domesticviolence"], "id": 623116484601073664, "lang": "en", "retweet_count": 1, "retweeted": false, "source": "<a href=\"http://www.hootsuite.com\" rel=\"nofollow\">Hootsuite</a>", "text": "THE ASPIRE NEWS APP - disguised help system for #domesticviolence victims Watch: http://t.co/sQKLPkf0Jb Download: http://t.co/hpsvOAG6aB", "truncated": false, "urls": {"http://t.co/hpsvOAG6aB": "http://ow.ly/PMZnL", "http://t.co/sQKLPkf0Jb": "http://ow.ly/PMZkl"}, "user": {"created_at": "Thu Apr 02 03:40:26 +0000 2009", "description": "abuse survivor advocating for #domesticviolence outreach, recognizing signs of abuse, & support for  abusive relationship recovery http://t.co/ir78Sv3g2h", "favourites_count": 20, "followers_count": 9736, "friends_count": 1195, "geo_enabled": true, "id": 28274392, "lang": "en", "listed_count": 253, "name": "Kellie Jo Holly", "profile_background_color": "000000", "profile_background_image_url": "http://pbs.twimg.com/profile_background_images/584764846/s130jbr4dza50z5jsl8r.jpeg", "profile_background_tile": false, "profile_image_url": "https://pbs.twimg.com/profile_images/2919872930/25a9bc5f1393d02549852baad0aed48b_normal.jpeg", "profile_link_color": "CC0000", "profile_sidebar_fill_color": "D5AF80", "profile_text_color": "000000", "protected": false, "screen_name": "abuse_journals", "statuses_count": 12000, "url": "http://t.co/tV4kdvk2rW"}}
{"created_at": "Wed Jul 22 14:30:23 +0000 2015", "favorited": false, "id": 623862657968402432, "lang": "en", "media": [{"display_url": "pic.twitter.com/aNqzgLkCq7", "expanded_url": "http://twitter.com/We_Are_Aspire/status/623862657968402432/photo/1", "id": 623862655472644096, "id_str": "623862655472644096", "indices": [114, 136], "media_url": "http://pbs.twimg.com/media/CKhnx6AUMAAkQq7.jpg", "media_url_https": "https://pbs.twimg.com/media/CKhnx6AUMAAkQq7.jpg", "sizes": {"large": {"h": 668, "resize": "fit", "w": 1002}, "medium": {"h": 400, "resize": "fit", "w": 600}, "small": {"h": 226, "resize": "fit", "w": 340}, "thumb": {"h": 150, "resize": "crop", "w": 150}}, "type": "photo", "url": "http://t.co/aNqzgLkCq7"}], "retweet_count": 1, "retweeted": false, "source": "<a href=\"http://www.hootsuite.com\" rel=\"nofollow\">Hootsuite</a>", "text": "Big news as TfL plans to launch a new brand focused app and roll out contactless to taxis! http://t.co/JqRtWzUqyd http://t.co/aNqzgLkCq7", "truncated": false, "urls": {"http://t.co/JqRtWzUqyd": "http://snip.ly/T2Pt"}, "user": {"created_at": "Wed Jul 28 09:40:54 +0000 2010", "description": "We specialise in finding Digital, Media and Marketing professionals their perfect next move - from opportunities at exciting tech start ups to global brands", "favourites_count": 276, "followers_count": 15990, "friends_count": 14771, "geo_enabled": true, "id": 171852446, "lang": "en", "listed_count": 293, "location": "London", "name": "Aspire_London", "profile_background_color": "C0DEED", "profile_background_image_url": "http://pbs.twimg.com/profile_background_images/463985214851526656/x1A3kLb-.jpeg", "profile_background_tile": true, "profile_banner_url": "https://pbs.twimg.com/profile_banners/171852446/1451608536", "profile_image_url": "https://pbs.twimg.com/profile_images/552032485429620739/YUP3sIff_normal.jpeg", "profile_link_color": "0084B4", "profile_sidebar_fill_color": "DDEEF6", "profile_text_color": "333333", "protected": false, "screen_name": "We_Are_Aspire", "statuses_count": 7404, "time_zone": "London", "url": "http://t.co/sincK8Fjvy"}}
{"created_at": "Wed Jul 22 16:40:46 +0000 2015", "favorite_count": 1, "favorited": false, "id": 623895471451439104, "lang": "en", "retweeted": false, "source": "<a href=\"http://www.hootsuite.com\" rel=\"nofollow\">Hootsuite</a>", "text": "For the most up to date information, news and offers download the aspire app here: http://t.co/MCMCQFnJOJ", "truncated": false, "urls": {"http://t.co/MCMCQFnJOJ": "http://ow.ly/OPkKa"}, "user": {"created_at": "Mon Sep 28 11:19:26 +0000 2009", "description": "Oxstalls Sports Park offers a range of activities - something for all abilities, ages and experience.", "favourites_count": 66, "followers_count": 1001, "friends_count": 923, "id": 77987699, "lang": "en", "listed_count": 26, "location": "Gloucester, UK", "name": "Oxstalls Sports Park", "profile_background_color": "E92E29", "profile_background_image_url": "http://pbs.twimg.com/profile_background_images/712212426/d2902589fab9e919bdc9bc5d7c59d98e.jpeg", "profile_background_tile": false, "profile_banner_url": "https://pbs.twimg.com/profile_banners/77987699/1435826127", "profile_image_url": "https://pbs.twimg.com/profile_images/616525519689900032/VHmUPlSy_normal.jpg", "profile_link_color": "E92E29", "profile_sidebar_fill_color": "FFFFFF", "profile_text_color": "333333", "protected": false, "screen_name": "OxstallsTennis", "statuses_count": 2188, "time_zone": "London", "url": "http://t.co/XUQM1AikkZ"}}
