{"created_at": "Wed Jun 24 21:37:57 +0000 2015", "favorite_count": 8, "favorited": false, "id": 613823401220771840, "lang": "en", "media": [{"display_url": "pic.twitter.com/uZYFgm6bCG", "expanded_url": "http://twitter.com/jersing/status/613823401220771840/photo/1", "id": 613823400100921344, "id_str": "613823400100921344", "indices": [39, 61], "media_url": "http://pbs.twimg.com/media/CIS9IVXWgAAjNLe.jpg", "media_url_https": "https://pbs.twimg.com/media/CIS9IVXWgAAjNLe.jpg", "sizes": {"large": {"h": 688, "resize": "fit", "w": 540}, "medium": {"h": 688, "resize": "fit", "w": 540}, "small": {"h": 433, "resize": "fit", "w": 340}, "thumb": {"h": 150, "resize": "crop", "w": 150}}, "type": "photo", "url": "http://t.co/uZYFgm6bCG"}], "retweeted": false, "source": "<a href=\"http://twitter.com\" rel=\"nofollow\">Twitter Web Client</a>", "text": "Luke Massie-Smith, lemme buy U a drink http://t.co/uZYFgm6bCG", "truncated": false, "user": {"created_at": "Fri Mar 13 19:14:44 +0000 2009", "description": "Writer, editor, Britney Spears hagiographer. Copy @moroccanoil, other words @newnownext, @micnews, @potluckmagazine, @vadamagazine", "favourites_count": 96896, "followers_count": 3424, "friends_count": 1453, "geo_enabled": true, "id": 24231296, "lang": "en", "listed_count": 74, "location": "New York, NY", "name": "lucky", "profile_background_color": "899299", "profile_background_image_url": "http://pbs.twimg.com/profile_background_images/606877939448352768/v7avdKvS.jpg", "profile_background_tile": true, "profile_banner_url": "https://pbs.twimg.com/profile_banners/24231296/1451273701", "profile_image_url": "https://pbs.twimg.com/profile_images/674775333602795520/9-_XXw0p_normal.jpg", "profile_link_color": "339999", "profile_sidebar_fill_color": "DDEEF6", "profile_text_color": "333333", "protected": false, "screen_name": "jersing", "statuses_count": 70756, "time_zone": "Eastern Time (US & Canada)", "url": "https://t.co/hfx4BXHe00", "utc_offset": -18000}}
{"created_at": "Wed Jun 24 22:47:45 +0000 2015", "favorite_count": 6, "favorited": false, "id": 613840965413896192, "lang": "en", "place": {"attributes": {}, "bounding_box": {"coordinates": [[[-75.2033684, 40.668686], [-75.146887, 40.668686], [-75.146887, 40.724254], [-75.2033684, 40.724254]]], "type": "Polygon"}, "contained_within": [], "country": "United States", "country_code": "US", "full_name": "Phillipsburg, NJ", "id": "36c18a0c925ac506", "name": "Phillipsburg", "place_type": "city", "url": "https://api.twitter.com/1.1/geo/id/36c18a0c925ac506.json"}, "retweeted": false, "source": "<a href=\"http://twitter.com/download/iphone\" rel=\"nofollow\">Twitter for iPhone</a>", "text": "Luke Massie-Smith, you sir are a genius. That is some A+ futuristic dystopian satire right there and I feel honoured to have read it", "truncated": false, "user": {"created_at": "Fri Feb 04 17:56:37 +0000 2011", "description": "The Internet: A Dark Carnival of Humanity's Most Wretched Impulses", "favourites_count": 1044, "followers_count": 304, "friends_count": 1002, "geo_enabled": true, "id": 247387417, "lang": "en", "listed_count": 11, "name": "Bangladeshi Swamphen", "profile_background_color": "000000", "profile_background_image_url": "http://pbs.twimg.com/profile_background_images/214096807/opeth-logo-red.jpg", "profile_background_tile": true, "profile_banner_url": "https://pbs.twimg.com/profile_banners/247387417/1375559499", "profile_image_url": "https://pbs.twimg.com/profile_images/613208616120754177/y8DZwB7s_normal.jpg", "profile_link_color": "B30000", "profile_sidebar_fill_color": "FF1F1F", "profile_text_color": "FFFFFF", "protected": false, "screen_name": "pvm0760", "statuses_count": 8603, "time_zone": "Eastern Time (US & Canada)", "utc_offset": -18000}}
{"created_at": "Thu Jun 25 00:00:19 +0000 2015", "favorite_count": 1, "favorited": false, "id": 613859228265115648, "lang": "en", "retweeted": false, "source": "<a href=\"http://twitter.com\" rel=\"nofollow\">Twitter Web Client</a>", "text": "Pure cream from dystopian demigod, Luke Massie-Smith. via @hereinmyhead0  https://t.co/fOTxYZK3gc", "truncated": false, "urls": {"https://t.co/fOTxYZK3gc": "https://twitter.com/AnthonyBLSmith/status/613841226756947968"}, "user": {"created_at": "Thu Feb 04 23:52:53 +0000 2010", "description": "http://t.co/Rin1MUf7uf   http://t.co/i0OSRR3B1H. Shocko is top music-man and wording guy. Once softest hair in Derry for his age, now 3rd softest in Hackney", "favourites_count": 813, "followers_count": 1149, "friends_count": 2069, "geo_enabled": true, "id": 111449829, "lang": "en", "listed_count": 11, "location": "East London", "name": "Shocko", "profile_background_color": "C0DEED", "profile_background_image_url": "http://pbs.twimg.com/profile_background_images/83702537/shigsy.jpg", "profile_background_tile": true, "profile_banner_url": "https://pbs.twimg.com/profile_banners/111449829/1439324244", "profile_image_url": "https://pbs.twimg.com/profile_images/676319460/redhugh_normal.jpg", "profile_link_color": "0084B4", "profile_sidebar_fill_color": "DDEEF6", "profile_text_color": "333333", "protected": false, "screen_name": "shockproofbeats", "statuses_count": 2823, "url": "http://t.co/q0b5imzzJV"}, "user_mentions": [{"id": 308100691, "name": "Niamh", "screen_name": "hereinmyhead0"}]}
{"created_at": "Thu Jun 25 00:18:18 +0000 2015", "favorite_count": 1, "favorited": false, "id": 613863755420667904, "lang": "en", "media": [{"display_url": "pic.twitter.com/ilmqbaoO2r", "expanded_url": "http://twitter.com/RobertSwartwood/status/613863755420667904/photo/1", "id": 613863753990299648, "id_str": "613863753990299648", "indices": [43, 65], "media_url": "http://pbs.twimg.com/media/CITh1PUUYAAjl5A.png", "media_url_https": "https://pbs.twimg.com/media/CITh1PUUYAAjl5A.png", "sizes": {"large": {"h": 536, "resize": "fit", "w": 420}, "medium": {"h": 536, "resize": "fit", "w": 420}, "small": {"h": 433, "resize": "fit", "w": 340}, "thumb": {"h": 150, "resize": "crop", "w": 150}}, "type": "photo", "url": "http://t.co/ilmqbaoO2r"}], "retweeted": false, "source": "<a href=\"http://itunes.apple.com/us/app/twitter/id409789998?mt=12\" rel=\"nofollow\">Twitter for Mac</a>", "text": "I like the cut of Luke Massie-Smith's jib. http://t.co/ilmqbaoO2r", "truncated": false, "user": {"created_at": "Sun Apr 12 06:18:02 +0000 2009", "description": "usa today bestselling author. hint fiction creator. former backstreet boys backup backup singer.", "favourites_count": 166, "followers_count": 1117, "friends_count": 90, "id": 30613577, "lang": "en", "listed_count": 101, "name": "Robert Swartwood", "profile_background_color": "192730", "profile_background_image_url": "http://pbs.twimg.com/profile_background_images/214618633/Background.jpg", "profile_background_tile": true, "profile_banner_url": "https://pbs.twimg.com/profile_banners/30613577/1451947958", "profile_image_url": "https://pbs.twimg.com/profile_images/655776416143929344/QkDLDFoc_normal.jpg", "profile_link_color": "19619C", "profile_sidebar_fill_color": "A3B0B8", "profile_text_color": "333333", "protected": false, "screen_name": "RobertSwartwood", "statuses_count": 28129, "time_zone": "Eastern Time (US & Canada)", "url": "http://t.co/KdWq5M4VJu", "utc_offset": -18000}}
{"created_at": "Thu Jun 25 00:26:10 +0000 2015", "favorite_count": 1, "favorited": false, "id": 613865734687473664, "in_reply_to_screen_name": "txvoodoo", "in_reply_to_status_id": 613804917757579268, "in_reply_to_user_id": 14402269, "lang": "en", "place": {"attributes": {}, "bounding_box": {"coordinates": [[[-88.097892, 37.771743], [-84.78458, 37.771743], [-84.78458, 41.761368], [-88.097892, 41.761368]]], "type": "Polygon"}, "contained_within": [], "country": "United States", "country_code": "US", "full_name": "Indiana, USA", "id": "1010ecfa7d3a40f8", "name": "Indiana", "place_type": "admin", "url": "https://api.twitter.com/1.1/geo/id/1010ecfa7d3a40f8.json"}, "retweeted": false, "source": "<a href=\"http://twitter.com\" rel=\"nofollow\">Twitter Web Client</a>", "text": "@txvoodoo @dwilly04 Luke Massie - Smith! Super Genius!", "truncated": false, "user": {"created_at": "Sun Mar 20 10:26:52 +0000 2011", "default_profile": true, "description": "Husband to wonderful wife. Father to three beautiful daughters. Basketball coach for 35 years! Go Colts!", "favourites_count": 395, "followers_count": 59, "friends_count": 75, "geo_enabled": true, "id": 269230795, "lang": "en", "listed_count": 2, "location": "Spencer, IN", "name": "Steve Goddard", "profile_background_color": "C0DEED", "profile_background_image_url": "http://abs.twimg.com/images/themes/theme1/bg.png", "profile_background_tile": false, "profile_image_url": "https://pbs.twimg.com/profile_images/687039102571552769/cAPecVKR_normal.jpg", "profile_link_color": "0084B4", "profile_sidebar_fill_color": "DDEEF6", "profile_text_color": "333333", "protected": false, "screen_name": "Greyhound80", "statuses_count": 3077, "time_zone": "Indiana (East)", "utc_offset": -18000}, "user_mentions": [{"id": 14402269, "name": "Lisa Rowe", "screen_name": "txvoodoo"}, {"id": 217083625, "name": "Dwilly", "screen_name": "dwilly04"}]}
{"created_at": "Thu Jun 25 00:43:38 +0000 2015", "favorite_count": 13, "favorited": false, "id": 613870127587700738, "lang": "en", "media": [{"display_url": "pic.twitter.com/FGM3YT9H9g", "expanded_url": "http://twitter.com/ParmB/status/613870127587700738/photo/1", "id": 613870121417728000, "id_str": "613870121417728000", "indices": [70, 92], "media_url": "http://pbs.twimg.com/media/CITnn31UYAA8J0q.jpg", "media_url_https": "https://pbs.twimg.com/media/CITnn31UYAA8J0q.jpg", "sizes": {"large": {"h": 536, "resize": "fit", "w": 420}, "medium": {"h": 536, "resize": "fit", "w": 420}, "small": {"h": 433, "resize": "fit", "w": 340}, "thumb": {"h": 150, "resize": "crop", "w": 150}}, "type": "photo", "url": "http://t.co/FGM3YT9H9g"}], "retweet_count": 4, "retweeted": false, "source": "<a href=\"http://twitter.com/download/android\" rel=\"nofollow\">Twitter for Android</a>", "text": "Is Luke Massie-Smith eligible for a Nobel here? Or atleast a Peabody? http://t.co/FGM3YT9H9g", "truncated": false, "user": {"created_at": "Sun Jul 12 05:41:58 +0000 2009", "description": "Computer guy, papa, husband, human,  PC-Interpol.  Tweets are your employer's", "favourites_count": 61284, "followers_count": 1297, "friends_count": 912, "geo_enabled": true, "id": 56028793, "lang": "en", "listed_count": 33, "location": "Teh IntArnet", "name": "Parm", "profile_background_color": "022330", "profile_background_image_url": "http://abs.twimg.com/images/themes/theme15/bg.png", "profile_background_tile": false, "profile_banner_url": "https://pbs.twimg.com/profile_banners/56028793/1429114682", "profile_image_url": "https://pbs.twimg.com/profile_images/3281443326/dc888453c66484548060d889e8a5c1fd_normal.jpeg", "profile_link_color": "0084B4", "profile_sidebar_fill_color": "C0DFEC", "profile_text_color": "333333", "protected": false, "screen_name": "ParmB", "statuses_count": 17981, "time_zone": "America/Toronto", "url": "http://t.co/7jaQacR2oq", "utc_offset": -18000}}
{"created_at": "Thu Jun 25 01:02:11 +0000 2015", "favorite_count": 5, "favorited": false, "id": 613874798230265856, "in_reply_to_screen_name": "cynicgrrl", "in_reply_to_status_id": 613797857502494720, "in_reply_to_user_id": 35401425, "lang": "en", "retweeted": false, "source": "<a href=\"http://twitter.com/download/iphone\" rel=\"nofollow\">Twitter for iPhone</a>", "text": "@cynicgrrl I want to read a novel by Luke Massie-Smith!", "truncated": false, "user": {"created_at": "Thu Apr 14 17:14:52 +0000 2011", "description": "In DC, from LA.", "favourites_count": 656, "followers_count": 314, "friends_count": 2028, "geo_enabled": true, "id": 282156048, "lang": "en", "listed_count": 3, "name": "Sam Sokol", "profile_background_color": "B86E00", "profile_background_image_url": "http://abs.twimg.com/images/themes/theme1/bg.png", "profile_background_tile": false, "profile_banner_url": "https://pbs.twimg.com/profile_banners/282156048/1398383569", "profile_image_url": "https://pbs.twimg.com/profile_images/1311781053/Pismo_in_Crawler_normal.jpg", "profile_link_color": "0600B8", "profile_sidebar_fill_color": "DDEB96", "profile_text_color": "3B3940", "protected": false, "screen_name": "SamSokol42", "statuses_count": 7539, "time_zone": "Eastern Time (US & Canada)", "utc_offset": -18000}, "user_mentions": [{"id": 35401425, "name": "Cynical Girl", "screen_name": "cynicgrrl"}]}
{"created_at": "Thu Jun 25 01:36:25 +0000 2015", "favorite_count": 15, "favorited": false, "id": 613883410403213312, "lang": "en", "retweet_count": 13, "retweeted": false, "source": "<a href=\"http://twitter.com/download/iphone\" rel=\"nofollow\">Twitter for iPhone</a>", "text": "Luke Massie-Smith, please contact me about the novel you must be writing. https://t.co/ZZFgftivAW", "truncated": false, "urls": {"https://t.co/ZZFgftivAW": "https://twitter.com/txvoodoo/status/613804917757579268"}, "user": {"created_at": "Wed Mar 25 18:00:13 +0000 2009", "description": "Literary agent specializing in suspense and spec fiction or whatever my clients happen to write.", "favourites_count": 52, "followers_count": 5583, "friends_count": 188, "id": 26550582, "lang": "en", "listed_count": 444, "location": "New York, NY", "name": "Stacia Decker", "profile_background_color": "022330", "profile_background_image_url": "http://pbs.twimg.com/profile_background_images/212405781/14112_1428441554780_1345070532_31146259_7265810_s.jpg", "profile_background_tile": true, "profile_banner_url": "https://pbs.twimg.com/profile_banners/26550582/1353461870", "profile_image_url": "https://pbs.twimg.com/profile_images/660224970921017344/IXc53tH6_normal.jpg", "profile_link_color": "0084B4", "profile_sidebar_fill_color": "C0DFEC", "profile_text_color": "333333", "protected": false, "screen_name": "StaciaDecker", "statuses_count": 24660, "time_zone": "Quito", "url": "https://t.co/99lX1qwyZl", "utc_offset": -18000}}
{"created_at": "Thu Jun 25 01:59:33 +0000 2015", "favorite_count": 685, "favorited": false, "id": 613889234445955072, "lang": "en", "media": [{"display_url": "pic.twitter.com/olhpuyMOWr", "expanded_url": "http://twitter.com/saladinahmed/status/613889234445955072/photo/1", "id": 613889230033432576, "id_str": "613889230033432576", "indices": [101, 123], "media_url": "http://pbs.twimg.com/media/CIT5AI-UsAAzp4j.jpg", "media_url_https": "https://pbs.twimg.com/media/CIT5AI-UsAAzp4j.jpg", "sizes": {"large": {"h": 536, "resize": "fit", "w": 420}, "medium": {"h": 536, "resize": "fit", "w": 420}, "small": {"h": 433, "resize": "fit", "w": 340}, "thumb": {"h": 150, "resize": "crop", "w": 150}}, "type": "photo", "url": "http://t.co/olhpuyMOWr"}], "retweet_count": 558, "retweeted": false, "source": "<a href=\"http://twitter.com/#!/download/ipad\" rel=\"nofollow\">Twitter for iPad</a>", "text": "A five-star performance. I salute you, Luke Massie-Smith, whoever and wherever you are. ht @txvoodoo http://t.co/olhpuyMOWr", "truncated": false, "user": {"created_at": "Thu Apr 09 14:39:18 +0000 2009", "description": "George RR Martin says my novel's 'a rollicking swashbuckler.' Bylines: Salon, BuzzFeed, NYT, Gizmodo. Mostly I chase my twin kindergarteners.", "favourites_count": 21730, "followers_count": 40952, "friends_count": 998, "geo_enabled": true, "id": 29995782, "lang": "en", "listed_count": 1466, "location": "near Detroit", "name": "Saladin Ahmed", "profile_background_color": "131516", "profile_background_image_url": "http://abs.twimg.com/images/themes/theme14/bg.gif", "profile_background_tile": true, "profile_banner_url": "https://pbs.twimg.com/profile_banners/29995782/1362745548", "profile_image_url": "https://pbs.twimg.com/profile_images/680953745950294017/U0b2LC5B_normal.jpg", "profile_link_color": "009999", "profile_sidebar_fill_color": "EFEFEF", "profile_text_color": "333333", "protected": false, "screen_name": "saladinahmed", "statuses_count": 55736, "time_zone": "Eastern Time (US & Canada)", "url": "https://t.co/KwNTVpK350", "utc_offset": -18000}, "user_mentions": [{"id": 14402269, "name": "Lisa Rowe", "screen_name": "txvoodoo"}]}
{"created_at": "Thu Jun 25 02:05:03 +0000 2015", "favorite_count": 4, "favorited": false, "id": 613890617437847552, "lang": "en", "media": [{"display_url": "pic.twitter.com/vWzAHkFWlC", "expanded_url": "http://twitter.com/ScottTurpel/status/613890617437847552/photo/1", "id": 613890614053068801, "id_str": "613890614053068801", "indices": [49, 71], "media_url": "http://pbs.twimg.com/media/CIT6Qs2UYAEY1mf.jpg", "media_url_https": "https://pbs.twimg.com/media/CIT6Qs2UYAEY1mf.jpg", "sizes": {"large": {"h": 536, "resize": "fit", "w": 420}, "medium": {"h": 536, "resize": "fit", "w": 420}, "small": {"h": 433, "resize": "fit", "w": 340}, "thumb": {"h": 150, "resize": "crop", "w": 150}}, "type": "photo", "url": "http://t.co/vWzAHkFWlC"}], "retweet_count": 1, "retweeted": false, "source": "<a href=\"http://twitter.com/download/iphone\" rel=\"nofollow\">Twitter for iPhone</a>", "text": "Luke Massie-Smith is my idea of a true American. http://t.co/vWzAHkFWlC", "truncated": false, "user": {"created_at": "Thu Mar 15 04:47:02 +0000 2012", "default_profile": true, "description": "Proud brogressive; trying not to be boring... I could have just shut my mouth...", "favourites_count": 950, "followers_count": 211, "friends_count": 431, "id": 525038425, "lang": "en", "listed_count": 3, "name": "Scott Turpel", "profile_background_color": "C0DEED", "profile_background_image_url": "http://abs.twimg.com/images/themes/theme1/bg.png", "profile_background_tile": false, "profile_banner_url": "https://pbs.twimg.com/profile_banners/525038425/1451367851", "profile_image_url": "https://pbs.twimg.com/profile_images/681327530121416704/dDUrNxM5_normal.jpg", "profile_link_color": "0084B4", "profile_sidebar_fill_color": "DDEEF6", "profile_text_color": "333333", "protected": false, "screen_name": "ScottTurpel", "statuses_count": 1800}}
{"created_at": "Thu Jun 25 02:13:02 +0000 2015", "favorited": false, "id": 613892627155525632, "lang": "en", "media": [{"display_url": "pic.twitter.com/H7Ie2v2nTJ", "expanded_url": "http://twitter.com/saladinahmed/status/613889234445955072/photo/1", "id": 613889230033432576, "id_str": "613889230033432576", "indices": [121, 143], "media_url": "http://pbs.twimg.com/media/CIT5AI-UsAAzp4j.jpg", "media_url_https": "https://pbs.twimg.com/media/CIT5AI-UsAAzp4j.jpg", "sizes": {"large": {"h": 536, "resize": "fit", "w": 420}, "medium": {"h": 536, "resize": "fit", "w": 420}, "small": {"h": 433, "resize": "fit", "w": 340}, "thumb": {"h": 150, "resize": "crop", "w": 150}}, "source_status_id": 613889234445955072, "source_status_id_str": "613889234445955072", "source_user_id": 29995782, "source_user_id_str": "29995782", "type": "photo", "url": "http://t.co/H7Ie2v2nTJ"}], "retweet_count": 1, "retweeted": false, "source": "<a href=\"http://www.hootsuite.com\" rel=\"nofollow\">Hootsuite</a>", "text": "RT @saladinahmed: A five-star performance. I salute you, Luke Massie-Smith, whoever &amp; wherever you are. ht @txvoodoo http://t.co/H7Ie2v2nTJ", "truncated": false, "user": {"created_at": "Fri Mar 28 18:19:19 +0000 2008", "description": "Buys stuff by day, rocks at night", "favourites_count": 107, "followers_count": 183, "friends_count": 388, "geo_enabled": true, "id": 14245755, "lang": "en", "listed_count": 6, "location": "Boston", "name": "scottbishop", "profile_background_color": "0B688A", "profile_background_image_url": "http://pbs.twimg.com/profile_background_images/549108853/Screen_shot_2012-05-03_at_9.03.52_PM.png", "profile_background_tile": false, "profile_image_url": "https://pbs.twimg.com/profile_images/2209135662/Bishrock_cropped_headshot_2012_normal.jpg", "profile_link_color": "0000FF", "profile_sidebar_fill_color": "91BEFF", "profile_text_color": "24373F", "protected": false, "screen_name": "scottbishop", "statuses_count": 4554, "time_zone": "Tehran", "url": "http://t.co/NSn1V81QKx", "utc_offset": 12600}, "user_mentions": [{"id": 29995782, "name": "Saladin Ahmed", "screen_name": "saladinahmed"}, {"id": 14402269, "name": "Lisa Rowe", "screen_name": "txvoodoo"}]}
{"created_at": "Thu Jun 25 02:58:50 +0000 2015", "favorited": false, "id": 613904154432376832, "in_reply_to_screen_name": "AnthonyBLSmith", "in_reply_to_status_id": 613841226756947968, "in_reply_to_user_id": 249027630, "lang": "en", "retweeted": false, "source": "<a href=\"http://twitter.com\" rel=\"nofollow\">Twitter Web Client</a>", "text": "@AnthonyBLSmith @Popehat Luke Massie-Smith for President.", "truncated": false, "user": {"created_at": "Thu Mar 05 05:58:32 +0000 2009", "description": "Founder of Harrison Metal. I like all animals more than I like most people.", "favourites_count": 4787, "followers_count": 6973, "friends_count": 663, "id": 22887743, "lang": "en", "listed_count": 226, "location": "Woodside, CA", "name": "Michael Dearing", "profile_background_color": "06023F", "profile_background_image_url": "http://pbs.twimg.com/profile_background_images/459529425457905665/6ms1uaFN.jpeg", "profile_background_tile": true, "profile_banner_url": "https://pbs.twimg.com/profile_banners/22887743/1398395373", "profile_image_url": "https://pbs.twimg.com/profile_images/2711022433/36a60105d2f6fd3767eb9d0e5d63e0e2_normal.png", "profile_link_color": "0A6292", "profile_sidebar_fill_color": "EED848", "profile_text_color": "0D275E", "protected": false, "screen_name": "mcgd", "statuses_count": 5344, "time_zone": "Tehran", "url": "http://t.co/UdDHnL2NNO", "utc_offset": 12600}, "user_mentions": [{"id": 249027630, "name": "Anthony Brian Smith", "screen_name": "AnthonyBLSmith"}, {"id": 18839937, "name": "Popehat", "screen_name": "Popehat"}]}
{"created_at": "Thu Jun 25 05:52:04 +0000 2015", "favorite_count": 1, "favorited": false, "hashtags": ["LukeMassieSmith", "ConfederateFlag", "PeopleOfWalmart", "brilliant"], "id": 613947750347067392, "in_reply_to_screen_name": "txvoodoo", "in_reply_to_status_id": 613804917757579268, "in_reply_to_user_id": 14402269, "lang": "en", "retweeted": false, "source": "<a href=\"http://twitter.com/download/iphone\" rel=\"nofollow\">Twitter for iPhone</a>", "text": "@txvoodoo @jacklizmi: @StaciaDecker Wordsmith Level Eleventeen #LukeMassieSmith #ConfederateFlag #PeopleOfWalmart #brilliant", "truncated": false, "user": {"created_at": "Mon Jan 04 03:09:37 +0000 2010", "description": "All dude ever wanted was his rug back. Former Navy ATC, Father, Husband, Tech, Investing, Golf, Movies, TV, Politics, Marketing, Strategery and what have you.", "favourites_count": 1467, "followers_count": 712, "friends_count": 2281, "geo_enabled": true, "id": 101642816, "lang": "en", "listed_count": 27, "location": "Texas, USA", "name": "Jack Lizmi", "profile_background_color": "C0DEED", "profile_background_image_url": "http://pbs.twimg.com/profile_background_images/515319805813858304/aiqrsTT6.jpeg", "profile_background_tile": false, "profile_banner_url": "https://pbs.twimg.com/profile_banners/101642816/1411349157", "profile_image_url": "https://pbs.twimg.com/profile_images/515321934100197376/I_F9vi5k_normal.jpeg", "profile_link_color": "0084B4", "profile_sidebar_fill_color": "DDEEF6", "profile_text_color": "333333", "protected": false, "screen_name": "jacklizmi", "statuses_count": 5128, "time_zone": "Pacific Time (US & Canada)", "url": "https://t.co/u3wJwF7Z2e", "utc_offset": -28800}, "user_mentions": [{"id": 14402269, "name": "Lisa Rowe", "screen_name": "txvoodoo"}, {"id": 101642816, "name": "Jack Lizmi", "screen_name": "jacklizmi"}, {"id": 26550582, "name": "Stacia Decker", "screen_name": "StaciaDecker"}]}
{"created_at": "Thu Jun 25 08:10:23 +0000 2015", "favorite_count": 3, "favorited": false, "id": 613982556325855232, "in_reply_to_screen_name": "RobertSwartwood", "in_reply_to_status_id": 613863755420667904, "in_reply_to_user_id": 30613577, "lang": "en", "retweet_count": 1, "retweeted": false, "source": "<a href=\"http://twitter.com\" rel=\"nofollow\">Twitter Web Client</a>", "text": ".@RobertSwartwood \n\nLuke Massie-Smith, get your ass on twitter, pronto.", "truncated": false, "user": {"created_at": "Mon Oct 06 07:14:36 +0000 2014", "description": "Stand against the selfish and ignorant, especially against bullies of any kind.\nInterpolate propagandas - find truths.\nWith our thoughts we make the world.", "favourites_count": 6475, "followers_count": 978, "friends_count": 1007, "id": 2809657193, "lang": "en", "listed_count": 64, "name": "Stan Attaphia", "profile_background_color": "C0DEED", "profile_background_image_url": "http://pbs.twimg.com/profile_background_images/643391042746740736/okvWpAne.jpg", "profile_background_tile": false, "profile_banner_url": "https://pbs.twimg.com/profile_banners/2809657193/1442230323", "profile_image_url": "https://pbs.twimg.com/profile_images/645676182227300352/3xYjidiP_normal.jpg", "profile_link_color": "0084B4", "profile_sidebar_fill_color": "DDEEF6", "profile_text_color": "333333", "protected": false, "screen_name": "Attaphia", "statuses_count": 29293, "time_zone": "Dublin"}, "user_mentions": [{"id": 30613577, "name": "Robert Swartwood", "screen_name": "RobertSwartwood"}]}
{"created_at": "Thu Jun 25 08:23:02 +0000 2015", "favorite_count": 2, "favorited": false, "id": 613985742184910849, "in_reply_to_screen_name": "AnthonyBLSmith", "in_reply_to_status_id": 613841226756947968, "in_reply_to_user_id": 249027630, "lang": "en", "retweet_count": 2, "retweeted": false, "source": "<a href=\"http://twitter.com\" rel=\"nofollow\">Twitter Web Client</a>", "text": "@AnthonyBLSmith @RufusHound I am in love with Luke Massie-Smith if we were guns I would gay marry him. finest satire i have read in ages", "truncated": false, "user": {"created_at": "Tue Nov 26 10:45:59 +0000 2013", "description": "Program, projects, and campaigns manager. Specialist in community and international development, awareness and advocacy.", "favourites_count": 1127, "followers_count": 537, "friends_count": 854, "geo_enabled": true, "id": 2215514245, "lang": "en-gb", "listed_count": 9, "location": "London", "name": "Dylan O'Sullivan", "profile_background_color": "000000", "profile_background_image_url": "http://pbs.twimg.com/profile_background_images/464364666466996224/DnWYjQTs.jpeg", "profile_background_tile": false, "profile_banner_url": "https://pbs.twimg.com/profile_banners/2215514245/1442572099", "profile_image_url": "https://pbs.twimg.com/profile_images/644820141205811200/CI0Pc75X_normal.jpg", "profile_link_color": "1497C7", "profile_sidebar_fill_color": "DDEEF6", "profile_text_color": "333333", "protected": false, "screen_name": "Dylan_0S", "statuses_count": 4276, "time_zone": "London", "url": "https://t.co/tFaN6nReVC"}, "user_mentions": [{"id": 249027630, "name": "Anthony Brian Smith", "screen_name": "AnthonyBLSmith"}, {"id": 20204789, "name": "Rufus Hound", "screen_name": "RufusHound"}]}
{"created_at": "Thu Jun 25 12:40:28 +0000 2015", "favorite_count": 3, "favorited": false, "id": 614050525315596289, "lang": "en", "retweeted": false, "source": "<a href=\"http://twitter.com\" rel=\"nofollow\">Twitter Web Client</a>", "text": "We salute you Luke Massie-Smith https://t.co/ROxGu1HR5d", "truncated": false, "urls": {"https://t.co/ROxGu1HR5d": "https://twitter.com/cynicgrrl/status/613797857502494720"}, "user": {"created_at": "Sun Feb 19 12:40:12 +0000 2012", "description": "Former hospitality clerk, now making a go at design. Once described as a 'good egg' Taking names for @candourly & @hopskipjumpco", "favourites_count": 427, "followers_count": 518, "friends_count": 787, "id": 496926113, "lang": "en", "listed_count": 18, "location": "Somewhere close to food.", "name": "Sam Haywood", "profile_background_color": "FCFCFC", "profile_background_image_url": "http://pbs.twimg.com/profile_background_images/447274534811353088/GcTQVD5B.png", "profile_background_tile": true, "profile_banner_url": "https://pbs.twimg.com/profile_banners/496926113/1446856617", "profile_image_url": "https://pbs.twimg.com/profile_images/615731048563937280/PS-MdjX4_normal.jpg", "profile_link_color": "000000", "profile_sidebar_fill_color": "DDEEF6", "profile_text_color": "333333", "protected": false, "screen_name": "haywoo_de", "statuses_count": 1882, "time_zone": "New Caledonia", "url": "http://t.co/Yuix1VgJ29", "utc_offset": 39600}}
{"created_at": "Thu Jun 25 12:40:32 +0000 2015", "favorite_count": 12, "favorited": false, "id": 614050541681922048, "lang": "en", "media": [{"display_url": "pic.twitter.com/CjcnNH4WdS", "expanded_url": "http://twitter.com/cynicgrrl/status/613797857502494720/photo/1", "id": 613797851727036417, "id_str": "613797851727036417", "indices": [51, 73], "media_url": "http://pbs.twimg.com/media/CISl5OQWgAENB48.png", "media_url_https": "https://pbs.twimg.com/media/CISl5OQWgAENB48.png", "sizes": {"large": {"h": 536, "resize": "fit", "w": 420}, "medium": {"h": 536, "resize": "fit", "w": 420}, "small": {"h": 433, "resize": "fit", "w": 340}, "thumb": {"h": 150, "resize": "crop", "w": 150}}, "source_status_id": 613797857502494720, "source_status_id_str": "613797857502494720", "source_user_id": 35401425, "source_user_id_str": "35401425", "type": "photo", "url": "http://t.co/CjcnNH4WdS"}], "retweet_count": 13, "retweeted": false, "source": "<a href=\"http://twitter.com/download/android\" rel=\"nofollow\">Twitter for Android</a>", "text": "Someone find Luke Massie-Smith and buy him a beer. http://t.co/CjcnNH4WdS", "truncated": false, "user": {"created_at": "Tue Sep 16 14:17:08 +0000 2008", "description": "I say things. #MTAF #CavsZine", "favourites_count": 12, "followers_count": 2411, "friends_count": 965, "geo_enabled": true, "id": 16310953, "lang": "en", "listed_count": 139, "location": "Medina, OH", "name": "Josh Flagner", "profile_background_color": "0018B3", "profile_background_image_url": "http://pbs.twimg.com/profile_background_images/398620576/JoshTwitterBackground1__1_.jpg", "profile_background_tile": false, "profile_banner_url": "https://pbs.twimg.com/profile_banners/16310953/1383699368", "profile_image_url": "https://pbs.twimg.com/profile_images/652818589129572352/Ti_yxCCo_normal.png", "profile_link_color": "CF0000", "profile_sidebar_fill_color": "299DF5", "profile_text_color": "000000", "protected": false, "screen_name": "RailbirdJ", "statuses_count": 93314, "time_zone": "Eastern Time (US & Canada)", "url": "http://t.co/elUvwpoXo9", "utc_offset": -18000}}
{"created_at": "Thu Jun 25 12:41:40 +0000 2015", "favorite_count": 2, "favorited": false, "id": 614050826038956032, "lang": "en", "media": [{"display_url": "pic.twitter.com/gL1TQ4hAub", "expanded_url": "http://twitter.com/Madmich513Weir/status/614050826038956032/photo/1", "id": 614050820787716096, "id_str": "614050820787716096", "indices": [103, 125], "media_url": "http://pbs.twimg.com/media/CIWL99cWwAAOAL_.jpg", "media_url_https": "https://pbs.twimg.com/media/CIWL99cWwAAOAL_.jpg", "sizes": {"large": {"h": 536, "resize": "fit", "w": 420}, "medium": {"h": 536, "resize": "fit", "w": 420}, "small": {"h": 433, "resize": "fit", "w": 340}, "thumb": {"h": 150, "resize": "crop", "w": 150}}, "type": "photo", "url": "http://t.co/gL1TQ4hAub"}], "retweeted": false, "source": "<a href=\"http://twitter.com/download/android\" rel=\"nofollow\">Twitter for Android</a>", "text": "An epic response by Luke Massie-Smith. The visual in my mind's eye is like a blockbuster summer movie. http://t.co/gL1TQ4hAub", "truncated": false, "user": {"created_at": "Wed Feb 04 18:33:44 +0000 2015", "default_profile": true, "description": "One funny, opionated, down to Earth, liberal bitch. Play nice.", "favourites_count": 993, "followers_count": 57, "friends_count": 147, "id": 3018276183, "lang": "en", "listed_count": 1, "name": "Michelle Weir", "profile_background_color": "C0DEED", "profile_background_image_url": "http://abs.twimg.com/images/themes/theme1/bg.png", "profile_background_tile": false, "profile_banner_url": "https://pbs.twimg.com/profile_banners/3018276183/1424781620", "profile_image_url": "https://pbs.twimg.com/profile_images/563045759558631425/PIxEDBLk_normal.jpeg", "profile_link_color": "0084B4", "profile_sidebar_fill_color": "DDEEF6", "profile_text_color": "333333", "protected": false, "screen_name": "Madmich513Weir", "statuses_count": 281}}
{"created_at": "Thu Jun 25 13:10:07 +0000 2015", "favorite_count": 1, "favorited": false, "id": 614057989104902144, "in_reply_to_screen_name": "AnthonyBLSmith", "in_reply_to_status_id": 613841226756947968, "in_reply_to_user_id": 249027630, "lang": "en", "retweeted": false, "source": "<a href=\"http://twitter.com\" rel=\"nofollow\">Twitter Web Client</a>", "text": "@AnthonyBLSmith @Unsilent friending Luke Massie-Smith right now....", "truncated": false, "user": {"created_at": "Sat Jan 30 22:53:11 +0000 2010", "description": "model citizen, zero discipline", "favourites_count": 2573, "followers_count": 333, "friends_count": 382, "geo_enabled": true, "id": 109979004, "lang": "en", "listed_count": 5, "location": "Maryland", "name": "Peter Mayer", "profile_background_color": "C0DEED", "profile_background_image_url": "http://pbs.twimg.com/profile_background_images/90083748/Given2fly.jpg", "profile_background_tile": true, "profile_image_url": "https://pbs.twimg.com/profile_images/2258457288/2007_05_03_109_normal.jpg", "profile_link_color": "0084B4", "profile_sidebar_fill_color": "DDEEF6", "profile_text_color": "333333", "protected": false, "screen_name": "peterwmayer", "statuses_count": 9990, "time_zone": "Quito", "utc_offset": -18000}, "user_mentions": [{"id": 249027630, "name": "Anthony Brian Smith", "screen_name": "AnthonyBLSmith"}, {"id": 15675228, "name": "Jack Kogod", "screen_name": "Unsilent"}]}
{"created_at": "Thu Jun 25 13:45:20 +0000 2015", "favorite_count": 11, "favorited": false, "id": 614066849534345216, "lang": "en", "retweet_count": 6, "retweeted": false, "source": "<a href=\"http://twitter.com\" rel=\"nofollow\">Twitter Web Client</a>", "text": "This has GOT to be the most hilarious Facebook post of all time. Someone find me Luke Massie-Smith cause soulmate. https://t.co/n2RO24bjfF", "truncated": false, "urls": {"https://t.co/n2RO24bjfF": "https://twitter.com/AnthonyBLSmith/status/613841226756947968"}, "user": {"created_at": "Mon Feb 07 17:25:10 +0000 2011", "description": "50% music, 25% media/politics, 25% jokes. \u2022\u2022\u2022 contact@jenmillermusic.com \u2022\u2022\u2022 My recent single: https://t.co/inhUtYQrEW", "favourites_count": 182170, "followers_count": 11613, "friends_count": 1007, "geo_enabled": true, "id": 248758771, "lang": "en", "listed_count": 75, "location": "OH\u2022DC", "name": "jen miller", "profile_background_color": "9AE4E8", "profile_background_image_url": "http://pbs.twimg.com/profile_background_images/527938899662745602/tztqKFn0.png", "profile_background_tile": true, "profile_banner_url": "https://pbs.twimg.com/profile_banners/248758771/1442346089", "profile_image_url": "https://pbs.twimg.com/profile_images/683781314022084610/7pdbdwKX_normal.jpg", "profile_link_color": "4A913C", "profile_sidebar_fill_color": "DDFFCC", "profile_text_color": "333333", "protected": false, "screen_name": "jenerallyspeaks", "statuses_count": 19604, "time_zone": "Eastern Time (US & Canada)", "url": "https://t.co/zlycAsaBuG", "utc_offset": -18000}}
{"created_at": "Thu Jun 25 16:08:48 +0000 2015", "favorite_count": 4, "favorited": false, "id": 614102952861696000, "lang": "en", "retweet_count": 1, "retweeted": false, "source": "<a href=\"http://twitter.com\" rel=\"nofollow\">Twitter Web Client</a>", "text": "Luke Massie Smith is today's internet hero.  https://t.co/kJdYY22lUA", "truncated": false, "urls": {"https://t.co/kJdYY22lUA": "https://twitter.com/AnthonyBLSmith/status/613841226756947968"}, "user": {"created_at": "Thu Feb 27 17:22:33 +0000 2014", "description": "Hebrew Bible, Ancient Near East, Classics, Late Antiquity. Opinions my own. RT \u2260 endorsement. Kick at the darkness 'til it bleeds daylight.", "favourites_count": 22573, "followers_count": 804, "friends_count": 329, "geo_enabled": true, "id": 2364464047, "lang": "en", "listed_count": 34, "location": "Upper Midwest", "name": "Thomas Bolin", "profile_background_color": "DD2E44", "profile_background_image_url": "http://pbs.twimg.com/profile_background_images/660276932592824321/83H-_gtg.jpg", "profile_background_tile": true, "profile_banner_url": "https://pbs.twimg.com/profile_banners/2364464047/1448679949", "profile_image_url": "https://pbs.twimg.com/profile_images/687510108415332352/wjW82YOH_normal.jpg", "profile_link_color": "DD2E44", "profile_sidebar_fill_color": "000000", "profile_text_color": "000000", "protected": false, "screen_name": "bolin67", "statuses_count": 15622, "time_zone": "Central Time (US & Canada)", "utc_offset": -21600}}
{"created_at": "Thu Jun 25 16:23:54 +0000 2015", "favorite_count": 1, "favorited": false, "id": 614106752959713281, "in_reply_to_screen_name": "AnthonyBLSmith", "in_reply_to_status_id": 613841226756947968, "in_reply_to_user_id": 249027630, "lang": "en", "retweeted": false, "source": "<a href=\"http://twitter.com\" rel=\"nofollow\">Twitter Web Client</a>", "text": "@AnthonyBLSmith Luke Massie-Smith writes customer service replies a lot like I write birthday greetings.", "truncated": false, "user": {"created_at": "Thu Apr 01 15:38:56 +0000 2010", "description": "Escape Pod Producer . Amateur Voice Actor . New Media Champion", "favourites_count": 134, "followers_count": 204, "friends_count": 270, "geo_enabled": true, "id": 128590152, "lang": "en", "listed_count": 8, "location": "Reading, PA, USA", "name": "Mat Weller", "profile_background_color": "022330", "profile_background_image_url": "http://abs.twimg.com/images/themes/theme15/bg.png", "profile_background_tile": false, "profile_banner_url": "https://pbs.twimg.com/profile_banners/128590152/1423059523", "profile_image_url": "https://pbs.twimg.com/profile_images/562978452609843200/fgO2leuz_normal.jpeg", "profile_link_color": "0084B4", "profile_sidebar_fill_color": "C0DFEC", "profile_text_color": "333333", "protected": false, "screen_name": "Mat_Weller", "statuses_count": 2819, "url": "http://t.co/6Axxp2Fem4"}, "user_mentions": [{"id": 249027630, "name": "Anthony Brian Smith", "screen_name": "AnthonyBLSmith"}]}
{"created_at": "Thu Jun 25 18:04:22 +0000 2015", "favorited": false, "id": 614132037927182337, "in_reply_to_screen_name": "TheSaltyAg", "in_reply_to_status_id": 614070630317580288, "in_reply_to_user_id": 164822978, "lang": "en", "retweeted": false, "source": "<a href=\"http://twitter.com/download/iphone\" rel=\"nofollow\">Twitter for iPhone</a>", "text": "@TheSaltyAg you just exposed my pen name, Luke Massie-Smith.", "truncated": false, "user": {"created_at": "Tue Jul 13 14:17:10 +0000 2010", "default_profile": true, "description": "Putting in the man hours to study the science of what you need", "favourites_count": 5, "followers_count": 17, "friends_count": 76, "geo_enabled": true, "id": 166170292, "lang": "en", "location": "Dallas", "name": "East Terrance", "profile_background_color": "C0DEED", "profile_background_image_url": "http://abs.twimg.com/images/themes/theme1/bg.png", "profile_background_tile": false, "profile_image_url": "https://pbs.twimg.com/profile_images/1524693225/dog-gun_normal.jpg", "profile_link_color": "0084B4", "profile_sidebar_fill_color": "DDEEF6", "profile_text_color": "333333", "protected": false, "screen_name": "EastTerrance", "statuses_count": 292}, "user_mentions": [{"id": 164822978, "name": "The Salt", "screen_name": "TheSaltyAg"}]}
{"created_at": "Thu Jun 25 18:17:17 +0000 2015", "favorite_count": 2, "favorited": false, "id": 614135286554042368, "lang": "en", "retweeted": false, "source": "<a href=\"http://www.facebook.com/twitter\" rel=\"nofollow\">Facebook</a>", "text": "Luke Massie-Smith is today's winner of the Internet.\n\n(thx Travis M. Nelson for the pic) http://t.co/44ybEXuPix", "truncated": false, "urls": {"http://t.co/44ybEXuPix": "http://fb.me/A4y2pI5A"}, "user": {"created_at": "Sun Jul 04 05:27:13 +0000 2010", "description": "Middle-aged Aspie, married to a supermodel. Father to 2 kids and 4 books (Soon to be more ... books, not kids). Love Jesus, hate how He's often misrepresented.", "favourites_count": 191, "followers_count": 82, "friends_count": 75, "geo_enabled": true, "id": 162613995, "lang": "en", "listed_count": 7, "location": "Stockton, CA", "name": "Ray Anselmo", "profile_background_color": "C0DEED", "profile_background_image_url": "http://pbs.twimg.com/profile_background_images/623473458177900544/5y8dj9vh.jpg", "profile_background_tile": true, "profile_banner_url": "https://pbs.twimg.com/profile_banners/162613995/1405998762", "profile_image_url": "https://pbs.twimg.com/profile_images/491420913326243841/VNoSKCn0_normal.jpeg", "profile_link_color": "007300", "profile_sidebar_fill_color": "DDEEF6", "profile_text_color": "333333", "protected": false, "screen_name": "rayanselmo", "statuses_count": 10544, "time_zone": "Pacific Time (US & Canada)", "url": "http://t.co/62cAt6Xx8K", "utc_offset": -28800}}
{"created_at": "Thu Jun 25 19:51:52 +0000 2015", "favorite_count": 2, "favorited": false, "id": 614159092454526976, "in_reply_to_screen_name": "saladinahmed", "in_reply_to_status_id": 613889234445955072, "in_reply_to_user_id": 29995782, "lang": "en", "place": {"attributes": {}, "bounding_box": {"coordinates": [[[-122.514926, 37.708075], [-122.357031, 37.708075], [-122.357031, 37.833238], [-122.514926, 37.833238]]], "type": "Polygon"}, "contained_within": [], "country": "United States", "country_code": "US", "full_name": "San Francisco, CA", "id": "5a110d312052166f", "name": "San Francisco", "place_type": "city", "url": "https://api.twitter.com/1.1/geo/id/5a110d312052166f.json"}, "retweeted": false, "source": "<a href=\"http://twitter.com\" rel=\"nofollow\">Twitter Web Client</a>", "text": "@saladinahmed @txvoodoo I found Luke Massie-Smith on Facebook and sent a note of appreciation. He wrote me back! Yay people on the internet.", "truncated": false, "user": {"created_at": "Wed Nov 22 21:23:42 +0000 2006", "description": "now with @dg717sf! Made a free online film about my life on the early web: https://t.co/FIxf62Ltvj & making the Justin Hall Show https://t.co/ooxr2CNG0s", "favourites_count": 2922, "followers_count": 5314, "friends_count": 867, "geo_enabled": true, "id": 16023, "lang": "en", "listed_count": 208, "location": "San Francisco, mostly", "name": "Justin Hall", "profile_background_color": "9AE4E8", "profile_background_image_url": "http://pbs.twimg.com/profile_background_images/132894263/800px-Kuniyoshi_Utagawa__Sceleton.jpg", "profile_background_tile": true, "profile_banner_url": "https://pbs.twimg.com/profile_banners/16023/1412707966", "profile_image_url": "https://pbs.twimg.com/profile_images/418855581898665984/z7z9UOE3_normal.jpeg", "profile_link_color": "4400FF", "profile_sidebar_fill_color": "CCCCCC", "profile_text_color": "000000", "protected": false, "screen_name": "jah", "statuses_count": 4963, "time_zone": "Pacific Time (US & Canada)", "url": "https://t.co/JpZrluGOnw", "utc_offset": -28800}, "user_mentions": [{"id": 29995782, "name": "Saladin Ahmed", "screen_name": "saladinahmed"}, {"id": 14402269, "name": "Lisa Rowe", "screen_name": "txvoodoo"}]}
{"created_at": "Thu Jun 25 20:39:57 +0000 2015", "favorited": false, "id": 614171192967233536, "lang": "en", "possibly_sensitive": true, "retweeted": false, "source": "<a href=\"http://www.tumblr.com/\" rel=\"nofollow\">Tumblr</a>", "text": "Photo: yourbadgrrl: micdotcom: Holy shit.\u00a0 Luke Massie-Smith, can you respond to all Internet trolls? The... http://t.co/QyPVSUDNwS", "truncated": false, "urls": {"http://t.co/QyPVSUDNwS": "http://tmblr.co/Z4Im0u1o2LJFE"}, "user": {"created_at": "Tue Oct 30 13:12:51 +0000 2012", "description": "Therapy is expensive; tweeting is free. I have a boyfriend and a girlfriend and am no longer taking applications, thanks.", "favourites_count": 169, "followers_count": 74, "friends_count": 228, "id": 914618971, "lang": "en", "location": "Flyover Country", "name": "CaseytheRed", "profile_background_color": "BADFCD", "profile_background_image_url": "http://abs.twimg.com/images/themes/theme12/bg.gif", "profile_background_tile": false, "profile_banner_url": "https://pbs.twimg.com/profile_banners/914618971/1451947404", "profile_image_url": "https://pbs.twimg.com/profile_images/545675947840516096/FrngxCac_normal.jpeg", "profile_link_color": "FF0000", "profile_sidebar_fill_color": "FFF7CC", "profile_text_color": "0C3E53", "protected": false, "screen_name": "CaseytheRed", "statuses_count": 7159, "time_zone": "Mountain Time (US & Canada)", "url": "http://t.co/oyTMNSWK2A", "utc_offset": -25200}}
{"created_at": "Thu Jun 25 20:43:09 +0000 2015", "favorited": false, "id": 614171997464080384, "lang": "en", "retweeted": false, "source": "<a href=\"http://www.tumblr.com/\" rel=\"nofollow\">Tumblr</a>", "text": "Photo: micdotcom: Holy shit.\u00a0 Luke Massie-Smith, can you respond to all Internet trolls? The best part... http://t.co/vTaJBC1il3", "truncated": false, "urls": {"http://t.co/vTaJBC1il3": "http://tmblr.co/ZtiFKy1o2MBZJ"}, "user": {"created_at": "Sat Apr 25 18:07:59 +0000 2009", "description": "I'm a Global Mission Fellow. Someone who seeks justice with eternal wanderlust.", "favourites_count": 7295, "followers_count": 138, "friends_count": 249, "geo_enabled": true, "id": 35271141, "lang": "en", "listed_count": 6, "name": "Sarah Roemer", "profile_background_color": "709397", "profile_background_image_url": "http://abs.twimg.com/images/themes/theme6/bg.gif", "profile_background_tile": false, "profile_banner_url": "https://pbs.twimg.com/profile_banners/35271141/1408423431", "profile_image_url": "https://pbs.twimg.com/profile_images/569722209334067200/Fl2wOXTF_normal.jpeg", "profile_link_color": "FF3300", "profile_sidebar_fill_color": "A0C5C7", "profile_text_color": "333333", "protected": false, "screen_name": "sarahjaneroemer", "statuses_count": 7249}}
{"created_at": "Thu Jun 25 20:59:13 +0000 2015", "favorited": false, "id": 614176038826942466, "lang": "en", "retweeted": false, "source": "<a href=\"http://www.facebook.com/twitter\" rel=\"nofollow\">Facebook</a>", "text": "HOLEY SHITS! I WANT BE THIS GUY WHEN I IS GROW UP! ALL HALE HIM! http://t.co/zpbviWMyLq", "truncated": false, "urls": {"http://t.co/zpbviWMyLq": "http://fb.me/ulzGxhD8"}, "user": {"created_at": "Fri May 04 05:44:36 +0000 2012", "default_profile": true, "description": "FREE DUKE ST. ROLLINS#SHAVEBALLSFIRST   WOMAN IS PROPERTIE!", "favourites_count": 71, "followers_count": 668, "friends_count": 646, "id": 570565874, "lang": "en", "listed_count": 12, "location": "Kandahar", "name": "Abdul Lateef", "profile_background_color": "C0DEED", "profile_background_image_url": "http://abs.twimg.com/images/themes/theme1/bg.png", "profile_background_tile": false, "profile_banner_url": "https://pbs.twimg.com/profile_banners/570565874/1360125835", "profile_image_url": "https://pbs.twimg.com/profile_images/3292342273/dbc64c114a8f5fcb7397acd3851f6f1d_normal.png", "profile_link_color": "0084B4", "profile_sidebar_fill_color": "DDEEF6", "profile_text_color": "333333", "protected": false, "screen_name": "ABDUL_IS_ANGRY", "statuses_count": 2944, "time_zone": "Eastern Time (US & Canada)", "url": "https://t.co/MBZgai8osp", "utc_offset": -18000}}
{"created_at": "Thu Jun 25 22:12:55 +0000 2015", "favorited": false, "id": 614194586064453633, "lang": "en", "retweeted": false, "source": "<a href=\"http://www.tumblr.com/\" rel=\"nofollow\">Tumblr</a>", "text": "Photo: micdotcom: Holy shit. \u00a0Can Luke Massie-Smith respond to all Internet trolls? The best part about... http://t.co/FArcwhE1U6", "truncated": false, "urls": {"http://t.co/FArcwhE1U6": "http://tmblr.co/ZvkQpq1o2lGPW"}, "user": {"created_at": "Wed Aug 27 03:08:27 +0000 2014", "default_profile": true, "favourites_count": 512, "followers_count": 18, "friends_count": 137, "id": 2752220415, "lang": "en", "listed_count": 1, "name": "Raechel", "profile_background_color": "C0DEED", "profile_background_image_url": "http://abs.twimg.com/images/themes/theme1/bg.png", "profile_background_tile": false, "profile_banner_url": "https://pbs.twimg.com/profile_banners/2752220415/1409137951", "profile_image_url": "https://pbs.twimg.com/profile_images/504587378993160192/jwcsE9Kw_normal.jpeg", "profile_link_color": "0084B4", "profile_sidebar_fill_color": "DDEEF6", "profile_text_color": "333333", "protected": false, "screen_name": "Fang2000Raechel", "statuses_count": 9198}}
{"created_at": "Thu Jun 25 23:08:43 +0000 2015", "favorited": false, "id": 614208630041223169, "lang": "en", "retweeted": false, "source": "<a href=\"http://www.tumblr.com/\" rel=\"nofollow\">Tumblr</a>", "text": "Photo: micdotcom: Holy shit. \u00a0Can Luke Massie-Smith respond to all Internet trolls? The best part about... http://t.co/sssSRGET6F", "truncated": false, "urls": {"http://t.co/sssSRGET6F": "http://tmblr.co/ZgbYum1o2zwMW"}, "user": {"created_at": "Mon Aug 11 18:56:23 +0000 2014", "description": "Co-host of Outdumbed at noon PT on @fauxnews, FMC political analist. This is a parody account.", "favourites_count": 30, "followers_count": 43, "friends_count": 112, "geo_enabled": true, "id": 2724484406, "lang": "en", "listed_count": 3, "location": "USA", "name": "Andrea Tamtaros", "profile_background_color": "F5F8FA", "profile_background_image_url": "http://abs.twimg.com/images/themes/theme1/bg.png", "profile_background_tile": false, "profile_banner_url": "https://pbs.twimg.com/profile_banners/2724484406/1446805210", "profile_image_url": "https://pbs.twimg.com/profile_images/662573612289757184/nn6HjxbZ_normal.jpg", "profile_link_color": "1F97C7", "profile_sidebar_fill_color": "DDEEF6", "profile_text_color": "333333", "protected": false, "screen_name": "AndreaTamtaros", "statuses_count": 4988}}
{"created_at": "Fri Jun 26 00:10:02 +0000 2015", "favorite_count": 12, "favorited": false, "id": 614224060642406400, "lang": "en", "media": [{"display_url": "pic.twitter.com/egYi4lKrPW", "expanded_url": "http://twitter.com/snopes/status/614224060642406400/photo/1", "id": 614224060155883520, "id_str": "614224060155883520", "indices": [105, 127], "media_url": "http://pbs.twimg.com/media/CIYph0YW8AAkeK_.jpg", "media_url_https": "https://pbs.twimg.com/media/CIYph0YW8AAkeK_.jpg", "sizes": {"large": {"h": 292, "resize": "fit", "w": 616}, "medium": {"h": 284, "resize": "fit", "w": 600}, "small": {"h": 161, "resize": "fit", "w": 340}, "thumb": {"h": 150, "resize": "crop", "w": 150}}, "type": "photo", "url": "http://t.co/egYi4lKrPW"}], "retweet_count": 9, "retweeted": false, "source": "<a href=\"http://twitter.com\" rel=\"nofollow\">Twitter Web Client</a>", "text": "Facebook user Luke Massie-Smith's comment to a @Walmart\ncustomer has gone viral:\n\nhttp://t.co/urENooAbrP http://t.co/egYi4lKrPW", "truncated": false, "urls": {"http://t.co/urENooAbrP": "http://m.snopes.com/2015/06/25/luke-massie-smith/"}, "user": {"created_at": "Thu Apr 03 17:00:11 +0000 2008", "description": "The definitive Internet reference source for urban legends, folklore, myths, rumors, and misinformation.", "favourites_count": 12, "followers_count": 118640, "id": 14294848, "lang": "en", "listed_count": 3240, "name": "snopes.com", "profile_background_color": "C7F2B1", "profile_background_image_url": "http://pbs.twimg.com/profile_background_images/840081271/d90db0daf7c81f75aea62d88c084e755.png", "profile_background_tile": false, "profile_banner_url": "https://pbs.twimg.com/profile_banners/14294848/1365714336", "profile_image_url": "https://pbs.twimg.com/profile_images/3507964197/be9d1840411bca2d8101382340f58957_normal.png", "profile_link_color": "81D159", "profile_sidebar_fill_color": "DDEEF6", "profile_text_color": "333333", "protected": false, "screen_name": "snopes", "statuses_count": 4864, "time_zone": "Pacific Time (US & Canada)", "url": "http://t.co/10Or8rl3ff", "utc_offset": -28800, "verified": true}, "user_mentions": [{"id": 17137891, "name": "Walmart", "screen_name": "Walmart"}]}
{"created_at": "Fri Jun 26 00:19:36 +0000 2015", "favorited": false, "id": 614226470081298432, "lang": "en", "media": [{"display_url": "pic.twitter.com/nw1u7KQ2RN", "expanded_url": "http://twitter.com/snopes/status/614224060642406400/photo/1", "id": 614224060155883520, "id_str": "614224060155883520", "indices": [104, 126], "media_url": "http://pbs.twimg.com/media/CIYph0YW8AAkeK_.jpg", "media_url_https": "https://pbs.twimg.com/media/CIYph0YW8AAkeK_.jpg", "sizes": {"large": {"h": 292, "resize": "fit", "w": 616}, "medium": {"h": 284, "resize": "fit", "w": 600}, "small": {"h": 161, "resize": "fit", "w": 340}, "thumb": {"h": 150, "resize": "crop", "w": 150}}, "source_status_id": 614224060642406400, "source_status_id_str": "614224060642406400", "source_user_id": 14294848, "source_user_id_str": "14294848", "type": "photo", "url": "http://t.co/nw1u7KQ2RN"}], "retweeted": false, "source": "<a href=\"http://ifttt.com\" rel=\"nofollow\">IFTTT</a>", "text": "Facebook user Luke Massie-Smith's comment to a Walmart\ncustomer has gone viral:\n\nhttp://t.co/fIZKC2F2D5 http://t.co/nw1u7KQ2RN", "truncated": false, "urls": {"http://t.co/fIZKC2F2D5": "http://m.snopes.com/2015/06/25/luke-massie-smith/"}, "user": {"created_at": "Mon Jan 28 14:40:52 +0000 2013", "default_profile": true, "description": "I tweet about all things in Cape Town. #CapeFact The Mother City. For info in events: #CapeEvents. Also #capetownfairy me for any quests", "favourites_count": 662, "followers_count": 2629, "friends_count": 2735, "id": 1128255048, "lang": "en", "listed_count": 90, "location": "Cape Town", "name": "Cape Town Fairy", "profile_background_color": "C0DEED", "profile_background_image_url": "http://abs.twimg.com/images/themes/theme1/bg.png", "profile_background_tile": false, "profile_banner_url": "https://pbs.twimg.com/profile_banners/1128255048/1359385361", "profile_image_url": "https://pbs.twimg.com/profile_images/3175089990/ddcec258fe970be63266d343dc094577_normal.png", "profile_link_color": "0084B4", "profile_sidebar_fill_color": "DDEEF6", "profile_text_color": "333333", "protected": false, "screen_name": "CapeTownFairy", "statuses_count": 73317, "time_zone": "Athens", "utc_offset": 7200}}
{"created_at": "Fri Jun 26 01:00:54 +0000 2015", "favorite_count": 3, "favorited": false, "hashtags": ["ForTheWin"], "id": 614236861284790276, "lang": "en", "retweet_count": 2, "retweeted": false, "source": "<a href=\"http://twitter.com\" rel=\"nofollow\">Twitter Web Client</a>", "text": "Luke Motherfucking Massie Smith #ForTheWin  https://t.co/zzKb4MkzP7", "truncated": false, "urls": {"https://t.co/zzKb4MkzP7": "https://twitter.com/txvoodoo/status/613804917757579268"}, "user": {"created_at": "Wed Jul 09 18:19:48 +0000 2014", "description": "https://t.co/4PeCNQFkkI", "favourites_count": 1091, "followers_count": 963, "friends_count": 890, "id": 2613973854, "lang": "en", "listed_count": 38, "location": "RETWEET my work, don't take it", "name": "Girl Du Jour", "profile_background_color": "BADFCD", "profile_background_image_url": "http://abs.twimg.com/images/themes/theme12/bg.gif", "profile_background_tile": false, "profile_banner_url": "https://pbs.twimg.com/profile_banners/2613973854/1431752019", "profile_image_url": "https://pbs.twimg.com/profile_images/685705735439691776/SAh_Si9f_normal.jpg", "profile_link_color": "A15454", "profile_sidebar_fill_color": "FFF7CC", "profile_text_color": "0C3E53", "protected": false, "screen_name": "gurldujour", "statuses_count": 9439, "time_zone": "Pacific Time (US & Canada)", "url": "https://t.co/lNrI5amJco", "utc_offset": -28800}}
{"created_at": "Fri Jun 26 01:15:08 +0000 2015", "favorited": false, "id": 614240442318622720, "lang": "en", "retweeted": false, "source": "<a href=\"http://twitter.com\" rel=\"nofollow\">Twitter Web Client</a>", "text": "I think this Luke Massie-Smith fella and I should have a beer and talk shop sometime. http://t.co/EWhsRuH768", "truncated": false, "urls": {"http://t.co/EWhsRuH768": "http://m.snopes.com/2015/06/25/luke-massie-smith/"}, "user": {"created_at": "Thu Jan 31 04:43:33 +0000 2013", "description": "Grumpy old dragon in an ancient procedurally generated library. Breath weapon is raw sarcasm (plus a little aqua regia); protective gear is recommended.", "favourites_count": 6751, "followers_count": 143, "friends_count": 123, "id": 1136036089, "lang": "en", "listed_count": 3, "location": "Library of Babel, Babel Ruins", "name": "That Library Lizard", "profile_background_color": "000000", "profile_background_image_url": "http://abs.twimg.com/images/themes/theme1/bg.png", "profile_background_tile": false, "profile_image_url": "https://pbs.twimg.com/profile_images/632991210991284224/gzwVhYDn_normal.jpg", "profile_link_color": "97694F", "profile_sidebar_fill_color": "000000", "profile_text_color": "000000", "protected": false, "screen_name": "EnmerkarOfBabel", "statuses_count": 10361, "time_zone": "Pacific Time (US & Canada)", "utc_offset": -28800}}
{"created_at": "Fri Jun 26 01:30:43 +0000 2015", "favorited": false, "id": 614244367239254017, "lang": "en", "retweeted": false, "source": "<a href=\"http://twitterfeed.com\" rel=\"nofollow\">twitterfeed</a>", "text": "IS IT TRUE? Critical Massie: News: Facebook user Luke Massie-Smith commented to a Walmart customer who was ang... http://t.co/lWGWh3NHZw", "truncated": false, "urls": {"http://t.co/lWGWh3NHZw": "http://bit.ly/1LtgLMv"}, "user": {"created_at": "Tue Nov 03 07:16:37 +0000 2009", "description": "Keeping the Internet safe by exposing online scams and hoaxes.", "followers_count": 152, "friends_count": 13, "id": 87130129, "lang": "en", "listed_count": 6, "location": "Tubes", "name": "Internet Scam", "profile_background_color": "000000", "profile_background_image_url": "http://pbs.twimg.com/profile_background_images/50465684/internetscam.jpg", "profile_background_tile": false, "profile_image_url": "https://pbs.twimg.com/profile_images/506278879/internetscam-id_normal.jpg", "profile_link_color": "2FC2EF", "profile_sidebar_fill_color": "000000", "profile_text_color": "666666", "protected": false, "screen_name": "InternetScam", "statuses_count": 2728, "time_zone": "Central Time (US & Canada)", "utc_offset": -21600}}
{"created_at": "Fri Jun 26 01:30:44 +0000 2015", "favorited": false, "id": 614244370884132864, "lang": "en", "retweeted": false, "source": "<a href=\"http://twitterfeed.com\" rel=\"nofollow\">twitterfeed</a>", "text": "Critical Massie: News: Facebook user Luke Massie-Smith commented to a Walmart customer who was angry about the... http://t.co/ua1mQ0cZkv", "truncated": false, "urls": {"http://t.co/ua1mQ0cZkv": "http://bit.ly/1LtgLMv"}, "user": {"created_at": "Fri Jul 09 20:06:00 +0000 2010", "description": "Mother, Cleaner and Wife. I kiss my child's boo-boo, regardless of where it is. My feet stick to the kitchen floor and I don't care.", "followers_count": 1382, "friends_count": 1862, "id": 164801854, "lang": "en", "listed_count": 25, "location": "Springfield, MA", "name": "Maddison Foster", "profile_background_color": "1A213D", "profile_background_image_url": "http://pbs.twimg.com/profile_background_images/162921629/mqbeachplay_1.br.jpg", "profile_background_tile": false, "profile_image_url": "https://pbs.twimg.com/profile_images/1065898269/n757108587_824998_9871_normal.jpg", "profile_link_color": "AD2A25", "profile_sidebar_fill_color": "E7A3A0", "profile_text_color": "1A213D", "protected": false, "screen_name": "maddisonfoster", "statuses_count": 10635, "time_zone": "Eastern Time (US & Canada)", "utc_offset": -18000}}
{"created_at": "Fri Jun 26 01:30:45 +0000 2015", "favorited": false, "id": 614244373484601345, "lang": "en", "retweeted": false, "source": "<a href=\"http://twitterfeed.com\" rel=\"nofollow\">twitterfeed</a>", "text": "Critical Massie: News: Facebook user Luke Massie-Smith commented to a Walmart customer who was angry about the... http://t.co/SBeHsEenLZ", "truncated": false, "urls": {"http://t.co/SBeHsEenLZ": "http://bit.ly/1LtgRn8"}, "user": {"created_at": "Tue Nov 09 09:35:42 +0000 2010", "favourites_count": 9, "followers_count": 874, "friends_count": 1639, "id": 213594945, "lang": "en", "listed_count": 5, "location": "New Jersey", "name": "Tammy Stein", "profile_background_color": "131516", "profile_background_image_url": "http://abs.twimg.com/images/themes/theme14/bg.gif", "profile_background_tile": true, "profile_image_url": "https://pbs.twimg.com/profile_images/1163133789/Tammy_Stein_normal.jpg", "profile_link_color": "009999", "profile_sidebar_fill_color": "EFEFEF", "profile_text_color": "333333", "protected": false, "screen_name": "Legal_101HQ", "statuses_count": 3246}}
{"created_at": "Fri Jun 26 01:57:36 +0000 2015", "favorited": false, "id": 614251130017738752, "lang": "en", "retweeted": false, "source": "<a href=\"http://www.tumblr.com/\" rel=\"nofollow\">Tumblr</a>", "text": "Photo: unclewhisky: mysharona1987: I envy the satirical skills of Luke Massie Smith. \u201cYour wife is a man... http://t.co/JnvNaAeOHj", "truncated": false, "urls": {"http://t.co/JnvNaAeOHj": "http://tmblr.co/Z_zB9y1o3eZLo"}, "user": {"created_at": "Sun Sep 09 07:50:37 +0000 2007", "description": "Maskmaker, Artist, and general Lunatic. Owner/artist of Tormented Artifacts", "favourites_count": 325, "followers_count": 483, "friends_count": 348, "id": 8761072, "lang": "en", "listed_count": 150, "location": "Seattle", "name": "Winneganfake", "profile_background_color": "7D7D7D", "profile_background_image_url": "http://abs.twimg.com/images/themes/theme1/bg.png", "profile_background_tile": false, "profile_banner_url": "https://pbs.twimg.com/profile_banners/8761072/1448997800", "profile_image_url": "https://pbs.twimg.com/profile_images/671771449720369152/bEbQ4Bhf_normal.jpg", "profile_link_color": "86282A", "profile_sidebar_fill_color": "7D7D7D", "profile_text_color": "000000", "protected": false, "screen_name": "Winneganfake", "statuses_count": 32303, "time_zone": "Pacific Time (US & Canada)", "url": "http://t.co/bskbmsB94K", "utc_offset": -28800}}
{"created_at": "Fri Jun 26 02:24:03 +0000 2015", "favorited": false, "id": 614257788706004992, "lang": "en", "possibly_sensitive": true, "retweeted": false, "source": "<a href=\"http://www.tumblr.com/\" rel=\"nofollow\">Tumblr</a>", "text": "Photo: micdotcom: Holy shit. \u00a0Can Luke Massie-Smith respond to all Internet trolls? The best part about... http://t.co/2yUTeqKywB", "truncated": false, "urls": {"http://t.co/2yUTeqKywB": "http://tmblr.co/Z0BNrw1o3laGv"}, "user": {"created_at": "Wed Mar 18 22:48:33 +0000 2009", "description": "Most of my tweets are just when I post on Tumblr in floods. I'm no one of consequence or importance.", "favourites_count": 98, "followers_count": 73, "friends_count": 332, "id": 25175145, "lang": "en", "listed_count": 15, "location": "Jonesboro, AR", "name": "Jobe", "profile_background_color": "131516", "profile_background_image_url": "http://abs.twimg.com/images/themes/theme14/bg.gif", "profile_background_tile": true, "profile_banner_url": "https://pbs.twimg.com/profile_banners/25175145/1419721422", "profile_image_url": "https://pbs.twimg.com/profile_images/548977047599452160/7jm0OrXy_normal.jpeg", "profile_link_color": "009999", "profile_sidebar_fill_color": "EFEFEF", "profile_text_color": "333333", "protected": false, "screen_name": "Jobe00", "statuses_count": 40468, "time_zone": "Central Time (US & Canada)", "url": "https://t.co/nDitv8q9mc", "utc_offset": -21600}}
{"created_at": "Fri Jun 26 02:56:07 +0000 2015", "favorited": false, "id": 614265855782862848, "lang": "en", "media": [{"display_url": "pic.twitter.com/vsnwVMHzYH", "expanded_url": "http://twitter.com/jimi1010ali/status/614265855782862848/photo/1", "id": 614265855631826944, "id_str": "614265855631826944", "indices": [115, 137], "media_url": "http://pbs.twimg.com/media/CIZPioqWIAAyscw.jpg", "media_url_https": "https://pbs.twimg.com/media/CIZPioqWIAAyscw.jpg", "sizes": {"large": {"h": 472, "resize": "fit", "w": 792}, "medium": {"h": 357, "resize": "fit", "w": 600}, "small": {"h": 202, "resize": "fit", "w": 340}, "thumb": {"h": 150, "resize": "crop", "w": 150}}, "type": "photo", "url": "http://t.co/vsnwVMHzYH"}], "retweeted": false, "source": "<a href=\"http://ifttt.com\" rel=\"nofollow\">IFTTT</a>", "text": "Your wife is a man now and all your guns have gotten gay married. Walmart shopper's confed\u2026 http://t.co/pCdpIV4BhM http://t.co/vsnwVMHzYH", "truncated": false, "urls": {"http://t.co/pCdpIV4BhM": "http://m.snopes.com/2015/06/25/luke-massie-smith/"}, "user": {"created_at": "Tue Dec 09 12:28:24 +0000 2014", "description": "The secret of a happy marriage remains a secret.", "favourites_count": 371, "followers_count": 10079, "friends_count": 28, "geo_enabled": true, "id": 2923774386, "lang": "en-gb", "listed_count": 267, "location": "Attock", "name": "Jamshed Ali", "profile_background_color": "000000", "profile_background_image_url": "http://abs.twimg.com/images/themes/theme1/bg.png", "profile_background_tile": false, "profile_banner_url": "https://pbs.twimg.com/profile_banners/2923774386/1419848750", "profile_image_url": "https://pbs.twimg.com/profile_images/556890341689675776/pMe2yXlM_normal.jpeg", "profile_link_color": "3B94D9", "profile_sidebar_fill_color": "000000", "profile_text_color": "000000", "protected": false, "screen_name": "jimi1010ali", "statuses_count": 529869, "time_zone": "Karachi", "url": "http://t.co/F3y1NqfDrM", "utc_offset": 18000}}
{"created_at": "Fri Jun 26 03:20:34 +0000 2015", "favorite_count": 3, "favorited": false, "id": 614272008725991428, "lang": "en", "retweeted": false, "source": "<a href=\"http://tapbots.com/tweetbot\" rel=\"nofollow\">Tweetbot for i\u039fS</a>", "text": "\u201cYour wife is a man now, and all your guns have gotten gay married.\u201c http://t.co/vbkfdF2W7W", "truncated": false, "urls": {"http://t.co/vbkfdF2W7W": "http://mysharona1987.tumblr.com/post/122396720589/i-envy-the-satirical-skills-of-luke-massie-smith"}, "user": {"created_at": "Sat Feb 21 22:51:50 +0000 2009", "default_profile": true, "favourites_count": 1870, "followers_count": 234, "friends_count": 380, "geo_enabled": true, "id": 21524694, "lang": "en", "listed_count": 4, "location": "Tulsa, Okay?", "name": "Egregious Philbin", "profile_background_color": "C0DEED", "profile_background_image_url": "http://abs.twimg.com/images/themes/theme1/bg.png", "profile_background_tile": false, "profile_banner_url": "https://pbs.twimg.com/profile_banners/21524694/1382331667", "profile_image_url": "https://pbs.twimg.com/profile_images/615297116907266048/qY7WhCcS_normal.jpg", "profile_link_color": "0084B4", "profile_sidebar_fill_color": "DDEEF6", "profile_text_color": "333333", "protected": false, "screen_name": "PhilMuses", "statuses_count": 5424, "time_zone": "Central Time (US & Canada)", "utc_offset": -21600}}
{"created_at": "Fri Jun 26 03:25:40 +0000 2015", "favorited": false, "id": 614273292380307456, "lang": "en", "retweeted": false, "source": "<a href=\"http://www.tumblr.com/\" rel=\"nofollow\">Tumblr</a>", "text": "Photo: micdotcom: Holy shit. \u00a0Can Luke Massie-Smith respond to all Internet trolls? The best part about... http://t.co/LTWWddlArM", "truncated": false, "urls": {"http://t.co/LTWWddlArM": "http://tmblr.co/ZP9BRs1o40M8B"}, "user": {"created_at": "Mon Jul 21 20:19:13 +0000 2014", "default_profile": true, "description": "Experiences, photography, and miscellany from Infinite Eye.", "favourites_count": 7, "followers_count": 13, "friends_count": 97, "id": 2667058039, "lang": "en", "listed_count": 1, "name": "Everwhere Events", "profile_background_color": "C0DEED", "profile_background_image_url": "http://abs.twimg.com/images/themes/theme1/bg.png", "profile_background_tile": false, "profile_banner_url": "https://pbs.twimg.com/profile_banners/2667058039/1425991649", "profile_image_url": "https://pbs.twimg.com/profile_images/491321403283501056/bYH0lII2_normal.jpeg", "profile_link_color": "0084B4", "profile_sidebar_fill_color": "DDEEF6", "profile_text_color": "333333", "protected": false, "screen_name": "EyeofEverwhere", "statuses_count": 533}}
{"created_at": "Fri Jun 26 04:14:45 +0000 2015", "favorited": false, "id": 614285647742898177, "lang": "en", "retweeted": false, "source": "<a href=\"http://www.tumblr.com/\" rel=\"nofollow\">Tumblr</a>", "text": "Photo: mysharona1987: icha-icha-akatsuki: mysharona1987: I envy the satirical skills of Luke Massie Smith.... http://t.co/a0ejOItFAH", "truncated": false, "urls": {"http://t.co/a0ejOItFAH": "http://tmblr.co/ZL2IRy1o4DtSd"}, "user": {"created_at": "Mon Mar 29 16:27:26 +0000 2010", "description": "i guess u could call me odd....", "favourites_count": 38, "followers_count": 430, "friends_count": 338, "id": 127565723, "lang": "en", "listed_count": 12, "location": "California ", "name": "Ms. McGibblets", "profile_background_color": "1A1B1F", "profile_background_image_url": "http://pbs.twimg.com/profile_background_images/421777804/aspergers-love.jpg", "profile_background_tile": true, "profile_banner_url": "https://pbs.twimg.com/profile_banners/127565723/1401868341", "profile_image_url": "https://pbs.twimg.com/profile_images/474096283494281217/Jr_LfMxx_normal.jpeg", "profile_link_color": "2FC2EF", "profile_sidebar_fill_color": "252429", "profile_text_color": "666666", "protected": false, "screen_name": "keshiam22", "statuses_count": 29217, "time_zone": "Quito", "utc_offset": -18000}}
{"created_at": "Fri Jun 26 07:15:37 +0000 2015", "favorite_count": 1, "favorited": false, "id": 614331160731217920, "lang": "en", "retweeted": false, "source": "<a href=\"http://www.tumblr.com/\" rel=\"nofollow\">Tumblr</a>", "text": "Photo: mysharona1987: icha-icha-akatsuki: mysharona1987: I envy the satirical skills of Luke Massie Smith.... http://t.co/TVnKDbqzAG", "truncated": false, "urls": {"http://t.co/TVnKDbqzAG": "http://tmblr.co/Znh5Zx1o4tOhX"}, "user": {"created_at": "Thu Oct 14 20:15:42 +0000 2010", "default_profile_image": true, "description": "I'm verbose, which makes this Twitter thing difficult. I'm a writer. I love video games and novels. Philosophy and psychology are the bedrock of my personality.", "followers_count": 9, "friends_count": 7, "id": 202778932, "lang": "en", "name": "Steven Katz", "profile_background_color": "1A1B1F", "profile_background_image_url": "http://abs.twimg.com/images/themes/theme9/bg.gif", "profile_background_tile": false, "profile_image_url": "https://abs.twimg.com/sticky/default_profile_images/default_profile_6_normal.png", "profile_link_color": "2FC2EF", "profile_sidebar_fill_color": "252429", "profile_text_color": "666666", "protected": false, "screen_name": "7OuterElements", "statuses_count": 1358, "time_zone": "Eastern Time (US & Canada)", "utc_offset": -18000}}
{"created_at": "Fri Jun 26 11:19:44 +0000 2015", "favorited": false, "id": 614392595398160384, "lang": "en", "retweeted": false, "source": "<a href=\"http://www.tumblr.com/\" rel=\"nofollow\">Tumblr</a>", "text": "Foto: himteckerjam: mysharona1987: I envy the satirical skills of Luke Massie Smith. ALL YOUR GUNS ARE... http://t.co/Ts5DDQnRZM", "truncated": false, "urls": {"http://t.co/Ts5DDQnRZM": "http://tmblr.co/ZZLYSy1o5OaJ3"}, "user": {"created_at": "Fri Jul 16 09:42:51 +0000 2010", "description": "Autono-vegan deal-breakerist |\nAnarcho-blackmetallist |\nVeterowave-communist", "favourites_count": 2548, "followers_count": 916, "friends_count": 680, "geo_enabled": true, "id": 167338429, "lang": "en", "listed_count": 33, "name": "classe tumblr", "profile_background_color": "E2E1DE", "profile_background_image_url": "http://abs.twimg.com/images/themes/theme1/bg.png", "profile_background_tile": false, "profile_banner_url": "https://pbs.twimg.com/profile_banners/167338429/1444035388", "profile_image_url": "https://pbs.twimg.com/profile_images/539483143045406720/qhBucxyz_normal.jpeg", "profile_link_color": "5A5A5A", "profile_sidebar_fill_color": "F9F9F9", "profile_text_color": "333333", "protected": false, "screen_name": "classe_tumblr", "statuses_count": 28553, "time_zone": "London", "url": "http://t.co/hDchXo8bMB"}}
{"created_at": "Fri Jun 26 12:35:02 +0000 2015", "favorited": false, "id": 614411547729862656, "lang": "en", "retweeted": false, "source": "<a href=\"http://www.tumblr.com/\" rel=\"nofollow\">Tumblr</a>", "text": "Photo: mysharona1987: I envy the satirical skills of Luke Massie Smith. http://t.co/rw0hddJmLh", "truncated": false, "urls": {"http://t.co/rw0hddJmLh": "http://tmblr.co/Z2Uhhs1o5ZYiT"}, "user": {"created_at": "Fri Oct 19 14:45:40 +0000 2012", "description": "Irish ND Autistic Trans(She/Her)  activist & intsect feminist. No racism/islamophobia or TERF/SWERF crap please. Volunteer with @Corkfeminista.", "favourites_count": 1626, "followers_count": 316, "friends_count": 623, "id": 891118214, "lang": "en", "listed_count": 8, "location": "crystallineprincess.tumblr.com", "name": "Leighanna Rose", "profile_background_color": "000000", "profile_background_image_url": "http://abs.twimg.com/images/themes/theme6/bg.gif", "profile_background_tile": false, "profile_banner_url": "https://pbs.twimg.com/profile_banners/891118214/1446251113", "profile_image_url": "https://pbs.twimg.com/profile_images/660251942283816961/D9Dv0nbr_normal.jpg", "profile_link_color": "BC7437", "profile_sidebar_fill_color": "000000", "profile_text_color": "000000", "protected": false, "screen_name": "PrincessOtC", "statuses_count": 20083, "url": "https://t.co/8kUvuJVqZY"}}
{"created_at": "Fri Jun 26 14:54:04 +0000 2015", "favorited": false, "id": 614446533577211904, "lang": "en", "retweeted": false, "source": "<a href=\"http://www.tumblr.com/\" rel=\"nofollow\">Tumblr</a>", "text": "Photo: mysharona1987: I envy the satirical skills of Luke Massie Smith. http://t.co/z3RQw41kFZ", "truncated": false, "urls": {"http://t.co/z3RQw41kFZ": "http://tmblr.co/Z36u6o1o5zxgQ"}, "user": {"created_at": "Fri Jul 09 06:06:32 +0000 2010", "description": "I color comics and get in fights!", "favourites_count": 4, "followers_count": 34, "friends_count": 268, "id": 164578235, "lang": "en", "listed_count": 2, "location": "Illinois", "name": "Mike Ramos", "profile_background_color": "000000", "profile_background_image_url": "http://abs.twimg.com/images/themes/theme14/bg.gif", "profile_background_tile": false, "profile_image_url": "https://pbs.twimg.com/profile_images/378800000657500907/4fe7be3dfcaa2ec150f48d12fec9b8bf_normal.jpeg", "profile_link_color": "373F75", "profile_sidebar_fill_color": "000000", "profile_text_color": "000000", "protected": false, "screen_name": "BiggestIdiotEVR", "statuses_count": 3799, "url": "http://t.co/2VaAotLmkm"}}
{"created_at": "Fri Jun 26 15:10:08 +0000 2015", "favorited": false, "id": 614450577913688064, "in_reply_to_screen_name": "KameronHurley", "in_reply_to_status_id": 614445680904544257, "in_reply_to_user_id": 27869564, "lang": "en", "retweeted": false, "source": "<a href=\"http://twitter.com\" rel=\"nofollow\">Twitter Web Client</a>", "text": "@KameronHurley Luke Massie-Smith deserves a Hugo.", "truncated": false, "user": {"created_at": "Mon Jan 16 18:34:40 +0000 2012", "description": "Editor, tax and insurance pubs. Opinions are my own, unless I'm editing your stuff.", "favourites_count": 15, "followers_count": 36, "friends_count": 106, "id": 465774413, "lang": "en", "location": "Cincinnati, OH", "name": "Jason Gilbert", "profile_background_color": "000000", "profile_background_image_url": "http://abs.twimg.com/images/themes/theme1/bg.png", "profile_background_tile": false, "profile_banner_url": "https://pbs.twimg.com/profile_banners/465774413/1431608788", "profile_image_url": "https://pbs.twimg.com/profile_images/566289538046119936/SY4XgdfI_normal.jpeg", "profile_link_color": "4A913C", "profile_sidebar_fill_color": "000000", "profile_text_color": "000000", "protected": false, "screen_name": "JasonGilbert9", "statuses_count": 413}, "user_mentions": [{"id": 27869564, "name": "Kameron Hurley", "screen_name": "KameronHurley"}]}
{"created_at": "Fri Jun 26 17:44:17 +0000 2015", "favorite_count": 1, "favorited": false, "id": 614489370415001600, "lang": "en", "retweeted": false, "source": "<a href=\"http://www.facebook.com/twitter\" rel=\"nofollow\">Facebook</a>", "text": "Luke Massie-Smith on Walmart Confederate Flag Complaint http://t.co/WA4dPCGJKq", "truncated": false, "urls": {"http://t.co/WA4dPCGJKq": "http://fb.me/3o6uY0Nil"}, "user": {"created_at": "Mon Aug 31 19:11:25 +0000 2009", "description": "making yr dreams coming fucking true", "favourites_count": 214, "followers_count": 410, "friends_count": 643, "geo_enabled": true, "id": 70473013, "lang": "en", "listed_count": 12, "location": "Brooklyn, NY", "name": "Bad Credit No Credit", "profile_background_color": "9AE4E8", "profile_background_image_url": "http://pbs.twimg.com/profile_background_images/378800000058089234/beddd219ad27ae24c51a9f5e74719195.jpeg", "profile_background_tile": false, "profile_banner_url": "https://pbs.twimg.com/profile_banners/70473013/1354397786", "profile_image_url": "https://pbs.twimg.com/profile_images/378800000347267081/4cf61acd307f5e18c50ee369cff8a69f_normal.jpeg", "profile_link_color": "0084B4", "profile_sidebar_fill_color": "DDFFCC", "profile_text_color": "333333", "protected": false, "screen_name": "BadCredNoCred", "statuses_count": 3230, "time_zone": "Eastern Time (US & Canada)", "url": "http://t.co/cqaOIeq5Uw", "utc_offset": -18000}}
{"created_at": "Fri Jun 26 21:47:36 +0000 2015", "favorited": false, "id": 614550602828353536, "lang": "en", "retweeted": false, "source": "<a href=\"http://www.tumblr.com/\" rel=\"nofollow\">Tumblr</a>", "text": "Photo: unclewhisky: mysharona1987: I envy the satirical skills of Luke Massie Smith. \u201cYour wife is a man... http://t.co/ff8el0rZXo", "truncated": false, "urls": {"http://t.co/ff8el0rZXo": "http://tmblr.co/ZrSJ5y1o7kRm2"}, "user": {"created_at": "Sun Aug 12 03:11:24 +0000 2007", "description": "Current Mode: http://t.co/MbEjv7VXSV \nWeakness: Strange women with hazel eyes lying in ponds\nStrength:Singing Reading Rainbow Kryptonite: Stana Word:Consternate", "favourites_count": 183, "followers_count": 58, "friends_count": 292, "id": 8133822, "lang": "en", "listed_count": 8, "location": "sadlynothufflepuff", "name": "Tzunny \u22b9\u22db\u22cb( \u055e\u0a0a \u055e)\u22cc\u22da\u22b9", "profile_background_color": "161717", "profile_background_image_url": "http://pbs.twimg.com/profile_background_images/623479985647411200/eX7BvN-u.jpg", "profile_background_tile": true, "profile_banner_url": "https://pbs.twimg.com/profile_banners/8133822/1449443609", "profile_image_url": "https://pbs.twimg.com/profile_images/673641218132185089/GC8W7oSq_normal.jpg", "profile_link_color": "DD2E44", "profile_sidebar_fill_color": "78317C", "profile_text_color": "12BAE1", "protected": false, "screen_name": "tzun", "statuses_count": 21064, "time_zone": "Central Time (US & Canada)", "url": "http://t.co/mM5cJUYBwk", "utc_offset": -21600}}
{"created_at": "Sun Jun 28 06:32:36 +0000 2015", "favorited": false, "id": 615045111525863424, "lang": "en", "retweeted": false, "source": "<a href=\"http://www.tumblr.com/\" rel=\"nofollow\">Tumblr</a>", "text": "Photo: mysharona1987: I envy the satirical skills of Luke Massie Smith. http://t.co/pXSjK8bgoa", "truncated": false, "urls": {"http://t.co/pXSjK8bgoa": "http://tmblr.co/ZekVjn1oEsa5C"}, "user": {"created_at": "Wed Nov 09 17:23:21 +0000 2011", "default_profile": true, "description": "Complicated.", "favourites_count": 1634, "followers_count": 126, "friends_count": 852, "id": 408618430, "lang": "en", "listed_count": 7, "location": "St.Andrew, Jamaica", "name": "Son\u2600", "profile_background_color": "C0DEED", "profile_background_image_url": "http://abs.twimg.com/images/themes/theme1/bg.png", "profile_background_tile": false, "profile_banner_url": "https://pbs.twimg.com/profile_banners/408618430/1398183249", "profile_image_url": "https://pbs.twimg.com/profile_images/458639551603683328/9t63rsVr_normal.jpeg", "profile_link_color": "0084B4", "profile_sidebar_fill_color": "DDEEF6", "profile_text_color": "333333", "protected": false, "screen_name": "EgyptCatLover", "statuses_count": 54510}}
{"created_at": "Sun Jun 28 10:42:35 +0000 2015", "favorited": false, "id": 615108021602156544, "lang": "en", "retweeted": false, "source": "<a href=\"http://www.tumblr.com/\" rel=\"nofollow\">Tumblr</a>", "text": "Photo: mysharona1987: I envy the satirical skills of Luke Massie Smith. http://t.co/RtCt2TLCsQ", "truncated": false, "urls": {"http://t.co/RtCt2TLCsQ": "http://tmblr.co/ZeeIGm1oFV3DG"}, "user": {"created_at": "Tue Oct 14 11:11:50 +0000 2014", "description": "https://t.co/PUmVDV7Lt0  #BLM SJ Trying to be better. Aspergers. Cis/het. He/his/him. https://t.co/bJjpbAQ3XZ", "favourites_count": 28940, "followers_count": 699, "friends_count": 1155, "geo_enabled": true, "id": 2829352102, "lang": "en", "listed_count": 38, "location": "South Christiestan, soon DC,", "name": "AspiringBondVillain", "profile_background_color": "000000", "profile_background_image_url": "http://pbs.twimg.com/profile_background_images/522007318846656512/kGGwRSlu.jpeg", "profile_background_tile": false, "profile_banner_url": "https://pbs.twimg.com/profile_banners/2829352102/1413289547", "profile_image_url": "https://pbs.twimg.com/profile_images/682353027664244736/hemwGHoy_normal.jpg", "profile_link_color": "DD2E44", "profile_sidebar_fill_color": "000000", "profile_text_color": "000000", "protected": false, "screen_name": "ItsImrielJay", "statuses_count": 41329, "url": "https://t.co/r0iGgQ6Lsb"}}
{"created_at": "Sun Jun 28 14:36:59 +0000 2015", "favorited": false, "id": 615167010343886848, "lang": "en", "retweeted": false, "source": "<a href=\"http://www.tumblr.com/\" rel=\"nofollow\">Tumblr</a>", "text": "Photo: mysharona1987: I envy the satirical skills of Luke Massie Smith. http://t.co/KZNxHsqv0G", "truncated": false, "urls": {"http://t.co/KZNxHsqv0G": "http://tmblr.co/ZUTVSv1oG73e-"}, "user": {"created_at": "Sat Nov 28 03:52:10 +0000 2009", "description": "A Satanist angry that the world sucks so hard. Contact me on LJ if you follow me.", "favourites_count": 1, "followers_count": 118, "friends_count": 199, "geo_enabled": true, "id": 93113714, "lang": "en", "listed_count": 14, "location": "Portland, Oregon", "name": "Alexander Antonin", "profile_background_color": "C0DEED", "profile_background_image_url": "http://pbs.twimg.com/profile_background_images/166484215/satanic.jpg", "profile_background_tile": true, "profile_banner_url": "https://pbs.twimg.com/profile_banners/93113714/1398339052", "profile_image_url": "https://pbs.twimg.com/profile_images/1151830163/icon_normal.jpg", "profile_link_color": "0084B4", "profile_sidebar_fill_color": "DDEEF6", "profile_text_color": "333333", "protected": false, "screen_name": "alex_antonin", "statuses_count": 28345, "time_zone": "Pacific Time (US & Canada)", "utc_offset": -28800}}
{"created_at": "Sun Jun 28 15:49:50 +0000 2015", "favorited": false, "id": 615185342967123968, "lang": "en", "place": {"attributes": {}, "bounding_box": {"coordinates": [[[-85.605166, 30.355644], [-80.742567, 30.355644], [-80.742567, 35.000771], [-85.605166, 35.000771]]], "type": "Polygon"}, "contained_within": [], "country": "United States", "country_code": "US", "full_name": "Georgia, USA", "id": "7142eb97ae21e839", "name": "Georgia", "place_type": "admin", "url": "https://api.twitter.com/1.1/geo/id/7142eb97ae21e839.json"}, "retweeted": false, "source": "<a href=\"http://twitter.com/download/android\" rel=\"nofollow\">Twitter for Android</a>", "text": "Critical Massie http://t.co/5kJiMYJhta via @po_st.   I have actually seen nothing Confederate in WALMART for years, anyway.", "truncated": false, "urls": {"http://t.co/5kJiMYJhta": "http://po.st/suefip"}, "user": {"created_at": "Fri Jun 26 20:15:09 +0000 2015", "default_profile": true, "description": "I am a Southern Nationalist. I work and pray for freedom from the Yankee Empire. The northern liberals work to destroy every vestage of bible Belt DIXIE.", "favourites_count": 7, "followers_count": 233, "friends_count": 183, "geo_enabled": true, "id": 3257014670, "lang": "en", "listed_count": 1, "location": "Villa Rica,Georgia 30180", "name": "Richard Wright", "profile_background_color": "C0DEED", "profile_background_image_url": "http://abs.twimg.com/images/themes/theme1/bg.png", "profile_background_tile": false, "profile_banner_url": "https://pbs.twimg.com/profile_banners/3257014670/1436935594", "profile_image_url": "https://pbs.twimg.com/profile_images/621179023217942530/Zbq18L6T_normal.jpg", "profile_link_color": "0084B4", "profile_sidebar_fill_color": "DDEEF6", "profile_text_color": "333333", "protected": false, "screen_name": "richardwright62", "statuses_count": 451}, "user_mentions": [{"id": 386270039, "name": "Po.st", "screen_name": "Po_st"}]}
{"created_at": "Sun Jun 28 16:56:38 +0000 2015", "favorite_count": 1, "favorited": false, "hashtags": ["BreeNewsome", "TakeItDown"], "id": 615202157722103808, "lang": "en", "retweeted": false, "source": "<a href=\"http://twitter.com\" rel=\"nofollow\">Twitter Web Client</a>", "text": "Thank you Luke Massie-Smith whoever you are. #BreeNewsome #TakeItDown \nhttp://t.co/Zs8OlbnWKm", "truncated": false, "urls": {"http://t.co/Zs8OlbnWKm": "http://m.snopes.com/2015/06/25/luke-massie-smith/#m055KYm04rXeJ3vR.03"}, "user": {"created_at": "Tue Aug 18 15:01:52 +0000 2009", "description": "the great thing about expecting the worst is that you can only be pleasantly surprised.", "favourites_count": 273, "followers_count": 84, "friends_count": 627, "geo_enabled": true, "id": 66702209, "lang": "en", "listed_count": 5, "name": "Sunset Parker", "profile_background_color": "000000", "profile_background_image_url": "http://abs.twimg.com/images/themes/theme1/bg.png", "profile_background_tile": false, "profile_banner_url": "https://pbs.twimg.com/profile_banners/66702209/1425053122", "profile_image_url": "https://pbs.twimg.com/profile_images/571319016258433024/kkXtAKue_normal.jpeg", "profile_link_color": "ABB8C2", "profile_sidebar_fill_color": "000000", "profile_text_color": "000000", "protected": false, "screen_name": "SunsetParker", "statuses_count": 1663, "time_zone": "Eastern Time (US & Canada)", "utc_offset": -18000}}
{"created_at": "Sun Jun 28 18:42:43 +0000 2015", "favorited": false, "id": 615228853062115329, "lang": "en", "retweeted": false, "source": "<a href=\"http://www.tumblr.com/\" rel=\"nofollow\">Tumblr</a>", "text": "Photo: mysharona1987: icha-icha-akatsuki: mysharona1987: I envy the satirical skills of Luke Massie Smith.... http://t.co/REf4PQ6Pr2", "truncated": false, "urls": {"http://t.co/REf4PQ6Pr2": "http://tmblr.co/ZNARMt1oH74tL"}, "user": {"created_at": "Wed Dec 01 23:33:04 +0000 2010", "favourites_count": 7615, "followers_count": 263, "friends_count": 156, "id": 221911728, "lang": "en", "listed_count": 9, "location": "Las Vegas, NV", "name": "RajD", "profile_background_color": "1A1B1F", "profile_background_image_url": "http://abs.twimg.com/images/themes/theme9/bg.gif", "profile_background_tile": false, "profile_image_url": "https://pbs.twimg.com/profile_images/663866144017674240/QXOXp7yS_normal.jpg", "profile_link_color": "14106E", "profile_sidebar_fill_color": "252429", "profile_text_color": "666666", "protected": false, "screen_name": "RajDakkar", "statuses_count": 30611, "time_zone": "Central Time (US & Canada)", "utc_offset": -21600}}
{"created_at": "Sun Jun 28 23:37:15 +0000 2015", "favorited": false, "id": 615302972818362368, "lang": "en", "retweeted": false, "source": "<a href=\"http://twitter.com/download/android\" rel=\"nofollow\">Twitter for Android</a>", "text": "\ud83d\ude02\ud83d\ude02 I think I'm in love with Luke Massie-Smith  https://t.co/uBq3Pk4lXO", "truncated": false, "urls": {"https://t.co/uBq3Pk4lXO": "https://twitter.com/AnthonyBLSmith/status/613841226756947968"}, "user": {"created_at": "Fri Oct 26 13:05:00 +0000 2012", "description": "Ninja. Nutella enthusiast. Boss of the Entire Internet.", "favourites_count": 7480, "followers_count": 1681, "friends_count": 1315, "geo_enabled": true, "id": 905966455, "lang": "en", "listed_count": 52, "location": "Australia", "name": "That's Not My Name", "profile_background_color": "F2EEEF", "profile_background_image_url": "http://pbs.twimg.com/profile_background_images/752510265/aa50953e70feaaeddf67fd3fa709e3b0.png", "profile_background_tile": true, "profile_banner_url": "https://pbs.twimg.com/profile_banners/905966455/1404137665", "profile_image_url": "https://pbs.twimg.com/profile_images/684316404032487425/H2iCcQEK_normal.jpg", "profile_link_color": "9266CC", "profile_sidebar_fill_color": "FAFAFA", "profile_text_color": "8F2E2E", "protected": false, "screen_name": "_little_old_me", "statuses_count": 11405, "time_zone": "Brisbane", "url": "https://t.co/KyVwfhfbGB", "utc_offset": 36000}}
{"created_at": "Thu Jul 02 03:44:27 +0000 2015", "favorited": false, "id": 616452347472932864, "lang": "en", "retweeted": false, "source": "<a href=\"http://www.facebook.com/twitter\" rel=\"nofollow\">Facebook</a>", "text": "Luke Massie-Smith wins the Internet Comment of the Day Award!  This is so hilarious.  You must, simply must read... http://t.co/glbZ6ekRGO", "truncated": false, "urls": {"http://t.co/glbZ6ekRGO": "http://fb.me/1ftXKTjq4"}, "user": {"created_at": "Sun Nov 07 19:15:27 +0000 2010", "default_profile": true, "description": "Arbiter of bogosity at the War on Ignorance.  Nobody else was doing it, and it needs to be done.", "favourites_count": 5, "followers_count": 37, "friends_count": 81, "id": 213026670, "lang": "en", "listed_count": 11, "name": "AntiBogon", "profile_background_color": "C0DEED", "profile_background_image_url": "http://abs.twimg.com/images/themes/theme1/bg.png", "profile_background_tile": false, "profile_banner_url": "https://pbs.twimg.com/profile_banners/213026670/1359496056", "profile_image_url": "https://pbs.twimg.com/profile_images/3181040019/68f111f6a659107db61c04ea6f0af11c_normal.jpeg", "profile_link_color": "0084B4", "profile_sidebar_fill_color": "DDEEF6", "profile_text_color": "333333", "protected": false, "screen_name": "antibogon", "statuses_count": 12590, "url": "http://t.co/GTCztTCnlx"}}
{"created_at": "Sat Jul 04 15:03:04 +0000 2015", "favorited": false, "id": 617347902164307968, "lang": "en", "retweeted": false, "source": "<a href=\"http://www.tumblr.com/\" rel=\"nofollow\">Tumblr</a>", "text": "Photo: thisisscribe: mysharona1987: I envy the satirical skills of Luke Massie Smith. Golden. Absolutely... http://t.co/WtqJiQwt7L", "truncated": false, "urls": {"http://t.co/WtqJiQwt7L": "http://tmblr.co/ZbyNzp1olXgqW"}, "user": {"created_at": "Sat Jan 24 17:34:28 +0000 2015", "favourites_count": 204, "followers_count": 9, "friends_count": 24, "id": 2996212991, "lang": "en", "listed_count": 1, "location": "The Moon", "name": "robot_on_the_moon", "profile_background_color": "000000", "profile_background_image_url": "http://abs.twimg.com/images/themes/theme1/bg.png", "profile_background_tile": false, "profile_banner_url": "https://pbs.twimg.com/profile_banners/2996212991/1422121911", "profile_image_url": "https://pbs.twimg.com/profile_images/559041784378970112/luhjKXGk_normal.jpeg", "profile_link_color": "000000", "profile_sidebar_fill_color": "000000", "profile_text_color": "000000", "protected": false, "screen_name": "TheMoonbot", "statuses_count": 606, "url": "http://t.co/QCnc4L7p4r"}}
