{"created_at": "Tue Jun 23 02:21:44 +0000 2015", "favorited": false, "id": 613170039072526336, "lang": "en", "place": {"attributes": {}, "bounding_box": {"coordinates": [[[120.8986521, 14.3477314], [121.1357656, 14.3477314], [121.1357656, 14.7873208], [120.8986521, 14.7873208]]], "type": "Polygon"}, "contained_within": [], "country": "Republika ng Pilipinas", "country_code": "PH", "full_name": "National Capital Region, Republic of the Philippines", "id": "53df18e21825a89c", "name": "National Capital Region", "place_type": "admin", "url": "https://api.twitter.com/1.1/geo/id/53df18e21825a89c.json"}, "retweeted": false, "source": "<a href=\"http://twitter.com\" rel=\"nofollow\">Twitter Web Client</a>", "text": "I Thought Dearborn was a part of the  USA there is no calamity except Ramadan then why is there a curfew ? They cant impose a curfew on us", "truncated": false, "user": {"created_at": "Mon Aug 11 00:32:35 +0000 2014", "description": "Islam is a threat to all freedom loving Americans. We must all work together to get rid of Islam http://t.co/aMrQIN4358", "favourites_count": 12, "followers_count": 1960, "friends_count": 2025, "geo_enabled": true, "id": 2722776560, "lang": "en", "listed_count": 62, "name": "Trinity West", "profile_background_color": "ACDED6", "profile_background_image_url": "http://abs.twimg.com/images/themes/theme18/bg.gif", "profile_background_tile": false, "profile_image_url": "https://pbs.twimg.com/profile_images/498643784180039680/Q9L-e_Gr_normal.jpeg", "profile_link_color": "038543", "profile_sidebar_fill_color": "F6F6F6", "profile_text_color": "333333", "protected": false, "screen_name": "xertx3", "statuses_count": 28997, "time_zone": "Urumqi", "url": "https://t.co/q8XzFhDWCp", "utc_offset": 21600}}
{"created_at": "Tue Jun 23 05:49:25 +0000 2015", "favorited": false, "id": 613222305024446464, "lang": "en", "retweeted": false, "source": "<a href=\"http://twitter.com\" rel=\"nofollow\">Twitter Web Client</a>", "text": "Dearborn, MI Curfew for Ramadan http://t.co/dRvu1v8Hdz", "truncated": false, "urls": {"http://t.co/dRvu1v8Hdz": "http://www.arabamericannews.com/news/news/id_10631/rp_0/act_print/rf_1/Print.html"}, "user": {"created_at": "Sun Oct 19 04:21:27 +0000 2014", "description": "Detroit Red Wings \u2764  #Conservative #Patriot   #SupportMilitary #1A #2A #NRAMember  #ProIsrael  #SecureUSBorder #NoAmnesty   #Trump2016 #MakeAmericaGreatAgain", "favourites_count": 1984, "followers_count": 1725, "friends_count": 1830, "id": 2864045942, "lang": "en", "listed_count": 14, "location": "Dearborn U.S.A", "name": "Shorty & Sweet", "profile_background_color": "DD2E44", "profile_background_image_url": "http://pbs.twimg.com/profile_background_images/545008670468091904/6mcJWRu3.jpeg", "profile_background_tile": false, "profile_banner_url": "https://pbs.twimg.com/profile_banners/2864045942/1445219185", "profile_image_url": "https://pbs.twimg.com/profile_images/685576913813807104/EArVsiL7_normal.png", "profile_link_color": "DD2E44", "profile_sidebar_fill_color": "000000", "profile_text_color": "000000", "protected": false, "screen_name": "Shorty7256", "statuses_count": 2253}}
{"created_at": "Tue Jun 23 12:24:03 +0000 2015", "favorited": false, "hashtags": ["Islamophobic", "Muslims"], "id": 613321618497085440, "lang": "en", "retweeted": false, "source": "<a href=\"https://about.twitter.com/products/tweetdeck\" rel=\"nofollow\">TweetDeck</a>", "text": ".@barenakedislam another #Islamophobic website says that Dearborn, MI, police will enforce curfew \"during\" Ramadan to accommodate #Muslims..", "truncated": false, "user": {"created_at": "Wed Apr 14 11:09:06 +0000 2010", "description": "Previous @NBCNews | Links are not endorsements. Opinions are my own.", "favourites_count": 38, "followers_count": 468, "friends_count": 176, "id": 132860699, "lang": "en", "listed_count": 13, "location": "New York", "name": "Azhar Fateh", "profile_background_color": "141211", "profile_background_image_url": "http://abs.twimg.com/images/themes/theme14/bg.gif", "profile_background_tile": true, "profile_banner_url": "https://pbs.twimg.com/profile_banners/132860699/1439413843", "profile_image_url": "https://pbs.twimg.com/profile_images/629008073856716800/A_9NFsEZ_normal.jpg", "profile_link_color": "FA743E", "profile_sidebar_fill_color": "EFEFEF", "profile_text_color": "333333", "protected": false, "screen_name": "Ali_AzharFateh", "statuses_count": 12262, "time_zone": "Central Time (US & Canada)", "utc_offset": -21600}, "user_mentions": [{"id": 18118505, "name": "barenakedislam", "screen_name": "barenakedislam"}]}
{"created_at": "Tue Jun 23 12:25:16 +0000 2015", "favorited": false, "id": 613321924442255360, "lang": "en", "retweet_count": 1, "retweeted": false, "source": "<a href=\"https://about.twitter.com/products/tweetdeck\" rel=\"nofollow\">TweetDeck</a>", "text": "Truth is that the curfew is not specific to Ramadan. Its an on-going law part of the Michigan\u2019s Code of Ordinances http://t.co/riujv1wu4M", "truncated": false, "urls": {"http://t.co/riujv1wu4M": "http://www.barenakedislam.com/2015/06/22/dearbornistan-muslim-police-to-enforce-sharia-compliant-curfew-during-month-of-ramadamadingdong/"}, "user": {"created_at": "Wed Apr 14 11:09:06 +0000 2010", "description": "Previous @NBCNews | Links are not endorsements. Opinions are my own.", "favourites_count": 38, "followers_count": 468, "friends_count": 176, "id": 132860699, "lang": "en", "listed_count": 13, "location": "New York", "name": "Azhar Fateh", "profile_background_color": "141211", "profile_background_image_url": "http://abs.twimg.com/images/themes/theme14/bg.gif", "profile_background_tile": true, "profile_banner_url": "https://pbs.twimg.com/profile_banners/132860699/1439413843", "profile_image_url": "https://pbs.twimg.com/profile_images/629008073856716800/A_9NFsEZ_normal.jpg", "profile_link_color": "FA743E", "profile_sidebar_fill_color": "EFEFEF", "profile_text_color": "333333", "protected": false, "screen_name": "Ali_AzharFateh", "statuses_count": 12262, "time_zone": "Central Time (US & Canada)", "utc_offset": -21600}}
{"created_at": "Tue Jun 23 13:16:12 +0000 2015", "favorite_count": 1, "favorited": false, "id": 613334742818230272, "in_reply_to_screen_name": "DianeAStraley", "in_reply_to_status_id": 613318763417448448, "in_reply_to_user_id": 289035534, "lang": "en", "retweeted": false, "source": "<a href=\"http://www.hootsuite.com\" rel=\"nofollow\">Hootsuite</a>", "text": "@DianeAStraley There is no curfew in Dearborn - during Ramadan or otherwise.", "truncated": false, "user": {"created_at": "Tue Apr 21 18:33:32 +0000 2009", "description": "Delivering superior public service and earning the public's trust every day. 313-943-2000. Tweets monitored 8 a.m to 5 p.m. Mon-Fri.", "favourites_count": 93, "followers_count": 3522, "friends_count": 182, "id": 33992751, "lang": "en", "listed_count": 62, "location": "Dearborn, Michigan, USA", "name": "City of Dearborn MI", "profile_background_color": "B2DFDA", "profile_background_image_url": "http://pbs.twimg.com/profile_background_images/561438164/CITYsimplebluegradiant.png", "profile_background_tile": false, "profile_banner_url": "https://pbs.twimg.com/profile_banners/33992751/1444761555", "profile_image_url": "https://pbs.twimg.com/profile_images/2633735591/cb51553da0a422fd24fbf5160b290394_normal.png", "profile_link_color": "002D5F", "profile_sidebar_fill_color": "C7F2FF", "profile_text_color": "333333", "protected": false, "screen_name": "cityofdearborn", "statuses_count": 4927, "time_zone": "Eastern Time (US & Canada)", "url": "http://t.co/r0M9vGfCJ6", "utc_offset": -18000, "verified": true}, "user_mentions": [{"id": 289035534, "name": "Diane", "screen_name": "DianeAStraley"}]}
{"created_at": "Tue Jun 23 17:50:05 +0000 2015", "favorited": false, "id": 613403669552205824, "lang": "en", "media": [{"display_url": "pic.twitter.com/TeHObKuKxJ", "expanded_url": "http://twitter.com/pearlskylar1/status/613403669552205824/photo/1", "id": 613403668348428289, "id_str": "613403668348428289", "indices": [118, 140], "media_url": "http://pbs.twimg.com/media/CIM_YuvUYAEjbqw.jpg", "media_url_https": "https://pbs.twimg.com/media/CIM_YuvUYAEjbqw.jpg", "sizes": {"large": {"h": 314, "resize": "fit", "w": 600}, "medium": {"h": 314, "resize": "fit", "w": 600}, "small": {"h": 177, "resize": "fit", "w": 340}, "thumb": {"h": 150, "resize": "crop", "w": 150}}, "type": "photo", "url": "http://t.co/TeHObKuKxJ"}], "retweet_count": 3, "retweeted": false, "source": "<a href=\"http://twitter.com\" rel=\"nofollow\">Twitter Web Client</a>", "text": "Ramadan, Dearborn M.pol.chief announced that he\u2019s enforcing curfew on all \u2014 includ.Christians: http://t.co/03f6cjTn2K http://t.co/TeHObKuKxJ", "truncated": false, "urls": {"http://t.co/03f6cjTn2K": "http://conservativetribune.com/muslim-police-chief-dearborn/"}, "user": {"created_at": "Thu Oct 09 00:41:55 +0000 2014", "default_profile": true, "description": "Crusader for the right!", "favourites_count": 31, "followers_count": 744, "friends_count": 2017, "id": 2817679755, "lang": "en", "listed_count": 22, "name": "Suzanne Bird", "profile_background_color": "C0DEED", "profile_background_image_url": "http://abs.twimg.com/images/themes/theme1/bg.png", "profile_background_tile": false, "profile_image_url": "https://pbs.twimg.com/profile_images/561248556330127360/o56gDtav_normal.jpeg", "profile_link_color": "0084B4", "profile_sidebar_fill_color": "DDEEF6", "profile_text_color": "333333", "protected": false, "screen_name": "pearlskylar1", "statuses_count": 10982}}
{"created_at": "Tue Jun 23 20:27:41 +0000 2015", "favorited": false, "id": 613443329779331073, "lang": "en", "retweet_count": 4, "retweeted": false, "source": "<a href=\"http://twitter.com\" rel=\"nofollow\">Twitter Web Client</a>", "text": "Dearbonr Michigan - Muslim Police Chief To Enforce Sharia Compliant Curfew During Month Of Ramadan\u2026Even On Christians http://t.co/zDNl0VX7sx", "truncated": false, "urls": {"http://t.co/zDNl0VX7sx": "http://shoebat.com/2015/06/23/dearbornistan-muslim-police-chief-to-enforce-sharia-compliant-curfew-during-month-of-ramadaneven-on-christians/"}, "user": {"created_at": "Sun Aug 01 12:20:12 +0000 2010", "description": "Catholic Theologian Vatican degree from Rome.Tea Party Speaker. Filmmaker - I Directed a Lenscrafters Commercial https://t.co/TX90Gy9HA7 My Director Reel Below", "favourites_count": 73, "followers_count": 14467, "friends_count": 1339, "geo_enabled": true, "id": 173419089, "lang": "en", "listed_count": 339, "location": "USA", "name": "Angelica Salda\u00f1a", "profile_background_color": "FFFFFF", "profile_background_image_url": "http://pbs.twimg.com/profile_background_images/449179127/x645488cf7856844fae211ce0a8a49b4.png", "profile_background_tile": false, "profile_banner_url": "https://pbs.twimg.com/profile_banners/173419089/1424374450", "profile_image_url": "https://pbs.twimg.com/profile_images/662079017974108160/FCtUHHJ__normal.jpg", "profile_link_color": "0099FF", "profile_sidebar_fill_color": "C3D3EB", "profile_text_color": "0C93A5", "protected": false, "screen_name": "AngelofYHVH", "statuses_count": 30287, "time_zone": "Pacific Time (US & Canada)", "url": "https://t.co/NUMavgSysR", "utc_offset": -28800}}
{"created_at": "Tue Jun 23 22:48:49 +0000 2015", "favorite_count": 14, "favorited": false, "hashtags": ["dearborn", "Ramadan2015"], "id": 613478845556072449, "lang": "en", "media": [{"display_url": "pic.twitter.com/znWpzHmHJh", "expanded_url": "http://twitter.com/snopes/status/613478845556072449/photo/1", "id": 613478845103128576, "id_str": "613478845103128576", "indices": [110, 132], "media_url": "http://pbs.twimg.com/media/CIODwl-WwAA0B3g.jpg", "media_url_https": "https://pbs.twimg.com/media/CIODwl-WwAA0B3g.jpg", "sizes": {"large": {"h": 450, "resize": "fit", "w": 800}, "medium": {"h": 337, "resize": "fit", "w": 600}, "small": {"h": 191, "resize": "fit", "w": 340}, "thumb": {"h": 150, "resize": "crop", "w": 150}}, "type": "photo", "url": "http://t.co/znWpzHmHJh"}], "retweet_count": 13, "retweeted": false, "source": "<a href=\"http://twitter.com\" rel=\"nofollow\">Twitter Web Client</a>", "text": "The @cityofdearborn still isn't forcing Sharia law on people:\n\nhttp://t.co/Q9OR0wshOE\n\n#dearborn #Ramadan2015 http://t.co/znWpzHmHJh", "truncated": false, "urls": {"http://t.co/Q9OR0wshOE": "http://m.snopes.com/dearborn-ramadan-curfew/"}, "user": {"created_at": "Thu Apr 03 17:00:11 +0000 2008", "description": "The definitive Internet reference source for urban legends, folklore, myths, rumors, and misinformation.", "favourites_count": 12, "followers_count": 118635, "id": 14294848, "lang": "en", "listed_count": 3239, "name": "snopes.com", "profile_background_color": "C7F2B1", "profile_background_image_url": "http://pbs.twimg.com/profile_background_images/840081271/d90db0daf7c81f75aea62d88c084e755.png", "profile_background_tile": false, "profile_banner_url": "https://pbs.twimg.com/profile_banners/14294848/1365714336", "profile_image_url": "https://pbs.twimg.com/profile_images/3507964197/be9d1840411bca2d8101382340f58957_normal.png", "profile_link_color": "81D159", "profile_sidebar_fill_color": "DDEEF6", "profile_text_color": "333333", "protected": false, "screen_name": "snopes", "statuses_count": 4864, "time_zone": "Pacific Time (US & Canada)", "url": "http://t.co/10Or8rl3ff", "utc_offset": -28800, "verified": true}, "user_mentions": [{"id": 33992751, "name": "City of Dearborn MI", "screen_name": "cityofdearborn"}]}
{"created_at": "Tue Jun 23 22:57:18 +0000 2015", "favorited": false, "hashtags": ["dearborn", "Ramadan2015"], "id": 613480980410683392, "lang": "en", "media": [{"display_url": "pic.twitter.com/PmfrYeaFAb", "expanded_url": "http://twitter.com/snopes/status/613478845556072449/photo/1", "id": 613478845103128576, "id_str": "613478845103128576", "indices": [109, 131], "media_url": "http://pbs.twimg.com/media/CIODwl-WwAA0B3g.jpg", "media_url_https": "https://pbs.twimg.com/media/CIODwl-WwAA0B3g.jpg", "sizes": {"large": {"h": 450, "resize": "fit", "w": 800}, "medium": {"h": 337, "resize": "fit", "w": 600}, "small": {"h": 191, "resize": "fit", "w": 340}, "thumb": {"h": 150, "resize": "crop", "w": 150}}, "source_status_id": 613478845556072449, "source_status_id_str": "613478845556072449", "source_user_id": 14294848, "source_user_id_str": "14294848", "type": "photo", "url": "http://t.co/PmfrYeaFAb"}], "retweeted": false, "source": "<a href=\"http://ifttt.com\" rel=\"nofollow\">IFTTT</a>", "text": "The cityofdearborn still isn't forcing Sharia law on people:\n\nhttp://t.co/eYsft3EVC3\n\n#dearborn #Ramadan2015 http://t.co/PmfrYeaFAb", "truncated": false, "urls": {"http://t.co/eYsft3EVC3": "http://m.snopes.com/dearborn-ramadan-curfew/"}, "user": {"created_at": "Mon Jan 28 14:40:52 +0000 2013", "default_profile": true, "description": "I tweet about all things in Cape Town. #CapeFact The Mother City. For info in events: #CapeEvents. Also #capetownfairy me for any quests", "favourites_count": 661, "followers_count": 2629, "friends_count": 2735, "id": 1128255048, "lang": "en", "listed_count": 90, "location": "Cape Town", "name": "Cape Town Fairy", "profile_background_color": "C0DEED", "profile_background_image_url": "http://abs.twimg.com/images/themes/theme1/bg.png", "profile_background_tile": false, "profile_banner_url": "https://pbs.twimg.com/profile_banners/1128255048/1359385361", "profile_image_url": "https://pbs.twimg.com/profile_images/3175089990/ddcec258fe970be63266d343dc094577_normal.png", "profile_link_color": "0084B4", "profile_sidebar_fill_color": "DDEEF6", "profile_text_color": "333333", "protected": false, "screen_name": "CapeTownFairy", "statuses_count": 73272, "time_zone": "Athens", "utc_offset": 7200}}
{"created_at": "Tue Jun 23 23:07:52 +0000 2015", "favorited": false, "id": 613483639528128512, "lang": "en", "retweeted": false, "source": "<a href=\"http://twitter.com\" rel=\"nofollow\">Twitter Web Client</a>", "text": "DEARBORNISTAN: Michigan Muslim police chief to enforce sharia-compliant curfew during month of Ramadan\u2026eve\u2026 http://t.co/UqIp4Hn5IA", "truncated": false, "urls": {"http://t.co/UqIp4Hn5IA": "http://shoebat.com/2015/06/23/dearbornistan-muslim-police-chief-to-enforce-sharia-compliant-curfew-during-month-of-ramadaneven-on-christians/"}, "user": {"created_at": "Fri Mar 04 20:27:08 +0000 2011", "default_profile": true, "default_profile_image": true, "favourites_count": 78, "followers_count": 50, "friends_count": 110, "id": 260886596, "lang": "en", "listed_count": 3, "name": "Theodore Messiah", "profile_background_color": "C0DEED", "profile_background_image_url": "http://abs.twimg.com/images/themes/theme1/bg.png", "profile_background_tile": false, "profile_image_url": "https://abs.twimg.com/sticky/default_profile_images/default_profile_5_normal.png", "profile_link_color": "0084B4", "profile_sidebar_fill_color": "DDEEF6", "profile_text_color": "333333", "protected": false, "screen_name": "TheoMessiah", "statuses_count": 12912}}
{"created_at": "Tue Jun 23 23:50:51 +0000 2015", "favorited": false, "hashtags": ["Dearborn"], "id": 613494458995376128, "lang": "en", "media": [{"display_url": "pic.twitter.com/nkAdZcfcuh", "expanded_url": "http://twitter.com/Hoaxolizer/status/613494458995376128/photo/1", "id": 613494458894655488, "id_str": "613494458894655488", "indices": [48, 70], "media_url": "http://pbs.twimg.com/media/CIOR9b4WIAAPj8L.jpg", "media_url_https": "https://pbs.twimg.com/media/CIOR9b4WIAAPj8L.jpg", "sizes": {"large": {"h": 450, "resize": "fit", "w": 800}, "medium": {"h": 337, "resize": "fit", "w": 600}, "small": {"h": 191, "resize": "fit", "w": 340}, "thumb": {"h": 150, "resize": "crop", "w": 150}}, "type": "photo", "url": "http://t.co/nkAdZcfcuh"}], "retweeted": false, "source": "<a href=\"http://leadstories.com\" rel=\"nofollow\">Lead Stories Feed Publisher</a>", "text": "#Dearborn Ramadan Curfew http://t.co/9eBYXQLGGY http://t.co/nkAdZcfcuh", "truncated": false, "urls": {"http://t.co/9eBYXQLGGY": "http://hoax.trendolizer.com/2015/06/dearborn-ramadan-curfew.html"}, "user": {"created_at": "Tue Oct 21 09:02:21 +0000 2014", "default_profile": true, "description": "The most trending news about hoaxes as collected by Trendolizer", "followers_count": 660, "friends_count": 429, "id": 2839486181, "lang": "en", "listed_count": 65, "name": "Trending Hoax News", "profile_background_color": "C0DEED", "profile_background_image_url": "http://abs.twimg.com/images/themes/theme1/bg.png", "profile_background_tile": false, "profile_banner_url": "https://pbs.twimg.com/profile_banners/2839486181/1413882440", "profile_image_url": "https://pbs.twimg.com/profile_images/524486681945067520/woFPZPVc_normal.jpeg", "profile_link_color": "0084B4", "profile_sidebar_fill_color": "DDEEF6", "profile_text_color": "333333", "protected": false, "screen_name": "Hoaxolizer", "statuses_count": 13011, "url": "http://t.co/7pRPb4ABpu"}}
{"created_at": "Tue Jun 23 23:52:00 +0000 2015", "favorited": false, "id": 613494748339253248, "in_reply_to_screen_name": "4joachim", "in_reply_to_status_id": 613397772440440832, "in_reply_to_user_id": 325893346, "lang": "en", "retweeted": false, "source": "<a href=\"http://twitter.com\" rel=\"nofollow\">Twitter Web Client</a>", "text": "@4joachim @conserv_tribune Try again: http://t.co/8dYyYmUqKC", "truncated": false, "urls": {"http://t.co/8dYyYmUqKC": "http://m.snopes.com/dearborn-ramadan-curfew/"}, "user": {"created_at": "Sat Aug 20 12:35:17 +0000 2011", "description": "The Romantic Egotist. Changed by the Rubber, the Iron & Knives. The Name took his Mind, his Soul & his Lives.", "favourites_count": 1401, "followers_count": 315, "friends_count": 138, "id": 358743705, "lang": "en", "listed_count": 13, "location": "Fallen London", "name": "Nigel Overstreet", "profile_background_color": "C0DEED", "profile_background_image_url": "http://pbs.twimg.com/profile_background_images/395383864/Victorian_Wallpaper.jpg", "profile_background_tile": true, "profile_banner_url": "https://pbs.twimg.com/profile_banners/358743705/1398217963", "profile_image_url": "https://pbs.twimg.com/profile_images/533870559818313728/SBIQtzqS_normal.jpeg", "profile_link_color": "0084B4", "profile_sidebar_fill_color": "DDEEF6", "profile_text_color": "333333", "protected": false, "screen_name": "N_Overstreet", "statuses_count": 4792, "time_zone": "Central Time (US & Canada)", "url": "http://t.co/w0l14PuAQQ", "utc_offset": -21600}, "user_mentions": [{"id": 325893346, "name": "Original Argument", "screen_name": "4joachim"}, {"id": 2217181338, "name": "Conservative Tribune", "screen_name": "conserv_tribune"}]}
{"created_at": "Wed Jun 24 00:20:03 +0000 2015", "favorited": false, "id": 613501805603876864, "lang": "en", "retweeted": false, "source": "<a href=\"http://twitterfeed.com\" rel=\"nofollow\">twitterfeed</a>", "text": "Snopes: Ramadan Your Throat: Rumor: The City of Dearborn, Michigan is forcing Christians to observe a curfew f... http://t.co/075Re4TeUQ", "truncated": false, "urls": {"http://t.co/075Re4TeUQ": "http://bit.ly/1N7RQwh"}, "user": {"created_at": "Thu Oct 09 17:37:27 +0000 2008", "description": "Let's make critical thinking easy (and fun).", "favourites_count": 4, "followers_count": 3834, "friends_count": 677, "id": 16669742, "lang": "en", "listed_count": 272, "location": "Everywhere", "name": "Skeptic Network", "profile_background_color": "000000", "profile_background_image_url": "http://pbs.twimg.com/profile_background_images/4759267/fractile_dk.jpg", "profile_background_tile": true, "profile_banner_url": "https://pbs.twimg.com/profile_banners/16669742/1360552274", "profile_image_url": "https://pbs.twimg.com/profile_images/90185083/fractile_sing_SN3_normal.jpg", "profile_link_color": "B00B07", "profile_sidebar_fill_color": "EBECEF", "profile_text_color": "15377E", "protected": false, "screen_name": "SkepNet", "statuses_count": 18326, "time_zone": "Eastern Time (US & Canada)", "utc_offset": -18000}}
{"created_at": "Wed Jun 24 00:20:06 +0000 2015", "favorited": false, "id": 613501817557651456, "lang": "en", "retweeted": false, "source": "<a href=\"http://twitterfeed.com\" rel=\"nofollow\">twitterfeed</a>", "text": "urban legend: Rumor: The City of Dearborn, Michigan is forcing Christians to observe a curfew for Ramadan. http://t.co/7jlrfv7Vyv", "truncated": false, "urls": {"http://t.co/7jlrfv7Vyv": "http://bit.ly/1fyPagu"}, "user": {"created_at": "Fri Feb 06 02:21:17 +0000 2009", "default_profile": true, "followers_count": 316, "friends_count": 33, "id": 20211460, "lang": "en", "listed_count": 12, "name": "Urban Legends", "profile_background_color": "C0DEED", "profile_background_image_url": "http://abs.twimg.com/images/themes/theme1/bg.png", "profile_background_tile": false, "profile_image_url": "https://pbs.twimg.com/profile_images/607710950532083713/MvenxG0Z_normal.jpg", "profile_link_color": "0084B4", "profile_sidebar_fill_color": "DDEEF6", "profile_text_color": "333333", "protected": false, "screen_name": "UrbanLegends", "statuses_count": 2213, "time_zone": "Eastern Time (US & Canada)", "utc_offset": -18000}}
{"created_at": "Wed Jun 24 00:20:09 +0000 2015", "favorited": false, "id": 613501829159063552, "lang": "en", "retweeted": false, "source": "<a href=\"http://twitterfeed.com\" rel=\"nofollow\">twitterfeed</a>", "text": "Snopes- Ramadan Your Throat http://t.co/9oqwhWDVuP", "truncated": false, "urls": {"http://t.co/9oqwhWDVuP": "http://bit.ly/1fyPagu"}, "user": {"created_at": "Wed Oct 29 14:35:02 +0000 2008", "default_profile": true, "description": "Random Headlines", "followers_count": 122, "friends_count": 13, "id": 17042353, "lang": "en", "listed_count": 3, "location": "Random", "name": "Headline Post", "profile_background_color": "C0DEED", "profile_background_image_url": "http://abs.twimg.com/images/themes/theme1/bg.png", "profile_background_tile": false, "profile_image_url": "https://pbs.twimg.com/profile_images/63101611/headline_normal.jpg", "profile_link_color": "0084B4", "profile_sidebar_fill_color": "DDEEF6", "profile_text_color": "333333", "protected": false, "screen_name": "headlinepost", "statuses_count": 15917, "time_zone": "Central Time (US & Canada)", "utc_offset": -21600}}
{"created_at": "Wed Jun 24 00:39:14 +0000 2015", "favorited": false, "id": 613506635596713984, "lang": "en", "retweeted": false, "source": "<a href=\"http://twitter.com/download/iphone\" rel=\"nofollow\">Twitter for iPhone</a>", "text": "Yes I agree http://t.co/hkUc1uLxWl https://t.co/8tk4a1Dhun", "truncated": false, "urls": {"http://t.co/hkUc1uLxWl": "http://m.snopes.com/dearborn-ramadan-curfew/", "https://t.co/8tk4a1Dhun": "https://twitter.com/cofemale/status/613502540508872704"}, "user": {"created_at": "Thu Aug 19 02:33:23 +0000 2010", "description": "#SmallTown #American girl #NC #Christian Ultra #Conservative #GodBlessAmerica #Constitution #NRA #2A #WAAR #BENGHAZI #AVGeek  #\u03bc\u03bf\u03bb\u1f7c\u03bd\u03bb\u03b1\u03b2\u03ad", "favourites_count": 29496, "followers_count": 5948, "friends_count": 5075, "id": 180212590, "lang": "en", "listed_count": 203, "location": "USA", "name": "Nancy USA\u2764\ufe0f\u2708", "profile_background_color": "F5F8FA", "profile_background_image_url": "http://pbs.twimg.com/profile_background_images/583425267021938688/CvroVU8q.jpg", "profile_background_tile": false, "profile_banner_url": "https://pbs.twimg.com/profile_banners/180212590/1381326521", "profile_image_url": "https://pbs.twimg.com/profile_images/486736973759909888/hVcsQ8R1_normal.png", "profile_link_color": "043FD4", "profile_sidebar_fill_color": "0D1CA3", "profile_text_color": "000003", "protected": false, "screen_name": "NancyBradyUSA", "statuses_count": 65599, "time_zone": "Eastern Time (US & Canada)", "utc_offset": -18000}}
{"created_at": "Wed Jun 24 11:54:33 +0000 2015", "favorited": false, "id": 613676582360752128, "lang": "en", "retweeted": false, "source": "<a href=\"http://twitter.com\" rel=\"nofollow\">Twitter Web Client</a>", "text": "DEARBORN MI: Muslim police to enforce sharia-compliant curfew during month of Ramadan http://t.co/QEttM0OAdq", "truncated": false, "urls": {"http://t.co/QEttM0OAdq": "http://www.barenakedislam.com/2015/06/22/dearbornistan-muslim-police-to-enforce-sharia-compliant-curfew-during-month-of-ramadamadingdong/"}, "user": {"created_at": "Mon Mar 03 20:34:11 +0000 2014", "description": "I'm an American who's PROUD to be against Islam.", "favourites_count": 699, "followers_count": 982, "friends_count": 1641, "geo_enabled": true, "id": 2370912788, "lang": "en", "listed_count": 16, "location": "Gilroy, California", "name": "Luckie408", "profile_background_color": "000000", "profile_background_image_url": "http://pbs.twimg.com/profile_background_images/578368208442249216/pyn4i5Dq.jpg", "profile_background_tile": false, "profile_banner_url": "https://pbs.twimg.com/profile_banners/2370912788/1449079989", "profile_image_url": "https://pbs.twimg.com/profile_images/555925732774260736/T_Pu8rNP_normal.jpeg", "profile_link_color": "008DFF", "profile_sidebar_fill_color": "000000", "profile_text_color": "000000", "protected": false, "screen_name": "luckie408", "statuses_count": 8688, "time_zone": "Central Time (US & Canada)", "utc_offset": -21600}}
{"created_at": "Sun Jun 28 13:58:43 +0000 2015", "favorited": false, "id": 615157380993552384, "lang": "en", "retweeted": false, "source": "<a href=\"http://www.facebook.com/twitter\" rel=\"nofollow\">Facebook</a>", "text": "More bullshit from the panicky fearful little girls of the right wing. http://t.co/p2RWDZnhzF", "truncated": false, "urls": {"http://t.co/p2RWDZnhzF": "http://fb.me/1RfbRC691"}, "user": {"created_at": "Sat Dec 20 10:15:05 +0000 2008", "description": "I'm old but I think young", "favourites_count": 22, "followers_count": 50, "friends_count": 126, "id": 18264469, "lang": "en", "listed_count": 7, "location": "near Chicago, Il", "name": "Grumpa", "profile_background_color": "352726", "profile_background_image_url": "http://abs.twimg.com/images/themes/theme5/bg.gif", "profile_background_tile": false, "profile_image_url": "https://pbs.twimg.com/profile_images/68076581/oldfart_normal.jpg", "profile_link_color": "D02B55", "profile_sidebar_fill_color": "99CC33", "profile_text_color": "3E4415", "protected": false, "screen_name": "Grumpa", "statuses_count": 5297, "time_zone": "Central Time (US & Canada)", "utc_offset": -21600}}
{"created_at": "Mon Jun 29 15:14:47 +0000 2015", "favorited": false, "id": 615538910769336320, "lang": "en", "retweeted": false, "source": "<a href=\"http://www.facebook.com/twitter\" rel=\"nofollow\">Facebook</a>", "text": "Another one from the Mom file... http://t.co/NRaRlUp07K", "truncated": false, "urls": {"http://t.co/NRaRlUp07K": "http://fb.me/1Kztn7Tfh"}, "user": {"created_at": "Mon Jan 05 18:31:35 +0000 2009", "description": "Bassist, Drummer, Guitarist, Painfully Bad Singer, Songwriter, Recording Engineer, Computer Fixer  :)", "favourites_count": 1, "followers_count": 52, "friends_count": 17, "geo_enabled": true, "id": 18639910, "lang": "en", "listed_count": 13, "location": "Nashvegas", "name": "Rusty Horn", "profile_background_color": "C0DEED", "profile_background_image_url": "http://pbs.twimg.com/profile_background_images/220114732/desktop_shot.jpg", "profile_background_tile": true, "profile_image_url": "https://pbs.twimg.com/profile_images/278904853/uploadable_normal.jpg", "profile_link_color": "0084B4", "profile_sidebar_fill_color": "DDEEF6", "profile_text_color": "333333", "protected": false, "screen_name": "hamnbiskits", "statuses_count": 15320, "time_zone": "Central Time (US & Canada)", "url": "http://t.co/QRdW41ehgN", "utc_offset": -21600}}
{"created_at": "Tue Jun 30 10:30:38 +0000 2015", "favorited": false, "id": 615829790130610177, "in_reply_to_screen_name": "AllenWest", "in_reply_to_status_id": 615631233960165376, "in_reply_to_user_id": 237403203, "lang": "en", "retweeted": false, "source": "<a href=\"http://twitter.com\" rel=\"nofollow\">Twitter Web Client</a>", "text": "@AllenWest MICHIGAN Muslim police chief to enforce sharia-compliant curfew during month of Ramadan\u2026even on Christians http://t.co/r6f9Ux7rPg", "truncated": false, "urls": {"http://t.co/r6f9Ux7rPg": "http://canadafreepress.com/article-news/73310"}, "user": {"created_at": "Mon Jul 12 07:41:36 +0000 2010", "description": "#ObamaLegacy The proliferation of a nuclear Iran and in turn a nuclear race in the Middle East allowing Al-Qaeda to become a global MONSTER #Treason", "favourites_count": 2848, "followers_count": 5352, "friends_count": 3827, "id": 165684245, "lang": "en", "listed_count": 181, "name": "WeOf ThePeople", "profile_background_color": "495054", "profile_background_image_url": "http://pbs.twimg.com/profile_background_images/378800000077768223/554c7f53cc68800f7db14515179b6ffe.jpeg", "profile_background_tile": false, "profile_banner_url": "https://pbs.twimg.com/profile_banners/165684245/1395125355", "profile_image_url": "https://pbs.twimg.com/profile_images/378800000654129164/f9c1aecc42c31a2bf0f56ad64234c679_normal.png", "profile_link_color": "0084B4", "profile_sidebar_fill_color": "DDEEF6", "profile_text_color": "333333", "protected": false, "screen_name": "WeOfThePeopleR1", "statuses_count": 22280, "time_zone": "Eastern Time (US & Canada)", "url": "http://t.co/WOjnfHd47Z", "utc_offset": -18000}, "user_mentions": [{"id": 237403203, "name": "Allen West", "screen_name": "AllenWest"}]}
{"created_at": "Mon Jul 06 02:27:03 +0000 2015", "favorited": false, "hashtags": ["Muslim", "Sharia", "Ramadan", "donotcomply", "WakeUpAmerica"], "id": 617882420608565248, "in_reply_to_screen_name": "cityofdearborn", "in_reply_to_user_id": 33992751, "lang": "en", "retweeted": false, "source": "<a href=\"http://twitter.com\" rel=\"nofollow\">Twitter Web Client</a>", "text": "@cityofdearborn #Muslim police chief will enforce #Sharia during #Ramadan with a curfew. http://t.co/YZcogiLPKB #donotcomply #WakeUpAmerica", "truncated": false, "urls": {"http://t.co/YZcogiLPKB": "http://bit.ly/1CUWPe8"}, "user": {"created_at": "Thu May 07 11:54:29 +0000 2009", "favourites_count": 2142, "followers_count": 658, "friends_count": 1215, "id": 38415952, "lang": "en", "listed_count": 3, "name": "First Amendment", "profile_background_color": "131516", "profile_background_image_url": "http://pbs.twimg.com/profile_background_images/803822944/db8ace9e3ae17a17bdcc6dfce5b1a13d.jpeg", "profile_background_tile": true, "profile_banner_url": "https://pbs.twimg.com/profile_banners/38415952/1399431945", "profile_image_url": "https://pbs.twimg.com/profile_images/296483221/FoundingFathers_normal.jpg", "profile_link_color": "FA743E", "profile_sidebar_fill_color": "EFEFEF", "profile_text_color": "333333", "protected": false, "screen_name": "Tsalagiman", "statuses_count": 1843, "time_zone": "Eastern Time (US & Canada)", "utc_offset": -18000}, "user_mentions": [{"id": 33992751, "name": "City of Dearborn MI", "screen_name": "cityofdearborn"}]}
{"created_at": "Mon Jul 06 13:59:33 +0000 2015", "favorited": false, "id": 618056693537083394, "lang": "en", "retweeted": false, "source": "<a href=\"http://dlvr.it\" rel=\"nofollow\">dlvr.it</a>", "text": "Curfew for Ramadan in Dearborn, Michigan? http://t.co/fSyPx3sLKJ", "truncated": false, "urls": {"http://t.co/fSyPx3sLKJ": "http://dlvr.it/BRJ1D7"}, "user": {"created_at": "Thu May 21 01:54:25 +0000 2015", "description": "The axiom awaits you.", "followers_count": 152, "friends_count": 856, "id": 3221890021, "lang": "en", "listed_count": 5, "location": "Earth", "name": "Operation Disclosure", "profile_background_color": "131516", "profile_background_image_url": "http://pbs.twimg.com/profile_background_images/601208754080591872/Gg1QsRaq.jpg", "profile_background_tile": false, "profile_banner_url": "https://pbs.twimg.com/profile_banners/3221890021/1432174514", "profile_image_url": "https://pbs.twimg.com/profile_images/601212491033481216/OHba8Adv_normal.jpg", "profile_link_color": "FF0202", "profile_sidebar_fill_color": "000000", "profile_text_color": "000000", "protected": false, "screen_name": "OmegaDelta21", "statuses_count": 2380, "url": "http://t.co/jxxkj5DEg7"}}
{"created_at": "Tue Jul 07 05:19:26 +0000 2015", "favorited": false, "id": 618288189300543488, "lang": "en", "retweeted": false, "source": "<a href=\"http://www.snsanalytics.com\" rel=\"nofollow\">SNS Analytics</a>", "text": "A curfew conspiracy in Dearborn? Creeping Shariah? Nope http://t.co/xB64J1oCED", "truncated": false, "urls": {"http://t.co/xB64J1oCED": "http://www.snsanalytics.com/OEqqy2"}, "user": {"created_at": "Tue Feb 09 11:53:36 +0000 2010", "description": "Breaking news about Baha'i.", "followers_count": 2487, "friends_count": 1220, "id": 112695981, "lang": "en", "listed_count": 71, "name": "Baha'i Faith Guide", "profile_background_color": "C0DEED", "profile_background_image_url": "http://pbs.twimg.com/profile_background_images/354745113/Baha_i_w.jpg", "profile_background_tile": true, "profile_image_url": "https://pbs.twimg.com/profile_images/1611902722/Baha_i_normal.gif", "profile_link_color": "0084B4", "profile_sidebar_fill_color": "DDEEF6", "profile_text_color": "333333", "protected": false, "screen_name": "BahaiFaithGuide", "statuses_count": 2913, "time_zone": "Eastern Time (US & Canada)", "utc_offset": -18000}}
{"created_at": "Tue Jul 07 09:42:49 +0000 2015", "favorited": false, "id": 618354474868965376, "lang": "en", "retweeted": false, "source": "<a href=\"https://bitly.com/\" rel=\"nofollow\">Bitly</a>", "text": "A curfew conspiracy in Dearborn? Creeping Shariah? Nope | http://t.co/nQGyXQm5w7", "truncated": false, "urls": {"http://t.co/nQGyXQm5w7": "http://bit.ly/1J20KYJ"}, "user": {"created_at": "Wed Apr 15 02:09:46 +0000 2009", "description": "Director | Arab American National Museum. Technology, adventure, museums and culture, in no particular order.", "favourites_count": 309, "followers_count": 654, "friends_count": 491, "geo_enabled": true, "id": 31306615, "lang": "en", "listed_count": 46, "location": "Ann Arbor, MI", "name": "Devon Akmon", "profile_background_color": "1A1B1F", "profile_background_image_url": "http://pbs.twimg.com/profile_background_images/440209031236308992/RTVd0oF9.jpeg", "profile_background_tile": false, "profile_banner_url": "https://pbs.twimg.com/profile_banners/31306615/1398344255", "profile_image_url": "https://pbs.twimg.com/profile_images/608813395416981504/M58yVuJJ_normal.jpg", "profile_link_color": "2FC2EF", "profile_sidebar_fill_color": "EFEFEF", "profile_text_color": "333333", "protected": false, "screen_name": "DevonAkmon", "statuses_count": 4444, "time_zone": "Eastern Time (US & Canada)", "url": "http://t.co/8y8EuN8m6I", "utc_offset": -18000}}
{"created_at": "Tue Jul 07 11:37:06 +0000 2015", "favorite_count": 1, "favorited": false, "id": 618383234905174017, "lang": "en", "media": [{"display_url": "pic.twitter.com/7GtIyUyqlV", "expanded_url": "http://twitter.com/detroitnews/status/618383234905174017/photo/1", "id": 618379242901008384, "id_str": "618379242901008384", "indices": [104, 126], "media_url": "http://pbs.twimg.com/media/CJTspSWW8AAC3D3.jpg", "media_url_https": "https://pbs.twimg.com/media/CJTspSWW8AAC3D3.jpg", "sizes": {"large": {"h": 757, "resize": "fit", "w": 1024}, "medium": {"h": 443, "resize": "fit", "w": 600}, "small": {"h": 251, "resize": "fit", "w": 340}, "thumb": {"h": 150, "resize": "crop", "w": 150}}, "type": "photo", "url": "http://t.co/7GtIyUyqlV"}], "retweet_count": 2, "retweeted": false, "source": "<a href=\"https://about.twitter.com/products/tweetdeck\" rel=\"nofollow\">TweetDeck</a>", "text": "A curfew conspiracy in Dearborn? Creeping Shariah? Nope. @nealrubin_dn's column. http://t.co/7Eu3Eg6JOe http://t.co/7GtIyUyqlV", "truncated": false, "urls": {"http://t.co/7Eu3Eg6JOe": "http://detne.ws/1M9wQ8a"}, "user": {"created_at": "Wed Oct 01 13:36:49 +0000 2008", "description": "Detroit's best source for news and information. You can reach The Detroit News at online(at)detroitnews(dot)com. https://t.co/gma4B7SChm", "favourites_count": 316, "followers_count": 140890, "friends_count": 2086, "geo_enabled": true, "id": 16543775, "lang": "en", "listed_count": 2622, "location": "Detroit,MI USA", "name": "The Detroit News", "profile_background_color": "1A1B1F", "profile_background_image_url": "http://pbs.twimg.com/profile_background_images/377647659/twitter-detnews4.jpg", "profile_background_tile": false, "profile_banner_url": "https://pbs.twimg.com/profile_banners/16543775/1452510164", "profile_image_url": "https://pbs.twimg.com/profile_images/512551439021768704/yKZZwFHJ_normal.jpeg", "profile_link_color": "2FC2EF", "profile_sidebar_fill_color": "252429", "profile_text_color": "666666", "protected": false, "screen_name": "detroitnews", "statuses_count": 102210, "time_zone": "Eastern Time (US & Canada)", "url": "https://t.co/gma4B7SChm", "utc_offset": -18000, "verified": true}, "user_mentions": [{"id": 53836590, "name": "Neal Rubin", "screen_name": "nealrubin_dn"}]}
{"created_at": "Tue Jul 07 11:48:38 +0000 2015", "favorite_count": 2, "favorited": false, "id": 618386135111221248, "lang": "en", "retweet_count": 1, "retweeted": false, "source": "<a href=\"http://twitter.com\" rel=\"nofollow\">Twitter Web Client</a>", "text": "A curfew conspiracy in Dearborn? Creeping Shariah? Nope ... just another round of hysteria. http://t.co/MAcHI7qBVu via @detroitnews", "truncated": false, "urls": {"http://t.co/MAcHI7qBVu": "http://detne.ws/1M9wQ8a"}, "user": {"created_at": "Sun Jul 05 04:27:06 +0000 2009", "default_profile": true, "description": "Detroit News columnist and really, really bad golfer", "favourites_count": 51, "followers_count": 665, "friends_count": 68, "id": 53836590, "lang": "en", "listed_count": 33, "location": "Detroit", "name": "Neal Rubin", "profile_background_color": "C0DEED", "profile_background_image_url": "http://abs.twimg.com/images/themes/theme1/bg.png", "profile_background_tile": false, "profile_image_url": "https://pbs.twimg.com/profile_images/468135053944315907/NWHwV3bz_normal.png", "profile_link_color": "0084B4", "profile_sidebar_fill_color": "DDEEF6", "profile_text_color": "333333", "protected": false, "screen_name": "nealrubin_dn", "statuses_count": 684, "time_zone": "Eastern Time (US & Canada)", "url": "http://t.co/IzfoHY34", "utc_offset": -18000, "verified": true}, "user_mentions": [{"id": 16543775, "name": "The Detroit News", "screen_name": "detroitnews"}]}
{"created_at": "Tue Jul 07 14:51:01 +0000 2015", "favorited": false, "hashtags": ["edshow"], "id": 618432035108048897, "lang": "en", "retweeted": false, "source": "<a href=\"http://mobile.twitter.com\" rel=\"nofollow\">Mobile Web</a>", "text": "A curfew conspiracy in Dearborn? Creeping Shariah? Nope http://t.co/1rXwb0yw3R via @detroitnews #edshow", "truncated": false, "urls": {"http://t.co/1rXwb0yw3R": "http://detne.ws/1M9wQ8a"}, "user": {"created_at": "Sat Aug 18 14:08:33 +0000 2012", "default_profile": true, "description": "I'm just an average joe following the ebbs & flows in the place we call home Proudly blocked by @joenbc RWNJ talking points not welcome here", "favourites_count": 34801, "followers_count": 7862, "friends_count": 7011, "id": 765763200, "lang": "en", "listed_count": 181, "location": "Toledo Detroit", "name": "Dennis Mack", "profile_background_color": "C0DEED", "profile_background_image_url": "http://abs.twimg.com/images/themes/theme1/bg.png", "profile_background_tile": false, "profile_banner_url": "https://pbs.twimg.com/profile_banners/765763200/1409789919", "profile_image_url": "https://pbs.twimg.com/profile_images/663534293092843520/U0WJoaNL_normal.jpg", "profile_link_color": "0084B4", "profile_sidebar_fill_color": "DDEEF6", "profile_text_color": "333333", "protected": false, "screen_name": "littleredblog", "statuses_count": 144853, "time_zone": "Eastern Time (US & Canada)", "utc_offset": -18000}, "user_mentions": [{"id": 16543775, "name": "The Detroit News", "screen_name": "detroitnews"}]}
{"created_at": "Tue Jul 07 15:34:06 +0000 2015", "favorited": false, "id": 618442874624061440, "lang": "en", "retweeted": false, "source": "<a href=\"http://twitter.com\" rel=\"nofollow\">Twitter Web Client</a>", "text": "A curfew conspiracy in Dearborn? Creeping Shariah? Nope http://t.co/c1bEhrtnuh via @detroitnews", "truncated": false, "urls": {"http://t.co/c1bEhrtnuh": "http://detne.ws/1M9wQ8a"}, "user": {"created_at": "Tue Jun 24 17:59:50 +0000 2014", "default_profile": true, "followers_count": 244, "friends_count": 158, "id": 2586127826, "lang": "en", "listed_count": 15, "name": "Gary Heinlein", "profile_background_color": "C0DEED", "profile_background_image_url": "http://abs.twimg.com/images/themes/theme1/bg.png", "profile_background_tile": false, "profile_image_url": "https://pbs.twimg.com/profile_images/511957965922762753/-Q5tRpn2_normal.jpeg", "profile_link_color": "0084B4", "profile_sidebar_fill_color": "DDEEF6", "profile_text_color": "333333", "protected": false, "screen_name": "GaryHeinlein1", "statuses_count": 973}, "user_mentions": [{"id": 16543775, "name": "The Detroit News", "screen_name": "detroitnews"}]}
{"created_at": "Wed Jul 08 02:40:38 +0000 2015", "favorited": false, "id": 618610615976857600, "in_reply_to_screen_name": "CandiceLanier", "in_reply_to_status_id": 618609020077756416, "in_reply_to_user_id": 107633302, "lang": "en", "retweeted": false, "source": "<a href=\"http://twitter.com\" rel=\"nofollow\">Twitter Web Client</a>", "text": "@CandiceLanier Dearborn MI, Sherriff to enforce Ramadan Curfew on non muslims!", "truncated": false, "user": {"created_at": "Wed Oct 02 01:34:34 +0000 2013", "description": "Obama is trying to save his Legacy! Cruz, rising to the top of the Republican Party, for he does not compromise his Conservative Values!", "favourites_count": 2398, "followers_count": 602, "friends_count": 499, "id": 1925211558, "lang": "en", "listed_count": 15, "location": "Hawaii, USA", "name": "Kalo", "profile_background_color": "0099B9", "profile_background_image_url": "http://abs.twimg.com/images/themes/theme4/bg.gif", "profile_background_tile": false, "profile_banner_url": "https://pbs.twimg.com/profile_banners/1925211558/1411173601", "profile_image_url": "https://pbs.twimg.com/profile_images/622074576172924928/DfXrA-zr_normal.png", "profile_link_color": "0099B9", "profile_sidebar_fill_color": "95E8EC", "profile_text_color": "3C3940", "protected": false, "screen_name": "Kalozap", "statuses_count": 21096, "time_zone": "Eastern Time (US & Canada)", "utc_offset": -18000}, "user_mentions": [{"id": 107633302, "name": "Candice Lanier", "screen_name": "CandiceLanier"}]}
