{"created_at": "Wed Aug 28 17:48:21 +0000 2013", "favorited": false, "hashtags": ["RIP"], "id": 372777690581188608, "lang": "en", "retweet_count": 1, "retweeted": false, "source": "<a href=\"http://dlvr.it\" rel=\"nofollow\">dlvr.it</a>", "text": "#RIP: Neil Armstrong is dead \u2013 again \u2013 on the Internet http://t.co/fZGlnrqqtN", "truncated": false, "urls": {"http://t.co/fZGlnrqqtN": "http://bit.ly/19NIe7p"}, "user": {"created_at": "Thu Apr 23 15:14:38 +0000 2009", "description": "The latest trends, reviews and recipes, from our great Canadian team of chefs and wine experts", "favourites_count": 107, "followers_count": 8272, "friends_count": 193, "id": 34637237, "lang": "en", "listed_count": 196, "location": "Canada", "name": "Globe Food & Wine", "profile_background_color": "EEEEEE", "profile_background_image_url": "http://pbs.twimg.com/profile_background_images/410678128/Globe_Linen_Background.png", "profile_background_tile": true, "profile_banner_url": "https://pbs.twimg.com/profile_banners/34637237/1399326287", "profile_image_url": "https://pbs.twimg.com/profile_images/426606445769924609/gceYafZy_normal.jpeg", "profile_link_color": "5E0048", "profile_sidebar_fill_color": "F0F0F0", "profile_text_color": "000000", "protected": false, "screen_name": "GlobeFoodWine", "statuses_count": 14234, "time_zone": "Quito", "url": "http://t.co/MGsjPpwMHM", "utc_offset": -18000, "verified": true}}
{"created_at": "Wed Aug 28 17:52:05 +0000 2013", "favorite_count": 2, "favorited": false, "hashtags": ["RIP"], "id": 372778626728476672, "lang": "en", "retweet_count": 5, "retweeted": false, "source": "<a href=\"http://dlvr.it\" rel=\"nofollow\">dlvr.it</a>", "text": "#RIP: Neil Armstrong is dead \u2013 again \u2013 on the Internet http://t.co/lcyDLJFcCo", "truncated": false, "urls": {"http://t.co/lcyDLJFcCo": "http://bit.ly/19NIe7p"}, "user": {"created_at": "Sat Sep 08 00:46:45 +0000 2007", "description": "Canada's national news organization.  Customer service: @GlobeHelp Share info with us anonymously: https://t.co/mDkX2boooF Ask us anything: #AskTheGlobe", "favourites_count": 631, "followers_count": 1141154, "friends_count": 520, "geo_enabled": true, "id": 8736882, "lang": "en", "listed_count": 12517, "location": "Canada", "name": "The Globe and Mail", "profile_background_color": "EEEEEE", "profile_background_image_url": "http://pbs.twimg.com/profile_background_images/410660989/Globe_Linen_Background.png", "profile_background_tile": true, "profile_banner_url": "https://pbs.twimg.com/profile_banners/8736882/1446584968", "profile_image_url": "https://pbs.twimg.com/profile_images/537300096094699520/YkVJfw7z_normal.png", "profile_link_color": "001F5F", "profile_sidebar_fill_color": "F0F0F0", "profile_text_color": "000000", "protected": false, "screen_name": "globeandmail", "statuses_count": 311105, "time_zone": "Eastern Time (US & Canada)", "url": "http://t.co/4yCpX2amxT", "utc_offset": -18000, "verified": true}}
{"created_at": "Wed Aug 28 17:52:44 +0000 2013", "favorited": false, "hashtags": ["RIP"], "id": 372778791669493760, "lang": "en", "retweeted": false, "source": "<a href=\"http://twitter.com\" rel=\"nofollow\">Twitter Web Client</a>", "text": "#RIP: Neil Armstrong is dead \u2013 again \u2013 on the Internet http://t.co/eo9ORifC3U - @globeandmail.", "truncated": false, "urls": {"http://t.co/eo9ORifC3U": "http://bit.ly/19NIe7p"}, "user": {"created_at": "Sun Jun 03 01:44:21 +0000 2012", "description": "Follow my other account @OnAirWithViktor // @Hits93Toronto", "favourites_count": 646, "followers_count": 2704, "friends_count": 675, "geo_enabled": true, "id": 597910316, "lang": "en", "listed_count": 11, "location": "Toronto", "name": "Viktor Elias", "profile_background_color": "B2DFDA", "profile_background_image_url": "http://abs.twimg.com/images/themes/theme13/bg.gif", "profile_background_tile": false, "profile_banner_url": "https://pbs.twimg.com/profile_banners/597910316/1436881064", "profile_image_url": "https://pbs.twimg.com/profile_images/620950729247846400/DcReD-Er_normal.png", "profile_link_color": "93A644", "profile_sidebar_fill_color": "FFFFFF", "profile_text_color": "333333", "protected": false, "screen_name": "Eliasviktor001", "statuses_count": 16308, "time_zone": "Eastern Time (US & Canada)", "url": "http://t.co/xbeCVJGCIA", "utc_offset": -18000}, "user_mentions": [{"id": 8736882, "name": "The Globe and Mail", "screen_name": "globeandmail"}]}
{"created_at": "Wed Aug 28 17:53:50 +0000 2013", "favorited": false, "hashtags": ["RIP", "lifestyle", "trend"], "id": 372779069064380416, "lang": "en", "retweet_count": 1, "retweeted": false, "source": "<a href=\"http://ifttt.com\" rel=\"nofollow\">IFTTT</a>", "text": "#RIP: Neil Armstrong is dead \u2013 again \u2013 on the Internet http://t.co/xEjWCznh5r robsoninc #lifestyle #trend", "truncated": false, "urls": {"http://t.co/xEjWCznh5r": "http://bit.ly/12LvUTb"}, "user": {"created_at": "Mon Oct 12 19:04:53 +0000 2009", "description": "Canadian Business Directory, News, Information and Support", "favourites_count": 14, "followers_count": 15922, "friends_count": 118, "geo_enabled": true, "id": 81904191, "lang": "en", "listed_count": 373, "location": "Canada", "name": "Canadian Businesses", "profile_background_color": "A6A6A6", "profile_background_image_url": "http://pbs.twimg.com/profile_background_images/45617468/kate.jpg", "profile_background_tile": false, "profile_image_url": "https://pbs.twimg.com/profile_images/683193882725736448/9BjOLbX0_normal.jpg", "profile_link_color": "A33B3B", "profile_sidebar_fill_color": "B8B8B8", "profile_text_color": "333333", "protected": false, "screen_name": "Canada_Business", "statuses_count": 252043, "time_zone": "Pacific Time (US & Canada)", "utc_offset": -28800}}
{"created_at": "Wed Aug 28 18:21:04 +0000 2013", "favorited": false, "hashtags": ["RIP"], "id": 372785923937038336, "lang": "en", "retweeted": false, "source": "<a href=\"http://twitterfeed.com\" rel=\"nofollow\">twitterfeed</a>", "text": "#RIP: Neil Armstrong is dead \u2013 again \u2013 on the Internet http://t.co/P8CJiYsoop", "truncated": false, "urls": {"http://t.co/P8CJiYsoop": "http://bit.ly/154hOKu"}, "user": {"created_at": "Mon Nov 12 06:34:57 +0000 2012", "followers_count": 9, "friends_count": 22, "id": 942945500, "lang": "en", "listed_count": 1, "name": "HotBotato", "profile_background_color": "022330", "profile_background_image_url": "http://abs.twimg.com/images/themes/theme15/bg.png", "profile_background_tile": false, "profile_image_url": "https://pbs.twimg.com/profile_images/2839287966/e8b762e2ff91a8eecef10bdebe340191_normal.jpeg", "profile_link_color": "0084B4", "profile_sidebar_fill_color": "C0DFEC", "profile_text_color": "333333", "protected": false, "screen_name": "HotBotato", "statuses_count": 54696}}
{"created_at": "Wed Aug 28 18:30:52 +0000 2013", "favorited": false, "hashtags": ["RIP"], "id": 372788388346081280, "lang": "en", "retweeted": false, "source": "<a href=\"http://blackberry.com/twitter\" rel=\"nofollow\">Twitter for BlackBerry\u00ae</a>", "text": "\"@globeandmail: #RIP: Neil Armstrong is dead \u2013 again \u2013 on the Internet http://t.co/XF2AjBPeDy\"", "truncated": false, "urls": {"http://t.co/XF2AjBPeDy": "http://bit.ly/19NIe7p"}, "user": {"created_at": "Tue Aug 30 06:17:51 +0000 2011", "default_profile": true, "description": "M\u00e9dico,Escritor,Conferencista c/ F. Azteca,Instructor Certificado en Emergencias Escolares U. Ibero Y personal adscrito p/ el Programa Conduce sin Alcohol SSPDF", "favourites_count": 4, "followers_count": 118, "friends_count": 328, "id": 364713385, "lang": "en", "location": "Mexico City", "name": "Alan W. Charteris", "profile_background_color": "C0DEED", "profile_background_image_url": "http://abs.twimg.com/images/themes/theme1/bg.png", "profile_background_tile": false, "profile_banner_url": "https://pbs.twimg.com/profile_banners/364713385/1376467506", "profile_image_url": "https://pbs.twimg.com/profile_images/617621914882736128/Ts95FnBS_normal.jpg", "profile_link_color": "0084B4", "profile_sidebar_fill_color": "DDEEF6", "profile_text_color": "333333", "protected": false, "screen_name": "dr_weldon1968", "statuses_count": 1878, "time_zone": "Central Time (US & Canada)", "utc_offset": -21600}, "user_mentions": [{"id": 8736882, "name": "The Globe and Mail", "screen_name": "globeandmail"}]}
{"created_at": "Wed Aug 28 20:25:42 +0000 2013", "favorited": false, "hashtags": ["RIP"], "id": 372817287989825536, "lang": "en", "retweeted": false, "source": "<a href=\"http://twitterfeed.com\" rel=\"nofollow\">twitterfeed</a>", "text": "#RIP: Neil Armstrong is dead \u2013 again \u2013 on the Internet http://t.co/7yuRWBpgfx", "truncated": false, "urls": {"http://t.co/7yuRWBpgfx": "http://bit.ly/16SVJOt"}, "user": {"created_at": "Mon Nov 12 06:34:57 +0000 2012", "followers_count": 9, "friends_count": 22, "id": 942945500, "lang": "en", "listed_count": 1, "name": "HotBotato", "profile_background_color": "022330", "profile_background_image_url": "http://abs.twimg.com/images/themes/theme15/bg.png", "profile_background_tile": false, "profile_image_url": "https://pbs.twimg.com/profile_images/2839287966/e8b762e2ff91a8eecef10bdebe340191_normal.jpeg", "profile_link_color": "0084B4", "profile_sidebar_fill_color": "C0DFEC", "profile_text_color": "333333", "protected": false, "screen_name": "HotBotato", "statuses_count": 54696}}
{"created_at": "Wed Aug 28 22:34:13 +0000 2013", "favorite_count": 4, "favorited": false, "hashtags": ["RIP"], "id": 372849628674154496, "lang": "en", "retweet_count": 3, "retweeted": false, "source": "<a href=\"http://dlvr.it\" rel=\"nofollow\">dlvr.it</a>", "text": "#RIP: Neil Armstrong is dead \u2013 again \u2013 on the Internet http://t.co/lcyDLJFcCo from @globelife", "truncated": false, "urls": {"http://t.co/lcyDLJFcCo": "http://bit.ly/19NIe7p"}, "user": {"created_at": "Sat Sep 08 00:46:45 +0000 2007", "description": "Canada's national news organization.  Customer service: @GlobeHelp Share info with us anonymously: https://t.co/mDkX2boooF Ask us anything: #AskTheGlobe", "favourites_count": 631, "followers_count": 1141154, "friends_count": 520, "geo_enabled": true, "id": 8736882, "lang": "en", "listed_count": 12517, "location": "Canada", "name": "The Globe and Mail", "profile_background_color": "EEEEEE", "profile_background_image_url": "http://pbs.twimg.com/profile_background_images/410660989/Globe_Linen_Background.png", "profile_background_tile": true, "profile_banner_url": "https://pbs.twimg.com/profile_banners/8736882/1446584968", "profile_image_url": "https://pbs.twimg.com/profile_images/537300096094699520/YkVJfw7z_normal.png", "profile_link_color": "001F5F", "profile_sidebar_fill_color": "F0F0F0", "profile_text_color": "000000", "protected": false, "screen_name": "globeandmail", "statuses_count": 311105, "time_zone": "Eastern Time (US & Canada)", "url": "http://t.co/4yCpX2amxT", "utc_offset": -18000, "verified": true}, "user_mentions": [{"id": 2329352150, "name": "globe life", "screen_name": "globelife"}]}
{"created_at": "Thu Aug 29 02:59:02 +0000 2013", "favorited": false, "hashtags": ["RIP"], "id": 372916272113008640, "lang": "en", "retweet_count": 2, "retweeted": false, "source": "<a href=\"https://dev.twitter.com/docs/tfw\" rel=\"nofollow\">Twitter for Websites</a>", "text": "#RIP: Neil Armstrong is dead \u2013 again \u2013 on the Internet http://t.co/nZ4bDEijYi", "truncated": false, "urls": {"http://t.co/nZ4bDEijYi": "http://fw.to/GPy2L1E"}, "user": {"created_at": "Thu Dec 10 17:52:06 +0000 2009", "description": "Associate Professor of Religion and Clarence L. Goodwin Chair in New Testament Language and Literature, Butler University", "favourites_count": 1418, "followers_count": 3559, "friends_count": 3030, "id": 95949373, "lang": "en", "listed_count": 183, "name": "James F. McGrath", "profile_background_color": "0099B9", "profile_background_image_url": "http://abs.twimg.com/images/themes/theme4/bg.gif", "profile_background_tile": false, "profile_image_url": "https://pbs.twimg.com/profile_images/836924984/Goodwin_event_normal.jpg", "profile_link_color": "0099B9", "profile_sidebar_fill_color": "95E8EC", "profile_text_color": "3C3940", "protected": false, "screen_name": "ReligionProf", "statuses_count": 24745, "time_zone": "Central Time (US & Canada)", "url": "http://t.co/n2Rbhz5z", "utc_offset": -21600}}
{"created_at": "Thu Aug 29 05:19:46 +0000 2013", "favorited": false, "hashtags": ["RIP"], "id": 372951688677580800, "lang": "en", "retweeted": false, "source": "<a href=\"https://dev.twitter.com/docs/tfw\" rel=\"nofollow\">Twitter for Websites</a>", "text": "#RIP: Neil Armstrong is dead \u2013 again \u2013 on the Internet http://t.co/BgrwKz6HYZ", "truncated": false, "urls": {"http://t.co/BgrwKz6HYZ": "http://fw.to/GPy2L1E"}, "user": {"created_at": "Mon Aug 11 23:45:22 +0000 2008", "default_profile": true, "description": "fearless JOURNALIST -u can get NEWS from around the world 24/7- 365 days- North East West South-follow me- nearly 7 billion people - -more than 100 countries.", "favourites_count": 14, "followers_count": 1011, "friends_count": 2027, "geo_enabled": true, "id": 15815676, "lang": "en", "listed_count": 37, "location": "Houston,TX", "name": "thaiparampil", "profile_background_color": "C0DEED", "profile_background_image_url": "http://abs.twimg.com/images/themes/theme1/bg.png", "profile_background_tile": false, "profile_image_url": "https://pbs.twimg.com/profile_images/535647969320529920/uJ6r95XR_normal.png", "profile_link_color": "0084B4", "profile_sidebar_fill_color": "DDEEF6", "profile_text_color": "333333", "protected": false, "screen_name": "thaiparampil", "statuses_count": 95821, "time_zone": "Central Time (US & Canada)", "utc_offset": -21600}}
{"created_at": "Mon Sep 02 15:59:12 +0000 2013", "favorited": false, "hashtags": ["RIP"], "id": 374562160937934849, "lang": "en", "retweeted": false, "source": "<a href=\"https://dev.twitter.com/docs/tfw\" rel=\"nofollow\">Twitter for Websites</a>", "text": "#RIP: Neil Armstrong is dead \u2013 again \u2013 on the Internet http://t.co/jLUvsCvBzO", "truncated": false, "urls": {"http://t.co/jLUvsCvBzO": "http://fw.to/GPy2L1E"}, "user": {"created_at": "Sat Aug 24 12:13:48 +0000 2013", "description": "Specializing in Historical & Entertainment Documents & Autographs", "followers_count": 138, "friends_count": 1511, "id": 1696300284, "lang": "en", "location": "New York City", "name": "Historical Documents", "profile_background_color": "C0DEED", "profile_background_image_url": "http://pbs.twimg.com/profile_background_images/378800000058494592/b7dc50ff0623bc0ab88d7a5f6110a0e7.jpeg", "profile_background_tile": true, "profile_banner_url": "https://pbs.twimg.com/profile_banners/1696300284/1377348122", "profile_image_url": "https://pbs.twimg.com/profile_images/378800000350820487/986667dc027603617db6041a61ae1fd4_normal.jpeg", "profile_link_color": "0084B4", "profile_sidebar_fill_color": "DDEEF6", "profile_text_color": "333333", "protected": false, "screen_name": "SNCollectables", "statuses_count": 91, "time_zone": "Eastern Time (US & Canada)", "utc_offset": -18000}}
