{"created_at": "Sat Jun 06 10:29:15 +0000 2015", "favorite_count": 26, "favorited": false, "id": 607132132574658560, "lang": "en", "retweet_count": 30, "retweeted": false, "source": "<a href=\"http://itunes.apple.com/us/app/twitter/id409789998?mt=12\" rel=\"nofollow\">Twitter for Mac</a>", "text": "The story of the guy who changed his legal name because it was cheaper than paying ryanair to change the name on his plane ticket \u2026 LOL", "truncated": false, "user": {"created_at": "Fri Sep 19 16:45:12 +0000 2008", "description": "beware of fakes", "favourites_count": 42, "followers_count": 142126, "friends_count": 299, "id": 16365707, "lang": "en", "listed_count": 3437, "location": "Cologne, Germany", "name": "Stefan Esser", "profile_background_color": "022330", "profile_background_image_url": "http://abs.twimg.com/images/themes/theme15/bg.png", "profile_background_tile": false, "profile_banner_url": "https://pbs.twimg.com/profile_banners/16365707/1368961873", "profile_image_url": "https://pbs.twimg.com/profile_images/515406852624891906/TwdP4K0V_normal.jpeg", "profile_link_color": "0084B4", "profile_sidebar_fill_color": "C0DFEC", "profile_text_color": "333333", "protected": false, "screen_name": "i0n1c", "statuses_count": 32709, "time_zone": "Ljubljana", "url": "https://t.co/Vc8AslzYGf", "utc_offset": 3600}}
{"created_at": "Sat Jun 06 10:32:31 +0000 2015", "favorite_count": 1, "favorited": false, "id": 607132957300490241, "lang": "en", "retweeted": false, "source": "<a href=\"http://twitter.com\" rel=\"nofollow\">Twitter Web Client</a>", "text": "The story of the guy who changed his legal name because it was cheaper than paying ryanair to change the name on his plane ticket  LOL", "truncated": false, "user": {"created_at": "Fri Jul 18 07:46:42 +0000 2014", "default_profile": true, "description": "Nothing is more beautiful than the smile that has struggled through the tears.", "favourites_count": 269, "followers_count": 74, "friends_count": 102, "id": 2716480114, "lang": "en", "listed_count": 1, "location": "ME", "name": "Anselma Pugh", "profile_background_color": "C0DEED", "profile_background_image_url": "http://abs.twimg.com/images/themes/theme1/bg.png", "profile_background_tile": false, "profile_banner_url": "https://pbs.twimg.com/profile_banners/2716480114/1407554228", "profile_image_url": "https://pbs.twimg.com/profile_images/507403855571582977/6QeChLu2_normal.jpeg", "profile_link_color": "0084B4", "profile_sidebar_fill_color": "DDEEF6", "profile_text_color": "333333", "protected": false, "screen_name": "Anselma_Pugh", "statuses_count": 259, "time_zone": "Eastern Time (US & Canada)", "utc_offset": -18000}}
{"created_at": "Sat Jun 06 10:34:59 +0000 2015", "favorited": false, "id": 607133577826803712, "lang": "en", "retweeted": false, "source": "<a href=\"http://twitter.com\" rel=\"nofollow\">Twitter Web Client</a>", "text": "The story of the guy who changed his legal name because it was cheaper than paying ryanair to change the name on his plane ticket  LOL", "truncated": false, "user": {"created_at": "Sun Jun 15 03:28:30 +0000 2014", "default_profile": true, "description": "for everyone who doesn't get me: it goes mind over matter. i don't mind and you don't matter.", "favourites_count": 209, "followers_count": 91, "friends_count": 105, "id": 2568228306, "lang": "en", "location": "mc cool, ms", "name": "Rania", "profile_background_color": "C0DEED", "profile_background_image_url": "http://abs.twimg.com/images/themes/theme1/bg.png", "profile_background_tile": false, "profile_banner_url": "https://pbs.twimg.com/profile_banners/2568228306/1403037469", "profile_image_url": "https://pbs.twimg.com/profile_images/481262157779046400/PxruawRX_normal.jpeg", "profile_link_color": "0084B4", "profile_sidebar_fill_color": "DDEEF6", "profile_text_color": "333333", "protected": false, "screen_name": "Rania_Castro", "statuses_count": 322, "time_zone": "Eastern Time (US & Canada)", "utc_offset": -18000}}
{"created_at": "Sat Jun 06 10:38:35 +0000 2015", "favorite_count": 1, "favorited": false, "id": 607134481900814336, "lang": "en", "retweeted": false, "source": "<a href=\"http://twitter.com\" rel=\"nofollow\">Twitter Web Client</a>", "text": "The story of the guy who changed his legal name because it was cheaper than paying ryanair to change the name on his plane ticket  LOL", "truncated": false, "user": {"created_at": "Fri Jul 11 04:02:01 +0000 2014", "default_profile": true, "description": "I'm very definitely a woman and i enjoy it.", "favourites_count": 248, "followers_count": 74, "friends_count": 95, "id": 2616632340, "lang": "en", "location": "Columbia, MO", "name": "Teagan Yang", "profile_background_color": "C0DEED", "profile_background_image_url": "http://abs.twimg.com/images/themes/theme1/bg.png", "profile_background_tile": false, "profile_banner_url": "https://pbs.twimg.com/profile_banners/2616632340/1407456362", "profile_image_url": "https://pbs.twimg.com/profile_images/497890896172437506/5D36hMZp_normal.jpeg", "profile_link_color": "0084B4", "profile_sidebar_fill_color": "DDEEF6", "profile_text_color": "333333", "protected": false, "screen_name": "TeaganYang", "statuses_count": 236, "time_zone": "Eastern Time (US & Canada)", "utc_offset": -18000}}
{"created_at": "Sat Jun 06 10:39:30 +0000 2015", "favorited": false, "id": 607134715309617152, "lang": "en", "retweeted": false, "source": "<a href=\"http://twitter.com\" rel=\"nofollow\">Twitter Web Client</a>", "text": "The story of the guy who changed his legal name because it was cheaper than paying ryanair to change the name on his plane ticket  LOL", "truncated": false, "user": {"created_at": "Tue Jul 22 05:27:46 +0000 2014", "default_profile": true, "description": "Sometimes the bad things that happen in our lives put us directly on the path to the best things that will ever happen to us. || 9/10", "favourites_count": 163, "followers_count": 76, "friends_count": 94, "id": 2668507633, "lang": "en", "location": "Springfield, IL", "name": "Anuja", "profile_background_color": "C0DEED", "profile_background_image_url": "http://abs.twimg.com/images/themes/theme1/bg.png", "profile_background_tile": false, "profile_banner_url": "https://pbs.twimg.com/profile_banners/2668507633/1407554710", "profile_image_url": "https://pbs.twimg.com/profile_images/507431839825264641/6eH6EFqj_normal.jpeg", "profile_link_color": "0084B4", "profile_sidebar_fill_color": "DDEEF6", "profile_text_color": "333333", "protected": false, "screen_name": "Anuja3301", "statuses_count": 179, "time_zone": "Eastern Time (US & Canada)", "utc_offset": -18000}}
{"created_at": "Sat Jun 06 10:39:59 +0000 2015", "favorited": false, "id": 607134834893320192, "lang": "en", "retweeted": false, "source": "<a href=\"http://twitter.com\" rel=\"nofollow\">Twitter Web Client</a>", "text": "The story of the guy who changed his legal name because it was cheaper than paying ryanair to change the name on his plane ticket  LOL", "truncated": false, "user": {"created_at": "Tue Jul 08 11:36:33 +0000 2014", "default_profile": true, "description": "3/11/13 ;; Telling The Truth Is Different Than Talking Sh*t.", "favourites_count": 179, "followers_count": 94, "friends_count": 109, "id": 2611497828, "lang": "en", "location": "Keystone, SD", "name": "Ella", "profile_background_color": "C0DEED", "profile_background_image_url": "http://abs.twimg.com/images/themes/theme1/bg.png", "profile_background_tile": false, "profile_banner_url": "https://pbs.twimg.com/profile_banners/2611497828/1407554936", "profile_image_url": "https://pbs.twimg.com/profile_images/507472406403768320/TKiOKsFh_normal.jpeg", "profile_link_color": "0084B4", "profile_sidebar_fill_color": "DDEEF6", "profile_text_color": "333333", "protected": false, "screen_name": "Ella_Dotson", "statuses_count": 187, "time_zone": "Eastern Time (US & Canada)", "utc_offset": -18000}}
{"created_at": "Sat Jun 06 10:44:06 +0000 2015", "favorite_count": 1, "favorited": false, "id": 607135869691133953, "lang": "en", "retweeted": false, "source": "<a href=\"http://twitter.com\" rel=\"nofollow\">Twitter Web Client</a>", "text": "The story of the guy who changed his legal name because it was cheaper than paying ryanair to change the name on his plane ticket  LOL", "truncated": false, "user": {"created_at": "Mon Jul 21 23:02:00 +0000 2014", "default_profile": true, "description": "Every man needs a woman when his life is a mess because just like in a game of chess; the queen protects the king.", "favourites_count": 213, "followers_count": 81, "friends_count": 83, "id": 2667455491, "lang": "en", "listed_count": 1, "location": "Fords Branch, KY", "name": "Henrietta", "profile_background_color": "C0DEED", "profile_background_image_url": "http://abs.twimg.com/images/themes/theme1/bg.png", "profile_background_tile": false, "profile_banner_url": "https://pbs.twimg.com/profile_banners/2667455491/1407456177", "profile_image_url": "https://pbs.twimg.com/profile_images/497890375961288704/4RiXJdW0_normal.jpeg", "profile_link_color": "0084B4", "profile_sidebar_fill_color": "DDEEF6", "profile_text_color": "333333", "protected": false, "screen_name": "Henrietta_Sawye", "statuses_count": 215, "time_zone": "Eastern Time (US & Canada)", "utc_offset": -18000}}
{"created_at": "Sat Jun 06 10:46:04 +0000 2015", "favorited": false, "id": 607136367491956737, "lang": "en", "retweeted": false, "source": "<a href=\"http://twitter.com\" rel=\"nofollow\">Twitter Web Client</a>", "text": "The story of the guy who changed his legal name because it was cheaper than paying ryanair to change the name on his plane ticket  LOL", "truncated": false, "user": {"created_at": "Sat May 31 23:21:17 +0000 2014", "default_profile": true, "description": "If someone says something can't be done, it only means that they can't do it.", "favourites_count": 234, "followers_count": 52, "friends_count": 84, "id": 2538337734, "lang": "en", "location": "Shepherdsville, KY", "name": "Lyna Rowland", "profile_background_color": "C0DEED", "profile_background_image_url": "http://abs.twimg.com/images/themes/theme1/bg.png", "profile_background_tile": false, "profile_banner_url": "https://pbs.twimg.com/profile_banners/2538337734/1402792359", "profile_image_url": "https://pbs.twimg.com/profile_images/572972820382154752/nJ52msvG_normal.jpeg", "profile_link_color": "0084B4", "profile_sidebar_fill_color": "DDEEF6", "profile_text_color": "333333", "protected": false, "screen_name": "Lyna_Rowland", "statuses_count": 321, "time_zone": "Eastern Time (US & Canada)", "utc_offset": -18000}}
{"created_at": "Sat Jun 06 10:50:43 +0000 2015", "favorite_count": 1, "favorited": false, "id": 607137535488225280, "lang": "en", "retweeted": false, "source": "<a href=\"http://twitter.com\" rel=\"nofollow\">Twitter Web Client</a>", "text": "The story of the guy who changed his legal name because it was cheaper than paying ryanair to change the name on his plane ticket  LOL", "truncated": false, "user": {"created_at": "Sat May 31 18:41:15 +0000 2014", "default_profile": true, "description": "Great loves too must be endured.", "favourites_count": 184, "followers_count": 94, "friends_count": 103, "id": 2574228519, "lang": "en", "location": "IA", "name": "Jazlyn", "profile_background_color": "C0DEED", "profile_background_image_url": "http://abs.twimg.com/images/themes/theme1/bg.png", "profile_background_tile": false, "profile_banner_url": "https://pbs.twimg.com/profile_banners/2574228519/1402792007", "profile_image_url": "https://pbs.twimg.com/profile_images/478513244693213184/st7DOBxb_normal.jpeg", "profile_link_color": "0084B4", "profile_sidebar_fill_color": "DDEEF6", "profile_text_color": "333333", "protected": false, "screen_name": "JazlynVaughan", "statuses_count": 337, "time_zone": "Eastern Time (US & Canada)", "utc_offset": -18000}}
{"created_at": "Sat Jun 06 10:54:22 +0000 2015", "favorited": false, "id": 607138454686724096, "lang": "en", "retweeted": false, "source": "<a href=\"http://twitter.com\" rel=\"nofollow\">Twitter Web Client</a>", "text": "The story of the guy who changed his legal name because it was cheaper than paying ryanair to change the name on his plane ticket  LOL", "truncated": false, "user": {"created_at": "Thu May 29 17:21:12 +0000 2014", "default_profile": true, "description": "Six letters, two words, easy to say, hard to explain, harder to do: Move On.", "favourites_count": 327, "followers_count": 102, "friends_count": 104, "id": 2533053764, "lang": "en", "location": "Akron, OH", "name": "Madalyn", "profile_background_color": "C0DEED", "profile_background_image_url": "http://abs.twimg.com/images/themes/theme1/bg.png", "profile_background_tile": false, "profile_banner_url": "https://pbs.twimg.com/profile_banners/2533053764/1402792705", "profile_image_url": "https://pbs.twimg.com/profile_images/478732750187266048/d6B6SKgf_normal.jpeg", "profile_link_color": "0084B4", "profile_sidebar_fill_color": "DDEEF6", "profile_text_color": "333333", "protected": false, "screen_name": "Madalyn_Sharp", "statuses_count": 432, "time_zone": "Eastern Time (US & Canada)", "utc_offset": -18000}}
{"created_at": "Sat Jun 06 10:56:58 +0000 2015", "favorite_count": 1, "favorited": false, "id": 607139110780674048, "lang": "en", "retweeted": false, "source": "<a href=\"http://twitter.com\" rel=\"nofollow\">Twitter Web Client</a>", "text": "The story of the guy who changed his legal name because it was cheaper than paying ryanair to change the name on his plane ticket  LOL", "truncated": false, "user": {"created_at": "Wed Jun 11 01:43:32 +0000 2014", "default_profile": true, "description": "Hope is wishing something would happen. faith is believing something will happen. courage is making something happen.", "favourites_count": 302, "followers_count": 59, "friends_count": 90, "id": 2560301660, "lang": "en", "location": "LA", "name": "Eden Coffey", "profile_background_color": "C0DEED", "profile_background_image_url": "http://abs.twimg.com/images/themes/theme1/bg.png", "profile_background_tile": false, "profile_banner_url": "https://pbs.twimg.com/profile_banners/2560301660/1402791387", "profile_image_url": "https://pbs.twimg.com/profile_images/477967824107749376/uV9kcZnu_normal.jpeg", "profile_link_color": "0084B4", "profile_sidebar_fill_color": "DDEEF6", "profile_text_color": "333333", "protected": false, "screen_name": "eden_coffey", "statuses_count": 333, "time_zone": "Eastern Time (US & Canada)", "utc_offset": -18000}}
{"created_at": "Sat Jun 06 11:03:21 +0000 2015", "favorited": false, "id": 607140715630493697, "lang": "en", "retweeted": false, "source": "<a href=\"http://twitter.com\" rel=\"nofollow\">Twitter Web Client</a>", "text": "The story of the guy who changed his legal name because it was cheaper than paying ryanair to change the name on his plane ticket  LOL", "truncated": false, "user": {"created_at": "Sat Jun 07 10:35:41 +0000 2014", "default_profile": true, "description": "The important thing is not to stop questioning.", "favourites_count": 242, "followers_count": 57, "friends_count": 85, "id": 2589057670, "lang": "en", "location": "MO", "name": "Rianna", "profile_background_color": "C0DEED", "profile_background_image_url": "http://abs.twimg.com/images/themes/theme1/bg.png", "profile_background_tile": false, "profile_banner_url": "https://pbs.twimg.com/profile_banners/2589057670/1402793333", "profile_image_url": "https://pbs.twimg.com/profile_images/478733637362257920/nT0So8w2_normal.jpeg", "profile_link_color": "0084B4", "profile_sidebar_fill_color": "DDEEF6", "profile_text_color": "333333", "protected": false, "screen_name": "riannacurtis", "statuses_count": 321, "time_zone": "Eastern Time (US & Canada)", "utc_offset": -18000}}
