{"created_at": "Wed Oct 14 12:57:56 +0000 2015", "favorited": false, "id": 654279974669520897, "lang": "en", "retweeted": false, "source": "<a href=\"http://twitter.com\" rel=\"nofollow\">Twitter Web Client</a>", "text": "Howard Stern says 'I will never vote Democrat again, they are Communists ' https://t.co/8xskdn1pJf via @YouTube", "truncated": false, "urls": {"https://t.co/8xskdn1pJf": "https://youtu.be/GwU_-Gek34I"}, "user": {"created_at": "Mon Aug 17 00:05:00 +0000 2015", "default_profile": true, "followers_count": 1, "friends_count": 5, "id": 3317283697, "lang": "en", "name": "John Murdoch", "profile_background_color": "C0DEED", "profile_background_image_url": "http://abs.twimg.com/images/themes/theme1/bg.png", "profile_background_tile": false, "profile_image_url": "https://pbs.twimg.com/profile_images/633067960312053761/tES3EwQi_normal.jpg", "profile_link_color": "0084B4", "profile_sidebar_fill_color": "DDEEF6", "profile_text_color": "333333", "protected": false, "screen_name": "John195711", "statuses_count": 48}, "user_mentions": [{"id": 10228272, "name": "YouTube", "screen_name": "YouTube"}]}
{"created_at": "Wed Oct 14 14:20:33 +0000 2015", "favorite_count": 2, "favorited": false, "id": 654300766870589440, "lang": "en", "retweet_count": 1, "retweeted": false, "source": "<a href=\"http://twitter.com/download/iphone\" rel=\"nofollow\">Twitter for iPhone</a>", "text": "Howard Stern says 'I will never vote Democrat again, they are Communists ' http://t.co/L6uWo4WFoz", "truncated": false, "urls": {"http://t.co/L6uWo4WFoz": "http://www.youtube.com/watch?v=GwU_-Gek34I&sns=tw"}, "user": {"created_at": "Fri May 15 01:32:52 +0000 2009", "default_profile": true, "description": "Conservative/Tea Party/Christian/Daughter of Vietnam Vet. Teacher/Child Caregiver/Mother Love reading and current events. TV, Movies, Music Outdoors.", "favourites_count": 6587, "followers_count": 2616, "friends_count": 2830, "geo_enabled": true, "id": 40142736, "lang": "en", "listed_count": 60, "name": "CoffyLady\u2615\ufe0f", "profile_background_color": "C0DEED", "profile_background_image_url": "http://abs.twimg.com/images/themes/theme1/bg.png", "profile_background_tile": false, "profile_banner_url": "https://pbs.twimg.com/profile_banners/40142736/1442611862", "profile_image_url": "https://pbs.twimg.com/profile_images/644985999349678088/VMbixZf4_normal.jpg", "profile_link_color": "0084B4", "profile_sidebar_fill_color": "DDEEF6", "profile_text_color": "333333", "protected": false, "screen_name": "CoffyLady", "statuses_count": 27790, "time_zone": "Mountain Time (US & Canada)", "utc_offset": -25200}}
{"created_at": "Thu Oct 15 14:01:01 +0000 2015", "favorited": false, "id": 654658237883527168, "lang": "en", "retweeted": false, "source": "<a href=\"http://www.facebook.com/twitter\" rel=\"nofollow\">Facebook</a>", "text": "Howard Stern says 'I will never vote Democrat again, they are Communists ' http://t.co/raYLWSVzYT", "truncated": false, "urls": {"http://t.co/raYLWSVzYT": "http://fb.me/2NGALH5Rj"}, "user": {"created_at": "Tue Nov 01 13:00:11 +0000 2011", "default_profile": true, "default_profile_image": true, "favourites_count": 9, "followers_count": 41, "friends_count": 152, "id": 402694535, "lang": "en", "listed_count": 5, "name": "Thomas C.Mariani", "profile_background_color": "C0DEED", "profile_background_image_url": "http://abs.twimg.com/images/themes/theme1/bg.png", "profile_background_tile": false, "profile_image_url": "https://abs.twimg.com/sticky/default_profile_images/default_profile_5_normal.png", "profile_link_color": "0084B4", "profile_sidebar_fill_color": "DDEEF6", "profile_text_color": "333333", "protected": false, "screen_name": "neastas", "statuses_count": 8762, "time_zone": "Central Time (US & Canada)", "utc_offset": -21600}}
{"created_at": "Tue Oct 27 03:02:36 +0000 2015", "favorited": false, "id": 658841196832399360, "in_reply_to_screen_name": "greta", "in_reply_to_user_id": 16031927, "lang": "en", "retweeted": false, "source": "<a href=\"http://mobile.twitter.com\" rel=\"nofollow\">Mobile Web</a>", "text": "@greta Howard Stern says 'I will never vote Democrat again, they are Communists ' https://t.co/DevO8P37lN via @YouTube", "truncated": false, "urls": {"https://t.co/DevO8P37lN": "https://youtu.be/GwU_-Gek34I"}, "user": {"created_at": "Mon Jan 12 16:23:29 +0000 2009", "description": "Navy Surface Combatant Engineer", "favourites_count": 2657, "followers_count": 5623, "friends_count": 6151, "id": 18905238, "lang": "en", "listed_count": 181, "location": "USA", "name": "TAPJR", "profile_background_color": "0099B9", "profile_background_image_url": "http://abs.twimg.com/images/themes/theme4/bg.gif", "profile_background_tile": false, "profile_banner_url": "https://pbs.twimg.com/profile_banners/18905238/1422894188", "profile_image_url": "https://pbs.twimg.com/profile_images/377526365/Tom-Pugh_normal.jpg", "profile_link_color": "0099B9", "profile_sidebar_fill_color": "95E8EC", "profile_text_color": "3C3940", "protected": false, "screen_name": "TAPJR", "statuses_count": 38134, "time_zone": "Eastern Time (US & Canada)", "utc_offset": -18000}, "user_mentions": [{"id": 16031927, "name": "Greta Van Susteren", "screen_name": "greta"}, {"id": 10228272, "name": "YouTube", "screen_name": "YouTube"}]}
{"created_at": "Fri Dec 04 04:22:37 +0000 2015", "favorited": false, "id": 672632071735521280, "lang": "en", "retweeted": false, "source": "<a href=\"http://twitterfeed.com\" rel=\"nofollow\">twitterfeed</a>", "text": "Snopes: A Stern Talk: Howard Stern said that he would never vote for another Democrat. https://t.co/dkrTV9bwC3", "truncated": false, "urls": {"https://t.co/dkrTV9bwC3": "http://bit.ly/1ldxxWI"}, "user": {"created_at": "Thu Oct 09 17:37:27 +0000 2008", "description": "Let's make critical thinking easy (and fun).", "favourites_count": 4, "followers_count": 3837, "friends_count": 677, "id": 16669742, "lang": "en", "listed_count": 272, "location": "Everywhere", "name": "Skeptic Network", "profile_background_color": "000000", "profile_background_image_url": "http://pbs.twimg.com/profile_background_images/4759267/fractile_dk.jpg", "profile_background_tile": true, "profile_banner_url": "https://pbs.twimg.com/profile_banners/16669742/1360552274", "profile_image_url": "https://pbs.twimg.com/profile_images/90185083/fractile_sing_SN3_normal.jpg", "profile_link_color": "B00B07", "profile_sidebar_fill_color": "EBECEF", "profile_text_color": "15377E", "protected": false, "screen_name": "SkepNet", "statuses_count": 18326, "time_zone": "Eastern Time (US & Canada)", "utc_offset": -18000}}
{"created_at": "Fri Dec 04 04:22:39 +0000 2015", "favorited": false, "id": 672632078974849024, "lang": "en", "retweeted": false, "source": "<a href=\"http://twitterfeed.com\" rel=\"nofollow\">twitterfeed</a>", "text": "IS IT TRUE? A Stern Talk: Howard Stern said that he would never vote for another Democrat. https://t.co/jeDAcV8t1B", "truncated": false, "urls": {"https://t.co/jeDAcV8t1B": "http://bit.ly/1XLZnVK"}, "user": {"created_at": "Tue Nov 03 07:16:37 +0000 2009", "description": "Keeping the Internet safe by exposing online scams and hoaxes.", "followers_count": 152, "friends_count": 13, "id": 87130129, "lang": "en", "listed_count": 6, "location": "Tubes", "name": "Internet Scam", "profile_background_color": "000000", "profile_background_image_url": "http://pbs.twimg.com/profile_background_images/50465684/internetscam.jpg", "profile_background_tile": false, "profile_image_url": "https://pbs.twimg.com/profile_images/506278879/internetscam-id_normal.jpg", "profile_link_color": "2FC2EF", "profile_sidebar_fill_color": "000000", "profile_text_color": "666666", "protected": false, "screen_name": "InternetScam", "statuses_count": 2728, "time_zone": "Central Time (US & Canada)", "utc_offset": -21600}}
{"created_at": "Fri Dec 04 04:22:40 +0000 2015", "favorited": false, "id": 672632082498105344, "lang": "en", "retweeted": false, "source": "<a href=\"http://twitterfeed.com\" rel=\"nofollow\">twitterfeed</a>", "text": "A Stern Talk: Howard Stern said that he would never vote for another Democrat. https://t.co/dxziEebfc4", "truncated": false, "urls": {"https://t.co/dxziEebfc4": "http://bit.ly/1ldxxWI"}, "user": {"created_at": "Tue Nov 09 09:35:42 +0000 2010", "favourites_count": 9, "followers_count": 874, "friends_count": 1639, "id": 213594945, "lang": "en", "listed_count": 5, "location": "New Jersey", "name": "Tammy Stein", "profile_background_color": "131516", "profile_background_image_url": "http://abs.twimg.com/images/themes/theme14/bg.gif", "profile_background_tile": true, "profile_image_url": "https://pbs.twimg.com/profile_images/1163133789/Tammy_Stein_normal.jpg", "profile_link_color": "009999", "profile_sidebar_fill_color": "EFEFEF", "profile_text_color": "333333", "protected": false, "screen_name": "Legal_101HQ", "statuses_count": 3246}}
{"created_at": "Fri Dec 04 04:22:40 +0000 2015", "favorited": false, "hashtags": ["factorfiction"], "id": 672632085119561729, "lang": "en", "retweeted": false, "source": "<a href=\"http://twitterfeed.com\" rel=\"nofollow\">twitterfeed</a>", "text": "A Stern Talk: Howard Stern said that he would never vote for another Democrat. https://t.co/t35sVFedZX #factorfiction", "truncated": false, "urls": {"https://t.co/t35sVFedZX": "http://bit.ly/1ldxxWI"}, "user": {"created_at": "Tue Jun 17 15:05:55 +0000 2008", "description": "Professional photographer for many years, graduate of Brooks Institute, but now working in healthcare!  The advertising game got to be a drag...", "favourites_count": 209, "followers_count": 961, "friends_count": 1902, "id": 15146527, "lang": "en", "listed_count": 21, "location": "Tampa Bay, FL", "name": "Ted Wade", "profile_background_color": "B2DFDA", "profile_background_image_url": "http://pbs.twimg.com/profile_background_images/321056501/Inside_the_Melk_Abbey_-_can_you_spot_me_in_the_pho.jpg", "profile_background_tile": true, "profile_image_url": "https://pbs.twimg.com/profile_images/82775180/080124_Me_0005_normal.jpg", "profile_link_color": "93A644", "profile_sidebar_fill_color": "FFFFFF", "profile_text_color": "333333", "protected": false, "screen_name": "tedlw", "statuses_count": 47147, "time_zone": "Quito", "utc_offset": -18000}}
{"created_at": "Fri Dec 04 04:22:41 +0000 2015", "favorited": false, "id": 672632090362417152, "lang": "en", "retweeted": false, "source": "<a href=\"http://twitterfeed.com\" rel=\"nofollow\">twitterfeed</a>", "text": "A Stern Talk: Howard Stern said that he would never vote for another Democrat. https://t.co/ZMdy1yrhTl", "truncated": false, "urls": {"https://t.co/ZMdy1yrhTl": "http://bit.ly/1XLZnVK"}, "user": {"created_at": "Wed Jan 02 08:21:49 +0000 2013", "default_profile": true, "description": "Web designer. Computer tech. Like paranomal and mysteries.", "favourites_count": 1, "followers_count": 5115, "friends_count": 6497, "id": 1054540363, "lang": "en", "listed_count": 21, "name": "RMD.1", "profile_background_color": "C0DEED", "profile_background_image_url": "http://abs.twimg.com/images/themes/theme1/bg.png", "profile_background_tile": false, "profile_banner_url": "https://pbs.twimg.com/profile_banners/1054540363/1357115184", "profile_image_url": "https://pbs.twimg.com/profile_images/3062588092/156f982d0f6ea81a5e4eb08767adb86b_normal.jpeg", "profile_link_color": "0084B4", "profile_sidebar_fill_color": "DDEEF6", "profile_text_color": "333333", "protected": false, "screen_name": "rd_rmd1", "statuses_count": 3960, "time_zone": "New Caledonia", "utc_offset": 39600}}
{"created_at": "Fri Dec 04 04:22:43 +0000 2015", "favorited": false, "hashtags": ["nsfw", "nsfk"], "id": 672632095764701184, "lang": "en", "possibly_sensitive": true, "retweeted": false, "source": "<a href=\"http://twitterfeed.com\" rel=\"nofollow\">twitterfeed</a>", "text": "A Stern Talk: Howard Stern said that he would never vote for another Democrat. https://t.co/T5RUrgAFd0 #nsfw #nsfk", "truncated": false, "urls": {"https://t.co/T5RUrgAFd0": "http://bit.ly/1XLZnVK"}, "user": {"created_at": "Sat Sep 25 23:34:23 +0000 2010", "description": "\u2605 we are born naked, wet and hungry. then things get worse; but life is the art of drawing without an eraser. make a difference.\u2605", "favourites_count": 373, "followers_count": 107273, "friends_count": 8878, "id": 195153921, "lang": "en", "listed_count": 247, "location": "USA ", "name": "jordan", "profile_background_color": "1A1B1F", "profile_background_image_url": "http://abs.twimg.com/images/themes/theme9/bg.gif", "profile_background_tile": false, "profile_banner_url": "https://pbs.twimg.com/profile_banners/195153921/1413749866", "profile_image_url": "https://pbs.twimg.com/profile_images/642807001161072642/aqILBe-G_normal.jpg", "profile_link_color": "2FC2EF", "profile_sidebar_fill_color": "252429", "profile_text_color": "666666", "protected": false, "screen_name": "jordanvalliere", "statuses_count": 53041, "time_zone": "Eastern Time (US & Canada)", "url": "https://t.co/5rFd4wchx5", "utc_offset": -18000}}
{"created_at": "Fri Dec 04 14:52:47 +0000 2015", "favorited": false, "id": 672790657027563520, "lang": "en", "retweeted": false, "source": "<a href=\"http://twitterfeed.com\" rel=\"nofollow\">twitterfeed</a>", "text": "A Stern Talk: Howard Stern said that he would never vote for another Democrat. https://t.co/UC7kZciiIs", "truncated": false, "urls": {"https://t.co/UC7kZciiIs": "http://bit.ly/1XLZnVK"}, "user": {"created_at": "Fri Jul 09 20:06:00 +0000 2010", "description": "Mother, Cleaner and Wife. I kiss my child's boo-boo, regardless of where it is. My feet stick to the kitchen floor and I don't care.", "followers_count": 1382, "friends_count": 1862, "id": 164801854, "lang": "en", "listed_count": 25, "location": "Springfield, MA", "name": "Maddison Foster", "profile_background_color": "1A213D", "profile_background_image_url": "http://pbs.twimg.com/profile_background_images/162921629/mqbeachplay_1.br.jpg", "profile_background_tile": false, "profile_image_url": "https://pbs.twimg.com/profile_images/1065898269/n757108587_824998_9871_normal.jpg", "profile_link_color": "AD2A25", "profile_sidebar_fill_color": "E7A3A0", "profile_text_color": "1A213D", "protected": false, "screen_name": "maddisonfoster", "statuses_count": 10635, "time_zone": "Eastern Time (US & Canada)", "utc_offset": -18000}}
{"created_at": "Tue Dec 29 06:01:33 +0000 2015", "favorited": false, "id": 681716667945062400, "lang": "en", "retweeted": false, "source": "<a href=\"http://twitter.com\" rel=\"nofollow\">Twitter Web Client</a>", "text": "Howard Stern says 'I will never vote Democrat again, they are Communists ' https://t.co/tuGlZzuZeZ via @YouTube", "truncated": false, "urls": {"https://t.co/tuGlZzuZeZ": "https://youtu.be/GwU_-Gek34I"}, "user": {"created_at": "Wed Jun 11 05:01:48 +0000 2014", "description": "Liberty, Maximize Autonomy, Freedom of Choice, Voluntary Association, Individual Judgment. #Support #Libertarian #RINO #Teaparty #Conservative  #Reagan #Calif", "favourites_count": 3100, "followers_count": 1576, "friends_count": 2592, "id": 2560588812, "lang": "en", "listed_count": 14, "location": "USA", "name": "Bayless", "profile_background_color": "022330", "profile_background_image_url": "http://pbs.twimg.com/profile_background_images/502260612517224448/wXyKfIIF.jpeg", "profile_background_tile": false, "profile_banner_url": "https://pbs.twimg.com/profile_banners/2560588812/1451342180", "profile_image_url": "https://pbs.twimg.com/profile_images/682121540058492928/6ryXsCxa_normal.jpg", "profile_link_color": "DD2E44", "profile_sidebar_fill_color": "C0DFEC", "profile_text_color": "333333", "protected": false, "screen_name": "ScottBayless2", "statuses_count": 6530}, "user_mentions": [{"id": 10228272, "name": "YouTube", "screen_name": "YouTube"}]}
