{"created_at": "Wed May 27 13:15:11 +0000 2009", "favorited": false, "id": 1935469900, "lang": "en", "retweeted": false, "source": "<a href=\"http://twitter.com\" rel=\"nofollow\">Twitter Web Client</a>", "text": "Emma Watson for Crash Magazine http://uk.fashion.popsugar.com/3196148", "truncated": false, "user": {"created_at": "Thu Aug 28 14:48:33 +0000 2008", "description": "POPSUGAR UK delivers insider access to celebrity and lifestyle content on a daily basis.", "favourites_count": 45, "followers_count": 49084, "friends_count": 1318, "geo_enabled": true, "id": 16027675, "lang": "en", "listed_count": 465, "location": "London", "name": "POPSUGAR UK", "profile_background_color": "201F1E", "profile_background_image_url": "http://pbs.twimg.com/profile_background_images/378800000053187419/f633484e32d754fb0b05e56945ce4c1b.jpeg", "profile_background_tile": false, "profile_banner_url": "https://pbs.twimg.com/profile_banners/16027675/1400695891", "profile_image_url": "https://pbs.twimg.com/profile_images/674734542381453313/JEs5SVUE_normal.png", "profile_link_color": "EE0066", "profile_sidebar_fill_color": "212121", "profile_text_color": "6B6B6B", "protected": false, "screen_name": "POPSUGARUK", "statuses_count": 26718, "time_zone": "London", "url": "http://t.co/e2fP0OBTPp", "verified": true}}
{"created_at": "Wed May 27 14:03:02 +0000 2009", "favorited": false, "id": 1935879866, "lang": "en", "retweeted": false, "source": "<a href=\"http://twitter.com\" rel=\"nofollow\">Twitter Web Client</a>", "text": "Emma Watson for Crash http://cli.gs/uzpR2L", "truncated": false, "user": {"created_at": "Sun May 17 19:32:41 +0000 2009", "description": "The Secrets To the Best Makeup Application, Color, and Product Reviews Found Anywhere.", "favourites_count": 3, "followers_count": 10107, "friends_count": 8937, "id": 40720260, "lang": "en", "listed_count": 126, "location": "New York", "name": "Linda Hartmann", "profile_background_color": "F7EBCA", "profile_background_image_url": "http://pbs.twimg.com/profile_background_images/81287544/art-of-faces-background5.jpg", "profile_background_tile": true, "profile_image_url": "https://pbs.twimg.com/profile_images/376617868/Linda-crop_twitter__normal.jpg", "profile_link_color": "0688EA", "profile_sidebar_fill_color": "CFCFCF", "profile_text_color": "634047", "protected": false, "screen_name": "ArtOfFaces", "statuses_count": 14481, "time_zone": "Eastern Time (US & Canada)", "url": "http://t.co/6k098S8B", "utc_offset": -18000}}
{"created_at": "Wed May 27 14:04:40 +0000 2009", "favorited": false, "id": 1935894450, "lang": "en", "retweeted": false, "source": "<a href=\"http://twitter.com\" rel=\"nofollow\">Twitter Web Client</a>", "text": "Emma Watson for Crash Magazine http://cli.gs/TBazN4", "truncated": false, "user": {"created_at": "Sun May 17 19:32:41 +0000 2009", "description": "The Secrets To the Best Makeup Application, Color, and Product Reviews Found Anywhere.", "favourites_count": 3, "followers_count": 10107, "friends_count": 8937, "id": 40720260, "lang": "en", "listed_count": 126, "location": "New York", "name": "Linda Hartmann", "profile_background_color": "F7EBCA", "profile_background_image_url": "http://pbs.twimg.com/profile_background_images/81287544/art-of-faces-background5.jpg", "profile_background_tile": true, "profile_image_url": "https://pbs.twimg.com/profile_images/376617868/Linda-crop_twitter__normal.jpg", "profile_link_color": "0688EA", "profile_sidebar_fill_color": "CFCFCF", "profile_text_color": "634047", "protected": false, "screen_name": "ArtOfFaces", "statuses_count": 14481, "time_zone": "Eastern Time (US & Canada)", "url": "http://t.co/6k098S8B", "utc_offset": -18000}}
{"created_at": "Wed May 27 22:34:48 +0000 2009", "favorited": false, "hashtags": ["gossip"], "id": 1940416664, "lang": "en", "retweeted": false, "source": "<a href=\"http://twitter.com\" rel=\"nofollow\">Twitter Web Client</a>", "text": "PITNB #gossip : Emma Watson Does \u2018Crash\u2019 Magazine http://bit.ly/13jkaP", "truncated": false, "user": {"created_at": "Sat Aug 23 09:52:20 +0000 2008", "description": "I'm Trent from Pink is the new Blog: Everybody's Business Is My Business ... and I love tweeting about it!", "favourites_count": 70, "followers_count": 15453, "friends_count": 906, "geo_enabled": true, "id": 15955769, "lang": "en", "listed_count": 479, "location": "LA by way of Detroit", "name": "TRE\u0418T \u2605 VA\u0418EGAS", "profile_background_color": "FFFF00", "profile_background_image_url": "http://pbs.twimg.com/profile_background_images/466857140901007360/VVvgjnT8.jpeg", "profile_background_tile": true, "profile_banner_url": "https://pbs.twimg.com/profile_banners/15955769/1415080244", "profile_image_url": "https://pbs.twimg.com/profile_images/586166644348596224/W6TT1uhr_normal.jpg", "profile_link_color": "FF0099", "profile_sidebar_fill_color": "E6F6F9", "profile_text_color": "333333", "protected": false, "screen_name": "trentvanegas", "statuses_count": 56391, "time_zone": "Pacific Time (US & Canada)", "url": "https://t.co/oZn0YpwvnU", "utc_offset": -28800, "verified": true}}
{"created_at": "Wed May 20 11:12:04 +0000 2009", "favorited": false, "id": 1858133823, "lang": "en", "retweeted": false, "source": "<a href=\"http://twitter.com\" rel=\"nofollow\">Twitter Web Client</a>", "text": "Emma Watson for Crash Magazine http://tumblr.com/xjw1tqzno", "truncated": false, "user": {"created_at": "Tue Feb 24 19:25:13 +0000 2009", "description": "Irish Beauty / Fashion / Lifestyle Blogger. #SocialMediaMarketing & #DigitalMarketing grad. Omniplex popcorn maker by night. Email:JesskaDenise@hotmail.com \u262e", "favourites_count": 119, "followers_count": 822, "friends_count": 98, "id": 21785973, "lang": "en", "listed_count": 63, "location": "Longford Ireland", "name": "Jess", "profile_background_color": "D0F2E7", "profile_background_image_url": "http://pbs.twimg.com/profile_background_images/489569838482747392/JnvabiBn.png", "profile_background_tile": true, "profile_banner_url": "https://pbs.twimg.com/profile_banners/21785973/1423664051", "profile_image_url": "https://pbs.twimg.com/profile_images/672544072947625984/hSZRo-aW_normal.jpg", "profile_link_color": "028482", "profile_sidebar_fill_color": "FFFFFF", "profile_text_color": "000000", "protected": false, "screen_name": "JesskaDenise", "statuses_count": 30014, "time_zone": "Dublin", "url": "https://t.co/izxuqJUf6F"}}
{"created_at": "Thu Mar 12 13:46:28 +0000 2009", "favorited": false, "id": 1316014060, "lang": "en", "retweeted": false, "source": "<a href=\"http://twitter.com\" rel=\"nofollow\">Twitter Web Client</a>", "text": "Emma Watson en Crash http://tinyurl.com/d9reyz", "truncated": false, "user": {"created_at": "Sun Feb 15 21:26:17 +0000 2009", "favourites_count": 1381, "followers_count": 206, "friends_count": 70, "id": 20938658, "lang": "en", "listed_count": 3, "location": "Valencia, Vzla.", "name": "Guachafita", "profile_background_color": "009AB9", "profile_background_image_url": "http://pbs.twimg.com/profile_background_images/164751529/twitter_bg_template_lightblue.jpg", "profile_background_tile": true, "profile_image_url": "https://pbs.twimg.com/profile_images/598600446/guachafita_normal.jpeg", "profile_link_color": "009AB9", "profile_sidebar_fill_color": "0D0434", "profile_text_color": "B905FA", "protected": false, "screen_name": "guachafita", "statuses_count": 11898, "time_zone": "Caracas", "url": "http://t.co/VAQDfkmfgC", "utc_offset": -16200}}
{"created_at": "Thu May 28 16:49:05 +0000 2009", "favorite_count": 1, "favorited": false, "id": 1949113508, "lang": "et", "retweeted": false, "source": "<a href=\"http://twitter.com\" rel=\"nofollow\">Twitter Web Client</a>", "text": "Emma Watson Crashes http://tinyurl.com/kku8br", "truncated": false, "user": {"created_at": "Fri Jan 23 05:44:14 +0000 2009", "description": "Just Jared Jr. is the definitive site for teen celebrity fans, with up-to-the-minute coverage of today\u2019s hottest young stars from film, television and music.", "favourites_count": 1607, "followers_count": 365816, "friends_count": 1438, "geo_enabled": true, "id": 19383317, "lang": "en", "listed_count": 2257, "name": "Just Jared Jr.", "profile_background_color": "A1DDFF", "profile_background_image_url": "http://pbs.twimg.com/profile_background_images/167460974/jjj_twitter23a.jpg", "profile_background_tile": false, "profile_banner_url": "https://pbs.twimg.com/profile_banners/19383317/1421508808", "profile_image_url": "https://pbs.twimg.com/profile_images/556474429543165952/CTMFATp5_normal.jpeg", "profile_link_color": "1F98C7", "profile_sidebar_fill_color": "DAECF4", "profile_text_color": "663B12", "protected": false, "screen_name": "justjaredjr", "statuses_count": 71671, "time_zone": "Central Time (US & Canada)", "url": "http://t.co/SDE7tA5Jrd", "utc_offset": -21600, "verified": true}}
{"created_at": "Thu May 28 23:15:59 +0000 2009", "favorited": false, "id": 1953092441, "lang": "et", "retweeted": false, "source": "<a href=\"http://twitterfeed.com\" rel=\"nofollow\">twitterfeed</a>", "text": "Emma Watson en Crash (+ Fotos) http://tinyurl.com/n9lfrl", "truncated": false, "user": {"created_at": "Mon May 25 03:28:00 +0000 2009", "description": "Telefarandula.com es el sitio para las fans adolescentes de las celebridades teen. Tambi\u00e9n noticias m\u00e1s HOT!! de las estrellas de cine, televisi\u00f3n y m\u00fasica.", "followers_count": 284, "friends_count": 19, "id": 42340800, "lang": "es", "listed_count": 6, "location": "Lima", "name": "Telefarandula", "profile_background_color": "FBE5EC", "profile_background_image_url": "http://abs.twimg.com/images/themes/theme11/bg.gif", "profile_background_tile": true, "profile_image_url": "https://pbs.twimg.com/profile_images/229115297/avatar_telefarandula_normal.jpg", "profile_link_color": "B40B43", "profile_sidebar_fill_color": "E5507E", "profile_text_color": "362720", "protected": false, "screen_name": "Telefarandula", "statuses_count": 923, "time_zone": "Lima", "url": "http://telefarandula.com/", "utc_offset": -18000}}
{"created_at": "Fri May 29 13:00:24 +0000 2009", "favorited": false, "id": 1959304357, "lang": "et", "retweeted": false, "source": "<a href=\"http://twitter.com\" rel=\"nofollow\">Twitter Web Client</a>", "text": "Emma Watson para Crash http://tinyurl.com/n9u8zs", "truncated": false, "user": {"created_at": "Sat Jan 03 19:30:37 +0000 2009", "followers_count": 970, "friends_count": 44, "id": 18585000, "lang": "en", "listed_count": 21, "location": "Espa\u00f1a", "name": "sobrefamosos", "profile_background_color": "0099B9", "profile_background_image_url": "http://abs.twimg.com/images/themes/theme4/bg.gif", "profile_background_tile": false, "profile_image_url": "https://pbs.twimg.com/profile_images/376395769/sobrefamosos-youtube_normal.jpg", "profile_link_color": "0099B9", "profile_sidebar_fill_color": "95E8EC", "profile_text_color": "3C3940", "protected": false, "screen_name": "sobrefamosos", "statuses_count": 36537, "time_zone": "Madrid", "url": "http://t.co/gFaxMul1oH", "utc_offset": 3600}}
{"created_at": "Sun May 31 09:51:50 +0000 2009", "favorited": false, "id": 1979395400, "lang": "en", "retweeted": false, "source": "<a href=\"http://twitter.com\" rel=\"nofollow\">Twitter Web Client</a>", "text": "Emma Watson Poses For Crash Magazine http://bit.ly/OaV9Y", "truncated": false, "user": {"created_at": "Fri May 15 08:37:09 +0000 2009", "default_profile": true, "default_profile_image": true, "followers_count": 78, "friends_count": 72, "id": 40203568, "lang": "en", "name": "Shyla Lopez", "profile_background_color": "C0DEED", "profile_background_image_url": "http://abs.twimg.com/images/themes/theme1/bg.png", "profile_background_tile": false, "profile_image_url": "https://abs.twimg.com/sticky/default_profile_images/default_profile_6_normal.png", "profile_link_color": "0084B4", "profile_sidebar_fill_color": "DDEEF6", "profile_text_color": "333333", "protected": false, "screen_name": "shylalopez", "statuses_count": 945}}
{"created_at": "Mon May 25 23:58:38 +0000 2009", "favorited": false, "id": 1917830827, "lang": "fi", "retweeted": false, "source": "<a href=\"http://twitter.com\" rel=\"nofollow\">Twitter Web Client</a>", "text": "Emma Watson en Revista Crash http://tinyurl.com/o4y68p", "truncated": false, "user": {"created_at": "Mon Apr 27 02:10:14 +0000 2009", "description": "\u00a1Env\u00edanos tus noticias! escribe @fannyshow y tu enlace para verlo.", "favourites_count": 8, "followers_count": 730, "friends_count": 193, "id": 35637652, "lang": "es", "listed_count": 8, "location": "Blogs", "name": "Fannyshow", "profile_background_color": "642D8B", "profile_background_image_url": "http://pbs.twimg.com/profile_background_images/88629146/02_10_2009_0503476001254471253_sam-nielson.jpg", "profile_background_tile": false, "profile_image_url": "https://pbs.twimg.com/profile_images/664205614/lovee_normal.png", "profile_link_color": "FF0000", "profile_sidebar_fill_color": "7AC3EE", "profile_text_color": "3D1957", "protected": false, "screen_name": "FannyShow", "statuses_count": 2174, "time_zone": "Arizona", "url": "http://t.co/A0jmrrPYYg", "utc_offset": -25200}}
