{"favorited": false, "retweeted_status": {"user": {"follow_request_sent": false, "profile_use_background_image": true, "default_profile_image": false, "id": 18479513, "verified": true, "profile_image_url_https": "https://si0.twimg.com/profile_images/3055214035/a5f0a4f7d82544c19807ba67d16c9775_normal.jpeg", "profile_sidebar_fill_color": "DDFFCC", "profile_text_color": "333333", "followers_count": 2638891, "profile_sidebar_border_color": "FFFFFF", "id_str": "18479513", "profile_background_color": "C0DEED", "listed_count": 19719, "profile_background_image_url_https": "https://si0.twimg.com/profile_background_images/698942215/279bba07fb1e1bdfaa167b386f22e858.jpeg", "utc_offset": -18000, "statuses_count": 43831, "description": "Official Twitter of Major League Baseball. Our lawyers made us post sweepstakes rules: http://atmlb.com/MLBT0C", "friends_count": 1591, "location": "", "profile_link_color": "0084B4", "profile_image_url": "http://a0.twimg.com/profile_images/3055214035/a5f0a4f7d82544c19807ba67d16c9775_normal.jpeg", "following": false, "geo_enabled": true, "profile_banner_url": "https://si0.twimg.com/profile_banners/18479513/1358194390", "profile_background_image_url": "http://a0.twimg.com/profile_background_images/698942215/279bba07fb1e1bdfaa167b386f22e858.jpeg", "name": "MLB", "lang": "en", "profile_background_tile": false, "favourites_count": 34, "screen_name": "MLB", "notifications": false, "url": "http://MLB.com", "created_at": "Tue Dec 30 15:39:32 +0000 2008", "contributors_enabled": true, "time_zone": "Eastern Time (US & Canada)", "protected": false, "default_profile": false, "is_translator": false}, "favorited": false, "entities": {"user_mentions": [], "hashtags": [{"indices": [32, 41], "text": "phillies"}, {"indices": [60, 65], "text": "reds"}], "urls": []}, "contributors": null, "truncated": false, "text": "What a bottom of the 9th by the #phillies - 6 runs ties the #reds at 7-7 and we're going to extras http://is.gd/dmgdM", "created_at": "Sat Jul 10 01:59:56 +0000 2010", "retweeted": false, "in_reply_to_status_id_str": null, "coordinates": null, "in_reply_to_user_id_str": null, "source": "web", "in_reply_to_status_id": null, "in_reply_to_screen_name": null, "id_str": "18163627047", "place": null, "retweet_count": 8, "geo": null, "id": 18163627047, "in_reply_to_user_id": null}, "truncated": false, "text": "RT @MLB: What a bottom of the 9th by the #phillies - 6 runs ties the #reds at 7-7 and we're going to extras http://is.gd/dmgdM", "eid": "TM1715", "in_reply_to_status_id": null, "user": {"follow_request_sent": false, "profile_use_background_image": true, "default_profile_image": false, "id": 62369333, "verified": false, "profile_image_url_https": "https://si0.twimg.com/profile_images/3004000528/356b99c6ad24dc4464f9b035edd26393_normal.jpeg", "profile_sidebar_fill_color": "E9ED0E", "profile_text_color": "02051A", "followers_count": 1143, "profile_sidebar_border_color": "F50A2D", "id_str": "62369333", "profile_background_color": "29CCB1", "listed_count": 20, "profile_background_image_url_https": "https://si0.twimg.com/profile_background_images/330802749/x__LET__S_GO_YANKEES_LET__S_GO_by_x_BellaNotte_x.gif", "utc_offset": -21600, "statuses_count": 142574, "description": "Open 24/7 365 days a year & we can get any video game, video system, or tech need you want. We welcome special orders my home http://thundercatsnyy.blogspot.com", "friends_count": 2002, "location": "Texas, USA", "profile_link_color": "0F42DB", "profile_image_url": "http://a0.twimg.com/profile_images/3004000528/356b99c6ad24dc4464f9b035edd26393_normal.jpeg", "following": false, "geo_enabled": true, "profile_banner_url": "https://si0.twimg.com/profile_banners/62369333/1355872368", "profile_background_image_url": "http://a0.twimg.com/profile_background_images/330802749/x__LET__S_GO_YANKEES_LET__S_GO_by_x_BellaNotte_x.gif", "name": "big k", "lang": "en", "profile_background_tile": true, "favourites_count": 576, "screen_name": "thundercatsnyy", "notifications": false, "url": "http://amazon.com/shops/thundercatsnyy", "created_at": "Sun Aug 02 22:44:13 +0000 2009", "contributors_enabled": false, "time_zone": "Central Time (US & Canada)", "protected": false, "default_profile": false, "is_translator": false}, "geo": null, "in_reply_to_user_id_str": null, "contributors": null, "source": "<a href=\"http://dev.twitter.com/\" rel=\"nofollow\">API</a>", "created_at": "Sat Jul 10 02:16:27 +0000 2010", "retweeted": false, "coordinates": null, "id": 18164625340, "entities": {"user_mentions": [{"id": 18479513, "indices": [3, 7], "id_str": "18479513", "screen_name": "MLB", "name": "MLB"}], "hashtags": [{"indices": [41, 50], "text": "phillies"}, {"indices": [69, 74], "text": "reds"}], "urls": []}, "in_reply_to_status_id_str": null, "in_reply_to_screen_name": null, "id_str": "18164625340", "place": null, "retweet_count": 8, "in_reply_to_user_id": null}
{"favorited": false, "retweeted_status": {"user": {"follow_request_sent": false, "profile_use_background_image": true, "default_profile_image": false, "id": 18479513, "verified": true, "profile_image_url_https": "https://si0.twimg.com/profile_images/3055214035/a5f0a4f7d82544c19807ba67d16c9775_normal.jpeg", "profile_sidebar_fill_color": "DDFFCC", "profile_text_color": "333333", "followers_count": 2638892, "profile_sidebar_border_color": "FFFFFF", "id_str": "18479513", "profile_background_color": "C0DEED", "listed_count": 19719, "profile_background_image_url_https": "https://si0.twimg.com/profile_background_images/698942215/279bba07fb1e1bdfaa167b386f22e858.jpeg", "utc_offset": -18000, "statuses_count": 43831, "description": "Official Twitter of Major League Baseball. Our lawyers made us post sweepstakes rules: http://atmlb.com/MLBT0C", "friends_count": 1591, "location": "", "profile_link_color": "0084B4", "profile_image_url": "http://a0.twimg.com/profile_images/3055214035/a5f0a4f7d82544c19807ba67d16c9775_normal.jpeg", "following": false, "geo_enabled": true, "profile_banner_url": "https://si0.twimg.com/profile_banners/18479513/1358194390", "profile_background_image_url": "http://a0.twimg.com/profile_background_images/698942215/279bba07fb1e1bdfaa167b386f22e858.jpeg", "name": "MLB", "lang": "en", "profile_background_tile": false, "favourites_count": 34, "screen_name": "MLB", "notifications": false, "url": "http://MLB.com", "created_at": "Tue Dec 30 15:39:32 +0000 2008", "contributors_enabled": true, "time_zone": "Eastern Time (US & Canada)", "protected": false, "default_profile": false, "is_translator": false}, "favorited": false, "entities": {"user_mentions": [], "hashtags": [{"indices": [32, 41], "text": "phillies"}, {"indices": [60, 65], "text": "reds"}], "urls": []}, "contributors": null, "truncated": false, "text": "What a bottom of the 9th by the #phillies - 6 runs ties the #reds at 7-7 and we're going to extras http://is.gd/dmgdM", "created_at": "Sat Jul 10 01:59:56 +0000 2010", "retweeted": false, "in_reply_to_status_id_str": null, "coordinates": null, "in_reply_to_user_id_str": null, "source": "web", "in_reply_to_status_id": null, "in_reply_to_screen_name": null, "id_str": "18163627047", "place": null, "retweet_count": 8, "geo": null, "id": 18163627047, "in_reply_to_user_id": null}, "truncated": false, "text": "RT @MLB: What a bottom of the 9th by the #phillies - 6 runs ties the #reds at 7-7 and we're going to extras http://is.gd/dmgdM", "eid": "TM1715", "in_reply_to_status_id": null, "user": {"follow_request_sent": false, "profile_use_background_image": true, "default_profile_image": false, "id": 71715124, "verified": false, "profile_image_url_https": "https://si0.twimg.com/profile_images/1981786950/image_normal.jpg", "profile_sidebar_fill_color": "FFFFFF", "profile_text_color": "333333", "followers_count": 277, "profile_sidebar_border_color": "EEEEEE", "id_str": "71715124", "profile_background_color": "B2DFDA", "listed_count": 32, "profile_background_image_url_https": "https://si0.twimg.com/images/themes/theme13/bg.gif", "utc_offset": -21600, "statuses_count": 1637, "description": "", "friends_count": 636, "location": "Central Illinois", "profile_link_color": "93A644", "profile_image_url": "http://a0.twimg.com/profile_images/1981786950/image_normal.jpg", "following": false, "geo_enabled": false, "profile_background_image_url": "http://a0.twimg.com/images/themes/theme13/bg.gif", "name": "Stacey Moore", "lang": "en", "profile_background_tile": false, "favourites_count": 98, "screen_name": "YadiMo4", "notifications": false, "url": null, "created_at": "Sat Sep 05 03:25:57 +0000 2009", "contributors_enabled": false, "time_zone": "Central Time (US & Canada)", "protected": false, "default_profile": false, "is_translator": false}, "geo": null, "in_reply_to_user_id_str": null, "contributors": null, "source": "web", "created_at": "Sat Jul 10 02:08:03 +0000 2010", "retweeted": false, "coordinates": null, "id": 18164122679, "entities": {"user_mentions": [{"id": 18479513, "indices": [3, 7], "id_str": "18479513", "screen_name": "MLB", "name": "MLB"}], "hashtags": [{"indices": [41, 50], "text": "phillies"}, {"indices": [69, 74], "text": "reds"}], "urls": []}, "in_reply_to_status_id_str": null, "in_reply_to_screen_name": null, "id_str": "18164122679", "place": null, "retweet_count": 8, "in_reply_to_user_id": null}
{"favorited": false, "retweeted_status": {"user": {"follow_request_sent": false, "profile_use_background_image": true, "default_profile_image": false, "id": 18479513, "verified": true, "profile_image_url_https": "https://si0.twimg.com/profile_images/3055214035/a5f0a4f7d82544c19807ba67d16c9775_normal.jpeg", "profile_sidebar_fill_color": "DDFFCC", "profile_text_color": "333333", "followers_count": 2638892, "profile_sidebar_border_color": "FFFFFF", "id_str": "18479513", "profile_background_color": "C0DEED", "listed_count": 19719, "profile_background_image_url_https": "https://si0.twimg.com/profile_background_images/698942215/279bba07fb1e1bdfaa167b386f22e858.jpeg", "utc_offset": -18000, "statuses_count": 43831, "description": "Official Twitter of Major League Baseball. Our lawyers made us post sweepstakes rules: http://atmlb.com/MLBT0C", "friends_count": 1591, "location": "", "profile_link_color": "0084B4", "profile_image_url": "http://a0.twimg.com/profile_images/3055214035/a5f0a4f7d82544c19807ba67d16c9775_normal.jpeg", "following": false, "geo_enabled": true, "profile_banner_url": "https://si0.twimg.com/profile_banners/18479513/1358194390", "profile_background_image_url": "http://a0.twimg.com/profile_background_images/698942215/279bba07fb1e1bdfaa167b386f22e858.jpeg", "name": "MLB", "lang": "en", "profile_background_tile": false, "favourites_count": 34, "screen_name": "MLB", "notifications": false, "url": "http://MLB.com", "created_at": "Tue Dec 30 15:39:32 +0000 2008", "contributors_enabled": true, "time_zone": "Eastern Time (US & Canada)", "protected": false, "default_profile": false, "is_translator": false}, "favorited": false, "entities": {"user_mentions": [], "hashtags": [{"indices": [32, 41], "text": "phillies"}, {"indices": [60, 65], "text": "reds"}], "urls": []}, "contributors": null, "truncated": false, "text": "What a bottom of the 9th by the #phillies - 6 runs ties the #reds at 7-7 and we're going to extras http://is.gd/dmgdM", "created_at": "Sat Jul 10 01:59:56 +0000 2010", "retweeted": false, "in_reply_to_status_id_str": null, "coordinates": null, "in_reply_to_user_id_str": null, "source": "web", "in_reply_to_status_id": null, "in_reply_to_screen_name": null, "id_str": "18163627047", "place": null, "retweet_count": 8, "geo": null, "id": 18163627047, "in_reply_to_user_id": null}, "truncated": false, "text": "RT @MLB: What a bottom of the 9th by the #phillies - 6 runs ties the #reds at 7-7 and we're going to extras http://is.gd/dmgdM", "eid": "TM1715", "in_reply_to_status_id": null, "user": {"follow_request_sent": false, "profile_use_background_image": true, "default_profile_image": false, "id": 15666138, "verified": false, "profile_image_url_https": "https://si0.twimg.com/profile_images/1594083713/Andy_and_Brendan_Schaub_normal.jpg", "profile_sidebar_fill_color": "DDEEF6", "profile_text_color": "333333", "followers_count": 518, "profile_sidebar_border_color": "C0DEED", "id_str": "15666138", "profile_background_color": "C0DEED", "listed_count": 5, "profile_background_image_url_https": "https://si0.twimg.com/images/themes/theme1/bg.png", "utc_offset": -21600, "statuses_count": 61643, "description": "", "friends_count": 86, "location": "USA", "profile_link_color": "0084B4", "profile_image_url": "http://a0.twimg.com/profile_images/1594083713/Andy_and_Brendan_Schaub_normal.jpg", "following": false, "geo_enabled": false, "profile_background_image_url": "http://a0.twimg.com/images/themes/theme1/bg.png", "name": "Andy", "lang": "en", "profile_background_tile": false, "favourites_count": 50, "screen_name": "jericho130", "notifications": false, "url": null, "created_at": "Wed Jul 30 21:03:10 +0000 2008", "contributors_enabled": false, "time_zone": "Central Time (US & Canada)", "protected": false, "default_profile": true, "is_translator": false}, "geo": null, "in_reply_to_user_id_str": null, "contributors": null, "source": "web", "created_at": "Sat Jul 10 02:09:44 +0000 2010", "retweeted": false, "coordinates": null, "id": 18164222012, "entities": {"user_mentions": [{"id": 18479513, "indices": [3, 7], "id_str": "18479513", "screen_name": "MLB", "name": "MLB"}], "hashtags": [{"indices": [41, 50], "text": "phillies"}, {"indices": [69, 74], "text": "reds"}], "urls": []}, "in_reply_to_status_id_str": null, "in_reply_to_screen_name": null, "id_str": "18164222012", "place": null, "retweet_count": 8, "in_reply_to_user_id": null}
{"favorited": false, "contributors": null, "truncated": false, "text": "Sheeez o_O RT @MLB: What a bottom of the 9th by the #phillies - 6 runs ties the #reds at 7-7 and we're going to extras http://is.gd/dmgdM", "eid": "TM1715", "in_reply_to_status_id": null, "user": {"follow_request_sent": false, "profile_use_background_image": true, "default_profile_image": false, "id": 92642435, "verified": false, "profile_image_url_https": "https://si0.twimg.com/profile_images/3122635949/337c06195bb0c53346a190f09c43b0a7_normal.jpeg", "profile_sidebar_fill_color": "7A7878", "profile_text_color": "000000", "followers_count": 742, "profile_sidebar_border_color": "000000", "id_str": "92642435", "profile_background_color": "610208", "listed_count": 6, "profile_background_image_url_https": "https://si0.twimg.com/profile_background_images/668771033/92a4f00f161989432085bfde066bcfb9.jpeg", "utc_offset": -18000, "statuses_count": 45022, "description": "MEN DO WHAT THEY WANT; BOYS DO WHAT THEY CAN. IM TALKING ABOUT THE BEAT GOES ON\u2026 http://facebook.com/pages/D-HARP/3 CREDENTIALED MEDIA COVERING @WASHWIZARDS", "friends_count": 690, "location": "NO DAYS UNALERT.  #MVP", "profile_link_color": "EB9E0E", "profile_image_url": "http://a0.twimg.com/profile_images/3122635949/337c06195bb0c53346a190f09c43b0a7_normal.jpeg", "following": false, "geo_enabled": false, "profile_banner_url": "https://si0.twimg.com/profile_banners/92642435/1348537728", "profile_background_image_url": "http://a0.twimg.com/profile_background_images/668771033/92a4f00f161989432085bfde066bcfb9.jpeg", "name": "Sir Mix A. Lot", "lang": "en", "profile_background_tile": true, "favourites_count": 59, "screen_name": "LoudPacquiao", "notifications": false, "url": "http://hoopsaddict.com/author/harper", "created_at": "Wed Nov 25 23:56:19 +0000 2009", "contributors_enabled": false, "time_zone": "Eastern Time (US & Canada)", "protected": false, "default_profile": false, "is_translator": false}, "geo": null, "in_reply_to_user_id_str": null, "source": "<a href=\"http://ubertwitter.com\" rel=\"nofollow\">UberTwitter</a>", "created_at": "Sat Jul 10 02:02:00 +0000 2010", "retweeted": false, "coordinates": null, "id": 18163759957, "entities": {"user_mentions": [{"id": 18479513, "indices": [14, 18], "id_str": "18479513", "screen_name": "MLB", "name": "MLB"}], "hashtags": [{"indices": [52, 61], "text": "phillies"}, {"indices": [80, 85], "text": "reds"}], "urls": []}, "in_reply_to_status_id_str": null, "in_reply_to_screen_name": null, "id_str": "18163759957", "place": null, "retweet_count": 0, "in_reply_to_user_id": null}
{"favorited": false, "retweeted_status": {"user": {"follow_request_sent": false, "profile_use_background_image": true, "default_profile_image": false, "id": 18479513, "verified": true, "profile_image_url_https": "https://si0.twimg.com/profile_images/3055214035/a5f0a4f7d82544c19807ba67d16c9775_normal.jpeg", "profile_sidebar_fill_color": "DDFFCC", "profile_text_color": "333333", "followers_count": 2638894, "profile_sidebar_border_color": "FFFFFF", "id_str": "18479513", "profile_background_color": "C0DEED", "listed_count": 19719, "profile_background_image_url_https": "https://si0.twimg.com/profile_background_images/698942215/279bba07fb1e1bdfaa167b386f22e858.jpeg", "utc_offset": -18000, "statuses_count": 43831, "description": "Official Twitter of Major League Baseball. Our lawyers made us post sweepstakes rules: http://atmlb.com/MLBT0C", "friends_count": 1591, "location": "", "profile_link_color": "0084B4", "profile_image_url": "http://a0.twimg.com/profile_images/3055214035/a5f0a4f7d82544c19807ba67d16c9775_normal.jpeg", "following": false, "geo_enabled": true, "profile_banner_url": "https://si0.twimg.com/profile_banners/18479513/1358194390", "profile_background_image_url": "http://a0.twimg.com/profile_background_images/698942215/279bba07fb1e1bdfaa167b386f22e858.jpeg", "name": "MLB", "lang": "en", "profile_background_tile": false, "favourites_count": 34, "screen_name": "MLB", "notifications": false, "url": "http://MLB.com", "created_at": "Tue Dec 30 15:39:32 +0000 2008", "contributors_enabled": true, "time_zone": "Eastern Time (US & Canada)", "protected": false, "default_profile": false, "is_translator": false}, "favorited": false, "entities": {"user_mentions": [], "hashtags": [{"indices": [32, 41], "text": "phillies"}, {"indices": [60, 65], "text": "reds"}], "urls": []}, "contributors": null, "truncated": false, "text": "What a bottom of the 9th by the #phillies - 6 runs ties the #reds at 7-7 and we're going to extras http://is.gd/dmgdM", "created_at": "Sat Jul 10 01:59:56 +0000 2010", "retweeted": false, "in_reply_to_status_id_str": null, "coordinates": null, "in_reply_to_user_id_str": null, "source": "web", "in_reply_to_status_id": null, "in_reply_to_screen_name": null, "id_str": "18163627047", "place": null, "retweet_count": 8, "geo": null, "id": 18163627047, "in_reply_to_user_id": null}, "truncated": false, "text": "RT @MLB: What a bottom of the 9th by the #phillies - 6 runs ties the #reds at 7-7 and we're going to extras http://is.gd/dmgdM", "eid": "TM1715", "in_reply_to_status_id": null, "user": {"follow_request_sent": false, "profile_use_background_image": true, "default_profile_image": false, "id": 112861512, "verified": false, "profile_image_url_https": "https://si0.twimg.com/profile_images/1021514213/HelCross_normal.jpg", "profile_sidebar_fill_color": "F7DA93", "profile_text_color": "000000", "followers_count": 190, "profile_sidebar_border_color": "FFFFFF", "id_str": "112861512", "profile_background_color": "000000", "listed_count": 4, "profile_background_image_url_https": "https://si0.twimg.com/profile_background_images/123320421/bg.jpg", "utc_offset": -18000, "statuses_count": 7580, "description": "Military Brat!! Go Air Force!! My hometowns: GA, FL, TX,& PI. Luvs Football (Go Dawgs), Music, Fashion, Politics, Surfing & Golf. Have an AWESOME day!! :-)", "friends_count": 580, "location": "Jacksonville, FL.", "profile_link_color": "CC3300", "profile_image_url": "http://a0.twimg.com/profile_images/1021514213/HelCross_normal.jpg", "following": false, "geo_enabled": false, "profile_background_image_url": "http://a0.twimg.com/profile_background_images/123320421/bg.jpg", "name": "Helen Cross", "lang": "en", "profile_background_tile": false, "favourites_count": 8, "screen_name": "HelCross", "notifications": false, "url": "https://helcross.com/", "created_at": "Tue Feb 09 23:17:57 +0000 2010", "contributors_enabled": false, "time_zone": "Eastern Time (US & Canada)", "protected": false, "default_profile": false, "is_translator": false}, "geo": null, "in_reply_to_user_id_str": null, "contributors": null, "source": "web", "created_at": "Sat Jul 10 02:02:55 +0000 2010", "retweeted": false, "coordinates": null, "id": 18163816287, "entities": {"user_mentions": [{"id": 18479513, "indices": [3, 7], "id_str": "18479513", "screen_name": "MLB", "name": "MLB"}], "hashtags": [{"indices": [41, 50], "text": "phillies"}, {"indices": [69, 74], "text": "reds"}], "urls": []}, "in_reply_to_status_id_str": null, "in_reply_to_screen_name": null, "id_str": "18163816287", "place": null, "retweet_count": 8, "in_reply_to_user_id": null}
{"favorited": false, "contributors": null, "truncated": false, "text": "What a bottom of the 9th by the #phillies - 6 runs ties the #reds at 7-7 and we're going to extras http://is.gd/dmgdM", "eid": "TM1715", "in_reply_to_status_id": null, "user": {"follow_request_sent": false, "profile_use_background_image": true, "default_profile_image": false, "id": 18479513, "verified": true, "profile_image_url_https": "https://si0.twimg.com/profile_images/3055214035/a5f0a4f7d82544c19807ba67d16c9775_normal.jpeg", "profile_sidebar_fill_color": "DDFFCC", "profile_text_color": "333333", "followers_count": 2638894, "profile_sidebar_border_color": "FFFFFF", "id_str": "18479513", "profile_background_color": "C0DEED", "listed_count": 19719, "profile_background_image_url_https": "https://si0.twimg.com/profile_background_images/698942215/279bba07fb1e1bdfaa167b386f22e858.jpeg", "utc_offset": -18000, "statuses_count": 43831, "description": "Official Twitter of Major League Baseball. Our lawyers made us post sweepstakes rules: http://atmlb.com/MLBT0C", "friends_count": 1591, "location": "", "profile_link_color": "0084B4", "profile_image_url": "http://a0.twimg.com/profile_images/3055214035/a5f0a4f7d82544c19807ba67d16c9775_normal.jpeg", "following": false, "geo_enabled": true, "profile_banner_url": "https://si0.twimg.com/profile_banners/18479513/1358194390", "profile_background_image_url": "http://a0.twimg.com/profile_background_images/698942215/279bba07fb1e1bdfaa167b386f22e858.jpeg", "name": "MLB", "lang": "en", "profile_background_tile": false, "favourites_count": 34, "screen_name": "MLB", "notifications": false, "url": "http://MLB.com", "created_at": "Tue Dec 30 15:39:32 +0000 2008", "contributors_enabled": true, "time_zone": "Eastern Time (US & Canada)", "protected": false, "default_profile": false, "is_translator": false}, "geo": null, "in_reply_to_user_id_str": null, "source": "web", "created_at": "Sat Jul 10 01:59:56 +0000 2010", "retweeted": false, "coordinates": null, "id": 18163627047, "entities": {"user_mentions": [], "hashtags": [{"indices": [32, 41], "text": "phillies"}, {"indices": [60, 65], "text": "reds"}], "urls": []}, "in_reply_to_status_id_str": null, "in_reply_to_screen_name": null, "id_str": "18163627047", "place": null, "retweet_count": 8, "in_reply_to_user_id": null}
{"favorited": false, "retweeted_status": {"user": {"follow_request_sent": false, "profile_use_background_image": true, "default_profile_image": false, "id": 18479513, "verified": true, "profile_image_url_https": "https://si0.twimg.com/profile_images/3055214035/a5f0a4f7d82544c19807ba67d16c9775_normal.jpeg", "profile_sidebar_fill_color": "DDFFCC", "profile_text_color": "333333", "followers_count": 2638895, "profile_sidebar_border_color": "FFFFFF", "id_str": "18479513", "profile_background_color": "C0DEED", "listed_count": 19719, "profile_background_image_url_https": "https://si0.twimg.com/profile_background_images/698942215/279bba07fb1e1bdfaa167b386f22e858.jpeg", "utc_offset": -18000, "statuses_count": 43831, "description": "Official Twitter of Major League Baseball. Our lawyers made us post sweepstakes rules: http://atmlb.com/MLBT0C", "friends_count": 1591, "location": "", "profile_link_color": "0084B4", "profile_image_url": "http://a0.twimg.com/profile_images/3055214035/a5f0a4f7d82544c19807ba67d16c9775_normal.jpeg", "following": false, "geo_enabled": true, "profile_banner_url": "https://si0.twimg.com/profile_banners/18479513/1358194390", "profile_background_image_url": "http://a0.twimg.com/profile_background_images/698942215/279bba07fb1e1bdfaa167b386f22e858.jpeg", "name": "MLB", "lang": "en", "profile_background_tile": false, "favourites_count": 34, "screen_name": "MLB", "notifications": false, "url": "http://MLB.com", "created_at": "Tue Dec 30 15:39:32 +0000 2008", "contributors_enabled": true, "time_zone": "Eastern Time (US & Canada)", "protected": false, "default_profile": false, "is_translator": false}, "favorited": false, "entities": {"user_mentions": [], "hashtags": [{"indices": [32, 41], "text": "phillies"}, {"indices": [60, 65], "text": "reds"}], "urls": []}, "contributors": null, "truncated": false, "text": "What a bottom of the 9th by the #phillies - 6 runs ties the #reds at 7-7 and we're going to extras http://is.gd/dmgdM", "created_at": "Sat Jul 10 01:59:56 +0000 2010", "retweeted": false, "in_reply_to_status_id_str": null, "coordinates": null, "in_reply_to_user_id_str": null, "source": "web", "in_reply_to_status_id": null, "in_reply_to_screen_name": null, "id_str": "18163627047", "place": null, "retweet_count": 8, "geo": null, "id": 18163627047, "in_reply_to_user_id": null}, "truncated": false, "text": "RT @MLB: What a bottom of the 9th by the #phillies - 6 runs ties the #reds at 7-7 and we're going to extras http://is.gd/dmgdM", "eid": "TM1715", "in_reply_to_status_id": null, "user": {"follow_request_sent": false, "profile_use_background_image": true, "default_profile_image": false, "id": 55365610, "verified": false, "profile_image_url_https": "https://si0.twimg.com/profile_images/2739660582/36f098a0f4c47d352c01e5815332c4cd_normal.png", "profile_sidebar_fill_color": "FFFFFF", "profile_text_color": "000000", "followers_count": 482, "profile_sidebar_border_color": "000000", "id_str": "55365610", "profile_background_color": "0000FF", "listed_count": 27, "profile_background_image_url_https": "https://si0.twimg.com/profile_background_images/760541320/9a81a48e4415fb91b874811cf9ed7583.jpeg", "utc_offset": -18000, "statuses_count": 27705, "description": "Contributor at @Philly76ersBlog and Editor at @brotherlygame. Ask not what Kwame can do for you, ask what you can do for Kwame.", "friends_count": 195, "location": "", "profile_link_color": "0000FF", "profile_image_url": "http://a0.twimg.com/profile_images/2739660582/36f098a0f4c47d352c01e5815332c4cd_normal.png", "following": false, "geo_enabled": false, "profile_banner_url": "https://si0.twimg.com/profile_banners/55365610/1357964109", "profile_background_image_url": "http://a0.twimg.com/profile_background_images/760541320/9a81a48e4415fb91b874811cf9ed7583.jpeg", "name": "JF", "lang": "en", "profile_background_tile": true, "favourites_count": 4, "screen_name": "JustinF_LB", "notifications": false, "url": null, "created_at": "Thu Jul 09 21:18:30 +0000 2009", "contributors_enabled": false, "time_zone": "Eastern Time (US & Canada)", "protected": false, "default_profile": false, "is_translator": false}, "geo": null, "in_reply_to_user_id_str": null, "contributors": null, "source": "web", "created_at": "Sat Jul 10 02:00:39 +0000 2010", "retweeted": false, "coordinates": null, "id": 18163677072, "entities": {"user_mentions": [{"id": 18479513, "indices": [3, 7], "id_str": "18479513", "screen_name": "MLB", "name": "MLB"}], "hashtags": [{"indices": [41, 50], "text": "phillies"}, {"indices": [69, 74], "text": "reds"}], "urls": []}, "in_reply_to_status_id_str": null, "in_reply_to_screen_name": null, "id_str": "18163677072", "place": null, "retweet_count": 8, "in_reply_to_user_id": null}
{"favorited": false, "retweeted_status": {"user": {"follow_request_sent": false, "profile_use_background_image": true, "default_profile_image": false, "id": 18479513, "verified": true, "profile_image_url_https": "https://si0.twimg.com/profile_images/3055214035/a5f0a4f7d82544c19807ba67d16c9775_normal.jpeg", "profile_sidebar_fill_color": "DDFFCC", "profile_text_color": "333333", "followers_count": 2638895, "profile_sidebar_border_color": "FFFFFF", "id_str": "18479513", "profile_background_color": "C0DEED", "listed_count": 19719, "profile_background_image_url_https": "https://si0.twimg.com/profile_background_images/698942215/279bba07fb1e1bdfaa167b386f22e858.jpeg", "utc_offset": -18000, "statuses_count": 43831, "description": "Official Twitter of Major League Baseball. Our lawyers made us post sweepstakes rules: http://atmlb.com/MLBT0C", "friends_count": 1591, "location": "", "profile_link_color": "0084B4", "profile_image_url": "http://a0.twimg.com/profile_images/3055214035/a5f0a4f7d82544c19807ba67d16c9775_normal.jpeg", "following": false, "geo_enabled": true, "profile_banner_url": "https://si0.twimg.com/profile_banners/18479513/1358194390", "profile_background_image_url": "http://a0.twimg.com/profile_background_images/698942215/279bba07fb1e1bdfaa167b386f22e858.jpeg", "name": "MLB", "lang": "en", "profile_background_tile": false, "favourites_count": 34, "screen_name": "MLB", "notifications": false, "url": "http://MLB.com", "created_at": "Tue Dec 30 15:39:32 +0000 2008", "contributors_enabled": true, "time_zone": "Eastern Time (US & Canada)", "protected": false, "default_profile": false, "is_translator": false}, "favorited": false, "entities": {"user_mentions": [], "hashtags": [{"indices": [32, 41], "text": "phillies"}, {"indices": [60, 65], "text": "reds"}], "urls": []}, "contributors": null, "truncated": false, "text": "What a bottom of the 9th by the #phillies - 6 runs ties the #reds at 7-7 and we're going to extras http://is.gd/dmgdM", "created_at": "Sat Jul 10 01:59:56 +0000 2010", "retweeted": false, "in_reply_to_status_id_str": null, "coordinates": null, "in_reply_to_user_id_str": null, "source": "web", "in_reply_to_status_id": null, "in_reply_to_screen_name": null, "id_str": "18163627047", "place": null, "retweet_count": 8, "geo": null, "id": 18163627047, "in_reply_to_user_id": null}, "truncated": false, "text": "RT @MLB: What a bottom of the 9th by the #phillies - 6 runs ties the #reds at 7-7 and we're going to extras http://is.gd/dmgdM", "eid": "TM1715", "in_reply_to_status_id": null, "user": {"follow_request_sent": false, "profile_use_background_image": false, "default_profile_image": false, "id": 88455960, "verified": false, "profile_image_url_https": "https://si0.twimg.com/profile_images/1354837622/derrick-rose-214a_normal.jpg", "profile_sidebar_fill_color": "DDEEF6", "profile_text_color": "333333", "followers_count": 204, "profile_sidebar_border_color": "C0DEED", "id_str": "88455960", "profile_background_color": "C0DEED", "listed_count": 6, "profile_background_image_url_https": "https://si0.twimg.com/profile_background_images/66808397/cubs-celebrate-aramis-ramirez-home-run.jpg", "utc_offset": -21600, "statuses_count": 6299, "description": "", "friends_count": 1258, "location": "", "profile_link_color": "0084B4", "profile_image_url": "http://a0.twimg.com/profile_images/1354837622/derrick-rose-214a_normal.jpg", "following": false, "geo_enabled": false, "profile_background_image_url": "http://a0.twimg.com/profile_background_images/66808397/cubs-celebrate-aramis-ramirez-home-run.jpg", "name": "Optimus Prime", "lang": "en", "profile_background_tile": true, "favourites_count": 6, "screen_name": "Prime63", "notifications": false, "url": null, "created_at": "Sun Nov 08 16:47:04 +0000 2009", "contributors_enabled": false, "time_zone": "Central Time (US & Canada)", "protected": false, "default_profile": false, "is_translator": false}, "geo": null, "in_reply_to_user_id_str": null, "contributors": null, "source": "web", "created_at": "Sat Jul 10 02:00:42 +0000 2010", "retweeted": false, "coordinates": null, "id": 18163679695, "entities": {"user_mentions": [{"id": 18479513, "indices": [3, 7], "id_str": "18479513", "screen_name": "MLB", "name": "MLB"}], "hashtags": [{"indices": [41, 50], "text": "phillies"}, {"indices": [69, 74], "text": "reds"}], "urls": []}, "in_reply_to_status_id_str": null, "in_reply_to_screen_name": null, "id_str": "18163679695", "place": null, "retweet_count": 8, "in_reply_to_user_id": null}
{"favorited": false, "contributors": null, "truncated": false, "text": "RT @MLB: What a bottom of the 9th by the #phillies - 6 runs ties the #reds at 7-7 and we're going to extras http://is.gd/dmgdM", "eid": "TM1715", "in_reply_to_status_id": null, "user": {"follow_request_sent": false, "profile_use_background_image": true, "default_profile_image": false, "id": 40269532, "verified": false, "profile_image_url_https": "https://si0.twimg.com/profile_images/3025568338/a338485c206c48df8d1c147d9341df54_normal.jpeg", "profile_sidebar_fill_color": "7AC3EE", "profile_text_color": "3D1957", "followers_count": 178, "profile_sidebar_border_color": "65B0DA", "id_str": "40269532", "profile_background_color": "642D8B", "listed_count": 5, "profile_background_image_url_https": "https://si0.twimg.com/images/themes/theme10/bg.gif", "utc_offset": -18000, "statuses_count": 6806, "description": "Go that way, really fast. If something gets in your way, turn\n\n\n", "friends_count": 543, "location": "PA", "profile_link_color": "FF0000", "profile_image_url": "http://a0.twimg.com/profile_images/3025568338/a338485c206c48df8d1c147d9341df54_normal.jpeg", "following": false, "geo_enabled": false, "profile_background_image_url": "http://a0.twimg.com/images/themes/theme10/bg.gif", "name": "Becky Weaver", "lang": "en", "profile_background_tile": true, "favourites_count": 9, "screen_name": "rawphilly816", "notifications": false, "url": null, "created_at": "Fri May 15 16:00:53 +0000 2009", "contributors_enabled": false, "time_zone": "Quito", "protected": false, "default_profile": false, "is_translator": false}, "geo": null, "in_reply_to_user_id_str": null, "source": "<a href=\"http://www.ubertwitter.com/bb/download.php\" rel=\"nofollow\">\u00dcberSocialOrig</a>", "created_at": "Sat Jul 10 02:01:09 +0000 2010", "retweeted": false, "coordinates": null, "id": 18163707692, "entities": {"user_mentions": [{"id": 18479513, "indices": [3, 7], "id_str": "18479513", "screen_name": "MLB", "name": "MLB"}], "hashtags": [{"indices": [41, 50], "text": "phillies"}, {"indices": [69, 74], "text": "reds"}], "urls": []}, "in_reply_to_status_id_str": null, "in_reply_to_screen_name": null, "id_str": "18163707692", "place": null, "retweet_count": 0, "in_reply_to_user_id": null}
{"favorited": false, "retweeted_status": {"user": {"follow_request_sent": false, "profile_use_background_image": true, "default_profile_image": false, "id": 18479513, "verified": true, "profile_image_url_https": "https://si0.twimg.com/profile_images/3055214035/a5f0a4f7d82544c19807ba67d16c9775_normal.jpeg", "profile_sidebar_fill_color": "DDFFCC", "profile_text_color": "333333", "followers_count": 2638895, "profile_sidebar_border_color": "FFFFFF", "id_str": "18479513", "profile_background_color": "C0DEED", "listed_count": 19719, "profile_background_image_url_https": "https://si0.twimg.com/profile_background_images/698942215/279bba07fb1e1bdfaa167b386f22e858.jpeg", "utc_offset": -18000, "statuses_count": 43831, "description": "Official Twitter of Major League Baseball. Our lawyers made us post sweepstakes rules: http://atmlb.com/MLBT0C", "friends_count": 1591, "location": "", "profile_link_color": "0084B4", "profile_image_url": "http://a0.twimg.com/profile_images/3055214035/a5f0a4f7d82544c19807ba67d16c9775_normal.jpeg", "following": false, "geo_enabled": true, "profile_banner_url": "https://si0.twimg.com/profile_banners/18479513/1358194390", "profile_background_image_url": "http://a0.twimg.com/profile_background_images/698942215/279bba07fb1e1bdfaa167b386f22e858.jpeg", "name": "MLB", "lang": "en", "profile_background_tile": false, "favourites_count": 34, "screen_name": "MLB", "notifications": false, "url": "http://MLB.com", "created_at": "Tue Dec 30 15:39:32 +0000 2008", "contributors_enabled": true, "time_zone": "Eastern Time (US & Canada)", "protected": false, "default_profile": false, "is_translator": false}, "favorited": false, "entities": {"user_mentions": [], "hashtags": [{"indices": [32, 41], "text": "phillies"}, {"indices": [60, 65], "text": "reds"}], "urls": []}, "contributors": null, "truncated": false, "text": "What a bottom of the 9th by the #phillies - 6 runs ties the #reds at 7-7 and we're going to extras http://is.gd/dmgdM", "created_at": "Sat Jul 10 01:59:56 +0000 2010", "retweeted": false, "in_reply_to_status_id_str": null, "coordinates": null, "in_reply_to_user_id_str": null, "source": "web", "in_reply_to_status_id": null, "in_reply_to_screen_name": null, "id_str": "18163627047", "place": null, "retweet_count": 8, "geo": null, "id": 18163627047, "in_reply_to_user_id": null}, "truncated": false, "text": "RT @MLB: What a bottom of the 9th by the #phillies - 6 runs ties the #reds at 7-7 and we're going to extras http://is.gd/dmgdM", "eid": "TM1715", "in_reply_to_status_id": null, "user": {"follow_request_sent": false, "profile_use_background_image": true, "default_profile_image": false, "id": 144324164, "verified": false, "profile_image_url_https": "https://si0.twimg.com/profile_images/1598950041/5ce563d0-7111-4f70-bc12-24bfbbf07056_normal.png", "profile_sidebar_fill_color": "EFEFEF", "profile_text_color": "333333", "followers_count": 120, "profile_sidebar_border_color": "EEEEEE", "id_str": "144324164", "profile_background_color": "131516", "listed_count": 0, "profile_background_image_url_https": "https://si0.twimg.com/profile_background_images/101873983/ted-williams-joe-dimaggio.jpg", "utc_offset": -28800, "statuses_count": 7543, "description": "Look at my profile pic. WORLD CHAMPS! ", "friends_count": 15, "location": "The Bay Area", "profile_link_color": "009999", "profile_image_url": "http://a0.twimg.com/profile_images/1598950041/5ce563d0-7111-4f70-bc12-24bfbbf07056_normal.png", "following": false, "geo_enabled": false, "profile_background_image_url": "http://a0.twimg.com/profile_background_images/101873983/ted-williams-joe-dimaggio.jpg", "name": "Ted McCartney", "lang": "en", "profile_background_tile": true, "favourites_count": 15173, "screen_name": "ilive4timmy", "notifications": false, "url": null, "created_at": "Sun May 16 00:07:18 +0000 2010", "contributors_enabled": false, "time_zone": "Pacific Time (US & Canada)", "protected": false, "default_profile": false, "is_translator": false}, "geo": null, "in_reply_to_user_id_str": null, "contributors": null, "source": "<a href=\"http://dev.twitter.com/\" rel=\"nofollow\">API</a>", "created_at": "Sat Jul 10 02:01:32 +0000 2010", "retweeted": false, "coordinates": null, "id": 18163731547, "entities": {"user_mentions": [{"id": 18479513, "indices": [3, 7], "id_str": "18479513", "screen_name": "MLB", "name": "MLB"}], "hashtags": [{"indices": [41, 50], "text": "phillies"}, {"indices": [69, 74], "text": "reds"}], "urls": []}, "in_reply_to_status_id_str": null, "in_reply_to_screen_name": null, "id_str": "18163731547", "place": null, "retweet_count": 8, "in_reply_to_user_id": null}
