{"favorited": false, "contributors": null, "truncated": false, "text": "President Obama is currently delivering the commencement address at University of Michigan. - Next week he comes to my graduation @ HU!!!", "eid": "TM280", "in_reply_to_status_id": null, "user": {"follow_request_sent": false, "profile_use_background_image": true, "default_profile_image": false, "id": 19547514, "verified": false, "profile_image_url_https": "https://si0.twimg.com/profile_images/3116751124/9c490095d568a0b13025b17ca18dff7b_normal.jpeg", "profile_sidebar_fill_color": "F5F5F5", "profile_text_color": "000000", "followers_count": 1158, "profile_sidebar_border_color": "3F0270", "id_str": "19547514", "profile_background_color": "0A0701", "listed_count": 8, "profile_background_image_url_https": "https://si0.twimg.com/profile_background_images/401035132/texture-wallpaper-3.jpg", "utc_offset": -18000, "statuses_count": 58048, "description": "Keisean\u2122; a driven prodigy, heavily devoted to entertainment and pop culture, the prototype for the life you want to live.\r\n\r\nContact: keisean@keisean.com", "friends_count": 562, "location": "right in front of you. ", "profile_link_color": "635A59", "profile_image_url": "http://a0.twimg.com/profile_images/3116751124/9c490095d568a0b13025b17ca18dff7b_normal.jpeg", "following": false, "geo_enabled": false, "profile_banner_url": "https://si0.twimg.com/profile_banners/19547514/1357187180", "profile_background_image_url": "http://a0.twimg.com/profile_background_images/401035132/texture-wallpaper-3.jpg", "name": "Keisean M.", "lang": "en", "profile_background_tile": false, "favourites_count": 4, "screen_name": "Keisean", "notifications": false, "url": "http://www.iam.keisean.com", "created_at": "Mon Jan 26 18:08:56 +0000 2009", "contributors_enabled": false, "time_zone": "Eastern Time (US & Canada)", "protected": false, "default_profile": false, "is_translator": false}, "geo": null, "in_reply_to_user_id_str": null, "source": "web", "created_at": "Sat May 01 15:10:51 +0000 2010", "retweeted": false, "coordinates": null, "id": 13192883468, "entities": {"user_mentions": [], "hashtags": [], "urls": []}, "in_reply_to_status_id_str": null, "in_reply_to_screen_name": null, "id_str": "13192883468", "place": null, "retweet_count": 0, "in_reply_to_user_id": null}
{"favorited": false, "contributors": null, "truncated": false, "text": "President's Plea to Graduates: Be Civil: New York Times\nPresident Obama delivering the commencement address ... http://tinyurl.com/263xypr", "eid": "TM280", "in_reply_to_status_id": null, "user": {"follow_request_sent": false, "profile_use_background_image": true, "default_profile_image": false, "id": 65472570, "verified": false, "profile_image_url_https": "https://si0.twimg.com/profile_images/367153122/NeWordss_normal.jpg", "profile_sidebar_fill_color": "DDEEF6", "profile_text_color": "333333", "followers_count": 129, "profile_sidebar_border_color": "C0DEED", "id_str": "65472570", "profile_background_color": "C0DEED", "listed_count": 1, "profile_background_image_url_https": "https://si0.twimg.com/images/themes/theme1/bg.png", "utc_offset": -18000, "statuses_count": 8159, "description": "I'm Unique! Just like you", "friends_count": 17, "location": "Washington", "profile_link_color": "0084B4", "profile_image_url": "http://a0.twimg.com/profile_images/367153122/NeWordss_normal.jpg", "following": false, "geo_enabled": false, "profile_background_image_url": "http://a0.twimg.com/images/themes/theme1/bg.png", "name": "Tom Lodge", "lang": "en", "profile_background_tile": false, "favourites_count": 0, "screen_name": "Newordss", "notifications": false, "url": null, "created_at": "Thu Aug 13 21:26:56 +0000 2009", "contributors_enabled": false, "time_zone": "Eastern Time (US & Canada)", "protected": false, "default_profile": true, "is_translator": false}, "geo": null, "in_reply_to_user_id_str": null, "source": "<a href=\"http://twitterfeed.com\" rel=\"nofollow\">twitterfeed</a>", "created_at": "Sat May 01 20:11:24 +0000 2010", "retweeted": false, "coordinates": null, "id": 13206330992, "entities": {"user_mentions": [], "hashtags": [], "urls": []}, "in_reply_to_status_id_str": null, "in_reply_to_screen_name": null, "id_str": "13206330992", "place": null, "retweet_count": 0, "in_reply_to_user_id": null}
{"favorited": false, "contributors": null, "truncated": false, "text": "Marine One flew by our house today - Obama delivering commencement address at U of M... Still not a fan of Obama, but his ride is sweet :)", "eid": "TM280", "in_reply_to_status_id": null, "user": {"follow_request_sent": false, "profile_use_background_image": true, "default_profile_image": false, "id": 105029723, "verified": false, "profile_image_url_https": "https://si0.twimg.com/profile_images/632194861/Photo_9_normal.jpg", "profile_sidebar_fill_color": "DDEEF6", "profile_text_color": "333333", "followers_count": 214, "profile_sidebar_border_color": "C0DEED", "id_str": "105029723", "profile_background_color": "C0DEED", "listed_count": 8, "profile_background_image_url_https": "https://si0.twimg.com/images/themes/theme1/bg.png", "utc_offset": -18000, "statuses_count": 4063, "description": "The pony thing didn't pan out, so now I want the twins to sleep through the night for Christmas. ", "friends_count": 122, "location": "Michigan ", "profile_link_color": "0084B4", "profile_image_url": "http://a0.twimg.com/profile_images/632194861/Photo_9_normal.jpg", "following": false, "geo_enabled": false, "profile_background_image_url": "http://a0.twimg.com/images/themes/theme1/bg.png", "name": "Mr. Mosher", "lang": "en", "profile_background_tile": false, "favourites_count": 29, "screen_name": "bryanmmosher", "notifications": false, "url": null, "created_at": "Fri Jan 15 03:56:37 +0000 2010", "contributors_enabled": false, "time_zone": "Eastern Time (US & Canada)", "protected": false, "default_profile": true, "is_translator": false}, "geo": null, "in_reply_to_user_id_str": null, "source": "<a href=\"http://www.echofon.com/\" rel=\"nofollow\">Echofon</a>", "created_at": "Sun May 02 03:21:22 +0000 2010", "retweeted": false, "coordinates": null, "id": 13224369279, "entities": {"user_mentions": [], "hashtags": [], "urls": []}, "in_reply_to_status_id_str": null, "in_reply_to_screen_name": null, "id_str": "13224369279", "place": null, "retweet_count": 0, "in_reply_to_user_id": null}
{"favorited": false, "retweeted_status": {"user": {"follow_request_sent": false, "profile_use_background_image": true, "default_profile_image": false, "id": 9245812, "verified": false, "profile_image_url_https": "https://si0.twimg.com/profile_images/788461836/cnnLive_normal.jpg", "profile_sidebar_fill_color": "EEEEEE", "profile_text_color": "000000", "followers_count": 246171, "profile_sidebar_border_color": "DADADA", "id_str": "9245812", "profile_background_color": "323232", "listed_count": 8527, "profile_background_image_url_https": "https://si0.twimg.com/profile_background_images/17352620/CNN_Twitter_Background_05.2009.GIF", "utc_offset": -18000, "statuses_count": 12432, "description": "Live events, breaking news, the day's top stories, and your comments in streaming video only on CNN.com. www.cnn.com/live www.cnn.com/privacy", "friends_count": 530, "location": "Everywhere", "profile_link_color": "004287", "profile_image_url": "http://a0.twimg.com/profile_images/788461836/cnnLive_normal.jpg", "following": false, "geo_enabled": false, "profile_background_image_url": "http://a0.twimg.com/profile_background_images/17352620/CNN_Twitter_Background_05.2009.GIF", "name": "CNN Live", "lang": "en", "profile_background_tile": true, "favourites_count": 106, "screen_name": "CNNLive", "notifications": false, "url": "http://live.cnn.com", "created_at": "Thu Oct 04 14:58:27 +0000 2007", "contributors_enabled": false, "time_zone": "Eastern Time (US & Canada)", "protected": false, "default_profile": false, "is_translator": false}, "favorited": false, "entities": {"user_mentions": [], "hashtags": [], "urls": []}, "contributors": null, "truncated": false, "text": "Pres. Obama delivering commencement address at Univ of Michigan. Watch live: http://on.cnn.com/cnndcl2", "created_at": "Sat May 01 15:43:15 +0000 2010", "retweeted": false, "in_reply_to_status_id_str": null, "coordinates": null, "in_reply_to_user_id_str": null, "source": "web", "in_reply_to_status_id": null, "in_reply_to_screen_name": null, "id_str": "13194500630", "place": null, "retweet_count": 6, "geo": null, "id": 13194500630, "in_reply_to_user_id": null}, "truncated": false, "text": "RT @CNNLive: Pres. Obama delivering commencement address at Univ of Michigan. Watch live: http://on.cnn.com/cnndcl2", "eid": "TM280", "in_reply_to_status_id": null, "user": {"follow_request_sent": false, "profile_use_background_image": true, "default_profile_image": false, "id": 125561132, "verified": false, "profile_image_url_https": "https://si0.twimg.com/profile_images/2740034306/abd7171a91855baff2dc7d7ae5e2fe58_normal.jpeg", "profile_sidebar_fill_color": "7AC3EE", "profile_text_color": "3D1957", "followers_count": 108, "profile_sidebar_border_color": "65B0DA", "id_str": "125561132", "profile_background_color": "642D8B", "listed_count": 1, "profile_background_image_url_https": "https://si0.twimg.com/profile_background_images/213025706/twilk_background_4d712f415a4db.jpg", "utc_offset": -18000, "statuses_count": 4033, "description": "I have transformed myself into The Brain Bullet! I fight for right, politically affiliate to the left, and in between is a raucous, rollercoaster ride!!", "friends_count": 215, "location": "Philadelphia , PA", "profile_link_color": "FF0000", "profile_image_url": "http://a0.twimg.com/profile_images/2740034306/abd7171a91855baff2dc7d7ae5e2fe58_normal.jpeg", "following": false, "geo_enabled": false, "profile_background_image_url": "http://a0.twimg.com/profile_background_images/213025706/twilk_background_4d712f415a4db.jpg", "name": "Natalia John", "lang": "en", "profile_background_tile": true, "favourites_count": 345, "screen_name": "brainbullet", "notifications": false, "url": "http://starsandstripes-natalia.blogspot.com", "created_at": "Tue Mar 23 05:12:59 +0000 2010", "contributors_enabled": false, "time_zone": "Quito", "protected": false, "default_profile": false, "is_translator": false}, "geo": null, "in_reply_to_user_id_str": null, "contributors": null, "source": "web", "created_at": "Sat May 01 15:59:55 +0000 2010", "retweeted": false, "coordinates": null, "id": 13195330220, "entities": {"user_mentions": [{"id": 9245812, "indices": [3, 11], "id_str": "9245812", "screen_name": "CNNLive", "name": "CNN Live"}], "hashtags": [], "urls": []}, "in_reply_to_status_id_str": null, "in_reply_to_screen_name": null, "id_str": "13195330220", "place": null, "retweet_count": 6, "in_reply_to_user_id": null}
{"favorited": false, "contributors": null, "truncated": false, "text": "Obama's delivering the commencement address at scUM. \"Dear graduates. I've got one word for you. Are you listening? 'Plastics.'\"", "eid": "TM280", "in_reply_to_status_id": null, "user": {"follow_request_sent": false, "profile_use_background_image": true, "default_profile_image": false, "id": 131999769, "verified": false, "profile_image_url_https": "https://si0.twimg.com/profile_images/815727778/Mike_krzyzewskiville_normal.jpg", "profile_sidebar_fill_color": "FFFFFF", "profile_text_color": "333333", "followers_count": 501, "profile_sidebar_border_color": "EEEEEE", "id_str": "131999769", "profile_background_color": "FFFFFF", "listed_count": 19, "profile_background_image_url_https": "https://si0.twimg.com/profile_background_images/97266963/05sokokrzy184.1.jpg", "utc_offset": -18000, "statuses_count": 2535, "description": "Duke and OSU alum, and a former GoDuke contributor, now just a phrase at a time.", "friends_count": 479, "location": "Columbus, Ohio", "profile_link_color": "93A644", "profile_image_url": "http://a0.twimg.com/profile_images/815727778/Mike_krzyzewskiville_normal.jpg", "following": false, "geo_enabled": false, "profile_banner_url": "https://si0.twimg.com/profile_banners/131999769/1354061216", "profile_background_image_url": "http://a0.twimg.com/profile_background_images/97266963/05sokokrzy184.1.jpg", "name": "Michael", "lang": "en", "profile_background_tile": true, "favourites_count": 143, "screen_name": "Coreyo34", "notifications": false, "url": "http://dukeland.wordpress.com", "created_at": "Mon Apr 12 00:45:12 +0000 2010", "contributors_enabled": false, "time_zone": "Quito", "protected": false, "default_profile": false, "is_translator": false}, "geo": null, "in_reply_to_user_id_str": null, "source": "web", "created_at": "Sat May 01 16:01:45 +0000 2010", "retweeted": false, "coordinates": null, "id": 13195429147, "entities": {"user_mentions": [], "hashtags": [], "urls": []}, "in_reply_to_status_id_str": null, "in_reply_to_screen_name": null, "id_str": "13195429147", "place": null, "retweet_count": 0, "in_reply_to_user_id": null}
{"favorited": false, "contributors": null, "truncated": false, "text": "The practice of listening to opposing views is essential for democracy. President Obama commencement address in michigan. on c-span 1", "eid": "TM280", "in_reply_to_status_id": null, "user": {"follow_request_sent": false, "profile_use_background_image": true, "default_profile_image": false, "id": 17135496, "verified": false, "profile_image_url_https": "https://si0.twimg.com/profile_images/872861889/100504-114828_normal.jpg", "profile_sidebar_fill_color": "99CC33", "profile_text_color": "3E4415", "followers_count": 184, "profile_sidebar_border_color": "829D5E", "id_str": "17135496", "profile_background_color": "352726", "listed_count": 3, "profile_background_image_url_https": "https://si0.twimg.com/images/themes/theme5/bg.gif", "utc_offset": -18000, "statuses_count": 3089, "description": "Currently a student in New York City. social worker most of my life in Harrisburg and a few years in KS,NC and DC.Love the Jayhawks, Phillies and Eagles!", "friends_count": 306, "location": "New York NY", "profile_link_color": "D02B55", "profile_image_url": "http://a0.twimg.com/profile_images/872861889/100504-114828_normal.jpg", "following": false, "geo_enabled": true, "profile_background_image_url": "http://a0.twimg.com/images/themes/theme5/bg.gif", "name": "Rebecca M.", "lang": "en", "profile_background_tile": false, "favourites_count": 3, "screen_name": "mam1933", "notifications": false, "url": null, "created_at": "Mon Nov 03 17:59:12 +0000 2008", "contributors_enabled": false, "time_zone": "Eastern Time (US & Canada)", "protected": false, "default_profile": false, "is_translator": false}, "geo": null, "in_reply_to_user_id_str": null, "source": "<a href=\"http://www.tweetdeck.com\" rel=\"nofollow\">TweetDeck</a>", "created_at": "Sat May 01 16:07:22 +0000 2010", "retweeted": false, "coordinates": null, "id": 13195711855, "entities": {"user_mentions": [], "hashtags": [], "urls": []}, "in_reply_to_status_id_str": null, "in_reply_to_screen_name": null, "id_str": "13195711855", "place": null, "retweet_count": 0, "in_reply_to_user_id": null}
{"favorited": false, "contributors": null, "truncated": false, "text": "by the way Mr. Barack Obama is now delivering his commencement address at the University of Michigan..  Listen live: http://wh.gov/live", "eid": "TM280", "in_reply_to_status_id": null, "user": {"follow_request_sent": false, "profile_use_background_image": true, "default_profile_image": false, "id": 130776828, "verified": false, "profile_image_url_https": "https://si0.twimg.com/profile_images/958749086/dhandhan2._normal.jpg", "profile_sidebar_fill_color": "B3B3B3", "profile_text_color": "000000", "followers_count": 9, "profile_sidebar_border_color": "FFFFFF", "id_str": "130776828", "profile_background_color": "000000", "listed_count": 0, "profile_background_image_url_https": "https://si0.twimg.com/profile_background_images/96804661/boys.jpg", "utc_offset": -32400, "statuses_count": 66, "description": "", "friends_count": 52, "location": "", "profile_link_color": "008CFF", "profile_image_url": "http://a0.twimg.com/profile_images/958749086/dhandhan2._normal.jpg", "following": false, "geo_enabled": false, "profile_background_image_url": "http://a0.twimg.com/profile_background_images/96804661/boys.jpg", "name": "Dhan Matthew F. Ong", "lang": "en", "profile_background_tile": true, "favourites_count": 0, "screen_name": "Prince_dhan", "notifications": false, "url": null, "created_at": "Thu Apr 08 08:16:31 +0000 2010", "contributors_enabled": false, "time_zone": "Alaska", "protected": false, "default_profile": false, "is_translator": false}, "geo": null, "in_reply_to_user_id_str": null, "source": "web", "created_at": "Sat May 01 16:07:57 +0000 2010", "retweeted": false, "coordinates": null, "id": 13195740469, "entities": {"user_mentions": [], "hashtags": [], "urls": []}, "in_reply_to_status_id_str": null, "in_reply_to_screen_name": null, "id_str": "13195740469", "place": null, "retweet_count": 0, "in_reply_to_user_id": null}
{"favorited": false, "retweeted_status": {"user": {"follow_request_sent": false, "profile_use_background_image": true, "default_profile_image": false, "id": 9245812, "verified": false, "profile_image_url_https": "https://si0.twimg.com/profile_images/788461836/cnnLive_normal.jpg", "profile_sidebar_fill_color": "EEEEEE", "profile_text_color": "000000", "followers_count": 246171, "profile_sidebar_border_color": "DADADA", "id_str": "9245812", "profile_background_color": "323232", "listed_count": 8527, "profile_background_image_url_https": "https://si0.twimg.com/profile_background_images/17352620/CNN_Twitter_Background_05.2009.GIF", "utc_offset": -18000, "statuses_count": 12432, "description": "Live events, breaking news, the day's top stories, and your comments in streaming video only on CNN.com. www.cnn.com/live www.cnn.com/privacy", "friends_count": 530, "location": "Everywhere", "profile_link_color": "004287", "profile_image_url": "http://a0.twimg.com/profile_images/788461836/cnnLive_normal.jpg", "following": false, "geo_enabled": false, "profile_background_image_url": "http://a0.twimg.com/profile_background_images/17352620/CNN_Twitter_Background_05.2009.GIF", "name": "CNN Live", "lang": "en", "profile_background_tile": true, "favourites_count": 106, "screen_name": "CNNLive", "notifications": false, "url": "http://live.cnn.com", "created_at": "Thu Oct 04 14:58:27 +0000 2007", "contributors_enabled": false, "time_zone": "Eastern Time (US & Canada)", "protected": false, "default_profile": false, "is_translator": false}, "favorited": false, "entities": {"user_mentions": [], "hashtags": [], "urls": []}, "contributors": null, "truncated": false, "text": "Pres. Obama delivering commencement address at Univ of Michigan. Watch live: http://on.cnn.com/cnndcl2", "created_at": "Sat May 01 15:43:15 +0000 2010", "retweeted": false, "in_reply_to_status_id_str": null, "coordinates": null, "in_reply_to_user_id_str": null, "source": "web", "in_reply_to_status_id": null, "in_reply_to_screen_name": null, "id_str": "13194500630", "place": null, "retweet_count": 6, "geo": null, "id": 13194500630, "in_reply_to_user_id": null}, "truncated": false, "text": "RT @CNNLive: Pres. Obama delivering commencement address at Univ of Michigan. Watch live: http://on.cnn.com/cnndcl2", "eid": "TM280", "in_reply_to_status_id": null, "user": {"follow_request_sent": false, "profile_use_background_image": true, "default_profile_image": false, "id": 17064233, "verified": false, "profile_image_url_https": "https://si0.twimg.com/profile_images/2300425034/15v47z5hvgtl8x0zbuz9_normal.jpeg", "profile_sidebar_fill_color": "A19192", "profile_text_color": "080808", "followers_count": 343, "profile_sidebar_border_color": "F5EE1E", "id_str": "17064233", "profile_background_color": "EFEAF2", "listed_count": 27, "profile_background_image_url_https": "https://si0.twimg.com/profile_background_images/576899229/d6omufziaywcnfv1waai.jpeg", "utc_offset": -21600, "statuses_count": 6064, "description": "another nickel in", "friends_count": 1007, "location": "", "profile_link_color": "910D21", "profile_image_url": "http://a0.twimg.com/profile_images/2300425034/15v47z5hvgtl8x0zbuz9_normal.jpeg", "following": false, "geo_enabled": false, "profile_background_image_url": "http://a0.twimg.com/profile_background_images/576899229/d6omufziaywcnfv1waai.jpeg", "name": "Eileen Can", "lang": "en", "profile_background_tile": false, "favourites_count": 234, "screen_name": "eileencan", "notifications": false, "url": "http://www.eileencan.com", "created_at": "Thu Oct 30 12:40:42 +0000 2008", "contributors_enabled": false, "time_zone": "Central Time (US & Canada)", "protected": false, "default_profile": false, "is_translator": false}, "geo": null, "in_reply_to_user_id_str": null, "contributors": null, "source": "<a href=\"http://blackberry.com/twitter\" rel=\"nofollow\">Twitter for BlackBerry\u00ae</a>", "created_at": "Sat May 01 16:05:04 +0000 2010", "retweeted": false, "coordinates": null, "id": 13195597526, "entities": {"user_mentions": [{"id": 9245812, "indices": [3, 11], "id_str": "9245812", "screen_name": "CNNLive", "name": "CNN Live"}], "hashtags": [], "urls": []}, "in_reply_to_status_id_str": null, "in_reply_to_screen_name": null, "id_str": "13195597526", "place": null, "retweet_count": 6, "in_reply_to_user_id": null}
{"favorited": false, "contributors": null, "truncated": false, "text": "RT @BarackObama: \"Delivering the commencement address at the University of Michigan. Listen live: http://wh.gov/live\" go michigan! yay", "eid": "TM280", "in_reply_to_status_id": null, "user": {"follow_request_sent": false, "profile_use_background_image": true, "default_profile_image": false, "id": 110333392, "verified": false, "profile_image_url_https": "https://si0.twimg.com/profile_images/668792473/flor_twitter_normal.jpg", "profile_sidebar_fill_color": "F6F6F6", "profile_text_color": "333333", "followers_count": 104, "profile_sidebar_border_color": "EEEEEE", "id_str": "110333392", "profile_background_color": "ACDED6", "listed_count": 8, "profile_background_image_url_https": "https://si0.twimg.com/profile_background_images/92843081/IMG_2766.JPG", "utc_offset": -28800, "statuses_count": 780, "description": "Caffeine addicted, public transit lover, LA walker, life wanderer, food lover, oblivious to disaster\u2026 ", "friends_count": 129, "location": "Los Angeles", "profile_link_color": "385430", "profile_image_url": "http://a0.twimg.com/profile_images/668792473/flor_twitter_normal.jpg", "following": false, "geo_enabled": true, "profile_background_image_url": "http://a0.twimg.com/profile_background_images/92843081/IMG_2766.JPG", "name": "Florentina", "lang": "en", "profile_background_tile": true, "favourites_count": 7, "screen_name": "florentina_c", "notifications": false, "url": null, "created_at": "Mon Feb 01 05:10:16 +0000 2010", "contributors_enabled": false, "time_zone": "Pacific Time (US & Canada)", "protected": false, "default_profile": false, "is_translator": false}, "geo": null, "in_reply_to_user_id_str": null, "source": "<a href=\"http://code.google.com/p/pocketwit/\" rel=\"nofollow\">PockeTwit</a>", "created_at": "Sat May 01 16:21:11 +0000 2010", "retweeted": false, "coordinates": null, "id": 13196394782, "entities": {"user_mentions": [{"id": 813286, "indices": [3, 15], "id_str": "813286", "screen_name": "BarackObama", "name": "Barack Obama"}], "hashtags": [], "urls": []}, "in_reply_to_status_id_str": null, "in_reply_to_screen_name": null, "id_str": "13196394782", "place": null, "retweet_count": 0, "in_reply_to_user_id": null}
{"favorited": false, "contributors": null, "truncated": false, "text": "Listening to Barack Obama delivering the commencement address at the University of Michigan. Still incredibly proud he's leading the nation!", "eid": "TM280", "in_reply_to_status_id": null, "user": {"follow_request_sent": false, "profile_use_background_image": true, "default_profile_image": false, "id": 32976911, "verified": false, "profile_image_url_https": "https://si0.twimg.com/profile_images/2252842435/image_normal.jpg", "profile_sidebar_fill_color": "DDEEF6", "profile_text_color": "333333", "followers_count": 35, "profile_sidebar_border_color": "C0DEED", "id_str": "32976911", "profile_background_color": "C0DEED", "listed_count": 0, "profile_background_image_url_https": "https://si0.twimg.com/images/themes/theme1/bg.png", "utc_offset": -18000, "statuses_count": 58, "description": "", "friends_count": 53, "location": "BX", "profile_link_color": "0084B4", "profile_image_url": "http://a0.twimg.com/profile_images/2252842435/image_normal.jpg", "following": false, "geo_enabled": false, "profile_background_image_url": "http://a0.twimg.com/images/themes/theme1/bg.png", "name": "Rahmel Houston", "lang": "en", "profile_background_tile": false, "favourites_count": 0, "screen_name": "FreedomRunR", "notifications": false, "url": null, "created_at": "Sat Apr 18 19:03:04 +0000 2009", "contributors_enabled": false, "time_zone": "Quito", "protected": false, "default_profile": true, "is_translator": false}, "geo": null, "in_reply_to_user_id_str": null, "source": "<a href=\"http://www.echofon.com/\" rel=\"nofollow\">Echofon</a>", "created_at": "Sat May 01 16:21:13 +0000 2010", "retweeted": false, "coordinates": null, "id": 13196396383, "entities": {"user_mentions": [], "hashtags": [], "urls": []}, "in_reply_to_status_id_str": null, "in_reply_to_screen_name": null, "id_str": "13196396383", "place": null, "retweet_count": 0, "in_reply_to_user_id": null}
{"favorited": false, "contributors": null, "truncated": false, "text": "Univ of Michigan to bestow honorary Doctor of Laws degree on Pres. Obama prior to his delivering commencement address shortly.", "eid": "TM280", "in_reply_to_status_id": null, "user": {"follow_request_sent": false, "profile_use_background_image": true, "default_profile_image": false, "id": 31127446, "verified": true, "profile_image_url_https": "https://si0.twimg.com/profile_images/137394623/knoller_normal.jpg", "profile_sidebar_fill_color": "EAEDF0", "profile_text_color": "333333", "followers_count": 123903, "profile_sidebar_border_color": "FFFFFF", "id_str": "31127446", "profile_background_color": "0A0B0F", "listed_count": 5865, "profile_background_image_url_https": "https://si0.twimg.com/profile_background_images/298580507/knoller1.jpg", "utc_offset": -18000, "statuses_count": 58830, "description": "CBS News White House Correspondent, Radio", "friends_count": 494, "location": "Washington, D.C.", "profile_link_color": "DD4020", "profile_image_url": "http://a0.twimg.com/profile_images/137394623/knoller_normal.jpg", "following": false, "geo_enabled": false, "profile_banner_url": "https://si0.twimg.com/profile_banners/31127446/1358276248", "profile_background_image_url": "http://a0.twimg.com/profile_background_images/298580507/knoller1.jpg", "name": "Mark Knoller", "lang": "en", "profile_background_tile": false, "favourites_count": 10, "screen_name": "markknoller", "notifications": false, "url": "http://cbsnews.com", "created_at": "Tue Apr 14 14:01:03 +0000 2009", "contributors_enabled": false, "time_zone": "Eastern Time (US & Canada)", "protected": false, "default_profile": false, "is_translator": false}, "geo": null, "in_reply_to_user_id_str": null, "source": "web", "created_at": "Sat May 01 15:29:59 +0000 2010", "retweeted": false, "coordinates": null, "id": 13193842410, "entities": {"user_mentions": [], "hashtags": [], "urls": []}, "in_reply_to_status_id_str": null, "in_reply_to_screen_name": null, "id_str": "13193842410", "place": null, "retweet_count": 4, "in_reply_to_user_id": null}
{"favorited": false, "retweeted_status": {"user": {"follow_request_sent": false, "profile_use_background_image": true, "default_profile_image": false, "id": 31127446, "verified": true, "profile_image_url_https": "https://si0.twimg.com/profile_images/137394623/knoller_normal.jpg", "profile_sidebar_fill_color": "EAEDF0", "profile_text_color": "333333", "followers_count": 123903, "profile_sidebar_border_color": "FFFFFF", "id_str": "31127446", "profile_background_color": "0A0B0F", "listed_count": 5865, "profile_background_image_url_https": "https://si0.twimg.com/profile_background_images/298580507/knoller1.jpg", "utc_offset": -18000, "statuses_count": 58830, "description": "CBS News White House Correspondent, Radio", "friends_count": 494, "location": "Washington, D.C.", "profile_link_color": "DD4020", "profile_image_url": "http://a0.twimg.com/profile_images/137394623/knoller_normal.jpg", "following": false, "geo_enabled": false, "profile_banner_url": "https://si0.twimg.com/profile_banners/31127446/1358276248", "profile_background_image_url": "http://a0.twimg.com/profile_background_images/298580507/knoller1.jpg", "name": "Mark Knoller", "lang": "en", "profile_background_tile": false, "favourites_count": 10, "screen_name": "markknoller", "notifications": false, "url": "http://cbsnews.com", "created_at": "Tue Apr 14 14:01:03 +0000 2009", "contributors_enabled": false, "time_zone": "Eastern Time (US & Canada)", "protected": false, "default_profile": false, "is_translator": false}, "favorited": false, "entities": {"user_mentions": [], "hashtags": [], "urls": []}, "contributors": null, "truncated": false, "text": "Univ of Michigan to bestow honorary Doctor of Laws degree on Pres. Obama prior to his delivering commencement address shortly.", "created_at": "Sat May 01 15:29:59 +0000 2010", "retweeted": false, "in_reply_to_status_id_str": null, "coordinates": null, "in_reply_to_user_id_str": null, "source": "web", "in_reply_to_status_id": null, "in_reply_to_screen_name": null, "id_str": "13193842410", "place": null, "retweet_count": 4, "geo": null, "id": 13193842410, "in_reply_to_user_id": null}, "truncated": false, "text": "RT @markknoller: Univ of Michigan to bestow honorary Doctor of Laws degree on Pres. Obama prior to his delivering commencement address s ...", "eid": "TM280", "in_reply_to_status_id": null, "user": {"follow_request_sent": false, "profile_use_background_image": true, "default_profile_image": false, "id": 21103938, "verified": false, "profile_image_url_https": "https://si0.twimg.com/profile_images/937356698/11833e06-bea1-4b25-bdf2-e6991964d3d3_normal.png", "profile_sidebar_fill_color": "EDC709", "profile_text_color": "3B98BD", "followers_count": 833, "profile_sidebar_border_color": "8A7828", "id_str": "21103938", "profile_background_color": "15A35C", "listed_count": 29, "profile_background_image_url_https": "https://si0.twimg.com/images/themes/theme5/bg.gif", "utc_offset": -18000, "statuses_count": 5487, "description": "Learn more about my work at http://www.cynthianataliecarrasco.com or if you are curious about me visit http://pinterest.com/cynthianatalie/ ", "friends_count": 2000, "location": "Glendora, CA ", "profile_link_color": "FF0000", "profile_image_url": "http://a0.twimg.com/profile_images/937356698/11833e06-bea1-4b25-bdf2-e6991964d3d3_normal.png", "following": false, "geo_enabled": false, "profile_background_image_url": "http://a0.twimg.com/images/themes/theme5/bg.gif", "name": "Cynthia N. Carrasco", "lang": "en", "profile_background_tile": false, "favourites_count": 145, "screen_name": "cynthianatalie", "notifications": false, "url": "http://www.facebook.com/cynthianatalie", "created_at": "Tue Feb 17 16:40:19 +0000 2009", "contributors_enabled": false, "time_zone": "Quito", "protected": false, "default_profile": false, "is_translator": false}, "geo": null, "in_reply_to_user_id_str": null, "contributors": null, "source": "<a href=\"http://mobile.twitter.com\" rel=\"nofollow\">mobile web</a>", "created_at": "Sat May 01 15:31:14 +0000 2010", "retweeted": false, "coordinates": null, "id": 13193907854, "entities": {"user_mentions": [{"id": 31127446, "indices": [3, 15], "id_str": "31127446", "screen_name": "markknoller", "name": "Mark Knoller"}], "hashtags": [], "urls": []}, "in_reply_to_status_id_str": null, "in_reply_to_screen_name": null, "id_str": "13193907854", "place": null, "retweet_count": 4, "in_reply_to_user_id": null}
{"favorited": false, "contributors": null, "truncated": false, "text": "I am going to UMich next year. Obama is delivering their commencement address. Who do I get? Jamie Dimon. Oy.", "eid": "TM280", "in_reply_to_status_id": null, "user": {"follow_request_sent": false, "profile_use_background_image": true, "default_profile_image": false, "id": 54395229, "verified": false, "profile_image_url_https": "https://si0.twimg.com/profile_images/1127856070/b5524b8f-b088-43e2-bfdb-12735dc02ba9_normal.png", "profile_sidebar_fill_color": "99CC33", "profile_text_color": "3E4415", "followers_count": 83, "profile_sidebar_border_color": "829D5E", "id_str": "54395229", "profile_background_color": "352726", "listed_count": 3, "profile_background_image_url_https": "https://si0.twimg.com/images/themes/theme5/bg.gif", "utc_offset": -18000, "statuses_count": 12645, "description": "Statistician, theatre nerd, and huge sports fan. Syracuse alum (and fan), Michigan alum (and fan), and totally obsessed with the Olympics. ", "friends_count": 397, "location": "Ann Arbor, MI", "profile_link_color": "D02B55", "profile_image_url": "http://a0.twimg.com/profile_images/1127856070/b5524b8f-b088-43e2-bfdb-12735dc02ba9_normal.png", "following": false, "geo_enabled": false, "profile_banner_url": "https://si0.twimg.com/profile_banners/54395229/1353200049", "profile_background_image_url": "http://a0.twimg.com/images/themes/theme5/bg.gif", "name": "Caroline", "lang": "en", "profile_background_tile": false, "favourites_count": 38, "screen_name": "CarolineJeanne", "notifications": false, "url": null, "created_at": "Tue Jul 07 00:53:17 +0000 2009", "contributors_enabled": false, "time_zone": "Eastern Time (US & Canada)", "protected": false, "default_profile": false, "is_translator": false}, "geo": null, "in_reply_to_user_id_str": null, "source": "web", "created_at": "Sun May 02 02:36:22 +0000 2010", "retweeted": false, "coordinates": null, "id": 13222186298, "entities": {"user_mentions": [], "hashtags": [], "urls": []}, "in_reply_to_status_id_str": null, "in_reply_to_screen_name": null, "id_str": "13222186298", "place": null, "retweet_count": 0, "in_reply_to_user_id": null}
{"favorited": false, "retweeted_status": {"user": {"follow_request_sent": false, "profile_use_background_image": true, "default_profile_image": false, "id": 31127446, "verified": true, "profile_image_url_https": "https://si0.twimg.com/profile_images/137394623/knoller_normal.jpg", "profile_sidebar_fill_color": "EAEDF0", "profile_text_color": "333333", "followers_count": 123903, "profile_sidebar_border_color": "FFFFFF", "id_str": "31127446", "profile_background_color": "0A0B0F", "listed_count": 5865, "profile_background_image_url_https": "https://si0.twimg.com/profile_background_images/298580507/knoller1.jpg", "utc_offset": -18000, "statuses_count": 58830, "description": "CBS News White House Correspondent, Radio", "friends_count": 494, "location": "Washington, D.C.", "profile_link_color": "DD4020", "profile_image_url": "http://a0.twimg.com/profile_images/137394623/knoller_normal.jpg", "following": false, "geo_enabled": false, "profile_banner_url": "https://si0.twimg.com/profile_banners/31127446/1358276248", "profile_background_image_url": "http://a0.twimg.com/profile_background_images/298580507/knoller1.jpg", "name": "Mark Knoller", "lang": "en", "profile_background_tile": false, "favourites_count": 10, "screen_name": "markknoller", "notifications": false, "url": "http://cbsnews.com", "created_at": "Tue Apr 14 14:01:03 +0000 2009", "contributors_enabled": false, "time_zone": "Eastern Time (US & Canada)", "protected": false, "default_profile": false, "is_translator": false}, "favorited": false, "entities": {"user_mentions": [], "hashtags": [], "urls": []}, "contributors": null, "truncated": false, "text": "Univ of Michigan to bestow honorary Doctor of Laws degree on Pres. Obama prior to his delivering commencement address shortly.", "created_at": "Sat May 01 15:29:59 +0000 2010", "retweeted": false, "in_reply_to_status_id_str": null, "coordinates": null, "in_reply_to_user_id_str": null, "source": "web", "in_reply_to_status_id": null, "in_reply_to_screen_name": null, "id_str": "13193842410", "place": null, "retweet_count": 4, "geo": null, "id": 13193842410, "in_reply_to_user_id": null}, "truncated": false, "text": "RT @markknoller: Univ of Michigan to bestow honorary Doctor of Laws degree on Pres. Obama prior to his delivering commencement address s ...", "eid": "TM280", "in_reply_to_status_id": null, "user": {"follow_request_sent": false, "profile_use_background_image": true, "default_profile_image": false, "id": 100604473, "verified": false, "profile_image_url_https": "https://si0.twimg.com/profile_images/2814764632/e74f89ffd7264416577fe3e366b5b8f3_normal.jpeg", "profile_sidebar_fill_color": "DDFFCC", "profile_text_color": "333333", "followers_count": 201, "profile_sidebar_border_color": "FFFFFF", "id_str": "100604473", "profile_background_color": "9AE4E8", "listed_count": 3, "profile_background_image_url_https": "https://si0.twimg.com/profile_background_images/705857863/0c3dccf1df21cba104da7650a72c777f.jpeg", "utc_offset": 25200, "statuses_count": 1730, "description": "Still struggle to be a better person...", "friends_count": 158, "location": "Jakarta", "profile_link_color": "0084B4", "profile_image_url": "http://a0.twimg.com/profile_images/2814764632/e74f89ffd7264416577fe3e366b5b8f3_normal.jpeg", "following": false, "geo_enabled": false, "profile_banner_url": "https://si0.twimg.com/profile_banners/100604473/1352384522", "profile_background_image_url": "http://a0.twimg.com/profile_background_images/705857863/0c3dccf1df21cba104da7650a72c777f.jpeg", "name": "Leidy Tika  ", "lang": "en", "profile_background_tile": true, "favourites_count": 6, "screen_name": "LeidyTika", "notifications": false, "url": "http://facebook.com/leidy.tika", "created_at": "Wed Dec 30 21:51:56 +0000 2009", "contributors_enabled": false, "time_zone": "Jakarta", "protected": false, "default_profile": false, "is_translator": false}, "geo": null, "in_reply_to_user_id_str": null, "contributors": null, "source": "web", "created_at": "Sat May 01 15:41:54 +0000 2010", "retweeted": false, "coordinates": null, "id": 13194433677, "entities": {"user_mentions": [{"id": 31127446, "indices": [3, 15], "id_str": "31127446", "screen_name": "markknoller", "name": "Mark Knoller"}], "hashtags": [], "urls": []}, "in_reply_to_status_id_str": null, "in_reply_to_screen_name": null, "id_str": "13194433677", "place": null, "retweet_count": 4, "in_reply_to_user_id": null}
{"favorited": false, "retweeted_status": {"user": {"follow_request_sent": false, "profile_use_background_image": true, "default_profile_image": false, "id": 9245812, "verified": false, "profile_image_url_https": "https://si0.twimg.com/profile_images/788461836/cnnLive_normal.jpg", "profile_sidebar_fill_color": "EEEEEE", "profile_text_color": "000000", "followers_count": 246171, "profile_sidebar_border_color": "DADADA", "id_str": "9245812", "profile_background_color": "323232", "listed_count": 8527, "profile_background_image_url_https": "https://si0.twimg.com/profile_background_images/17352620/CNN_Twitter_Background_05.2009.GIF", "utc_offset": -18000, "statuses_count": 12432, "description": "Live events, breaking news, the day's top stories, and your comments in streaming video only on CNN.com. www.cnn.com/live www.cnn.com/privacy", "friends_count": 530, "location": "Everywhere", "profile_link_color": "004287", "profile_image_url": "http://a0.twimg.com/profile_images/788461836/cnnLive_normal.jpg", "following": false, "geo_enabled": false, "profile_background_image_url": "http://a0.twimg.com/profile_background_images/17352620/CNN_Twitter_Background_05.2009.GIF", "name": "CNN Live", "lang": "en", "profile_background_tile": true, "favourites_count": 106, "screen_name": "CNNLive", "notifications": false, "url": "http://live.cnn.com", "created_at": "Thu Oct 04 14:58:27 +0000 2007", "contributors_enabled": false, "time_zone": "Eastern Time (US & Canada)", "protected": false, "default_profile": false, "is_translator": false}, "favorited": false, "entities": {"user_mentions": [], "hashtags": [], "urls": []}, "contributors": null, "truncated": false, "text": "Pres. Obama delivering commencement address at Univ of Michigan. Watch live: http://on.cnn.com/cnndcl2", "created_at": "Sat May 01 15:43:15 +0000 2010", "retweeted": false, "in_reply_to_status_id_str": null, "coordinates": null, "in_reply_to_user_id_str": null, "source": "web", "in_reply_to_status_id": null, "in_reply_to_screen_name": null, "id_str": "13194500630", "place": null, "retweet_count": 6, "geo": null, "id": 13194500630, "in_reply_to_user_id": null}, "truncated": false, "text": "RT @CNNLive: Pres. Obama delivering commencement address at Univ of Michigan. Watch live: http://on.cnn.com/cnndcl2", "eid": "TM280", "in_reply_to_status_id": null, "user": {"follow_request_sent": false, "profile_use_background_image": true, "default_profile_image": false, "id": 17316885, "verified": false, "profile_image_url_https": "https://si0.twimg.com/profile_images/1846357327/david_clinch_normal.png", "profile_sidebar_fill_color": "F06E18", "profile_text_color": "1F1C1C", "followers_count": 10932, "profile_sidebar_border_color": "FFFFFF", "id_str": "17316885", "profile_background_color": "E9F2F5", "listed_count": 822, "profile_background_image_url_https": "https://si0.twimg.com/profile_background_images/670645008/75fa7eb8e5b63fe980ade1f6f6a38616.png", "utc_offset": -18000, "statuses_count": 41970, "description": "Editorial Director at Storyful. http://storyful.com http://storyful.com/pro Follow @StoryfulPro for news alerts Contact: david.clinch@storyful.com 24/7", "friends_count": 11231, "location": "", "profile_link_color": "0A084A", "profile_image_url": "http://a0.twimg.com/profile_images/1846357327/david_clinch_normal.png", "following": false, "geo_enabled": true, "profile_banner_url": "https://si0.twimg.com/profile_banners/17316885/1348744417", "profile_background_image_url": "http://a0.twimg.com/profile_background_images/670645008/75fa7eb8e5b63fe980ade1f6f6a38616.png", "name": "David Clinch", "lang": "en", "profile_background_tile": false, "favourites_count": 10, "screen_name": "DavidClinchNews", "notifications": false, "url": "http://www.storyful.com", "created_at": "Tue Nov 11 19:19:31 +0000 2008", "contributors_enabled": false, "time_zone": "Eastern Time (US & Canada)", "protected": false, "default_profile": false, "is_translator": false}, "geo": null, "in_reply_to_user_id_str": null, "contributors": null, "source": "<a href=\"http://www.seesmic.com/\" rel=\"nofollow\">Seesmic</a>", "created_at": "Sat May 01 15:45:09 +0000 2010", "retweeted": false, "coordinates": null, "id": 13194596285, "entities": {"user_mentions": [{"id": 9245812, "indices": [3, 11], "id_str": "9245812", "screen_name": "CNNLive", "name": "CNN Live"}], "hashtags": [], "urls": []}, "in_reply_to_status_id_str": null, "in_reply_to_screen_name": null, "id_str": "13194596285", "place": null, "retweet_count": 6, "in_reply_to_user_id": null}
{"favorited": false, "contributors": null, "truncated": false, "text": "Pres. Obama delivering commencement address at Univ of Michigan. Watch live: http://on.cnn.com/cnndcl2", "eid": "TM280", "in_reply_to_status_id": null, "user": {"follow_request_sent": false, "profile_use_background_image": true, "default_profile_image": false, "id": 9245812, "verified": false, "profile_image_url_https": "https://si0.twimg.com/profile_images/788461836/cnnLive_normal.jpg", "profile_sidebar_fill_color": "EEEEEE", "profile_text_color": "000000", "followers_count": 246171, "profile_sidebar_border_color": "DADADA", "id_str": "9245812", "profile_background_color": "323232", "listed_count": 8527, "profile_background_image_url_https": "https://si0.twimg.com/profile_background_images/17352620/CNN_Twitter_Background_05.2009.GIF", "utc_offset": -18000, "statuses_count": 12432, "description": "Live events, breaking news, the day's top stories, and your comments in streaming video only on CNN.com. www.cnn.com/live www.cnn.com/privacy", "friends_count": 530, "location": "Everywhere", "profile_link_color": "004287", "profile_image_url": "http://a0.twimg.com/profile_images/788461836/cnnLive_normal.jpg", "following": false, "geo_enabled": false, "profile_background_image_url": "http://a0.twimg.com/profile_background_images/17352620/CNN_Twitter_Background_05.2009.GIF", "name": "CNN Live", "lang": "en", "profile_background_tile": true, "favourites_count": 106, "screen_name": "CNNLive", "notifications": false, "url": "http://live.cnn.com", "created_at": "Thu Oct 04 14:58:27 +0000 2007", "contributors_enabled": false, "time_zone": "Eastern Time (US & Canada)", "protected": false, "default_profile": false, "is_translator": false}, "geo": null, "in_reply_to_user_id_str": null, "source": "web", "created_at": "Sat May 01 15:43:15 +0000 2010", "retweeted": false, "coordinates": null, "id": 13194500630, "entities": {"user_mentions": [], "hashtags": [], "urls": []}, "in_reply_to_status_id_str": null, "in_reply_to_screen_name": null, "id_str": "13194500630", "place": null, "retweet_count": 6, "in_reply_to_user_id": null}
{"favorited": false, "contributors": null, "truncated": false, "text": "Thanks, @BarackObama for delivering the commencement address at my #UofM graduation today! Great way to cap it off the degree!", "eid": "TM280", "in_reply_to_status_id": null, "user": {"follow_request_sent": false, "profile_use_background_image": true, "default_profile_image": false, "id": 16222728, "verified": false, "profile_image_url_https": "https://si0.twimg.com/profile_images/1337481468/4577513838_d275e592cb_o-small_normal.jpg", "profile_sidebar_fill_color": "252429", "profile_text_color": "666666", "followers_count": 683, "profile_sidebar_border_color": "181A1E", "id_str": "16222728", "profile_background_color": "1A1B1F", "listed_count": 49, "profile_background_image_url_https": "https://si0.twimg.com/profile_background_images/46189163/DSC_0125a.jpg", "utc_offset": 12600, "statuses_count": 1414, "description": "Service Designer at @theReboot! \r\nfmr 2011 @CodeforAmerica fellow, likes: infoviz, ixd, mobile design & development, hacking gov and creativity in all its forms", "friends_count": 546, "location": "more or less where I aim to be", "profile_link_color": "2FC2EF", "profile_image_url": "http://a0.twimg.com/profile_images/1337481468/4577513838_d275e592cb_o-small_normal.jpg", "following": false, "geo_enabled": false, "profile_background_image_url": "http://a0.twimg.com/profile_background_images/46189163/DSC_0125a.jpg", "name": "Jeremy Canfield", "lang": "en", "profile_background_tile": false, "favourites_count": 130, "screen_name": "cdjeremy", "notifications": false, "url": "http://jeremycanfield.com", "created_at": "Wed Sep 10 15:52:52 +0000 2008", "contributors_enabled": false, "time_zone": "Tehran", "protected": false, "default_profile": false, "is_translator": false}, "geo": null, "in_reply_to_user_id_str": null, "source": "<a href=\"http://echofon.com/\" rel=\"nofollow\">Echofon</a>", "created_at": "Sat May 01 18:22:49 +0000 2010", "retweeted": false, "coordinates": null, "id": 13201954785, "entities": {"user_mentions": [{"id": 813286, "indices": [8, 20], "id_str": "813286", "screen_name": "BarackObama", "name": "Barack Obama"}], "hashtags": [{"indices": [67, 72], "text": "UofM"}], "urls": []}, "in_reply_to_status_id_str": null, "in_reply_to_screen_name": null, "id_str": "13201954785", "place": null, "retweet_count": 0, "in_reply_to_user_id": null}
{"favorited": false, "contributors": null, "truncated": false, "text": "Obama is delivering the commencement address at the University of Michigan today! Go Blue!", "eid": "TM280", "in_reply_to_status_id": null, "user": {"follow_request_sent": false, "profile_use_background_image": true, "default_profile_image": false, "id": 18890311, "verified": false, "profile_image_url_https": "https://si0.twimg.com/profile_images/2624157754/9zyaz4rd23icz2gann6w_normal.png", "profile_sidebar_fill_color": "DDEEF6", "profile_text_color": "333333", "followers_count": 110, "profile_sidebar_border_color": "C0DEED", "id_str": "18890311", "profile_background_color": "C0DEED", "listed_count": 3, "profile_background_image_url_https": "https://si0.twimg.com/images/themes/theme1/bg.png", "utc_offset": -28800, "statuses_count": 1535, "description": "I'm just this guy, you know. ", "friends_count": 65, "location": "california", "profile_link_color": "0084B4", "profile_image_url": "http://a0.twimg.com/profile_images/2624157754/9zyaz4rd23icz2gann6w_normal.png", "following": false, "geo_enabled": false, "profile_banner_url": "https://si0.twimg.com/profile_banners/18890311/1347999085", "profile_background_image_url": "http://a0.twimg.com/images/themes/theme1/bg.png", "name": "Chris Chung", "lang": "en", "profile_background_tile": false, "favourites_count": 0, "screen_name": "cvchung", "notifications": false, "url": "http://www.double-agency.com", "created_at": "Mon Jan 12 03:45:34 +0000 2009", "contributors_enabled": false, "time_zone": "Pacific Time (US & Canada)", "protected": false, "default_profile": true, "is_translator": false}, "geo": null, "in_reply_to_user_id_str": null, "source": "<a href=\"http://itunes.apple.com/app/twitter/id333903271?mt=8\" rel=\"nofollow\">Twitter for iPhone</a>", "created_at": "Sat May 01 17:12:12 +0000 2010", "retweeted": false, "coordinates": null, "id": 13198831118, "entities": {"user_mentions": [], "hashtags": [], "urls": []}, "in_reply_to_status_id_str": null, "in_reply_to_screen_name": null, "id_str": "13198831118", "place": null, "retweet_count": 0, "in_reply_to_user_id": null}
{"favorited": false, "contributors": null, "truncated": false, "text": "Obama is delivering the commencement address at UMich today. That would've been a reason for me to actually go to my graduation.", "eid": "TM280", "in_reply_to_status_id": null, "user": {"follow_request_sent": false, "profile_use_background_image": true, "default_profile_image": false, "id": 18574566, "verified": false, "profile_image_url_https": "https://si0.twimg.com/profile_images/69582671/DSC04197_normal.jpg", "profile_sidebar_fill_color": "EADEAA", "profile_text_color": "333333", "followers_count": 107, "profile_sidebar_border_color": "D9B17E", "id_str": "18574566", "profile_background_color": "8B542B", "listed_count": 2, "profile_background_image_url_https": "https://si0.twimg.com/images/themes/theme8/bg.gif", "utc_offset": -21600, "statuses_count": 619, "description": "UT grad student, poodle and wienie mama, foodie and wino, music lover,  easily excitable", "friends_count": 72, "location": "Austin, TX ", "profile_link_color": "9D582E", "profile_image_url": "http://a0.twimg.com/profile_images/69582671/DSC04197_normal.jpg", "following": false, "geo_enabled": false, "profile_background_image_url": "http://a0.twimg.com/images/themes/theme8/bg.gif", "name": "Han ", "lang": "en", "profile_background_tile": false, "favourites_count": 1, "screen_name": "Hannywani", "notifications": false, "url": "http://keepaustintasty.blogspot.com", "created_at": "Sat Jan 03 06:01:51 +0000 2009", "contributors_enabled": false, "time_zone": "Central Time (US & Canada)", "protected": false, "default_profile": false, "is_translator": false}, "geo": null, "in_reply_to_user_id_str": null, "source": "web", "created_at": "Sat May 01 17:09:57 +0000 2010", "retweeted": false, "coordinates": null, "id": 13198726656, "entities": {"user_mentions": [], "hashtags": [], "urls": []}, "in_reply_to_status_id_str": null, "in_reply_to_screen_name": null, "id_str": "13198726656", "place": null, "retweet_count": 0, "in_reply_to_user_id": null}
{"favorited": false, "retweeted_status": {"user": {"follow_request_sent": false, "profile_use_background_image": true, "default_profile_image": false, "id": 9245812, "verified": false, "profile_image_url_https": "https://si0.twimg.com/profile_images/788461836/cnnLive_normal.jpg", "profile_sidebar_fill_color": "EEEEEE", "profile_text_color": "000000", "followers_count": 246171, "profile_sidebar_border_color": "DADADA", "id_str": "9245812", "profile_background_color": "323232", "listed_count": 8527, "profile_background_image_url_https": "https://si0.twimg.com/profile_background_images/17352620/CNN_Twitter_Background_05.2009.GIF", "utc_offset": -18000, "statuses_count": 12432, "description": "Live events, breaking news, the day's top stories, and your comments in streaming video only on CNN.com. www.cnn.com/live www.cnn.com/privacy", "friends_count": 530, "location": "Everywhere", "profile_link_color": "004287", "profile_image_url": "http://a0.twimg.com/profile_images/788461836/cnnLive_normal.jpg", "following": false, "geo_enabled": false, "profile_background_image_url": "http://a0.twimg.com/profile_background_images/17352620/CNN_Twitter_Background_05.2009.GIF", "name": "CNN Live", "lang": "en", "profile_background_tile": true, "favourites_count": 106, "screen_name": "CNNLive", "notifications": false, "url": "http://live.cnn.com", "created_at": "Thu Oct 04 14:58:27 +0000 2007", "contributors_enabled": false, "time_zone": "Eastern Time (US & Canada)", "protected": false, "default_profile": false, "is_translator": false}, "favorited": false, "entities": {"user_mentions": [], "hashtags": [], "urls": []}, "contributors": null, "truncated": false, "text": "Pres. Obama delivering commencement address at Univ of Michigan. Watch live: http://on.cnn.com/cnndcl2", "created_at": "Sat May 01 15:43:15 +0000 2010", "retweeted": false, "in_reply_to_status_id_str": null, "coordinates": null, "in_reply_to_user_id_str": null, "source": "web", "in_reply_to_status_id": null, "in_reply_to_screen_name": null, "id_str": "13194500630", "place": null, "retweet_count": 6, "geo": null, "id": 13194500630, "in_reply_to_user_id": null}, "truncated": false, "text": "RT @CNNLive: Pres. Obama delivering commencement address at Univ of Michigan. Watch live: http://on.cnn.com/cnndcl2", "eid": "TM280", "in_reply_to_status_id": null, "user": {"follow_request_sent": false, "profile_use_background_image": true, "default_profile_image": false, "id": 18084231, "verified": false, "profile_image_url_https": "https://si0.twimg.com/profile_images/2533690197/7qpyf5qf2dzn8jkwwjip_normal.jpeg", "profile_sidebar_fill_color": "D9E6EB", "profile_text_color": "80767B", "followers_count": 885, "profile_sidebar_border_color": "423B37", "id_str": "18084231", "profile_background_color": "CC891D", "listed_count": 33, "profile_background_image_url_https": "https://si0.twimg.com/images/themes/theme11/bg.gif", "utc_offset": -39600, "statuses_count": 28071, "description": "", "friends_count": 1986, "location": "GA", "profile_link_color": "181D3D", "profile_image_url": "http://a0.twimg.com/profile_images/2533690197/7qpyf5qf2dzn8jkwwjip_normal.jpeg", "following": false, "geo_enabled": false, "profile_background_image_url": "http://a0.twimg.com/images/themes/theme11/bg.gif", "name": "galaxnet", "lang": "en", "profile_background_tile": true, "favourites_count": 18, "screen_name": "Galaxnet", "notifications": false, "url": "http://twitter.com/Galaxnet", "created_at": "Fri Dec 12 19:55:56 +0000 2008", "contributors_enabled": false, "time_zone": "International Date Line West", "protected": false, "default_profile": false, "is_translator": false}, "geo": null, "in_reply_to_user_id_str": null, "contributors": null, "source": "web", "created_at": "Sat May 01 15:49:04 +0000 2010", "retweeted": false, "coordinates": null, "id": 13194796385, "entities": {"user_mentions": [{"id": 9245812, "indices": [3, 11], "id_str": "9245812", "screen_name": "CNNLive", "name": "CNN Live"}], "hashtags": [], "urls": []}, "in_reply_to_status_id_str": null, "in_reply_to_screen_name": null, "id_str": "13194796385", "place": null, "retweet_count": 6, "in_reply_to_user_id": null}
{"favorited": false, "contributors": null, "truncated": false, "text": "RT @CNNLive: Pres. Obama delivering commencement address at Univ of Michigan. Watch live: http://on.cnn.com/cnndcl2", "eid": "TM280", "in_reply_to_status_id": null, "user": {"follow_request_sent": false, "profile_use_background_image": true, "default_profile_image": false, "id": 114288980, "verified": false, "profile_image_url_https": "https://si0.twimg.com/profile_images/2376121862/ln928p7snnnvq4fwdpeb_normal.jpeg", "profile_sidebar_fill_color": "EAE6E6", "profile_text_color": "736F6F", "followers_count": 1345, "profile_sidebar_border_color": "2D2A2A", "id_str": "114288980", "profile_background_color": "B2ADAD", "listed_count": 94, "profile_background_image_url_https": "https://si0.twimg.com/profile_background_images/155458894/x35767c4d46b3494ff79f1782d549054.jpg", "utc_offset": null, "statuses_count": 31959, "description": "its not what life does to you, its what u do with life. Chickasaw,paramedic,mom,wife,\r\nAmateur photojournalist,avid reader,a wee bit warped", "friends_count": 965, "location": "\u00dcT: 29.983699,-95.336676", "profile_link_color": "FF0000", "profile_image_url": "http://a0.twimg.com/profile_images/2376121862/ln928p7snnnvq4fwdpeb_normal.jpeg", "following": false, "geo_enabled": true, "profile_background_image_url": "http://a0.twimg.com/profile_background_images/155458894/x35767c4d46b3494ff79f1782d549054.jpg", "name": "Randee Mckee", "lang": "en", "profile_background_tile": true, "favourites_count": 2, "screen_name": "randeemckee", "notifications": false, "url": "https://www.facebook.com/randeemckee", "created_at": "Sun Feb 14 21:38:14 +0000 2010", "contributors_enabled": false, "time_zone": null, "protected": false, "default_profile": false, "is_translator": false}, "geo": null, "in_reply_to_user_id_str": null, "source": "<a href=\"http://www.tweetdeck.com\" rel=\"nofollow\">TweetDeck</a>", "created_at": "Sat May 01 15:47:07 +0000 2010", "retweeted": false, "coordinates": null, "id": 13194699329, "entities": {"user_mentions": [{"id": 9245812, "indices": [3, 11], "id_str": "9245812", "screen_name": "CNNLive", "name": "CNN Live"}], "hashtags": [], "urls": []}, "in_reply_to_status_id_str": null, "in_reply_to_screen_name": null, "id_str": "13194699329", "place": null, "retweet_count": 0, "in_reply_to_user_id": null}
{"favorited": false, "contributors": null, "truncated": false, "text": "watching obama delivering the commencement address to the university of michigan grads....he's actually making sumwhat sence today", "eid": "TM280", "in_reply_to_status_id": null, "user": {"follow_request_sent": false, "profile_use_background_image": true, "default_profile_image": false, "id": 44151742, "verified": false, "profile_image_url_https": "https://si0.twimg.com/profile_images/864979855/l_90c3f0be2b7a459aafb2609548ff30e0_normal.jpg", "profile_sidebar_fill_color": "0F0E0E", "profile_text_color": "3300FF", "followers_count": 24, "profile_sidebar_border_color": "50FF24", "id_str": "44151742", "profile_background_color": "170FFF", "listed_count": 0, "profile_background_image_url_https": "https://si0.twimg.com/profile_background_images/47602030/bg.gif", "utc_offset": -21600, "statuses_count": 112, "description": "ok this is wat i live 4...randomnes..and my fav. sayin::if u spend your whole life waiting for the storm to come you'll never enjoy the sunshine", "friends_count": 38, "location": "nowhere, alabama", "profile_link_color": "12E012", "profile_image_url": "http://a0.twimg.com/profile_images/864979855/l_90c3f0be2b7a459aafb2609548ff30e0_normal.jpg", "following": false, "geo_enabled": false, "profile_background_image_url": "http://a0.twimg.com/profile_background_images/47602030/bg.gif", "name": "lisa scruggs", "lang": "en", "profile_background_tile": true, "favourites_count": 2, "screen_name": "luvinlife0102", "notifications": false, "url": null, "created_at": "Tue Jun 02 16:35:30 +0000 2009", "contributors_enabled": false, "time_zone": "Central Time (US & Canada)", "protected": false, "default_profile": false, "is_translator": false}, "geo": null, "in_reply_to_user_id_str": null, "source": "web", "created_at": "Sat May 01 15:58:25 +0000 2010", "retweeted": false, "coordinates": null, "id": 13195256903, "entities": {"user_mentions": [], "hashtags": [], "urls": []}, "in_reply_to_status_id_str": null, "in_reply_to_screen_name": null, "id_str": "13195256903", "place": null, "retweet_count": 0, "in_reply_to_user_id": null}
{"favorited": false, "contributors": null, "truncated": false, "text": "text of President's address:  http://www.whitehouse.gov/the-press-office/remarks-president-university-michigan-spring-commencement", "eid": "TM280", "in_reply_to_status_id": null, "user": {"follow_request_sent": false, "profile_use_background_image": true, "default_profile_image": false, "id": 28272729, "verified": false, "profile_image_url_https": "https://si0.twimg.com/profile_images/327202984/hsn1959_headshot_normal.JPG", "profile_sidebar_fill_color": "EFEFEF", "profile_text_color": "333333", "followers_count": 386, "profile_sidebar_border_color": "EEEEEE", "id_str": "28272729", "profile_background_color": "131516", "listed_count": 31, "profile_background_image_url_https": "https://si0.twimg.com/images/themes/theme14/bg.gif", "utc_offset": -28800, "statuses_count": 2876, "description": "Physician-in-Chief, Doernbecher Children's Hospital. Chair of Pediatrics, OHSU School of Medicine, Pediatric Neuro-Oncologist", "friends_count": 336, "location": "Portland, OR, USA", "profile_link_color": "009999", "profile_image_url": "http://a0.twimg.com/profile_images/327202984/hsn1959_headshot_normal.JPG", "following": false, "geo_enabled": true, "profile_banner_url": "https://si0.twimg.com/profile_banners/28272729/1357091439", "profile_background_image_url": "http://a0.twimg.com/images/themes/theme14/bg.gif", "name": "Stacy Nicholson MD", "lang": "en", "profile_background_tile": true, "favourites_count": 211, "screen_name": "Dr_NicholsonPDX", "notifications": false, "url": "http://www.ohsu.edu/xd/health/services/providers/nicholss.cfm", "created_at": "Thu Apr 02 03:30:46 +0000 2009", "contributors_enabled": false, "time_zone": "Pacific Time (US & Canada)", "protected": false, "default_profile": false, "is_translator": false}, "geo": null, "in_reply_to_user_id_str": null, "source": "web", "created_at": "Sat May 01 23:57:16 +0000 2010", "retweeted": false, "coordinates": null, "id": 13215076233, "entities": {"user_mentions": [], "hashtags": [], "urls": []}, "in_reply_to_status_id_str": null, "in_reply_to_screen_name": null, "id_str": "13215076233", "place": null, "retweet_count": 0, "in_reply_to_user_id": null}
