{"favorited": false, "contributors": null, "truncated": false, "text": "ned yost, trey hillman, nancy salas, greyson chance, ...: ned yost\ntrey hillman\nnancy salas\ngreyson chance\nap human geography practice...", "eid": "TM607", "in_reply_to_status_id": null, "user": {"follow_request_sent": false, "profile_use_background_image": true, "default_profile_image": false, "id": 62277341, "verified": false, "profile_image_url_https": "https://si0.twimg.com/profile_images/344257079/Picture_102_normal.jpg", "profile_sidebar_fill_color": "E5507E", "profile_text_color": "362720", "followers_count": 2148, "profile_sidebar_border_color": "CC3366", "id_str": "62277341", "profile_background_color": "FF6699", "listed_count": 3, "profile_background_image_url_https": "https://si0.twimg.com/profile_background_images/27028966/b4.jpg", "utc_offset": -32400, "statuses_count": 21298, "description": "Hi, Im adina and working as a webcam model and raise money to continue my studies :)  Ask me for a FREE CHAT ---  http://bit.ly/Adinaluv", "friends_count": 1803, "location": "in your webcam :)", "profile_link_color": "B40B43", "profile_image_url": "http://a0.twimg.com/profile_images/344257079/Picture_102_normal.jpg", "following": false, "geo_enabled": false, "profile_background_image_url": "http://a0.twimg.com/profile_background_images/27028966/b4.jpg", "name": "adina", "lang": "en", "profile_background_tile": false, "favourites_count": 1, "screen_name": "adinaforyou", "notifications": false, "url": "http://bit.ly/Adinaluv", "created_at": "Sun Aug 02 15:14:19 +0000 2009", "contributors_enabled": false, "time_zone": "Alaska", "protected": false, "default_profile": false, "is_translator": false}, "geo": null, "in_reply_to_user_id_str": null, "source": "<a href=\"http://twitterfeed.com\" rel=\"nofollow\">twitterfeed</a>", "created_at": "Fri May 14 02:34:13 +0000 2010", "retweeted": false, "coordinates": null, "id": 13950736495, "entities": {"user_mentions": [], "hashtags": [], "urls": []}, "in_reply_to_status_id_str": null, "in_reply_to_screen_name": null, "id_str": "13950736495", "place": null, "retweet_count": 0, "in_reply_to_user_id": null}
{"favorited": false, "contributors": null, "truncated": false, "text": "MexTraxx - ned yost, trey hillman, nancy salas, greyson chance, ...: ned yost\ntrey hillman\nnancy salas\ngreyson chanc...  - We track for you", "eid": "TM607", "in_reply_to_status_id": null, "user": {"follow_request_sent": false, "profile_use_background_image": false, "default_profile_image": false, "id": 47074360, "verified": false, "profile_image_url_https": "https://si0.twimg.com/profile_images/516790551/mex-traxx_normal.jpg", "profile_sidebar_fill_color": "252429", "profile_text_color": "666666", "followers_count": 401, "profile_sidebar_border_color": "181A1E", "id_str": "47074360", "profile_background_color": "1A1B1F", "listed_count": 0, "profile_background_image_url_https": "https://si0.twimg.com/images/themes/theme9/bg.gif", "utc_offset": -25200, "statuses_count": 17604, "description": "Real-time web-site user behavior tracking, website statistics, web tracking, and visitor analysis tool. Visualization of internet traffic on your web-presence  ", "friends_count": 152, "location": "Internet World Wide", "profile_link_color": "2FC2EF", "profile_image_url": "http://a0.twimg.com/profile_images/516790551/mex-traxx_normal.jpg", "following": false, "geo_enabled": false, "profile_background_image_url": "http://a0.twimg.com/images/themes/theme9/bg.gif", "name": "Mexico Tracker", "lang": "en", "profile_background_tile": false, "favourites_count": 0, "screen_name": "mexicotracker", "notifications": false, "url": "http://www.mexico-tracker.com/", "created_at": "Sun Jun 14 11:09:04 +0000 2009", "contributors_enabled": false, "time_zone": "Mountain Time (US & Canada)", "protected": false, "default_profile": false, "is_translator": false}, "geo": null, "in_reply_to_user_id_str": null, "source": "<a href=\"http://twitterfeed.com\" rel=\"nofollow\">twitterfeed</a>", "created_at": "Fri May 14 02:34:22 +0000 2010", "retweeted": false, "coordinates": null, "id": 13950744702, "entities": {"user_mentions": [], "hashtags": [], "urls": []}, "in_reply_to_status_id_str": null, "in_reply_to_screen_name": null, "id_str": "13950744702", "place": null, "retweet_count": 0, "in_reply_to_user_id": null}
{"favorited": false, "contributors": null, "truncated": false, "text": "MexTraxx - ned yost, trey hillman, nancy salas, greyson chance, ...: ned yost\ntrey hillman\nnancy salas\ngreyson chanc...  - We track for you", "eid": "TM607", "in_reply_to_status_id": null, "user": {"follow_request_sent": false, "profile_use_background_image": true, "default_profile_image": false, "id": 49058818, "verified": false, "profile_image_url_https": "https://si0.twimg.com/profile_images/414520073/geek_normal.jpg", "profile_sidebar_fill_color": "636363", "profile_text_color": "F2943D", "followers_count": 164, "profile_sidebar_border_color": "C6E2EE", "id_str": "49058818", "profile_background_color": "959595", "listed_count": 0, "profile_background_image_url_https": "https://si0.twimg.com/profile_background_images/127706509/blogbackground.jpg", "utc_offset": -25200, "statuses_count": 7769, "description": "Baja Website creations and web development, custom scripting, web hosting Dise\u00f1o Web Desarrollo de Sitios Web", "friends_count": 217, "location": "Baja California", "profile_link_color": "1F98C7", "profile_image_url": "http://a0.twimg.com/profile_images/414520073/geek_normal.jpg", "following": false, "geo_enabled": false, "profile_background_image_url": "http://a0.twimg.com/profile_background_images/127706509/blogbackground.jpg", "name": "Baja Web Creations", "lang": "en", "profile_background_tile": false, "favourites_count": 0, "screen_name": "baja_creations", "notifications": false, "url": "http://www.baja-website-creations.com/", "created_at": "Sat Jun 20 17:18:10 +0000 2009", "contributors_enabled": false, "time_zone": "Mountain Time (US & Canada)", "protected": false, "default_profile": false, "is_translator": false}, "geo": null, "in_reply_to_user_id_str": null, "source": "<a href=\"http://twitterfeed.com\" rel=\"nofollow\">twitterfeed</a>", "created_at": "Fri May 14 02:34:22 +0000 2010", "retweeted": false, "coordinates": null, "id": 13950744907, "entities": {"user_mentions": [], "hashtags": [], "urls": []}, "in_reply_to_status_id_str": null, "in_reply_to_screen_name": null, "id_str": "13950744907", "place": null, "retweet_count": 0, "in_reply_to_user_id": null}
{"favorited": false, "contributors": null, "truncated": false, "text": "( http://mobiledailynews.mobi/royals-fire-manager-trey-hillman-yost-takes-over-ap/ )", "eid": "TM607", "in_reply_to_status_id": null, "user": {"follow_request_sent": false, "profile_use_background_image": true, "default_profile_image": true, "id": 118433972, "verified": false, "profile_image_url_https": "https://si0.twimg.com/sticky/default_profile_images/default_profile_6_normal.png", "profile_sidebar_fill_color": "DDEEF6", "profile_text_color": "333333", "followers_count": 150, "profile_sidebar_border_color": "C0DEED", "id_str": "118433972", "profile_background_color": "C0DEED", "listed_count": 3, "profile_background_image_url_https": "https://si0.twimg.com/images/themes/theme1/bg.png", "utc_offset": null, "statuses_count": 44486, "description": "", "friends_count": 0, "location": "", "profile_link_color": "0084B4", "profile_image_url": "http://a0.twimg.com/sticky/default_profile_images/default_profile_6_normal.png", "following": false, "geo_enabled": false, "profile_background_image_url": "http://a0.twimg.com/images/themes/theme1/bg.png", "name": "Sandy", "lang": "en", "profile_background_tile": false, "favourites_count": 0, "screen_name": "MobileDailyNews", "notifications": false, "url": null, "created_at": "Sun Feb 28 17:43:52 +0000 2010", "contributors_enabled": false, "time_zone": null, "protected": false, "default_profile": true, "is_translator": false}, "geo": null, "in_reply_to_user_id_str": null, "source": "<a href=\"http://dev.twitter.com/\" rel=\"nofollow\">API</a>", "created_at": "Thu May 13 21:34:24 +0000 2010", "retweeted": false, "coordinates": null, "id": 13935793042, "entities": {"user_mentions": [], "hashtags": [], "urls": []}, "in_reply_to_status_id_str": null, "in_reply_to_screen_name": null, "id_str": "13935793042", "place": null, "retweet_count": 0, "in_reply_to_user_id": null}
{"favorited": false, "contributors": null, "truncated": false, "text": "http://baseballnation.net/forum/kansas-city-royals/1271-trey-hillman-hot-seat.html#post8931", "eid": "TM607", "in_reply_to_status_id": null, "user": {"follow_request_sent": false, "profile_use_background_image": false, "default_profile_image": false, "id": 110325483, "verified": false, "profile_image_url_https": "https://si0.twimg.com/profile_images/1244858244/favicon_normal.png", "profile_sidebar_fill_color": "DDEEF6", "profile_text_color": "333333", "followers_count": 426, "profile_sidebar_border_color": "C0DEED", "id_str": "110325483", "profile_background_color": "C0DEED", "listed_count": 15, "profile_background_image_url_https": "https://si0.twimg.com/images/themes/theme1/bg.png", "utc_offset": -28800, "statuses_count": 368, "description": "Join our forum and discuss Americas Pastime with other fans just like yourself.", "friends_count": 236, "location": "Southern California", "profile_link_color": "0084B4", "profile_image_url": "http://a0.twimg.com/profile_images/1244858244/favicon_normal.png", "following": false, "geo_enabled": true, "profile_background_image_url": "http://a0.twimg.com/images/themes/theme1/bg.png", "name": "Baseball Nation", "lang": "en", "profile_background_tile": false, "favourites_count": 6, "screen_name": "BaseballNation3", "notifications": false, "url": "http://www.baseballnation.net", "created_at": "Mon Feb 01 04:28:25 +0000 2010", "contributors_enabled": false, "time_zone": "Pacific Time (US & Canada)", "protected": false, "default_profile": false, "is_translator": false}, "geo": null, "in_reply_to_user_id_str": null, "source": "<a href=\"http://tweetboard.com\" rel=\"nofollow\">Tweetboard</a>", "created_at": "Thu May 13 17:26:12 +0000 2010", "retweeted": false, "coordinates": null, "id": 13925204475, "entities": {"user_mentions": [], "hashtags": [], "urls": []}, "in_reply_to_status_id_str": null, "in_reply_to_screen_name": null, "id_str": "13925204475", "place": null, "retweet_count": 0, "in_reply_to_user_id": null}
{"favorited": false, "contributors": null, "truncated": false, "text": "#HotTrends: ned yost\ntrey hillman\nnancy salas\ngreyson chance youtube\nbrian vickers\nap human geography practice test\ncarolyn murphy\ncel...", "eid": "TM607", "in_reply_to_status_id": null, "user": {"follow_request_sent": false, "profile_use_background_image": true, "default_profile_image": false, "id": 26065763, "verified": false, "profile_image_url_https": "https://si0.twimg.com/profile_images/107584183/desktop-icon-80px_normal.jpg", "profile_sidebar_fill_color": "FFF7CC", "profile_text_color": "0C3E53", "followers_count": 870, "profile_sidebar_border_color": "F2E195", "id_str": "26065763", "profile_background_color": "F97206", "listed_count": 1, "profile_background_image_url_https": "https://si0.twimg.com/profile_background_images/6507819/header-f.jpg", "utc_offset": -28800, "statuses_count": 4482, "description": "Feel the Heat of the Niche Browser - The Most Powerful Research Tool on the Internet!", "friends_count": 6, "location": "San Diego, CA", "profile_link_color": "FF0000", "profile_image_url": "http://a0.twimg.com/profile_images/107584183/desktop-icon-80px_normal.jpg", "following": false, "geo_enabled": false, "profile_background_image_url": "http://a0.twimg.com/profile_background_images/6507819/header-f.jpg", "name": "Jason Moffatt", "lang": "en", "profile_background_tile": false, "favourites_count": 0, "screen_name": "nichebrowser", "notifications": false, "url": "http://nichebrowser.com", "created_at": "Mon Mar 23 19:06:37 +0000 2009", "contributors_enabled": false, "time_zone": "Pacific Time (US & Canada)", "protected": false, "default_profile": false, "is_translator": false}, "geo": null, "in_reply_to_user_id_str": null, "source": "<a href=\"http://twitterfeed.com\" rel=\"nofollow\">twitterfeed</a>", "created_at": "Fri May 14 01:26:10 +0000 2010", "retweeted": false, "coordinates": null, "id": 13947174985, "entities": {"user_mentions": [], "hashtags": [{"indices": [0, 10], "text": "HotTrends"}], "urls": []}, "in_reply_to_status_id_str": null, "in_reply_to_screen_name": null, "id_str": "13947174985", "place": null, "retweet_count": 0, "in_reply_to_user_id": null}
{"favorited": false, "contributors": null, "truncated": false, "text": "MexTraxx - ned yost, trey hillman, nancy salas, greyson chance youtube, ...: ned yost\ntrey hillman\nnancy salas\ngreys...  - We track for you", "eid": "TM607", "in_reply_to_status_id": null, "user": {"follow_request_sent": false, "profile_use_background_image": true, "default_profile_image": false, "id": 49058818, "verified": false, "profile_image_url_https": "https://si0.twimg.com/profile_images/414520073/geek_normal.jpg", "profile_sidebar_fill_color": "636363", "profile_text_color": "F2943D", "followers_count": 164, "profile_sidebar_border_color": "C6E2EE", "id_str": "49058818", "profile_background_color": "959595", "listed_count": 0, "profile_background_image_url_https": "https://si0.twimg.com/profile_background_images/127706509/blogbackground.jpg", "utc_offset": -25200, "statuses_count": 7769, "description": "Baja Website creations and web development, custom scripting, web hosting Dise\u00f1o Web Desarrollo de Sitios Web", "friends_count": 217, "location": "Baja California", "profile_link_color": "1F98C7", "profile_image_url": "http://a0.twimg.com/profile_images/414520073/geek_normal.jpg", "following": false, "geo_enabled": false, "profile_background_image_url": "http://a0.twimg.com/profile_background_images/127706509/blogbackground.jpg", "name": "Baja Web Creations", "lang": "en", "profile_background_tile": false, "favourites_count": 0, "screen_name": "baja_creations", "notifications": false, "url": "http://www.baja-website-creations.com/", "created_at": "Sat Jun 20 17:18:10 +0000 2009", "contributors_enabled": false, "time_zone": "Mountain Time (US & Canada)", "protected": false, "default_profile": false, "is_translator": false}, "geo": null, "in_reply_to_user_id_str": null, "source": "<a href=\"http://twitterfeed.com\" rel=\"nofollow\">twitterfeed</a>", "created_at": "Fri May 14 01:26:22 +0000 2010", "retweeted": false, "coordinates": null, "id": 13947185848, "entities": {"user_mentions": [], "hashtags": [], "urls": []}, "in_reply_to_status_id_str": null, "in_reply_to_screen_name": null, "id_str": "13947185848", "place": null, "retweet_count": 0, "in_reply_to_user_id": null}
{"favorited": false, "contributors": null, "truncated": false, "text": "ned yost, trey hillman, nancy salas, greyson chance youtube, ...: ned yost\ntrey hillman\nnancy salas\ngreyson chance youtube\nbrian vicke...", "eid": "TM607", "in_reply_to_status_id": null, "user": {"follow_request_sent": false, "profile_use_background_image": true, "default_profile_image": false, "id": 62277341, "verified": false, "profile_image_url_https": "https://si0.twimg.com/profile_images/344257079/Picture_102_normal.jpg", "profile_sidebar_fill_color": "E5507E", "profile_text_color": "362720", "followers_count": 2148, "profile_sidebar_border_color": "CC3366", "id_str": "62277341", "profile_background_color": "FF6699", "listed_count": 3, "profile_background_image_url_https": "https://si0.twimg.com/profile_background_images/27028966/b4.jpg", "utc_offset": -32400, "statuses_count": 21298, "description": "Hi, Im adina and working as a webcam model and raise money to continue my studies :)  Ask me for a FREE CHAT ---  http://bit.ly/Adinaluv", "friends_count": 1803, "location": "in your webcam :)", "profile_link_color": "B40B43", "profile_image_url": "http://a0.twimg.com/profile_images/344257079/Picture_102_normal.jpg", "following": false, "geo_enabled": false, "profile_background_image_url": "http://a0.twimg.com/profile_background_images/27028966/b4.jpg", "name": "adina", "lang": "en", "profile_background_tile": false, "favourites_count": 1, "screen_name": "adinaforyou", "notifications": false, "url": "http://bit.ly/Adinaluv", "created_at": "Sun Aug 02 15:14:19 +0000 2009", "contributors_enabled": false, "time_zone": "Alaska", "protected": false, "default_profile": false, "is_translator": false}, "geo": null, "in_reply_to_user_id_str": null, "source": "<a href=\"http://twitterfeed.com\" rel=\"nofollow\">twitterfeed</a>", "created_at": "Fri May 14 01:26:11 +0000 2010", "retweeted": false, "coordinates": null, "id": 13947175935, "entities": {"user_mentions": [], "hashtags": [], "urls": []}, "in_reply_to_status_id_str": null, "in_reply_to_screen_name": null, "id_str": "13947175935", "place": null, "retweet_count": 0, "in_reply_to_user_id": null}
{"favorited": false, "contributors": null, "truncated": false, "text": "MexTraxx - ned yost, trey hillman, nancy salas, greyson chance youtube, ...: ned yost\ntrey hillman\nnancy salas\ngreys...  - We track for you", "eid": "TM607", "in_reply_to_status_id": null, "user": {"follow_request_sent": false, "profile_use_background_image": false, "default_profile_image": false, "id": 47074360, "verified": false, "profile_image_url_https": "https://si0.twimg.com/profile_images/516790551/mex-traxx_normal.jpg", "profile_sidebar_fill_color": "252429", "profile_text_color": "666666", "followers_count": 401, "profile_sidebar_border_color": "181A1E", "id_str": "47074360", "profile_background_color": "1A1B1F", "listed_count": 0, "profile_background_image_url_https": "https://si0.twimg.com/images/themes/theme9/bg.gif", "utc_offset": -25200, "statuses_count": 17605, "description": "Real-time web-site user behavior tracking, website statistics, web tracking, and visitor analysis tool. Visualization of internet traffic on your web-presence  ", "friends_count": 152, "location": "Internet World Wide", "profile_link_color": "2FC2EF", "profile_image_url": "http://a0.twimg.com/profile_images/516790551/mex-traxx_normal.jpg", "following": false, "geo_enabled": false, "profile_background_image_url": "http://a0.twimg.com/images/themes/theme9/bg.gif", "name": "Mexico Tracker", "lang": "en", "profile_background_tile": false, "favourites_count": 0, "screen_name": "mexicotracker", "notifications": false, "url": "http://www.mexico-tracker.com/", "created_at": "Sun Jun 14 11:09:04 +0000 2009", "contributors_enabled": false, "time_zone": "Mountain Time (US & Canada)", "protected": false, "default_profile": false, "is_translator": false}, "geo": null, "in_reply_to_user_id_str": null, "source": "<a href=\"http://twitterfeed.com\" rel=\"nofollow\">twitterfeed</a>", "created_at": "Fri May 14 01:26:13 +0000 2010", "retweeted": false, "coordinates": null, "id": 13947177804, "entities": {"user_mentions": [], "hashtags": [], "urls": []}, "in_reply_to_status_id_str": null, "in_reply_to_screen_name": null, "id_str": "13947177804", "place": null, "retweet_count": 0, "in_reply_to_user_id": null}
{"favorited": false, "contributors": null, "truncated": false, "text": "ned yost, trey hillman, nancy salas, greyson chance youtube, ... http://bit.ly/bfXH9T", "eid": "TM607", "in_reply_to_status_id": null, "user": {"follow_request_sent": false, "profile_use_background_image": false, "default_profile_image": false, "id": 17072544, "verified": false, "profile_image_url_https": "https://si0.twimg.com/profile_images/438849654/lm_normal.jpg", "profile_sidebar_fill_color": "92C6E0", "profile_text_color": "3C3940", "followers_count": 1115, "profile_sidebar_border_color": "136E73", "id_str": "17072544", "profile_background_color": "037991", "listed_count": 10, "profile_background_image_url_https": "https://si0.twimg.com/images/themes/theme1/bg.png", "utc_offset": 25200, "statuses_count": 20484, "description": "I'm a webmaster for business. I create website with wordpress, joomla and static website. If you need a webmaster with a good looking design you can contact me.", "friends_count": 1532, "location": "Tangerang", "profile_link_color": "006AFF", "profile_image_url": "http://a0.twimg.com/profile_images/438849654/lm_normal.jpg", "following": false, "geo_enabled": false, "profile_background_image_url": "http://a0.twimg.com/images/themes/theme1/bg.png", "name": "Lydia Mensua", "lang": "en", "profile_background_tile": false, "favourites_count": 1, "screen_name": "linamt", "notifications": false, "url": "http://www.howtomakeapage.net", "created_at": "Thu Oct 30 19:34:41 +0000 2008", "contributors_enabled": false, "time_zone": "Jakarta", "protected": false, "default_profile": false, "is_translator": false}, "geo": null, "in_reply_to_user_id_str": null, "source": "<a href=\"http://alexking.org/projects/wordpress\" rel=\"nofollow\">Twitter Tools</a>", "created_at": "Fri May 14 01:05:34 +0000 2010", "retweeted": false, "coordinates": null, "id": 13946095107, "entities": {"user_mentions": [], "hashtags": [], "urls": []}, "in_reply_to_status_id_str": null, "in_reply_to_screen_name": null, "id_str": "13946095107", "place": null, "retweet_count": 0, "in_reply_to_user_id": null}
{"favorited": false, "contributors": null, "truncated": false, "text": "( http://mobiledailynews.mobi/royals-fire-manager-trey-hillman-yost-takes-over-ap-2/ )", "eid": "TM607", "in_reply_to_status_id": null, "user": {"follow_request_sent": false, "profile_use_background_image": true, "default_profile_image": true, "id": 118433972, "verified": false, "profile_image_url_https": "https://si0.twimg.com/sticky/default_profile_images/default_profile_6_normal.png", "profile_sidebar_fill_color": "DDEEF6", "profile_text_color": "333333", "followers_count": 150, "profile_sidebar_border_color": "C0DEED", "id_str": "118433972", "profile_background_color": "C0DEED", "listed_count": 3, "profile_background_image_url_https": "https://si0.twimg.com/images/themes/theme1/bg.png", "utc_offset": null, "statuses_count": 44486, "description": "", "friends_count": 0, "location": "", "profile_link_color": "0084B4", "profile_image_url": "http://a0.twimg.com/sticky/default_profile_images/default_profile_6_normal.png", "following": false, "geo_enabled": false, "profile_background_image_url": "http://a0.twimg.com/images/themes/theme1/bg.png", "name": "Sandy", "lang": "en", "profile_background_tile": false, "favourites_count": 0, "screen_name": "MobileDailyNews", "notifications": false, "url": null, "created_at": "Sun Feb 28 17:43:52 +0000 2010", "contributors_enabled": false, "time_zone": null, "protected": false, "default_profile": true, "is_translator": false}, "geo": null, "in_reply_to_user_id_str": null, "source": "<a href=\"http://dev.twitter.com/\" rel=\"nofollow\">API</a>", "created_at": "Fri May 14 00:15:46 +0000 2010", "retweeted": false, "coordinates": null, "id": 13943555140, "entities": {"user_mentions": [], "hashtags": [], "urls": []}, "in_reply_to_status_id_str": null, "in_reply_to_screen_name": null, "id_str": "13943555140", "place": null, "retweet_count": 0, "in_reply_to_user_id": null}
{"favorited": false, "contributors": null, "truncated": false, "text": "you cut, ned yost, trey hillman, maurice strong, ...", "eid": "TM607", "in_reply_to_status_id": null, "user": {"follow_request_sent": false, "profile_use_background_image": true, "default_profile_image": true, "id": 54289846, "verified": false, "profile_image_url_https": "https://si0.twimg.com/sticky/default_profile_images/default_profile_2_normal.png", "profile_sidebar_fill_color": "DDEEF6", "profile_text_color": "333333", "followers_count": 87, "profile_sidebar_border_color": "C0DEED", "id_str": "54289846", "profile_background_color": "C0DEED", "listed_count": 0, "profile_background_image_url_https": "https://si0.twimg.com/images/themes/theme1/bg.png", "utc_offset": null, "statuses_count": 1115, "description": "", "friends_count": 0, "location": "", "profile_link_color": "0084B4", "profile_image_url": "http://a0.twimg.com/sticky/default_profile_images/default_profile_2_normal.png", "following": false, "geo_enabled": false, "profile_background_image_url": "http://a0.twimg.com/images/themes/theme1/bg.png", "name": "Mark", "lang": "en", "profile_background_tile": false, "favourites_count": 0, "screen_name": "hottopixinfo", "notifications": false, "url": null, "created_at": "Mon Jul 06 18:32:30 +0000 2009", "contributors_enabled": false, "time_zone": null, "protected": false, "default_profile": true, "is_translator": false}, "geo": null, "in_reply_to_user_id_str": null, "source": "<a href=\"http://dev.twitter.com/\" rel=\"nofollow\">API</a>", "created_at": "Fri May 14 08:47:16 +0000 2010", "retweeted": false, "coordinates": null, "id": 13965350287, "entities": {"user_mentions": [], "hashtags": [], "urls": []}, "in_reply_to_status_id_str": null, "in_reply_to_screen_name": null, "id_str": "13965350287", "place": null, "retweet_count": 0, "in_reply_to_user_id": null}
{"favorited": false, "contributors": null, "truncated": false, "text": "#HotTrends: you cut\nned yost\ntrey hillman\nmaurice strong\nmissing money\nsupernatural season 6\nunclaimed money\nbrian vickers\ngrey s anat...", "eid": "TM607", "in_reply_to_status_id": null, "user": {"follow_request_sent": false, "profile_use_background_image": true, "default_profile_image": false, "id": 26065763, "verified": false, "profile_image_url_https": "https://si0.twimg.com/profile_images/107584183/desktop-icon-80px_normal.jpg", "profile_sidebar_fill_color": "FFF7CC", "profile_text_color": "0C3E53", "followers_count": 870, "profile_sidebar_border_color": "F2E195", "id_str": "26065763", "profile_background_color": "F97206", "listed_count": 1, "profile_background_image_url_https": "https://si0.twimg.com/profile_background_images/6507819/header-f.jpg", "utc_offset": -28800, "statuses_count": 4482, "description": "Feel the Heat of the Niche Browser - The Most Powerful Research Tool on the Internet!", "friends_count": 6, "location": "San Diego, CA", "profile_link_color": "FF0000", "profile_image_url": "http://a0.twimg.com/profile_images/107584183/desktop-icon-80px_normal.jpg", "following": false, "geo_enabled": false, "profile_background_image_url": "http://a0.twimg.com/profile_background_images/6507819/header-f.jpg", "name": "Jason Moffatt", "lang": "en", "profile_background_tile": false, "favourites_count": 0, "screen_name": "nichebrowser", "notifications": false, "url": "http://nichebrowser.com", "created_at": "Mon Mar 23 19:06:37 +0000 2009", "contributors_enabled": false, "time_zone": "Pacific Time (US & Canada)", "protected": false, "default_profile": false, "is_translator": false}, "geo": null, "in_reply_to_user_id_str": null, "source": "<a href=\"http://twitterfeed.com\" rel=\"nofollow\">twitterfeed</a>", "created_at": "Fri May 14 07:36:20 +0000 2010", "retweeted": false, "coordinates": null, "id": 13963134395, "entities": {"user_mentions": [], "hashtags": [{"indices": [0, 10], "text": "HotTrends"}], "urls": []}, "in_reply_to_status_id_str": null, "in_reply_to_screen_name": null, "id_str": "13963134395", "place": null, "retweet_count": 0, "in_reply_to_user_id": null}
{"favorited": false, "contributors": null, "truncated": false, "text": "you cut, ned yost, trey hillman, maurice strong, ...: you cut\nned yost\ntrey hillman\nmaurice strong\nmissing money\nsupernatural season 6...", "eid": "TM607", "in_reply_to_status_id": null, "user": {"follow_request_sent": false, "profile_use_background_image": true, "default_profile_image": false, "id": 62277341, "verified": false, "profile_image_url_https": "https://si0.twimg.com/profile_images/344257079/Picture_102_normal.jpg", "profile_sidebar_fill_color": "E5507E", "profile_text_color": "362720", "followers_count": 2148, "profile_sidebar_border_color": "CC3366", "id_str": "62277341", "profile_background_color": "FF6699", "listed_count": 3, "profile_background_image_url_https": "https://si0.twimg.com/profile_background_images/27028966/b4.jpg", "utc_offset": -32400, "statuses_count": 21298, "description": "Hi, Im adina and working as a webcam model and raise money to continue my studies :)  Ask me for a FREE CHAT ---  http://bit.ly/Adinaluv", "friends_count": 1803, "location": "in your webcam :)", "profile_link_color": "B40B43", "profile_image_url": "http://a0.twimg.com/profile_images/344257079/Picture_102_normal.jpg", "following": false, "geo_enabled": false, "profile_background_image_url": "http://a0.twimg.com/profile_background_images/27028966/b4.jpg", "name": "adina", "lang": "en", "profile_background_tile": false, "favourites_count": 1, "screen_name": "adinaforyou", "notifications": false, "url": "http://bit.ly/Adinaluv", "created_at": "Sun Aug 02 15:14:19 +0000 2009", "contributors_enabled": false, "time_zone": "Alaska", "protected": false, "default_profile": false, "is_translator": false}, "geo": null, "in_reply_to_user_id_str": null, "source": "<a href=\"http://twitterfeed.com\" rel=\"nofollow\">twitterfeed</a>", "created_at": "Fri May 14 07:36:21 +0000 2010", "retweeted": false, "coordinates": null, "id": 13963134603, "entities": {"user_mentions": [], "hashtags": [], "urls": []}, "in_reply_to_status_id_str": null, "in_reply_to_screen_name": null, "id_str": "13963134603", "place": null, "retweet_count": 0, "in_reply_to_user_id": null}
{"favorited": false, "contributors": null, "truncated": false, "text": "#2ch #followme [\u6728\u661f] \u3010\u901f\u5831\u3011\u30d2\u30eb\u30de\u30f3\u76e3\u7763\u89e3\u96c7: http://www.mlbtraderumors.com/2010/05/royals-fire-trey-hillman.html http://url4.eu/3OSqL", "eid": "TM607", "in_reply_to_status_id": null, "user": {"follow_request_sent": false, "profile_use_background_image": true, "default_profile_image": false, "id": 143510773, "verified": false, "profile_image_url_https": "https://si0.twimg.com/profile_images/897420101/Picture_11_normal.png", "profile_sidebar_fill_color": "DDEEF6", "profile_text_color": "333333", "followers_count": 80, "profile_sidebar_border_color": "C0DEED", "id_str": "143510773", "profile_background_color": "C0DEED", "listed_count": 6, "profile_background_image_url_https": "https://si0.twimg.com/images/themes/theme1/bg.png", "utc_offset": null, "statuses_count": 62995, "description": "", "friends_count": 0, "location": "", "profile_link_color": "0084B4", "profile_image_url": "http://a0.twimg.com/profile_images/897420101/Picture_11_normal.png", "following": false, "geo_enabled": false, "profile_background_image_url": "http://a0.twimg.com/images/themes/theme1/bg.png", "name": "\uff12\u3061\u3083\u3093\u306d\u308b \u30e9\u30a4\u30d6 \u30d8\u30c3\u30c9\u30e9\u30a4\u30f3", "lang": "en", "profile_background_tile": false, "favourites_count": 0, "screen_name": "2chLiveX", "notifications": false, "url": "http://j.mp/_n", "created_at": "Thu May 13 17:28:19 +0000 2010", "contributors_enabled": false, "time_zone": null, "protected": false, "default_profile": true, "is_translator": false}, "geo": null, "in_reply_to_user_id_str": null, "source": "<a href=\"http://rss2twitter.com/\" rel=\"nofollow\">RSS2Twitter</a>", "created_at": "Thu May 13 21:53:37 +0000 2010", "retweeted": false, "coordinates": null, "id": 13936640060, "entities": {"user_mentions": [], "hashtags": [{"indices": [0, 4], "text": "2ch"}, {"indices": [5, 14], "text": "followme"}], "urls": []}, "in_reply_to_status_id_str": null, "in_reply_to_screen_name": null, "id_str": "13936640060", "place": null, "retweet_count": 0, "in_reply_to_user_id": null}
{"favorited": false, "contributors": null, "truncated": false, "text": "ned yost, trey hillman, nancy salas, greyson chance youtube, ... http://bit.ly/cQFLSa", "eid": "TM607", "in_reply_to_status_id": null, "user": {"follow_request_sent": false, "profile_use_background_image": true, "default_profile_image": true, "id": 140371360, "verified": false, "profile_image_url_https": "https://si0.twimg.com/sticky/default_profile_images/default_profile_3_normal.png", "profile_sidebar_fill_color": "DDEEF6", "profile_text_color": "333333", "followers_count": 117, "profile_sidebar_border_color": "C0DEED", "id_str": "140371360", "profile_background_color": "C0DEED", "listed_count": 6, "profile_background_image_url_https": "https://si0.twimg.com/images/themes/theme1/bg.png", "utc_offset": null, "statuses_count": 7407, "description": "", "friends_count": 20, "location": "", "profile_link_color": "0084B4", "profile_image_url": "http://a0.twimg.com/sticky/default_profile_images/default_profile_3_normal.png", "following": false, "geo_enabled": false, "profile_background_image_url": "http://a0.twimg.com/images/themes/theme1/bg.png", "name": "Her Son", "lang": "en", "profile_background_tile": false, "favourites_count": 0, "screen_name": "bloghotnews", "notifications": false, "url": null, "created_at": "Wed May 05 09:46:11 +0000 2010", "contributors_enabled": false, "time_zone": null, "protected": false, "default_profile": true, "is_translator": false}, "geo": null, "in_reply_to_user_id_str": null, "source": "<a href=\"http://alexking.org/projects/wordpress\" rel=\"nofollow\">Twitter Tools</a>", "created_at": "Fri May 14 00:57:01 +0000 2010", "retweeted": false, "coordinates": null, "id": 13945632225, "entities": {"user_mentions": [], "hashtags": [], "urls": []}, "in_reply_to_status_id_str": null, "in_reply_to_screen_name": null, "id_str": "13945632225", "place": null, "retweet_count": 0, "in_reply_to_user_id": null}
{"favorited": false, "contributors": null, "truncated": false, "text": "you cut, ned yost, trey hillman, maurice strong, ... http://bit.ly/dpQijd", "eid": "TM607", "in_reply_to_status_id": null, "user": {"follow_request_sent": false, "profile_use_background_image": false, "default_profile_image": false, "id": 17072544, "verified": false, "profile_image_url_https": "https://si0.twimg.com/profile_images/438849654/lm_normal.jpg", "profile_sidebar_fill_color": "92C6E0", "profile_text_color": "3C3940", "followers_count": 1115, "profile_sidebar_border_color": "136E73", "id_str": "17072544", "profile_background_color": "037991", "listed_count": 10, "profile_background_image_url_https": "https://si0.twimg.com/images/themes/theme1/bg.png", "utc_offset": 25200, "statuses_count": 20484, "description": "I'm a webmaster for business. I create website with wordpress, joomla and static website. If you need a webmaster with a good looking design you can contact me.", "friends_count": 1532, "location": "Tangerang", "profile_link_color": "006AFF", "profile_image_url": "http://a0.twimg.com/profile_images/438849654/lm_normal.jpg", "following": false, "geo_enabled": false, "profile_background_image_url": "http://a0.twimg.com/images/themes/theme1/bg.png", "name": "Lydia Mensua", "lang": "en", "profile_background_tile": false, "favourites_count": 1, "screen_name": "linamt", "notifications": false, "url": "http://www.howtomakeapage.net", "created_at": "Thu Oct 30 19:34:41 +0000 2008", "contributors_enabled": false, "time_zone": "Jakarta", "protected": false, "default_profile": false, "is_translator": false}, "geo": null, "in_reply_to_user_id_str": null, "source": "<a href=\"http://alexking.org/projects/wordpress\" rel=\"nofollow\">Twitter Tools</a>", "created_at": "Fri May 14 08:05:41 +0000 2010", "retweeted": false, "coordinates": null, "id": 13964045306, "entities": {"user_mentions": [], "hashtags": [], "urls": []}, "in_reply_to_status_id_str": null, "in_reply_to_screen_name": null, "id_str": "13964045306", "place": null, "retweet_count": 0, "in_reply_to_user_id": null}
{"favorited": false, "contributors": null, "truncated": false, "text": "you cut, ned yost, trey hillman, maurice strong, ... http://bit.ly/9E5SiV", "eid": "TM607", "in_reply_to_status_id": null, "user": {"follow_request_sent": false, "profile_use_background_image": true, "default_profile_image": true, "id": 140371360, "verified": false, "profile_image_url_https": "https://si0.twimg.com/sticky/default_profile_images/default_profile_3_normal.png", "profile_sidebar_fill_color": "DDEEF6", "profile_text_color": "333333", "followers_count": 117, "profile_sidebar_border_color": "C0DEED", "id_str": "140371360", "profile_background_color": "C0DEED", "listed_count": 6, "profile_background_image_url_https": "https://si0.twimg.com/images/themes/theme1/bg.png", "utc_offset": null, "statuses_count": 7407, "description": "", "friends_count": 20, "location": "", "profile_link_color": "0084B4", "profile_image_url": "http://a0.twimg.com/sticky/default_profile_images/default_profile_3_normal.png", "following": false, "geo_enabled": false, "profile_background_image_url": "http://a0.twimg.com/images/themes/theme1/bg.png", "name": "Her Son", "lang": "en", "profile_background_tile": false, "favourites_count": 0, "screen_name": "bloghotnews", "notifications": false, "url": null, "created_at": "Wed May 05 09:46:11 +0000 2010", "contributors_enabled": false, "time_zone": null, "protected": false, "default_profile": true, "is_translator": false}, "geo": null, "in_reply_to_user_id_str": null, "source": "<a href=\"http://alexking.org/projects/wordpress\" rel=\"nofollow\">Twitter Tools</a>", "created_at": "Fri May 14 07:57:11 +0000 2010", "retweeted": false, "coordinates": null, "id": 13963774180, "entities": {"user_mentions": [], "hashtags": [], "urls": []}, "in_reply_to_status_id_str": null, "in_reply_to_screen_name": null, "id_str": "13963774180", "place": null, "retweet_count": 0, "in_reply_to_user_id": null}
