{"favorited": false, "contributors": null, "truncated": false, "text": "Space shuttle Atlantis lands in Florida \n    (Reuters)\n http://www.repost.com/2010/05/26/space-shuttle-atlantis-lands-in-florida-reuters/", "eid": "TM927", "in_reply_to_status_id": null, "user": {"follow_request_sent": false, "profile_use_background_image": true, "default_profile_image": false, "id": 90934060, "verified": false, "profile_image_url_https": "https://si0.twimg.com/profile_images/2269161480/tukjjibpz0jl89fccnqe_normal.png", "profile_sidebar_fill_color": "EFEFEF", "profile_text_color": "333333", "followers_count": 235, "profile_sidebar_border_color": "EEEEEE", "id_str": "90934060", "profile_background_color": "131516", "listed_count": 2, "profile_background_image_url_https": "https://si0.twimg.com/images/themes/theme14/bg.gif", "utc_offset": -28800, "statuses_count": 76095, "description": "", "friends_count": 6, "location": "On the NET", "profile_link_color": "009999", "profile_image_url": "http://a0.twimg.com/profile_images/2269161480/tukjjibpz0jl89fccnqe_normal.png", "following": false, "geo_enabled": false, "profile_background_image_url": "http://a0.twimg.com/images/themes/theme14/bg.gif", "name": "Newstrade", "lang": "en", "profile_background_tile": true, "favourites_count": 1, "screen_name": "NewsTrade", "notifications": false, "url": null, "created_at": "Wed Nov 18 18:59:39 +0000 2009", "contributors_enabled": false, "time_zone": "Pacific Time (US & Canada)", "protected": false, "default_profile": false, "is_translator": false}, "geo": null, "in_reply_to_user_id_str": null, "source": "<a href=\"http://www.idmarketing.com.br/post-to-twitter/\" rel=\"nofollow\">Post to Twitter</a>", "created_at": "Wed May 26 17:49:56 +0000 2010", "retweeted": false, "coordinates": null, "id": 14778470331, "entities": {"user_mentions": [], "hashtags": [], "urls": []}, "in_reply_to_status_id_str": null, "in_reply_to_screen_name": null, "id_str": "14778470331", "place": null, "retweet_count": 0, "in_reply_to_user_id": null}
{"favorited": false, "contributors": null, "truncated": false, "text": "( http://mobiledailynews.mobi/space-shuttle-atlantis-lands-in-florida-reuters/ )", "eid": "TM927", "in_reply_to_status_id": null, "user": {"follow_request_sent": false, "profile_use_background_image": true, "default_profile_image": true, "id": 118433972, "verified": false, "profile_image_url_https": "https://si0.twimg.com/sticky/default_profile_images/default_profile_6_normal.png", "profile_sidebar_fill_color": "DDEEF6", "profile_text_color": "333333", "followers_count": 150, "profile_sidebar_border_color": "C0DEED", "id_str": "118433972", "profile_background_color": "C0DEED", "listed_count": 3, "profile_background_image_url_https": "https://si0.twimg.com/images/themes/theme1/bg.png", "utc_offset": null, "statuses_count": 44486, "description": "", "friends_count": 0, "location": "", "profile_link_color": "0084B4", "profile_image_url": "http://a0.twimg.com/sticky/default_profile_images/default_profile_6_normal.png", "following": false, "geo_enabled": false, "profile_background_image_url": "http://a0.twimg.com/images/themes/theme1/bg.png", "name": "Sandy", "lang": "en", "profile_background_tile": false, "favourites_count": 0, "screen_name": "MobileDailyNews", "notifications": false, "url": null, "created_at": "Sun Feb 28 17:43:52 +0000 2010", "contributors_enabled": false, "time_zone": null, "protected": false, "default_profile": true, "is_translator": false}, "geo": null, "in_reply_to_user_id_str": null, "source": "<a href=\"http://dev.twitter.com/\" rel=\"nofollow\">API</a>", "created_at": "Wed May 26 17:54:27 +0000 2010", "retweeted": false, "coordinates": null, "id": 14778700303, "entities": {"user_mentions": [], "hashtags": [], "urls": []}, "in_reply_to_status_id_str": null, "in_reply_to_screen_name": null, "id_str": "14778700303", "place": null, "retweet_count": 0, "in_reply_to_user_id": null}
{"favorited": false, "contributors": null, "truncated": false, "text": "New post: Shuttle Atlantis lands after its final flight http://geeknews.me/2010/05/26/shuttle-atlantis-lands-after-its-final-flight/", "eid": "TM927", "in_reply_to_status_id": null, "user": {"follow_request_sent": false, "profile_use_background_image": true, "default_profile_image": true, "id": 134591130, "verified": false, "profile_image_url_https": "https://si0.twimg.com/sticky/default_profile_images/default_profile_2_normal.png", "profile_sidebar_fill_color": "DDEEF6", "profile_text_color": "333333", "followers_count": 437, "profile_sidebar_border_color": "C0DEED", "id_str": "134591130", "profile_background_color": "C0DEED", "listed_count": 2, "profile_background_image_url_https": "https://si0.twimg.com/images/themes/theme1/bg.png", "utc_offset": null, "statuses_count": 20907, "description": "", "friends_count": 1843, "location": "", "profile_link_color": "0084B4", "profile_image_url": "http://a0.twimg.com/sticky/default_profile_images/default_profile_2_normal.png", "following": false, "geo_enabled": false, "profile_background_image_url": "http://a0.twimg.com/images/themes/theme1/bg.png", "name": "geek", "lang": "en", "profile_background_tile": false, "favourites_count": 0, "screen_name": "geeknewsme", "notifications": false, "url": "http://ruscae.blogspot.com/", "created_at": "Sun Apr 18 22:03:10 +0000 2010", "contributors_enabled": false, "time_zone": null, "protected": false, "default_profile": true, "is_translator": false}, "geo": null, "in_reply_to_user_id_str": null, "source": "<a href=\"http://www.joedolson.com/articles/wp-to-twitter/\" rel=\"nofollow\">WP to Twitter</a>", "created_at": "Wed May 26 15:05:06 +0000 2010", "retweeted": false, "coordinates": null, "id": 14768929388, "entities": {"user_mentions": [], "hashtags": [], "urls": []}, "in_reply_to_status_id_str": null, "in_reply_to_screen_name": null, "id_str": "14768929388", "place": null, "retweet_count": 0, "in_reply_to_user_id": null}
{"favorited": false, "contributors": null, "truncated": false, "text": "Atlantis lands last time on terra firma http://www.itwire.com/science-news/space/39394-atlantis-lands-last-time-on-terra-firma", "eid": "TM927", "in_reply_to_status_id": null, "user": {"follow_request_sent": false, "profile_use_background_image": true, "default_profile_image": false, "id": 28509867, "verified": false, "profile_image_url_https": "https://si0.twimg.com/profile_images/255232092/iTWire_logo_ITW_RED_normal.jpg", "profile_sidebar_fill_color": "F3F3F3", "profile_text_color": "333333", "followers_count": 4391, "profile_sidebar_border_color": "DFDFDF", "id_str": "28509867", "profile_background_color": "EBEBEB", "listed_count": 330, "profile_background_image_url_https": "https://si0.twimg.com/profile_background_images/17276143/background_160_5.jpg", "utc_offset": 36000, "statuses_count": 13614, "description": "iTWire is a powerful source of top-line IT and tech news, information and community for IT and telecommunications industry professionals.", "friends_count": 147, "location": "Australia", "profile_link_color": "990000", "profile_image_url": "http://a0.twimg.com/profile_images/255232092/iTWire_logo_ITW_RED_normal.jpg", "following": false, "geo_enabled": true, "profile_background_image_url": "http://a0.twimg.com/profile_background_images/17276143/background_160_5.jpg", "name": "iTWire - Latest News", "lang": "en", "profile_background_tile": false, "favourites_count": 2, "screen_name": "iTWire", "notifications": false, "url": "http://www.itwire.com", "created_at": "Fri Apr 03 05:20:13 +0000 2009", "contributors_enabled": false, "time_zone": "Melbourne", "protected": false, "default_profile": false, "is_translator": false}, "geo": null, "in_reply_to_user_id_str": null, "source": "web", "created_at": "Wed May 26 13:35:07 +0000 2010", "retweeted": false, "coordinates": null, "id": 14763371756, "entities": {"user_mentions": [], "hashtags": [], "urls": []}, "in_reply_to_status_id_str": null, "in_reply_to_screen_name": null, "id_str": "14763371756", "place": null, "retweet_count": 0, "in_reply_to_user_id": null}
{"favorited": false, "contributors": null, "truncated": false, "text": "CBC News - World - Space shuttle Atlantis lands for final time http://www.cbc.ca/world/story/2010/05/26/atlantis-shuttle.html", "eid": "TM927", "in_reply_to_status_id": null, "user": {"follow_request_sent": false, "profile_use_background_image": true, "default_profile_image": false, "id": 138182665, "verified": false, "profile_image_url_https": "https://si0.twimg.com/profile_images/959521923/HOT-twitter_avatar_blue_normal.jpg", "profile_sidebar_fill_color": "FFFFFF", "profile_text_color": "333333", "followers_count": 283, "profile_sidebar_border_color": "C0DEED", "id_str": "138182665", "profile_background_color": "ABABAB", "listed_count": 7, "profile_background_image_url_https": "https://si0.twimg.com/profile_background_images/108503034/HOT-twitter_back_blue.jpg", "utc_offset": null, "statuses_count": 20630, "description": "", "friends_count": 34, "location": "", "profile_link_color": "0084B4", "profile_image_url": "http://a0.twimg.com/profile_images/959521923/HOT-twitter_avatar_blue_normal.jpg", "following": false, "geo_enabled": false, "profile_background_image_url": "http://a0.twimg.com/profile_background_images/108503034/HOT-twitter_back_blue.jpg", "name": "Hot In Space", "lang": "en", "profile_background_tile": false, "favourites_count": 0, "screen_name": "HotInSpace", "notifications": false, "url": null, "created_at": "Wed Apr 28 21:23:04 +0000 2010", "contributors_enabled": false, "time_zone": null, "protected": false, "default_profile": false, "is_translator": false}, "geo": null, "in_reply_to_user_id_str": null, "source": "<a href=\"http://twitter.com\" rel=\"nofollow\">Twitter</a>", "created_at": "Wed May 26 14:43:17 +0000 2010", "retweeted": false, "coordinates": null, "id": 14767551877, "entities": {"user_mentions": [], "hashtags": [], "urls": []}, "in_reply_to_status_id_str": null, "in_reply_to_screen_name": null, "id_str": "14767551877", "place": null, "retweet_count": 0, "in_reply_to_user_id": null}
{"favorited": false, "contributors": null, "truncated": false, "text": "CBC News - World - Space shuttle Atlantis lands for final time http://www.cbc.ca/world/story/2010/05/26/atlantis-shuttle.html", "eid": "TM927", "in_reply_to_status_id": null, "user": {"follow_request_sent": false, "profile_use_background_image": true, "default_profile_image": false, "id": 138182665, "verified": false, "profile_image_url_https": "https://si0.twimg.com/profile_images/959521923/HOT-twitter_avatar_blue_normal.jpg", "profile_sidebar_fill_color": "FFFFFF", "profile_text_color": "333333", "followers_count": 283, "profile_sidebar_border_color": "C0DEED", "id_str": "138182665", "profile_background_color": "ABABAB", "listed_count": 7, "profile_background_image_url_https": "https://si0.twimg.com/profile_background_images/108503034/HOT-twitter_back_blue.jpg", "utc_offset": null, "statuses_count": 20630, "description": "", "friends_count": 34, "location": "", "profile_link_color": "0084B4", "profile_image_url": "http://a0.twimg.com/profile_images/959521923/HOT-twitter_avatar_blue_normal.jpg", "following": false, "geo_enabled": false, "profile_background_image_url": "http://a0.twimg.com/profile_background_images/108503034/HOT-twitter_back_blue.jpg", "name": "Hot In Space", "lang": "en", "profile_background_tile": false, "favourites_count": 0, "screen_name": "HotInSpace", "notifications": false, "url": null, "created_at": "Wed Apr 28 21:23:04 +0000 2010", "contributors_enabled": false, "time_zone": null, "protected": false, "default_profile": false, "is_translator": false}, "geo": null, "in_reply_to_user_id_str": null, "source": "<a href=\"http://twitter.com\" rel=\"nofollow\">Twitter</a>", "created_at": "Wed May 26 14:43:17 +0000 2010", "retweeted": false, "coordinates": null, "id": 14767551876, "entities": {"user_mentions": [], "hashtags": [], "urls": []}, "in_reply_to_status_id_str": null, "in_reply_to_screen_name": null, "id_str": "14767551876", "place": null, "retweet_count": 0, "in_reply_to_user_id": null}
{"favorited": false, "contributors": null, "truncated": false, "text": "New Blog post Atlantis shuttle lands at Kennedy  http://www.blognewsweb.com/2010/05/26/atlantis-shuttle-lands-at-kennedy/ ...", "eid": "TM927", "in_reply_to_status_id": null, "user": {"follow_request_sent": false, "profile_use_background_image": true, "default_profile_image": false, "id": 93760736, "verified": false, "profile_image_url_https": "https://si0.twimg.com/profile_images/552493491/bloglogo_normal.jpg", "profile_sidebar_fill_color": "DDEEF6", "profile_text_color": "333333", "followers_count": 252, "profile_sidebar_border_color": "C0DEED", "id_str": "93760736", "profile_background_color": "C0DEED", "listed_count": 6, "profile_background_image_url_https": "https://si0.twimg.com/profile_background_images/57027028/bluecodes.jpg", "utc_offset": -28800, "statuses_count": 13445, "description": "Welcom to BlogNewsWeb.com - The Web's Leading Source for News and Opinion on Every Topic!", "friends_count": 22, "location": "USA", "profile_link_color": "0084B4", "profile_image_url": "http://a0.twimg.com/profile_images/552493491/bloglogo_normal.jpg", "following": false, "geo_enabled": false, "profile_background_image_url": "http://a0.twimg.com/profile_background_images/57027028/bluecodes.jpg", "name": "Blog News Web", "lang": "en", "profile_background_tile": false, "favourites_count": 0, "screen_name": "BlogNewsWeb", "notifications": false, "url": "http://www.blognewsweb.com", "created_at": "Tue Dec 01 01:38:21 +0000 2009", "contributors_enabled": false, "time_zone": "Pacific Time (US & Canada)", "protected": false, "default_profile": false, "is_translator": false}, "geo": null, "in_reply_to_user_id_str": null, "source": "<a href=\"http://www.phpvrouwen.nl\" rel=\"nofollow\">Twitme for WordPress</a>", "created_at": "Wed May 26 14:20:37 +0000 2010", "retweeted": false, "coordinates": null, "id": 14766135169, "entities": {"user_mentions": [], "hashtags": [], "urls": []}, "in_reply_to_status_id_str": null, "in_reply_to_screen_name": null, "id_str": "14766135169", "place": null, "retweet_count": 0, "in_reply_to_user_id": null}
{"favorited": false, "contributors": null, "truncated": false, "text": "os-space-shuttle-atlantis-lands-20100526: Absent a reprieve from Congress or the White House, the touchdown marked... http://bit.ly/aNtNTr", "eid": "TM927", "in_reply_to_status_id": null, "user": {"follow_request_sent": false, "profile_use_background_image": true, "default_profile_image": true, "id": 145310348, "verified": false, "profile_image_url_https": "https://si0.twimg.com/sticky/default_profile_images/default_profile_1_normal.png", "profile_sidebar_fill_color": "DDEEF6", "profile_text_color": "333333", "followers_count": 3928, "profile_sidebar_border_color": "C0DEED", "id_str": "145310348", "profile_background_color": "C0DEED", "listed_count": 105, "profile_background_image_url_https": "https://si0.twimg.com/images/themes/theme1/bg.png", "utc_offset": null, "statuses_count": 182313, "description": "", "friends_count": 1264, "location": "", "profile_link_color": "0084B4", "profile_image_url": "http://a0.twimg.com/sticky/default_profile_images/default_profile_1_normal.png", "following": false, "geo_enabled": false, "profile_background_image_url": "http://a0.twimg.com/images/themes/theme1/bg.png", "name": "Heath Lackey", "lang": "en", "profile_background_tile": false, "favourites_count": 0, "screen_name": "greenexistence", "notifications": false, "url": null, "created_at": "Tue May 18 17:04:54 +0000 2010", "contributors_enabled": false, "time_zone": null, "protected": false, "default_profile": true, "is_translator": false}, "geo": null, "in_reply_to_user_id_str": null, "source": "<a href=\"http://twitterfeed.com\" rel=\"nofollow\">twitterfeed</a>", "created_at": "Wed May 26 20:55:58 +0000 2010", "retweeted": false, "coordinates": null, "id": 14787763644, "entities": {"user_mentions": [], "hashtags": [], "urls": []}, "in_reply_to_status_id_str": null, "in_reply_to_screen_name": null, "id_str": "14787763644", "place": null, "retweet_count": 0, "in_reply_to_user_id": null}
{"favorited": false, "contributors": null, "truncated": false, "text": "New Blog Post on World News Report you can find it here http://enterpriseassociatesllc.com/space-shuttle-atlantis-lands-in-florida/", "eid": "TM927", "in_reply_to_status_id": null, "user": {"follow_request_sent": false, "profile_use_background_image": true, "default_profile_image": true, "id": 135683427, "verified": false, "profile_image_url_https": "https://si0.twimg.com/sticky/default_profile_images/default_profile_5_normal.png", "profile_sidebar_fill_color": "DDEEF6", "profile_text_color": "333333", "followers_count": 37, "profile_sidebar_border_color": "C0DEED", "id_str": "135683427", "profile_background_color": "C0DEED", "listed_count": 1, "profile_background_image_url_https": "https://si0.twimg.com/images/themes/theme1/bg.png", "utc_offset": null, "statuses_count": 5268, "description": "", "friends_count": 0, "location": "", "profile_link_color": "0084B4", "profile_image_url": "http://a0.twimg.com/sticky/default_profile_images/default_profile_5_normal.png", "following": false, "geo_enabled": true, "profile_background_image_url": "http://a0.twimg.com/images/themes/theme1/bg.png", "name": "World News Report", "lang": "en", "profile_background_tile": false, "favourites_count": 0, "screen_name": "WorldNewsAlert", "notifications": false, "url": null, "created_at": "Thu Apr 22 00:39:47 +0000 2010", "contributors_enabled": false, "time_zone": null, "protected": false, "default_profile": true, "is_translator": false}, "geo": null, "in_reply_to_user_id_str": null, "source": "<a href=\"http://www.phpvrouwen.nl\" rel=\"nofollow\">Twitme for WordPress</a>", "created_at": "Wed May 26 13:22:06 +0000 2010", "retweeted": false, "coordinates": null, "id": 14762625278, "entities": {"user_mentions": [], "hashtags": [], "urls": []}, "in_reply_to_status_id_str": null, "in_reply_to_screen_name": null, "id_str": "14762625278", "place": null, "retweet_count": 0, "in_reply_to_user_id": null}
{"favorited": false, "contributors": null, "truncated": false, "text": "Vintage Jesus:  ( http://www.vintagejesus.info/space-shuttle-atlantis-lands-for-final-time.html )", "eid": "TM927", "in_reply_to_status_id": null, "user": {"follow_request_sent": false, "profile_use_background_image": true, "default_profile_image": false, "id": 121469084, "verified": false, "profile_image_url_https": "https://si0.twimg.com/profile_images/742393936/jesus_normal.jpg", "profile_sidebar_fill_color": "DDEEF6", "profile_text_color": "333333", "followers_count": 24, "profile_sidebar_border_color": "C0DEED", "id_str": "121469084", "profile_background_color": "C0DEED", "listed_count": 1, "profile_background_image_url_https": "https://si0.twimg.com/profile_background_images/81760573/christianpatch.jpg", "utc_offset": null, "statuses_count": 5071, "description": "Jesus Christ saves!", "friends_count": 29, "location": "", "profile_link_color": "0084B4", "profile_image_url": "http://a0.twimg.com/profile_images/742393936/jesus_normal.jpg", "following": false, "geo_enabled": false, "profile_background_image_url": "http://a0.twimg.com/profile_background_images/81760573/christianpatch.jpg", "name": "VintageJesus", "lang": "en", "profile_background_tile": true, "favourites_count": 0, "screen_name": "vintagejesus", "notifications": false, "url": "http://www.vintagejesus.info", "created_at": "Tue Mar 09 16:00:50 +0000 2010", "contributors_enabled": false, "time_zone": null, "protected": false, "default_profile": false, "is_translator": false}, "geo": null, "in_reply_to_user_id_str": null, "source": "<a href=\"http://dev.twitter.com/\" rel=\"nofollow\">API</a>", "created_at": "Thu May 27 04:49:44 +0000 2010", "retweeted": false, "coordinates": null, "id": 14813554695, "entities": {"user_mentions": [], "hashtags": [], "urls": []}, "in_reply_to_status_id_str": null, "in_reply_to_screen_name": null, "id_str": "14813554695", "place": null, "retweet_count": 0, "in_reply_to_user_id": null}
{"favorited": false, "contributors": null, "truncated": false, "text": "os-space-shuttle-atlantis-lands-20100526: President Barack Obama's proposal for NASA's post-shuttle future is for ... http://bit.ly/aNtNTr", "eid": "TM927", "in_reply_to_status_id": null, "user": {"follow_request_sent": false, "profile_use_background_image": true, "default_profile_image": false, "id": 128633736, "verified": false, "profile_image_url_https": "https://si0.twimg.com/profile_images/860278658/_2__normal.jpg", "profile_sidebar_fill_color": "F6FFD1", "profile_text_color": "333333", "followers_count": 8747, "profile_sidebar_border_color": "FFF8AD", "id_str": "128633736", "profile_background_color": "FFF04D", "listed_count": 77, "profile_background_image_url_https": "https://si0.twimg.com/profile_background_images/96854108/_1_.jpg", "utc_offset": -25200, "statuses_count": 14715, "description": "love to golf, travel, go to the movies. From NYC but San Diego is home. Love that sunshine. Dedicated to helping kids get fit \r\n", "friends_count": 10030, "location": "San Diego ", "profile_link_color": "0099CC", "profile_image_url": "http://a0.twimg.com/profile_images/860278658/_2__normal.jpg", "following": false, "geo_enabled": false, "profile_background_image_url": "http://a0.twimg.com/profile_background_images/96854108/_1_.jpg", "name": "Jerry Rochester", "lang": "en", "profile_background_tile": false, "favourites_count": 2, "screen_name": "Jerry_Rochester", "notifications": false, "url": null, "created_at": "Thu Apr 01 18:30:30 +0000 2010", "contributors_enabled": false, "time_zone": "Arizona", "protected": false, "default_profile": false, "is_translator": false}, "geo": null, "in_reply_to_user_id_str": null, "source": "<a href=\"http://twitterfeed.com\" rel=\"nofollow\">twitterfeed</a>", "created_at": "Wed May 26 21:23:53 +0000 2010", "retweeted": false, "coordinates": null, "id": 14789129206, "entities": {"user_mentions": [], "hashtags": [], "urls": []}, "in_reply_to_status_id_str": null, "in_reply_to_screen_name": null, "id_str": "14789129206", "place": null, "retweet_count": 0, "in_reply_to_user_id": null}
{"favorited": false, "contributors": null, "truncated": false, "text": "http://bit.ly/13wpeO os-space-shuttle-atlantis-lands-20100526 http://bit.ly/aCW2uM", "eid": "TM927", "in_reply_to_status_id": null, "user": {"follow_request_sent": false, "profile_use_background_image": true, "default_profile_image": false, "id": 35300655, "verified": false, "profile_image_url_https": "https://si0.twimg.com/profile_images/183994418/old_man_normal.jpg", "profile_sidebar_fill_color": "E0FF92", "profile_text_color": "000000", "followers_count": 1540, "profile_sidebar_border_color": "87BC44", "id_str": "35300655", "profile_background_color": "9AE4E8", "listed_count": 6, "profile_background_image_url_https": "https://si0.twimg.com/profile_background_images/10352679/howdy_take_a_gander.jpg", "utc_offset": -28800, "statuses_count": 22340, "description": "I'm a Hardworking, Earth Lover, NRA Card Holder, Loves ~ GOD, FAMILY, FREEDOM  ~ \r\n    DON'T TREAD ON ME!!!     Made in ", "friends_count": 1976, "location": "U.S.A", "profile_link_color": "0000FF", "profile_image_url": "http://a0.twimg.com/profile_images/183994418/old_man_normal.jpg", "following": false, "geo_enabled": false, "profile_background_image_url": "http://a0.twimg.com/profile_background_images/10352679/howdy_take_a_gander.jpg", "name": "Howdy Take A Gander", "lang": "en", "profile_background_tile": false, "favourites_count": 3, "screen_name": "howdytakeagande", "notifications": false, "url": null, "created_at": "Sat Apr 25 20:21:59 +0000 2009", "contributors_enabled": false, "time_zone": "Pacific Time (US & Canada)", "protected": false, "default_profile": false, "is_translator": false}, "geo": null, "in_reply_to_user_id_str": null, "source": "<a href=\"http://twitterfeed.com\" rel=\"nofollow\">twitterfeed</a>", "created_at": "Wed May 26 18:08:38 +0000 2010", "retweeted": false, "coordinates": null, "id": 14779439481, "entities": {"user_mentions": [], "hashtags": [], "urls": []}, "in_reply_to_status_id_str": null, "in_reply_to_screen_name": null, "id_str": "14779439481", "place": null, "retweet_count": 0, "in_reply_to_user_id": null}
{"favorited": false, "contributors": null, "truncated": false, "text": "Atlantis shuttle lands at Kennedy - BBC News http://www.quanrel.com/atlantis-shuttle-lands-at-kennedy-bbc-news/", "eid": "TM927", "in_reply_to_status_id": null, "user": {"follow_request_sent": false, "profile_use_background_image": true, "default_profile_image": false, "id": 37210265, "verified": false, "profile_image_url_https": "https://si0.twimg.com/profile_images/3036733017/b3bdf9616b52fbbcfad3df50cbfc9e7e_normal.jpeg", "profile_sidebar_fill_color": "DDEEF6", "profile_text_color": "333333", "followers_count": 2026, "profile_sidebar_border_color": "C0DEED", "id_str": "37210265", "profile_background_color": "C0DEED", "listed_count": 30, "profile_background_image_url_https": "https://si0.twimg.com/images/themes/theme1/bg.png", "utc_offset": 0, "statuses_count": 24085, "description": "Designed and developed to maximise productivity, research and development by quantifying relevant solutions.", "friends_count": 2146, "location": "London UK", "profile_link_color": "0084B4", "profile_image_url": "http://a0.twimg.com/profile_images/3036733017/b3bdf9616b52fbbcfad3df50cbfc9e7e_normal.jpeg", "following": false, "geo_enabled": false, "profile_background_image_url": "http://a0.twimg.com/images/themes/theme1/bg.png", "name": "Quanrel", "lang": "en", "profile_background_tile": false, "favourites_count": 5, "screen_name": "quanrel", "notifications": false, "url": "http://quanrel.com", "created_at": "Sat May 02 14:55:42 +0000 2009", "contributors_enabled": false, "time_zone": "London", "protected": false, "default_profile": true, "is_translator": false}, "geo": null, "in_reply_to_user_id_str": null, "source": "<a href=\"http://thomaspurnell.com/twitpress/\" rel=\"nofollow\">Twitpress</a>", "created_at": "Wed May 26 16:53:17 +0000 2010", "retweeted": false, "coordinates": null, "id": 14775422522, "entities": {"user_mentions": [], "hashtags": [], "urls": []}, "in_reply_to_status_id_str": null, "in_reply_to_screen_name": null, "id_str": "14775422522", "place": null, "retweet_count": 0, "in_reply_to_user_id": null}
{"favorited": false, "contributors": null, "truncated": false, "text": "New post: Atlantis Lands for Final Time http://gop1.com/2010/05/26/atlantis-lands-for-final-time/", "eid": "TM927", "in_reply_to_status_id": null, "user": {"follow_request_sent": false, "profile_use_background_image": true, "default_profile_image": true, "id": 133806199, "verified": false, "profile_image_url_https": "https://si0.twimg.com/sticky/default_profile_images/default_profile_2_normal.png", "profile_sidebar_fill_color": "DDEEF6", "profile_text_color": "333333", "followers_count": 17, "profile_sidebar_border_color": "C0DEED", "id_str": "133806199", "profile_background_color": "C0DEED", "listed_count": 0, "profile_background_image_url_https": "https://si0.twimg.com/images/themes/theme1/bg.png", "utc_offset": null, "statuses_count": 3830, "description": "", "friends_count": 0, "location": "", "profile_link_color": "0084B4", "profile_image_url": "http://a0.twimg.com/sticky/default_profile_images/default_profile_2_normal.png", "following": false, "geo_enabled": false, "profile_background_image_url": "http://a0.twimg.com/images/themes/theme1/bg.png", "name": "Gop Guy", "lang": "en", "profile_background_tile": false, "favourites_count": 0, "screen_name": "gop1dotcom", "notifications": false, "url": null, "created_at": "Fri Apr 16 17:39:13 +0000 2010", "contributors_enabled": false, "time_zone": null, "protected": false, "default_profile": true, "is_translator": false}, "geo": null, "in_reply_to_user_id_str": null, "source": "<a href=\"http://www.joedolson.com/articles/wp-to-twitter/\" rel=\"nofollow\">WP to Twitter</a>", "created_at": "Wed May 26 19:00:08 +0000 2010", "retweeted": false, "coordinates": null, "id": 14782054940, "entities": {"user_mentions": [], "hashtags": [], "urls": []}, "in_reply_to_status_id_str": null, "in_reply_to_screen_name": null, "id_str": "14782054940", "place": null, "retweet_count": 0, "in_reply_to_user_id": null}
{"favorited": false, "contributors": null, "truncated": false, "text": "New Blog Post on World News Report you can find it here http://enterpriseassociatesllc.com/space-shuttle-atlantis-lands-in-florida/", "eid": "TM927", "in_reply_to_status_id": null, "user": {"follow_request_sent": false, "profile_use_background_image": true, "default_profile_image": true, "id": 135683427, "verified": false, "profile_image_url_https": "https://si0.twimg.com/sticky/default_profile_images/default_profile_5_normal.png", "profile_sidebar_fill_color": "DDEEF6", "profile_text_color": "333333", "followers_count": 37, "profile_sidebar_border_color": "C0DEED", "id_str": "135683427", "profile_background_color": "C0DEED", "listed_count": 1, "profile_background_image_url_https": "https://si0.twimg.com/images/themes/theme1/bg.png", "utc_offset": null, "statuses_count": 5268, "description": "", "friends_count": 0, "location": "", "profile_link_color": "0084B4", "profile_image_url": "http://a0.twimg.com/sticky/default_profile_images/default_profile_5_normal.png", "following": false, "geo_enabled": true, "profile_background_image_url": "http://a0.twimg.com/images/themes/theme1/bg.png", "name": "World News Report", "lang": "en", "profile_background_tile": false, "favourites_count": 0, "screen_name": "WorldNewsAlert", "notifications": false, "url": null, "created_at": "Thu Apr 22 00:39:47 +0000 2010", "contributors_enabled": false, "time_zone": null, "protected": false, "default_profile": true, "is_translator": false}, "geo": null, "in_reply_to_user_id_str": null, "source": "<a href=\"http://www.phpvrouwen.nl\" rel=\"nofollow\">Twitme for WordPress</a>", "created_at": "Wed May 26 19:11:34 +0000 2010", "retweeted": false, "coordinates": null, "id": 14782627341, "entities": {"user_mentions": [], "hashtags": [], "urls": []}, "in_reply_to_status_id_str": null, "in_reply_to_screen_name": null, "id_str": "14782627341", "place": null, "retweet_count": 0, "in_reply_to_user_id": null}
{"favorited": false, "contributors": null, "truncated": false, "text": "http://lifestylevalue.com/2010/05/shuttle-atlantis-lands-after-last-mission/", "eid": "TM927", "in_reply_to_status_id": null, "user": {"follow_request_sent": false, "profile_use_background_image": true, "default_profile_image": true, "id": 124105399, "verified": false, "profile_image_url_https": "https://si0.twimg.com/sticky/default_profile_images/default_profile_5_normal.png", "profile_sidebar_fill_color": "DDEEF6", "profile_text_color": "333333", "followers_count": 324, "profile_sidebar_border_color": "C0DEED", "id_str": "124105399", "profile_background_color": "C0DEED", "listed_count": 5, "profile_background_image_url_https": "https://si0.twimg.com/images/themes/theme1/bg.png", "utc_offset": -32400, "statuses_count": 21341, "description": "", "friends_count": 198, "location": "", "profile_link_color": "0084B4", "profile_image_url": "http://a0.twimg.com/sticky/default_profile_images/default_profile_5_normal.png", "following": false, "geo_enabled": false, "profile_background_image_url": "http://a0.twimg.com/images/themes/theme1/bg.png", "name": "lifestylevalue", "lang": "en", "profile_background_tile": false, "favourites_count": 0, "screen_name": "lifestylevalue", "notifications": false, "url": null, "created_at": "Thu Mar 18 08:05:19 +0000 2010", "contributors_enabled": false, "time_zone": "Alaska", "protected": false, "default_profile": true, "is_translator": false}, "geo": null, "in_reply_to_user_id_str": null, "source": "<a href=\"http://dev.twitter.com/\" rel=\"nofollow\">API</a>", "created_at": "Wed May 26 22:41:34 +0000 2010", "retweeted": false, "coordinates": null, "id": 14793012155, "entities": {"user_mentions": [], "hashtags": [], "urls": []}, "in_reply_to_status_id_str": null, "in_reply_to_screen_name": null, "id_str": "14793012155", "place": null, "retweet_count": 0, "in_reply_to_user_id": null}
{"favorited": false, "contributors": null, "truncated": false, "text": "OB tweets: Space shuttle Atlantis lands for final time (AP) http://www.onyxbook.com/2010/05/space-shuttle-atlantis-lands-for-final-time-ap/", "eid": "TM927", "in_reply_to_status_id": null, "user": {"follow_request_sent": false, "profile_use_background_image": true, "default_profile_image": false, "id": 90187630, "verified": false, "profile_image_url_https": "https://si0.twimg.com/profile_images/2445716155/474pq8072yj7myxedtyb_normal.png", "profile_sidebar_fill_color": "EFEFEF", "profile_text_color": "333333", "followers_count": 1261, "profile_sidebar_border_color": "EEEEEE", "id_str": "90187630", "profile_background_color": "131516", "listed_count": 7, "profile_background_image_url_https": "https://si0.twimg.com/images/themes/theme14/bg.gif", "utc_offset": -32400, "statuses_count": 265069, "description": "Blogger Baby!!", "friends_count": 88, "location": "", "profile_link_color": "009999", "profile_image_url": "http://a0.twimg.com/profile_images/2445716155/474pq8072yj7myxedtyb_normal.png", "following": false, "geo_enabled": true, "profile_background_image_url": "http://a0.twimg.com/images/themes/theme14/bg.gif", "name": "OnyxBook", "lang": "en", "profile_background_tile": true, "favourites_count": 0, "screen_name": "onyxbook", "notifications": false, "url": "http://www.onyxbook.com", "created_at": "Sun Nov 15 15:56:58 +0000 2009", "contributors_enabled": false, "time_zone": "Alaska", "protected": false, "default_profile": false, "is_translator": false}, "geo": null, "in_reply_to_user_id_str": null, "source": "<a href=\"http://www.idmarketing.com.br/post-to-twitter/\" rel=\"nofollow\">Post to Twitter</a>", "created_at": "Wed May 26 15:32:07 +0000 2010", "retweeted": false, "coordinates": null, "id": 14770616998, "entities": {"user_mentions": [], "hashtags": [], "urls": []}, "in_reply_to_status_id_str": null, "in_reply_to_screen_name": null, "id_str": "14770616998", "place": null, "retweet_count": 0, "in_reply_to_user_id": null}
{"favorited": false, "contributors": null, "truncated": false, "text": "AboutSpace.info: Space shuttle Atlantis lands for final time http://www.aboutspace.info/space-shuttle-atlantis-lands-for-final-time/", "eid": "TM927", "in_reply_to_status_id": null, "user": {"follow_request_sent": false, "profile_use_background_image": true, "default_profile_image": false, "id": 106935153, "verified": false, "profile_image_url_https": "https://si0.twimg.com/profile_images/645128490/space_normal.png", "profile_sidebar_fill_color": "DDEEF6", "profile_text_color": "333333", "followers_count": 21, "profile_sidebar_border_color": "C0DEED", "id_str": "106935153", "profile_background_color": "C0DEED", "listed_count": 1, "profile_background_image_url_https": "https://si0.twimg.com/images/themes/theme1/bg.png", "utc_offset": null, "statuses_count": 1904, "description": "", "friends_count": 498, "location": "", "profile_link_color": "0084B4", "profile_image_url": "http://a0.twimg.com/profile_images/645128490/space_normal.png", "following": false, "geo_enabled": false, "profile_background_image_url": "http://a0.twimg.com/images/themes/theme1/bg.png", "name": "AboutSpace.info", "lang": "en", "profile_background_tile": false, "favourites_count": 0, "screen_name": "aboutspaceinfo", "notifications": false, "url": null, "created_at": "Thu Jan 21 03:34:30 +0000 2010", "contributors_enabled": false, "time_zone": null, "protected": false, "default_profile": true, "is_translator": false}, "geo": null, "in_reply_to_user_id_str": null, "source": "<a href=\"http://alexking.org/projects/wordpress\" rel=\"nofollow\">Twitter Tools</a>", "created_at": "Thu May 27 04:43:06 +0000 2010", "retweeted": false, "coordinates": null, "id": 14813254605, "entities": {"user_mentions": [], "hashtags": [], "urls": []}, "in_reply_to_status_id_str": null, "in_reply_to_screen_name": null, "id_str": "14813254605", "place": null, "retweet_count": 0, "in_reply_to_user_id": null}
{"favorited": false, "contributors": null, "truncated": false, "text": "Supplies Team : os-space-shuttle-atlantis-lands-20100526 - Baltimore Sun http://dlvr.it/1DGQ3", "eid": "TM927", "in_reply_to_status_id": null, "user": {"follow_request_sent": false, "profile_use_background_image": true, "default_profile_image": true, "id": 126204706, "verified": false, "profile_image_url_https": "https://si0.twimg.com/sticky/default_profile_images/default_profile_5_normal.png", "profile_sidebar_fill_color": "DDEEF6", "profile_text_color": "333333", "followers_count": 840, "profile_sidebar_border_color": "C0DEED", "id_str": "126204706", "profile_background_color": "C0DEED", "listed_count": 7, "profile_background_image_url_https": "https://si0.twimg.com/images/themes/theme1/bg.png", "utc_offset": null, "statuses_count": 69188, "description": "", "friends_count": 1530, "location": "", "profile_link_color": "0084B4", "profile_image_url": "http://a0.twimg.com/sticky/default_profile_images/default_profile_5_normal.png", "following": false, "geo_enabled": false, "profile_background_image_url": "http://a0.twimg.com/images/themes/theme1/bg.png", "name": "teresa cardon", "lang": "en", "profile_background_tile": false, "favourites_count": 0, "screen_name": "trcardon", "notifications": false, "url": null, "created_at": "Thu Mar 25 03:59:00 +0000 2010", "contributors_enabled": false, "time_zone": null, "protected": false, "default_profile": true, "is_translator": false}, "geo": null, "in_reply_to_user_id_str": null, "source": "<a href=\"http://dlvr.it\" rel=\"nofollow\">dlvr.it</a>", "created_at": "Wed May 26 15:24:12 +0000 2010", "retweeted": false, "coordinates": null, "id": 14770122316, "entities": {"user_mentions": [], "hashtags": [], "urls": []}, "in_reply_to_status_id_str": null, "in_reply_to_screen_name": null, "id_str": "14770122316", "place": null, "retweet_count": 0, "in_reply_to_user_id": null}
{"favorited": false, "contributors": null, "truncated": false, "text": "... shuttle atlantis lands for what is likely the very last time on runway 33 at kennedy space center. via @cnn: http://ping.fm/maMXf", "eid": "TM927", "in_reply_to_status_id": null, "user": {"follow_request_sent": false, "profile_use_background_image": true, "default_profile_image": false, "id": 22744842, "verified": false, "profile_image_url_https": "https://si0.twimg.com/profile_images/2820014223/0ff0296e9c14c00b346d4a35eb244612_normal.png", "profile_sidebar_fill_color": "0A0505", "profile_text_color": "545151", "followers_count": 861, "profile_sidebar_border_color": "57554F", "id_str": "22744842", "profile_background_color": "030000", "listed_count": 48, "profile_background_image_url_https": "https://si0.twimg.com/profile_background_images/627815609/bdrv8ondf0c69sfwzhrr.png", "utc_offset": -18000, "statuses_count": 7637, "description": "producer w/ @msnbc's @thelastword, geek, snarky anglophile, music snob, patriot & kierkegaardian existentialist. opinions = my own. retweets \u2260 endorsements.", "friends_count": 783, "location": "brklyn", "profile_link_color": "C110D1", "profile_image_url": "http://a0.twimg.com/profile_images/2820014223/0ff0296e9c14c00b346d4a35eb244612_normal.png", "following": false, "geo_enabled": true, "profile_banner_url": "https://si0.twimg.com/profile_banners/22744842/1356040143", "profile_background_image_url": "http://a0.twimg.com/profile_background_images/627815609/bdrv8ondf0c69sfwzhrr.png", "name": "nick ramsey", "lang": "en", "profile_background_tile": false, "favourites_count": 4, "screen_name": "nick_ramsey", "notifications": false, "url": "http://thelastword.msnbc.com", "created_at": "Wed Mar 04 07:07:58 +0000 2009", "contributors_enabled": false, "time_zone": "Eastern Time (US & Canada)", "protected": false, "default_profile": false, "is_translator": false}, "geo": null, "in_reply_to_user_id_str": null, "source": "web", "created_at": "Wed May 26 12:55:49 +0000 2010", "retweeted": false, "coordinates": null, "id": 14761141125, "entities": {"user_mentions": [{"id": 759251, "indices": [107, 111], "id_str": "759251", "screen_name": "CNN", "name": "CNN"}], "hashtags": [], "urls": []}, "in_reply_to_status_id_str": null, "in_reply_to_screen_name": null, "id_str": "14761141125", "place": null, "retweet_count": 0, "in_reply_to_user_id": null}
{"favorited": false, "contributors": null, "truncated": false, "text": "hotfordigital: Atlantis shuttle lands at Kennedy http://hotfordigital.com/atlantis-shuttle-lands-at-kennedy", "eid": "TM927", "in_reply_to_status_id": null, "user": {"follow_request_sent": false, "profile_use_background_image": true, "default_profile_image": false, "id": 128896106, "verified": false, "profile_image_url_https": "https://si0.twimg.com/profile_images/793259523/73x73_normal.jpg", "profile_sidebar_fill_color": "DDEEF6", "profile_text_color": "333333", "followers_count": 126, "profile_sidebar_border_color": "C0DEED", "id_str": "128896106", "profile_background_color": "C0DEED", "listed_count": 1, "profile_background_image_url_https": "https://si0.twimg.com/images/themes/theme1/bg.png", "utc_offset": -18000, "statuses_count": 14343, "description": "", "friends_count": 15, "location": "New York, United States", "profile_link_color": "0084B4", "profile_image_url": "http://a0.twimg.com/profile_images/793259523/73x73_normal.jpg", "following": false, "geo_enabled": false, "profile_background_image_url": "http://a0.twimg.com/images/themes/theme1/bg.png", "name": "hotfordigital", "lang": "en", "profile_background_tile": false, "favourites_count": 0, "screen_name": "hotfordigital", "notifications": false, "url": "http://hotfordigital.com", "created_at": "Fri Apr 02 14:44:43 +0000 2010", "contributors_enabled": false, "time_zone": "Quito", "protected": false, "default_profile": true, "is_translator": false}, "geo": null, "in_reply_to_user_id_str": null, "source": "<a href=\"http://www.idmarketing.com.br/post-to-twitter/\" rel=\"nofollow\">Post to Twitter</a>", "created_at": "Wed May 26 12:56:51 +0000 2010", "retweeted": false, "coordinates": null, "id": 14761197786, "entities": {"user_mentions": [], "hashtags": [], "urls": []}, "in_reply_to_status_id_str": null, "in_reply_to_screen_name": null, "id_str": "14761197786", "place": null, "retweet_count": 0, "in_reply_to_user_id": null}
{"favorited": false, "contributors": null, "truncated": false, "text": "@24k #STS132 #SPACE atlantis lands at KSC for the final time? http://twitpic.com/1r8b07", "eid": "TM927", "in_reply_to_status_id": null, "user": {"follow_request_sent": false, "profile_use_background_image": true, "default_profile_image": false, "id": 99614836, "verified": false, "profile_image_url_https": "https://si0.twimg.com/profile_images/594290123/marvincard_normal.jpg", "profile_sidebar_fill_color": "DDEEF6", "profile_text_color": "333333", "followers_count": 35, "profile_sidebar_border_color": "C0DEED", "id_str": "99614836", "profile_background_color": "C0DEED", "listed_count": 5, "profile_background_image_url_https": "https://si0.twimg.com/profile_background_images/65683219/061211-shuttle-photo.jpg", "utc_offset": -18000, "statuses_count": 357, "description": "Systems Support Engineer @ KSC, FL #NASA #Space #KSC", "friends_count": 38, "location": "Kennedy Space Center, FL", "profile_link_color": "0084B4", "profile_image_url": "http://a0.twimg.com/profile_images/594290123/marvincard_normal.jpg", "following": false, "geo_enabled": false, "profile_background_image_url": "http://a0.twimg.com/profile_background_images/65683219/061211-shuttle-photo.jpg", "name": "Marvin Martian", "lang": "en", "profile_background_tile": true, "favourites_count": 0, "screen_name": "Martian_Marvin", "notifications": false, "url": null, "created_at": "Sun Dec 27 01:51:40 +0000 2009", "contributors_enabled": false, "time_zone": "Eastern Time (US & Canada)", "protected": false, "default_profile": false, "is_translator": false}, "geo": null, "in_reply_to_user_id_str": "17145442", "source": "<a href=\"http://twitpic.com\" rel=\"nofollow\">Twitpic</a>", "created_at": "Wed May 26 12:59:48 +0000 2010", "retweeted": false, "coordinates": null, "id": 14761359176, "entities": {"user_mentions": [{"id": 17145442, "indices": [0, 4], "id_str": "17145442", "screen_name": "24k", "name": "Chris Rauschnot"}], "hashtags": [{"indices": [5, 12], "text": "STS132"}, {"indices": [13, 19], "text": "SPACE"}], "urls": []}, "in_reply_to_status_id_str": null, "in_reply_to_screen_name": "24k", "id_str": "14761359176", "place": null, "retweet_count": 0, "in_reply_to_user_id": 17145442}
{"favorited": false, "contributors": null, "truncated": false, "text": "NASA shuttle lands in Florida and immediately listens to Muse http://www.foxnews.com/scitech/2010/05/26/shuttle-atlantis-prepares-landing/", "eid": "TM927", "in_reply_to_status_id": null, "user": {"follow_request_sent": false, "profile_use_background_image": true, "default_profile_image": false, "id": 118652295, "verified": false, "profile_image_url_https": "https://si0.twimg.com/profile_images/1223501172/Chris_normal.gif", "profile_sidebar_fill_color": "13101A", "profile_text_color": "7F51C4", "followers_count": 89, "profile_sidebar_border_color": "0FAFFF", "id_str": "118652295", "profile_background_color": "1DB585", "listed_count": 4, "profile_background_image_url_https": "https://si0.twimg.com/profile_background_images/196386391/MuseAbsolution-300dpi_1_-tile.jpg", "utc_offset": 25200, "statuses_count": 5139, "description": "(~_~\u00bf)", "friends_count": 99, "location": "Gewok City", "profile_link_color": "D941A4", "profile_image_url": "http://a0.twimg.com/profile_images/1223501172/Chris_normal.gif", "following": false, "geo_enabled": true, "profile_background_image_url": "http://a0.twimg.com/profile_background_images/196386391/MuseAbsolution-300dpi_1_-tile.jpg", "name": "\uff0b\u554a\u7684\u963f\u59e8\uff0b", "lang": "en", "profile_background_tile": true, "favourites_count": 30, "screen_name": "341D", "notifications": false, "url": null, "created_at": "Mon Mar 01 10:30:21 +0000 2010", "contributors_enabled": false, "time_zone": "Bangkok", "protected": false, "default_profile": false, "is_translator": false}, "geo": null, "in_reply_to_user_id_str": null, "source": "web", "created_at": "Thu May 27 12:06:05 +0000 2010", "retweeted": false, "coordinates": null, "id": 14829861449, "entities": {"user_mentions": [], "hashtags": [], "urls": []}, "in_reply_to_status_id_str": null, "in_reply_to_screen_name": null, "id_str": "14829861449", "place": null, "retweet_count": 0, "in_reply_to_user_id": null}
{"favorited": false, "contributors": null, "truncated": false, "text": "New From My News Ledger: URGENT: Atlantis Lands for Final Time http://www.mynewsledger.com/2010/05/urgent-atlantis-lands-for-final-time/", "eid": "TM927", "in_reply_to_status_id": null, "user": {"follow_request_sent": false, "profile_use_background_image": true, "default_profile_image": true, "id": 128022910, "verified": false, "profile_image_url_https": "https://si0.twimg.com/sticky/default_profile_images/default_profile_1_normal.png", "profile_sidebar_fill_color": "DDEEF6", "profile_text_color": "333333", "followers_count": 237, "profile_sidebar_border_color": "C0DEED", "id_str": "128022910", "profile_background_color": "C0DEED", "listed_count": 0, "profile_background_image_url_https": "https://si0.twimg.com/images/themes/theme1/bg.png", "utc_offset": null, "statuses_count": 37345, "description": "", "friends_count": 20, "location": "New York", "profile_link_color": "0084B4", "profile_image_url": "http://a0.twimg.com/sticky/default_profile_images/default_profile_1_normal.png", "following": false, "geo_enabled": true, "profile_background_image_url": "http://a0.twimg.com/images/themes/theme1/bg.png", "name": "My News Ledger", "lang": "en", "profile_background_tile": false, "favourites_count": 0, "screen_name": "MyNewsLedgercom", "notifications": false, "url": "http://www.mynewsledger.com", "created_at": "Tue Mar 30 22:05:54 +0000 2010", "contributors_enabled": false, "time_zone": null, "protected": false, "default_profile": true, "is_translator": false}, "geo": null, "in_reply_to_user_id_str": null, "source": "<a href=\"http://alexking.org/projects/wordpress\" rel=\"nofollow\">Twitter Tools</a>", "created_at": "Wed May 26 13:46:34 +0000 2010", "retweeted": false, "coordinates": null, "id": 14764043239, "entities": {"user_mentions": [], "hashtags": [], "urls": []}, "in_reply_to_status_id_str": null, "in_reply_to_screen_name": null, "id_str": "14764043239", "place": null, "retweet_count": 0, "in_reply_to_user_id": null}
{"favorited": false, "contributors": null, "truncated": false, "text": "News: Atlantis shuttle lands at Kennedy http://wwworldnews.com/science/atlantis-shuttle-lands-at-kennedy/", "eid": "TM927", "in_reply_to_status_id": null, "user": {"follow_request_sent": false, "profile_use_background_image": true, "default_profile_image": false, "id": 118261163, "verified": false, "profile_image_url_https": "https://si0.twimg.com/profile_images/722911118/88391_normal.jpg", "profile_sidebar_fill_color": "DDEEF6", "profile_text_color": "333333", "followers_count": 658, "profile_sidebar_border_color": "C0DEED", "id_str": "118261163", "profile_background_color": "C0DEED", "listed_count": 19, "profile_background_image_url_https": "https://si0.twimg.com/images/themes/theme1/bg.png", "utc_offset": null, "statuses_count": 16624, "description": "", "friends_count": 943, "location": "", "profile_link_color": "0084B4", "profile_image_url": "http://a0.twimg.com/profile_images/722911118/88391_normal.jpg", "following": false, "geo_enabled": false, "profile_background_image_url": "http://a0.twimg.com/images/themes/theme1/bg.png", "name": "Jane Johnson", "lang": "en", "profile_background_tile": false, "favourites_count": 0, "screen_name": "wwworldnews", "notifications": false, "url": "http://wwworldnews.com/", "created_at": "Sun Feb 28 03:18:45 +0000 2010", "contributors_enabled": false, "time_zone": null, "protected": false, "default_profile": true, "is_translator": false}, "geo": null, "in_reply_to_user_id_str": null, "source": "<a href=\"http://alexking.org/projects/wordpress\" rel=\"nofollow\">Twitter Tools</a>", "created_at": "Wed May 26 20:00:07 +0000 2010", "retweeted": false, "coordinates": null, "id": 14785019493, "entities": {"user_mentions": [], "hashtags": [], "urls": []}, "in_reply_to_status_id_str": null, "in_reply_to_screen_name": null, "id_str": "14785019493", "place": null, "retweet_count": 0, "in_reply_to_user_id": null}
