{"favorited": false, "contributors": null, "truncated": false, "text": "Apple beats Microsoft - Now most valuable technology company - http://www.readwriteweb.com/archives/apple_to_microsoft_eat_my_dust.php", "eid": "TM950", "in_reply_to_status_id": null, "user": {"follow_request_sent": false, "profile_use_background_image": true, "default_profile_image": false, "id": 15644332, "verified": false, "profile_image_url_https": "https://si0.twimg.com/profile_images/100350728/swk_scribler_normal.jpg", "profile_sidebar_fill_color": "252429", "profile_text_color": "666666", "followers_count": 70, "profile_sidebar_border_color": "000000", "id_str": "15644332", "profile_background_color": "1A1B1F", "listed_count": 0, "profile_background_image_url_https": "https://si0.twimg.com/profile_background_images/704005905/14f747fcce27d9ddc93dd5dab9110733.jpeg", "utc_offset": 3600, "statuses_count": 200, "description": "Project Management Professional, Torah Observant follower of Y'Shua and amateur photographer ", "friends_count": 108, "location": "Netherlands", "profile_link_color": "2FC2EF", "profile_image_url": "http://a0.twimg.com/profile_images/100350728/swk_scribler_normal.jpg", "following": false, "geo_enabled": false, "profile_banner_url": "https://si0.twimg.com/profile_banners/15644332/1352191545", "profile_background_image_url": "http://a0.twimg.com/profile_background_images/704005905/14f747fcce27d9ddc93dd5dab9110733.jpeg", "name": "Schalk Klee", "lang": "en", "profile_background_tile": true, "favourites_count": 12, "screen_name": "schalkklee", "notifications": false, "url": "http://www.setapartpeople.com", "created_at": "Tue Jul 29 09:57:02 +0000 2008", "contributors_enabled": false, "time_zone": "Amsterdam", "protected": false, "default_profile": false, "is_translator": false}, "geo": null, "in_reply_to_user_id_str": null, "source": "<a href=\"http://www.tweetdeck.com\" rel=\"nofollow\">TweetDeck</a>", "created_at": "Fri May 28 07:47:05 +0000 2010", "retweeted": false, "coordinates": null, "id": 14891859703, "entities": {"user_mentions": [], "hashtags": [], "urls": []}, "in_reply_to_status_id_str": null, "in_reply_to_screen_name": null, "id_str": "14891859703", "place": null, "retweet_count": 0, "in_reply_to_user_id": null}
{"favorited": false, "contributors": null, "truncated": false, "text": "http://www.allinfodir.com/tech-news/apple-overtakes-microsoft-in-becoming-the-world-s-biggest-technology-company.html", "eid": "TM950", "in_reply_to_status_id": null, "user": {"follow_request_sent": false, "profile_use_background_image": true, "default_profile_image": false, "id": 125311351, "verified": false, "profile_image_url_https": "https://si0.twimg.com/profile_images/1300515028/1__normal.png", "profile_sidebar_fill_color": "99CC33", "profile_text_color": "3E4415", "followers_count": 620, "profile_sidebar_border_color": "829D5E", "id_str": "125311351", "profile_background_color": "352726", "listed_count": 8, "profile_background_image_url_https": "https://si0.twimg.com/profile_background_images/126708148/Katrina-Kaif-Posing200.gif", "utc_offset": null, "statuses_count": 15089, "description": "", "friends_count": 1245, "location": "pakistan", "profile_link_color": "D02B55", "profile_image_url": "http://a0.twimg.com/profile_images/1300515028/1__normal.png", "following": false, "geo_enabled": true, "profile_background_image_url": "http://a0.twimg.com/profile_background_images/126708148/Katrina-Kaif-Posing200.gif", "name": "johancriss", "lang": "en", "profile_background_tile": true, "favourites_count": 3944, "screen_name": "johancriss", "notifications": false, "url": null, "created_at": "Mon Mar 22 11:58:08 +0000 2010", "contributors_enabled": false, "time_zone": null, "protected": false, "default_profile": false, "is_translator": false}, "geo": null, "in_reply_to_user_id_str": null, "source": "web", "created_at": "Fri May 28 07:57:58 +0000 2010", "retweeted": false, "coordinates": null, "id": 14892231964, "entities": {"user_mentions": [], "hashtags": [], "urls": []}, "in_reply_to_status_id_str": null, "in_reply_to_screen_name": null, "id_str": "14892231964", "place": null, "retweet_count": 0, "in_reply_to_user_id": null}
{"favorited": false, "contributors": null, "truncated": false, "text": "apple become most valuable technology compony beating microsoft", "eid": "TM950", "in_reply_to_status_id": null, "user": {"follow_request_sent": false, "profile_use_background_image": true, "default_profile_image": false, "id": 57663898, "verified": false, "profile_image_url_https": "https://si0.twimg.com/profile_images/1117913898/Jaipur_trip030_normal.jpg", "profile_sidebar_fill_color": "DDEEF6", "profile_text_color": "333333", "followers_count": 35, "profile_sidebar_border_color": "C0DEED", "id_str": "57663898", "profile_background_color": "C0DEED", "listed_count": 1, "profile_background_image_url_https": "https://si0.twimg.com/profile_background_images/144809940/sggs.jpg", "utc_offset": 19800, "statuses_count": 495, "description": "electrical engineer/movie lover/interested in politics/sports fanatic/and at last a human ", "friends_count": 44, "location": "agra", "profile_link_color": "0084B4", "profile_image_url": "http://a0.twimg.com/profile_images/1117913898/Jaipur_trip030_normal.jpg", "following": false, "geo_enabled": true, "profile_background_image_url": "http://a0.twimg.com/profile_background_images/144809940/sggs.jpg", "name": "Arshad khan", "lang": "en", "profile_background_tile": true, "favourites_count": 0, "screen_name": "geniusarshad", "notifications": false, "url": "http://twitter.com/geniusarshad", "created_at": "Fri Jul 17 14:58:48 +0000 2009", "contributors_enabled": false, "time_zone": "New Delhi", "protected": false, "default_profile": false, "is_translator": false}, "geo": null, "in_reply_to_user_id_str": null, "source": "<a href=\"http://m.twitter.com/\" rel=\"nofollow\">mobile web</a>", "created_at": "Fri May 28 05:47:59 +0000 2010", "retweeted": false, "coordinates": null, "id": 14887380372, "entities": {"user_mentions": [], "hashtags": [], "urls": []}, "in_reply_to_status_id_str": null, "in_reply_to_screen_name": null, "id_str": "14887380372", "place": null, "retweet_count": 0, "in_reply_to_user_id": null}
{"favorited": false, "contributors": null, "truncated": false, "text": "#Apple tops #Microsoft in market cap/value: http://money.cnn.com/2010/05/26/technology/apple_microsoft/index.htm?hpt=T2 Wow!", "eid": "TM950", "in_reply_to_status_id": null, "user": {"follow_request_sent": false, "profile_use_background_image": false, "default_profile_image": false, "id": 2690831, "verified": false, "profile_image_url_https": "https://si0.twimg.com/profile_images/929690630/y-upclose_normal.jpg", "profile_sidebar_fill_color": "FFFFFF", "profile_text_color": "0A000A", "followers_count": 1305, "profile_sidebar_border_color": "D17A10", "id_str": "2690831", "profile_background_color": "D96A1A", "listed_count": 74, "profile_background_image_url_https": "https://si0.twimg.com/profile_background_images/21068834/ysnorkel-blue-4.jpg", "utc_offset": -21600, "statuses_count": 6060, "description": "Social computing architect in the clouds at HP.  Introvert. Halo3 online YAMY34. ", "friends_count": 1206, "location": "Cedar Park, Texas", "profile_link_color": "2E439C", "profile_image_url": "http://a0.twimg.com/profile_images/929690630/y-upclose_normal.jpg", "following": false, "geo_enabled": true, "profile_background_image_url": "http://a0.twimg.com/profile_background_images/21068834/ysnorkel-blue-4.jpg", "name": "Ynema Mangum", "lang": "en", "profile_background_tile": false, "favourites_count": 27, "screen_name": "ymangum", "notifications": false, "url": "http://www.linkedin.com/in/ymangum", "created_at": "Wed Mar 28 17:10:19 +0000 2007", "contributors_enabled": false, "time_zone": "Central Time (US & Canada)", "protected": false, "default_profile": false, "is_translator": false}, "geo": null, "in_reply_to_user_id_str": null, "source": "web", "created_at": "Thu May 27 14:06:36 +0000 2010", "retweeted": false, "coordinates": null, "id": 14836654470, "entities": {"user_mentions": [], "hashtags": [{"indices": [0, 6], "text": "Apple"}, {"indices": [12, 22], "text": "Microsoft"}], "urls": []}, "in_reply_to_status_id_str": null, "in_reply_to_screen_name": null, "id_str": "14836654470", "place": null, "retweet_count": 0, "in_reply_to_user_id": null}
{"favorited": false, "contributors": null, "truncated": false, "text": "http://microsoft.kurfa.pl/bez-kategorii/apple-market-capitalization-tops-microsoft-betanews.html", "eid": "TM950", "in_reply_to_status_id": null, "user": {"follow_request_sent": false, "profile_use_background_image": true, "default_profile_image": true, "id": 133664551, "verified": false, "profile_image_url_https": "https://si0.twimg.com/sticky/default_profile_images/default_profile_6_normal.png", "profile_sidebar_fill_color": "DDEEF6", "profile_text_color": "333333", "followers_count": 1188, "profile_sidebar_border_color": "C0DEED", "id_str": "133664551", "profile_background_color": "C0DEED", "listed_count": 10, "profile_background_image_url_https": "https://si0.twimg.com/images/themes/theme1/bg.png", "utc_offset": null, "statuses_count": 165449, "description": "", "friends_count": 0, "location": "", "profile_link_color": "0084B4", "profile_image_url": "http://a0.twimg.com/sticky/default_profile_images/default_profile_6_normal.png", "following": false, "geo_enabled": false, "profile_background_image_url": "http://a0.twimg.com/images/themes/theme1/bg.png", "name": "latestmp3", "lang": "en", "profile_background_tile": false, "favourites_count": 0, "screen_name": "latestmp3", "notifications": false, "url": null, "created_at": "Fri Apr 16 09:58:18 +0000 2010", "contributors_enabled": false, "time_zone": null, "protected": false, "default_profile": true, "is_translator": false}, "geo": null, "in_reply_to_user_id_str": null, "source": "<a href=\"http://dev.twitter.com/\" rel=\"nofollow\">API</a>", "created_at": "Wed May 26 20:58:44 +0000 2010", "retweeted": false, "coordinates": null, "id": 14787896337, "entities": {"user_mentions": [], "hashtags": [], "urls": []}, "in_reply_to_status_id_str": null, "in_reply_to_screen_name": null, "id_str": "14787896337", "place": null, "retweet_count": 0, "in_reply_to_user_id": null}
{"favorited": false, "contributors": null, "truncated": false, "text": "#Apple... more valuable than #Microsoft http://www.businessinsider.com/apple-worth-more-than-microsoft-2010-5 (I can hear sobs all over)", "eid": "TM950", "in_reply_to_status_id": null, "user": {"follow_request_sent": false, "profile_use_background_image": true, "default_profile_image": false, "id": 15386159, "verified": false, "profile_image_url_https": "https://si0.twimg.com/profile_images/619184196/384px-Virginia_42.svg_normal.png", "profile_sidebar_fill_color": "C0DFEC", "profile_text_color": "333333", "followers_count": 157, "profile_sidebar_border_color": "A8C7F7", "id_str": "15386159", "profile_background_color": "022330", "listed_count": 7, "profile_background_image_url_https": "https://si0.twimg.com/images/themes/theme15/bg.png", "utc_offset": -21600, "statuses_count": 1630, "description": "IBM Software Group Services Delivery Manager. Always in the quest of a better espresso.", "friends_count": 270, "location": "MX DF", "profile_link_color": "0084B4", "profile_image_url": "http://a0.twimg.com/profile_images/619184196/384px-Virginia_42.svg_normal.png", "following": false, "geo_enabled": false, "profile_background_image_url": "http://a0.twimg.com/images/themes/theme15/bg.png", "name": "Gerardo Leal", "lang": "en", "profile_background_tile": false, "favourites_count": 16, "screen_name": "gerardoleal", "notifications": false, "url": "http://wefollow.com/gerardoleal", "created_at": "Fri Jul 11 02:12:39 +0000 2008", "contributors_enabled": false, "time_zone": "Central Time (US & Canada)", "protected": false, "default_profile": false, "is_translator": false}, "geo": null, "in_reply_to_user_id_str": null, "source": "<a href=\"http://www.echofon.com/\" rel=\"nofollow\">Echofon</a>", "created_at": "Wed May 26 21:05:16 +0000 2010", "retweeted": false, "coordinates": null, "id": 14788226039, "entities": {"user_mentions": [], "hashtags": [{"indices": [0, 6], "text": "Apple"}, {"indices": [29, 39], "text": "Microsoft"}], "urls": []}, "in_reply_to_status_id_str": null, "in_reply_to_screen_name": null, "id_str": "14788226039", "place": null, "retweet_count": 0, "in_reply_to_user_id": null}
{"favorited": false, "contributors": null, "truncated": false, "text": "Apple tops Microsoft. Duh. http://blogs.wsj.com/digits/2010/05/26/apple-moves-on-top-of-microsoft-in-the-market/", "eid": "TM950", "in_reply_to_status_id": null, "user": {"follow_request_sent": false, "profile_use_background_image": false, "default_profile_image": false, "id": 14775801, "verified": false, "profile_image_url_https": "https://si0.twimg.com/profile_images/2135864571/Kerry_normal.jpg", "profile_sidebar_fill_color": "EAEAEB", "profile_text_color": "333333", "followers_count": 403, "profile_sidebar_border_color": "E8F2E3", "id_str": "14775801", "profile_background_color": "474752", "listed_count": 9, "profile_background_image_url_https": "https://si0.twimg.com/profile_background_images/3768138/_E5J2956p_Gray.jpg", "utc_offset": -21600, "statuses_count": 1561, "description": "I connect with people to create vision and visuals.", "friends_count": 985, "location": "", "profile_link_color": "EB5724", "profile_image_url": "http://a0.twimg.com/profile_images/2135864571/Kerry_normal.jpg", "following": false, "geo_enabled": false, "profile_background_image_url": "http://a0.twimg.com/profile_background_images/3768138/_E5J2956p_Gray.jpg", "name": "Kerry Layton", "lang": "en", "profile_background_tile": false, "favourites_count": 11, "screen_name": "DesignAudit", "notifications": false, "url": null, "created_at": "Wed May 14 17:33:18 +0000 2008", "contributors_enabled": false, "time_zone": "Central Time (US & Canada)", "protected": false, "default_profile": false, "is_translator": false}, "geo": null, "in_reply_to_user_id_str": null, "source": "web", "created_at": "Wed May 26 21:05:40 +0000 2010", "retweeted": false, "coordinates": null, "id": 14788245328, "entities": {"user_mentions": [], "hashtags": [], "urls": []}, "in_reply_to_status_id_str": null, "in_reply_to_screen_name": null, "id_str": "14788245328", "place": null, "retweet_count": 0, "in_reply_to_user_id": null}
{"favorited": false, "contributors": null, "truncated": false, "text": "ComputerWorld| Apple tops Microsoft a... http://www.abhijitkar.com/blackberry/2010/05/computerworld-apple-tops-microsoft-a.html", "eid": "TM950", "in_reply_to_status_id": null, "user": {"follow_request_sent": false, "profile_use_background_image": true, "default_profile_image": false, "id": 114241356, "verified": false, "profile_image_url_https": "https://si0.twimg.com/profile_images/1034839638/Abhijitkar8_normal.jpg", "profile_sidebar_fill_color": "DDEEF6", "profile_text_color": "333333", "followers_count": 33, "profile_sidebar_border_color": "C0DEED", "id_str": "114241356", "profile_background_color": "C0DEED", "listed_count": 0, "profile_background_image_url_https": "https://si0.twimg.com/images/themes/theme1/bg.png", "utc_offset": 19800, "statuses_count": 9310, "description": "Your Daily Food for Thought", "friends_count": 1, "location": "New Delhi", "profile_link_color": "0084B4", "profile_image_url": "http://a0.twimg.com/profile_images/1034839638/Abhijitkar8_normal.jpg", "following": false, "geo_enabled": false, "profile_background_image_url": "http://a0.twimg.com/images/themes/theme1/bg.png", "name": "Abhijit Kar", "lang": "en", "profile_background_tile": false, "favourites_count": 0, "screen_name": "leadership_4U", "notifications": false, "url": "http://www.abhijitkar.com", "created_at": "Sun Feb 14 17:32:40 +0000 2010", "contributors_enabled": false, "time_zone": "New Delhi", "protected": false, "default_profile": true, "is_translator": false}, "geo": null, "in_reply_to_user_id_str": null, "source": "<a href=\"http://www.typepad.com/\" rel=\"nofollow\">TypePad</a>", "created_at": "Wed May 26 21:21:59 +0000 2010", "retweeted": false, "coordinates": null, "id": 14789037157, "entities": {"user_mentions": [], "hashtags": [], "urls": []}, "in_reply_to_status_id_str": null, "in_reply_to_screen_name": null, "id_str": "14789037157", "place": null, "retweet_count": 0, "in_reply_to_user_id": null}
{"favorited": false, "contributors": null, "truncated": false, "text": "http://www.salescount.com/apple-now-more-valuable-than-microsoft/", "eid": "TM950", "in_reply_to_status_id": null, "user": {"follow_request_sent": false, "profile_use_background_image": true, "default_profile_image": true, "id": 104800179, "verified": false, "profile_image_url_https": "https://si0.twimg.com/sticky/default_profile_images/default_profile_1_normal.png", "profile_sidebar_fill_color": "EADEAA", "profile_text_color": "333333", "followers_count": 413, "profile_sidebar_border_color": "D9B17E", "id_str": "104800179", "profile_background_color": "8B542B", "listed_count": 1, "profile_background_image_url_https": "https://si0.twimg.com/images/themes/theme8/bg.gif", "utc_offset": -28800, "statuses_count": 13622, "description": "", "friends_count": 738, "location": "", "profile_link_color": "9D582E", "profile_image_url": "http://a0.twimg.com/sticky/default_profile_images/default_profile_1_normal.png", "following": false, "geo_enabled": false, "profile_background_image_url": "http://a0.twimg.com/images/themes/theme8/bg.gif", "name": "Eri H", "lang": "en", "profile_background_tile": false, "favourites_count": 0, "screen_name": "erihtp", "notifications": false, "url": "http://www.storesoho.com/", "created_at": "Thu Jan 14 12:45:23 +0000 2010", "contributors_enabled": false, "time_zone": "Pacific Time (US & Canada)", "protected": false, "default_profile": false, "is_translator": false}, "geo": null, "in_reply_to_user_id_str": null, "source": "<a href=\"http://dev.twitter.com/\" rel=\"nofollow\">API</a>", "created_at": "Thu May 27 02:12:27 +0000 2010", "retweeted": false, "coordinates": null, "id": 14805035033, "entities": {"user_mentions": [], "hashtags": [], "urls": []}, "in_reply_to_status_id_str": null, "in_reply_to_screen_name": null, "id_str": "14805035033", "place": null, "retweet_count": 0, "in_reply_to_user_id": null}
{"favorited": false, "contributors": null, "truncated": false, "text": "Digital News: Apple tops Microsoft in value http://digital.findtechnews.net/2010/05/26/apple-tops-microsoft-in-value/", "eid": "TM950", "in_reply_to_status_id": null, "user": {"follow_request_sent": false, "profile_use_background_image": true, "default_profile_image": true, "id": 141249872, "verified": false, "profile_image_url_https": "https://si0.twimg.com/sticky/default_profile_images/default_profile_1_normal.png", "profile_sidebar_fill_color": "DDEEF6", "profile_text_color": "333333", "followers_count": 356, "profile_sidebar_border_color": "C0DEED", "id_str": "141249872", "profile_background_color": "C0DEED", "listed_count": 4, "profile_background_image_url_https": "https://si0.twimg.com/images/themes/theme1/bg.png", "utc_offset": null, "statuses_count": 65685, "description": "", "friends_count": 0, "location": "", "profile_link_color": "0084B4", "profile_image_url": "http://a0.twimg.com/sticky/default_profile_images/default_profile_1_normal.png", "following": false, "geo_enabled": false, "profile_background_image_url": "http://a0.twimg.com/images/themes/theme1/bg.png", "name": "FindTechNews", "lang": "en", "profile_background_tile": false, "favourites_count": 0, "screen_name": "FindTechNews", "notifications": false, "url": null, "created_at": "Fri May 07 15:26:06 +0000 2010", "contributors_enabled": false, "time_zone": null, "protected": false, "default_profile": true, "is_translator": false}, "geo": null, "in_reply_to_user_id_str": null, "source": "<a href=\"http://alexking.org/projects/wordpress\" rel=\"nofollow\">Twitter Tools</a>", "created_at": "Wed May 26 23:25:50 +0000 2010", "retweeted": false, "coordinates": null, "id": 14795362049, "entities": {"user_mentions": [], "hashtags": [], "urls": []}, "in_reply_to_status_id_str": null, "in_reply_to_screen_name": null, "id_str": "14795362049", "place": null, "retweet_count": 0, "in_reply_to_user_id": null}
{"favorited": false, "contributors": null, "truncated": false, "text": "techflash: Apple tops Microsoft in value $MSFT - http://www.techflash.com/seattle/2010/05/apple_tops_microsoft_in_value.html?ana=from_rss", "eid": "TM950", "in_reply_to_status_id": null, "user": {"follow_request_sent": false, "profile_use_background_image": true, "default_profile_image": true, "id": 123970995, "verified": false, "profile_image_url_https": "https://si0.twimg.com/sticky/default_profile_images/default_profile_1_normal.png", "profile_sidebar_fill_color": "DDEEF6", "profile_text_color": "333333", "followers_count": 203, "profile_sidebar_border_color": "C0DEED", "id_str": "123970995", "profile_background_color": "C0DEED", "listed_count": 13, "profile_background_image_url_https": "https://si0.twimg.com/images/themes/theme1/bg.png", "utc_offset": null, "statuses_count": 14068, "description": "Microsoft Watch lists the lastest news about everything Microsoft and is part of the TechWatching.com Network", "friends_count": 11, "location": "", "profile_link_color": "0084B4", "profile_image_url": "http://a0.twimg.com/sticky/default_profile_images/default_profile_1_normal.png", "following": false, "geo_enabled": false, "profile_background_image_url": "http://a0.twimg.com/images/themes/theme1/bg.png", "name": "Microsoft Watch", "lang": "en", "profile_background_tile": false, "favourites_count": 0, "screen_name": "microsoft_watch", "notifications": false, "url": "http://microsoftwatch.techwatching.com", "created_at": "Wed Mar 17 20:34:51 +0000 2010", "contributors_enabled": false, "time_zone": null, "protected": false, "default_profile": true, "is_translator": false}, "geo": null, "in_reply_to_user_id_str": null, "source": "<a href=\"http://dev.twitter.com/\" rel=\"nofollow\">API</a>", "created_at": "Wed May 26 21:46:47 +0000 2010", "retweeted": false, "coordinates": null, "id": 14790255847, "entities": {"user_mentions": [], "hashtags": [], "urls": []}, "in_reply_to_status_id_str": null, "in_reply_to_screen_name": null, "id_str": "14790255847", "place": null, "retweet_count": 0, "in_reply_to_user_id": null}
{"favorited": false, "contributors": null, "truncated": false, "text": "Post @ NC:: Apple Replaces Microsoft As \"No.1 Tech Company\" http://www.notcliche.com/lbw/apple-replaces-microsoft-as-no-1-tech-company", "eid": "TM950", "in_reply_to_status_id": null, "user": {"follow_request_sent": false, "profile_use_background_image": true, "default_profile_image": false, "id": 20039487, "verified": false, "profile_image_url_https": "https://si0.twimg.com/profile_images/2579381253/pf3sqgsx1qmc5oy3csji_normal.jpeg", "profile_sidebar_fill_color": "FFFFFF", "profile_text_color": "000000", "followers_count": 200, "profile_sidebar_border_color": "181A1E", "id_str": "20039487", "profile_background_color": "1A1B1F", "listed_count": 8, "profile_background_image_url_https": "https://si0.twimg.com/profile_background_images/93654689/06ff2cf43926bd7d74cfe681d8a8edcc.jpg", "utc_offset": 28800, "statuses_count": 6867, "description": "Something like that.", "friends_count": 99, "location": "Under a Tree!", "profile_link_color": "006887", "profile_image_url": "http://a0.twimg.com/profile_images/2579381253/pf3sqgsx1qmc5oy3csji_normal.jpeg", "following": false, "geo_enabled": true, "profile_background_image_url": "http://a0.twimg.com/profile_background_images/93654689/06ff2cf43926bd7d74cfe681d8a8edcc.jpg", "name": "Nyaato", "lang": "en", "profile_background_tile": false, "favourites_count": 3, "screen_name": "_poring", "notifications": false, "url": "http://notcliche.com", "created_at": "Wed Feb 04 09:15:18 +0000 2009", "contributors_enabled": false, "time_zone": "Singapore", "protected": false, "default_profile": false, "is_translator": false}, "geo": null, "in_reply_to_user_id_str": null, "source": "<a href=\"http://alexking.org/projects/wordpress\" rel=\"nofollow\">Twitter Tools</a>", "created_at": "Fri May 28 07:30:55 +0000 2010", "retweeted": false, "coordinates": null, "id": 14891287597, "entities": {"user_mentions": [], "hashtags": [], "urls": []}, "in_reply_to_status_id_str": null, "in_reply_to_screen_name": null, "id_str": "14891287597", "place": null, "retweet_count": 0, "in_reply_to_user_id": null}
{"favorited": false, "contributors": null, "truncated": false, "text": "http://www.topnews.in/apple-overtakes-microsoft-most-valuable-technology-company-2263144", "eid": "TM950", "in_reply_to_status_id": null, "user": {"follow_request_sent": false, "profile_use_background_image": true, "default_profile_image": false, "id": 42691084, "verified": false, "profile_image_url_https": "https://si0.twimg.com/profile_images/2708923174/11ca57ee2ab9323f1c1b5b8b737114da_normal.png", "profile_sidebar_fill_color": "95E8EC", "profile_text_color": "3C3940", "followers_count": 114, "profile_sidebar_border_color": "5ED4DC", "id_str": "42691084", "profile_background_color": "0099B9", "listed_count": 4, "profile_background_image_url_https": "https://si0.twimg.com/images/themes/theme4/bg.gif", "utc_offset": -18000, "statuses_count": 520, "description": "Solution Architect - (iOS) \nEndeavour Software Inc.  \nThe Mobility Company", "friends_count": 115, "location": "Austin / Bangalore", "profile_link_color": "0099B9", "profile_image_url": "http://a0.twimg.com/profile_images/2708923174/11ca57ee2ab9323f1c1b5b8b737114da_normal.png", "following": false, "geo_enabled": true, "profile_banner_url": "https://si0.twimg.com/profile_banners/42691084/1357011456", "profile_background_image_url": "http://a0.twimg.com/images/themes/theme4/bg.gif", "name": "Ramananda Shetty", "lang": "en", "profile_background_tile": false, "favourites_count": 20, "screen_name": "RamanandaShetty", "notifications": false, "url": "http://iosandi.blogspot.com", "created_at": "Tue May 26 18:56:13 +0000 2009", "contributors_enabled": false, "time_zone": "Eastern Time (US & Canada)", "protected": false, "default_profile": false, "is_translator": false}, "geo": null, "in_reply_to_user_id_str": null, "source": "web", "created_at": "Fri May 28 09:32:26 +0000 2010", "retweeted": false, "coordinates": null, "id": 14895459899, "entities": {"user_mentions": [], "hashtags": [], "urls": []}, "in_reply_to_status_id_str": null, "in_reply_to_screen_name": null, "id_str": "14895459899", "place": null, "retweet_count": 0, "in_reply_to_user_id": null}
{"favorited": false, "contributors": null, "truncated": false, "text": "Mac news updates:: Apple dethrones Microsoft ... http://www.jerryeverywhere.com/apple/ipod/apple-dethrones-microsoft-as-top-us-tech-company", "eid": "TM950", "in_reply_to_status_id": null, "user": {"follow_request_sent": false, "profile_use_background_image": true, "default_profile_image": false, "id": 140296032, "verified": false, "profile_image_url_https": "https://si0.twimg.com/profile_images/874620008/iphone-sexy-sex-hot-girl-ipod-i-phone-i-phone-i-pod-i-pod-cut-price_normal.jpg", "profile_sidebar_fill_color": "DDEEF6", "profile_text_color": "333333", "followers_count": 92, "profile_sidebar_border_color": "C0DEED", "id_str": "140296032", "profile_background_color": "C0DEED", "listed_count": 2, "profile_background_image_url_https": "https://si0.twimg.com/images/themes/theme1/bg.png", "utc_offset": null, "statuses_count": 2297, "description": "I love my mac computer, iphone, ipodtouch, ipad and all other apple products. Here is the place where I spread my joy. ", "friends_count": 21, "location": "New York, NY", "profile_link_color": "0084B4", "profile_image_url": "http://a0.twimg.com/profile_images/874620008/iphone-sexy-sex-hot-girl-ipod-i-phone-i-phone-i-pod-i-pod-cut-price_normal.jpg", "following": false, "geo_enabled": false, "profile_background_image_url": "http://a0.twimg.com/images/themes/theme1/bg.png", "name": "Apple Worship", "lang": "en", "profile_background_tile": false, "favourites_count": 0, "screen_name": "AppleWorship", "notifications": false, "url": null, "created_at": "Wed May 05 04:00:55 +0000 2010", "contributors_enabled": false, "time_zone": null, "protected": false, "default_profile": true, "is_translator": false}, "geo": null, "in_reply_to_user_id_str": null, "source": "<a href=\"http://alexking.org/projects/wordpress\" rel=\"nofollow\">Twitter Tools</a>", "created_at": "Fri May 28 05:05:10 +0000 2010", "retweeted": false, "coordinates": null, "id": 14885573283, "entities": {"user_mentions": [], "hashtags": [], "urls": []}, "in_reply_to_status_id_str": null, "in_reply_to_screen_name": null, "id_str": "14885573283", "place": null, "retweet_count": 0, "in_reply_to_user_id": null}
{"favorited": false, "contributors": null, "truncated": false, "text": "apple tops microsoft in the market: http://blogs.wsj.com/digits/2010/05/26/apple-moves-on-top-of-microsoft-in-the-market/", "eid": "TM950", "in_reply_to_status_id": null, "user": {"follow_request_sent": false, "profile_use_background_image": true, "default_profile_image": false, "id": 18363120, "verified": false, "profile_image_url_https": "https://si0.twimg.com/profile_images/148564295/b3_normal.jpg", "profile_sidebar_fill_color": "252429", "profile_text_color": "666666", "followers_count": 343, "profile_sidebar_border_color": "181A1E", "id_str": "18363120", "profile_background_color": "1A1B1F", "listed_count": 9, "profile_background_image_url_https": "https://si0.twimg.com/images/themes/theme9/bg.gif", "utc_offset": -28800, "statuses_count": 1494, "description": "I'm a record producer and entrepreneur. I run a company called Destiny Collective.", "friends_count": 98, "location": "Nashville", "profile_link_color": "2FC2EF", "profile_image_url": "http://a0.twimg.com/profile_images/148564295/b3_normal.jpg", "following": false, "geo_enabled": true, "profile_background_image_url": "http://a0.twimg.com/images/themes/theme9/bg.gif", "name": "Brandon Metcalf", "lang": "en", "profile_background_tile": false, "favourites_count": 0, "screen_name": "destinybrandon", "notifications": false, "url": "http://www.brandonmetcalf.com", "created_at": "Wed Dec 24 19:16:00 +0000 2008", "contributors_enabled": false, "time_zone": "Pacific Time (US & Canada)", "protected": false, "default_profile": false, "is_translator": false}, "geo": null, "in_reply_to_user_id_str": null, "source": "web", "created_at": "Fri May 28 05:03:18 +0000 2010", "retweeted": false, "coordinates": null, "id": 14885490041, "entities": {"user_mentions": [], "hashtags": [], "urls": []}, "in_reply_to_status_id_str": null, "in_reply_to_screen_name": null, "id_str": "14885490041", "place": null, "retweet_count": 0, "in_reply_to_user_id": null}
{"favorited": false, "contributors": null, "truncated": false, "text": "apple overtake microsoft as world's biggest tech co. based on market value", "eid": "TM950", "in_reply_to_status_id": null, "user": {"follow_request_sent": false, "profile_use_background_image": true, "default_profile_image": false, "id": 84124140, "verified": false, "profile_image_url_https": "https://si0.twimg.com/profile_images/2248493980/Image0193_normal.jpg", "profile_sidebar_fill_color": "DDEEF6", "profile_text_color": "333333", "followers_count": 7, "profile_sidebar_border_color": "C0DEED", "id_str": "84124140", "profile_background_color": "C0DEED", "listed_count": 0, "profile_background_image_url_https": "https://si0.twimg.com/images/themes/theme1/bg.png", "utc_offset": 19800, "statuses_count": 9, "description": "", "friends_count": 12, "location": "Pune", "profile_link_color": "0084B4", "profile_image_url": "http://a0.twimg.com/profile_images/2248493980/Image0193_normal.jpg", "following": false, "geo_enabled": true, "profile_background_image_url": "http://a0.twimg.com/images/themes/theme1/bg.png", "name": "Ketan", "lang": "en", "profile_background_tile": false, "favourites_count": 0, "screen_name": "ketan_db", "notifications": false, "url": null, "created_at": "Wed Oct 21 17:53:10 +0000 2009", "contributors_enabled": false, "time_zone": "Mumbai", "protected": false, "default_profile": true, "is_translator": false}, "geo": null, "in_reply_to_user_id_str": null, "source": "web", "created_at": "Fri May 28 05:07:37 +0000 2010", "retweeted": false, "coordinates": null, "id": 14885683541, "entities": {"user_mentions": [], "hashtags": [], "urls": []}, "in_reply_to_status_id_str": null, "in_reply_to_screen_name": null, "id_str": "14885683541", "place": null, "retweet_count": 0, "in_reply_to_user_id": null}
{"favorited": false, "contributors": null, "truncated": false, "text": "Update: Apple dethrones Microsoft as top US te... http://mypod.fanclubsite.info/ipod-news/apple-dethrones-microsoft-as-top-us-tech-company/", "eid": "TM950", "in_reply_to_status_id": null, "user": {"follow_request_sent": false, "profile_use_background_image": true, "default_profile_image": false, "id": 136237783, "verified": false, "profile_image_url_https": "https://si0.twimg.com/profile_images/845171017/apple-ipod-touch_normal.jpg", "profile_sidebar_fill_color": "EFEFEF", "profile_text_color": "333333", "followers_count": 381, "profile_sidebar_border_color": "EEEEEE", "id_str": "136237783", "profile_background_color": "131516", "listed_count": 9, "profile_background_image_url_https": "https://si0.twimg.com/profile_background_images/94896480/twitter-bg-ipod.jpg", "utc_offset": null, "statuses_count": 2243, "description": "myPod is a fan site dedicated to iPod. We have videos, reviews, products, news and more. If you love your Pod, check us out!", "friends_count": 1350, "location": "USA", "profile_link_color": "009999", "profile_image_url": "http://a0.twimg.com/profile_images/845171017/apple-ipod-touch_normal.jpg", "following": false, "geo_enabled": false, "profile_background_image_url": "http://a0.twimg.com/profile_background_images/94896480/twitter-bg-ipod.jpg", "name": "myPod", "lang": "en", "profile_background_tile": true, "favourites_count": 0, "screen_name": "my_Pod", "notifications": false, "url": "http://mypod.fanclubsite.info", "created_at": "Fri Apr 23 11:20:48 +0000 2010", "contributors_enabled": false, "time_zone": null, "protected": false, "default_profile": false, "is_translator": false}, "geo": null, "in_reply_to_user_id_str": null, "source": "<a href=\"http://alexking.org/projects/wordpress\" rel=\"nofollow\">Twitter Tools</a>", "created_at": "Fri May 28 06:40:13 +0000 2010", "retweeted": false, "coordinates": null, "id": 14889407953, "entities": {"user_mentions": [], "hashtags": [], "urls": []}, "in_reply_to_status_id_str": null, "in_reply_to_screen_name": null, "id_str": "14889407953", "place": null, "retweet_count": 0, "in_reply_to_user_id": null}
{"favorited": false, "contributors": null, "truncated": false, "text": "@eunteuk nothing wrong with being a mac person, apple has now surpassed microsoft as 'the most valuable technology company'. XD", "eid": "TM950", "in_reply_to_status_id": 14886512020, "user": {"follow_request_sent": false, "profile_use_background_image": true, "default_profile_image": false, "id": 12706822, "verified": false, "profile_image_url_https": "https://si0.twimg.com/profile_images/2318599108/6qdbn4zauxtequ3a3ewb_normal.jpeg", "profile_sidebar_fill_color": "FFFFFF", "profile_text_color": "000000", "followers_count": 358, "profile_sidebar_border_color": "FFFFFF", "id_str": "12706822", "profile_background_color": "FFFFFF", "listed_count": 7, "profile_background_image_url_https": "https://si0.twimg.com/profile_background_images/607299056/round_sunglasses.png", "utc_offset": 36000, "statuses_count": 25965, "description": "Interior designer. I like craft, design, food, travel, fashion and dubstep. ", "friends_count": 313, "location": "Melbourne, Australia", "profile_link_color": "000000", "profile_image_url": "http://a0.twimg.com/profile_images/2318599108/6qdbn4zauxtequ3a3ewb_normal.jpeg", "following": false, "geo_enabled": false, "profile_background_image_url": "http://a0.twimg.com/profile_background_images/607299056/round_sunglasses.png", "name": "Kim", "lang": "en", "profile_background_tile": false, "favourites_count": 26, "screen_name": "bravebirdfly", "notifications": false, "url": "http://bravebirdfly.com", "created_at": "Sat Jan 26 02:31:23 +0000 2008", "contributors_enabled": false, "time_zone": "Melbourne", "protected": false, "default_profile": false, "is_translator": false}, "geo": null, "in_reply_to_user_id_str": "41153924", "source": "web", "created_at": "Fri May 28 05:34:37 +0000 2010", "retweeted": false, "coordinates": null, "id": 14886834880, "entities": {"user_mentions": [{"id": 41153924, "indices": [0, 8], "id_str": "41153924", "screen_name": "eunteuk", "name": "Mish"}], "hashtags": [], "urls": []}, "in_reply_to_status_id_str": "14886512020", "in_reply_to_screen_name": "eunteuk", "id_str": "14886834880", "place": null, "retweet_count": 0, "in_reply_to_user_id": 41153924}
{"favorited": false, "contributors": null, "truncated": false, "text": "\"Apple is now worth more than Mister Softee\": http://www.ritholtz.com/blog/2010/05/apple-now-more-valuable-than-microsoft/", "eid": "TM950", "in_reply_to_status_id": null, "user": {"follow_request_sent": false, "profile_use_background_image": false, "default_profile_image": false, "id": 16569045, "verified": false, "profile_image_url_https": "https://si0.twimg.com/profile_images/1286437493/Untitled2_normal.jpg", "profile_sidebar_fill_color": "F8AC54", "profile_text_color": "333333", "followers_count": 4439, "profile_sidebar_border_color": "BDDCAD", "id_str": "16569045", "profile_background_color": "6F8385", "listed_count": 107, "profile_background_image_url_https": "https://si0.twimg.com/images/themes/theme1/bg.png", "utc_offset": 0, "statuses_count": 10399, "description": "Political Scientist at the Social Sciences Institute in Lisbon, Portugal. Elections, voting behavior, public opinion, judicial politics.", "friends_count": 330, "location": "Lisbon, Portugal", "profile_link_color": "0084B4", "profile_image_url": "http://a0.twimg.com/profile_images/1286437493/Untitled2_normal.jpg", "following": false, "geo_enabled": true, "profile_background_image_url": "http://a0.twimg.com/images/themes/theme1/bg.png", "name": "Pedro Magalh\u00e3es", "lang": "en", "profile_background_tile": false, "favourites_count": 10, "screen_name": "PCMagalhaes", "notifications": false, "url": "http://pmdccm.googlepages.com/", "created_at": "Thu Oct 02 23:43:15 +0000 2008", "contributors_enabled": false, "time_zone": "Lisbon", "protected": false, "default_profile": false, "is_translator": false}, "geo": null, "in_reply_to_user_id_str": null, "source": "<a href=\"http://www.twittergadget.com\" rel=\"nofollow\">TwitterGadget</a>", "created_at": "Thu May 27 09:18:28 +0000 2010", "retweeted": false, "coordinates": null, "id": 14823262720, "entities": {"user_mentions": [], "hashtags": [], "urls": []}, "in_reply_to_status_id_str": null, "in_reply_to_screen_name": null, "id_str": "14823262720", "place": null, "retweet_count": 0, "in_reply_to_user_id": null}
{"favorited": false, "contributors": null, "truncated": false, "text": "Tech News: Apple More Valuable Than Microsoft: Does It Matter? http://findtechnews.net/apple-more-valuable-than-microsoft-does-it-matter/", "eid": "TM950", "in_reply_to_status_id": null, "user": {"follow_request_sent": false, "profile_use_background_image": true, "default_profile_image": true, "id": 141249872, "verified": false, "profile_image_url_https": "https://si0.twimg.com/sticky/default_profile_images/default_profile_1_normal.png", "profile_sidebar_fill_color": "DDEEF6", "profile_text_color": "333333", "followers_count": 356, "profile_sidebar_border_color": "C0DEED", "id_str": "141249872", "profile_background_color": "C0DEED", "listed_count": 4, "profile_background_image_url_https": "https://si0.twimg.com/images/themes/theme1/bg.png", "utc_offset": null, "statuses_count": 65685, "description": "", "friends_count": 0, "location": "", "profile_link_color": "0084B4", "profile_image_url": "http://a0.twimg.com/sticky/default_profile_images/default_profile_1_normal.png", "following": false, "geo_enabled": false, "profile_background_image_url": "http://a0.twimg.com/images/themes/theme1/bg.png", "name": "FindTechNews", "lang": "en", "profile_background_tile": false, "favourites_count": 0, "screen_name": "FindTechNews", "notifications": false, "url": null, "created_at": "Fri May 07 15:26:06 +0000 2010", "contributors_enabled": false, "time_zone": null, "protected": false, "default_profile": true, "is_translator": false}, "geo": null, "in_reply_to_user_id_str": null, "source": "<a href=\"http://alexking.org/projects/wordpress\" rel=\"nofollow\">Twitter Tools</a>", "created_at": "Thu May 27 16:31:50 +0000 2010", "retweeted": false, "coordinates": null, "id": 14845324710, "entities": {"user_mentions": [], "hashtags": [], "urls": []}, "in_reply_to_status_id_str": null, "in_reply_to_screen_name": null, "id_str": "14845324710", "place": null, "retweet_count": 0, "in_reply_to_user_id": null}
{"favorited": false, "contributors": null, "truncated": false, "text": "http://thenextweb.com/apple/2010/05/26/apple-surpasses-microsoft-to-become-the-worlds-biggest-tech-company/", "eid": "TM950", "in_reply_to_status_id": null, "user": {"follow_request_sent": false, "profile_use_background_image": true, "default_profile_image": false, "id": 31210619, "verified": false, "profile_image_url_https": "https://si0.twimg.com/profile_images/2352187696/48w28c5qnr126033wgrd_normal.jpeg", "profile_sidebar_fill_color": "252429", "profile_text_color": "666666", "followers_count": 214, "profile_sidebar_border_color": "181A1E", "id_str": "31210619", "profile_background_color": "1A1B1F", "listed_count": 1, "profile_background_image_url_https": "https://si0.twimg.com/profile_background_images/65191613/bktwitter.jpg", "utc_offset": -25200, "statuses_count": 5234, "description": "Amante de la expresi\u00f3n art\u00edstica en todas sus manifestaciones salidas del coraz\u00f3n, DG, Arte, M\u00fasica http://zakalakachimba.blogspot.com/", "friends_count": 427, "location": "planet Earth", "profile_link_color": "2FC2EF", "profile_image_url": "http://a0.twimg.com/profile_images/2352187696/48w28c5qnr126033wgrd_normal.jpeg", "following": false, "geo_enabled": false, "profile_background_image_url": "http://a0.twimg.com/profile_background_images/65191613/bktwitter.jpg", "name": "zaKALAKAchimba    ", "lang": "en", "profile_background_tile": false, "favourites_count": 66, "screen_name": "zakalakachimba", "notifications": false, "url": null, "created_at": "Tue Apr 14 20:03:10 +0000 2009", "contributors_enabled": false, "time_zone": "Mountain Time (US & Canada)", "protected": false, "default_profile": false, "is_translator": false}, "geo": null, "in_reply_to_user_id_str": null, "source": "web", "created_at": "Fri May 28 04:46:51 +0000 2010", "retweeted": false, "coordinates": null, "id": 14884722391, "entities": {"user_mentions": [], "hashtags": [], "urls": []}, "in_reply_to_status_id_str": null, "in_reply_to_screen_name": null, "id_str": "14884722391", "place": null, "retweet_count": 0, "in_reply_to_user_id": null}
{"favorited": false, "contributors": null, "truncated": false, "text": "@AmbrosiaSW what apple is now more valuable than microsoft ... ?", "eid": "TM950", "in_reply_to_status_id": 14783163275, "user": {"follow_request_sent": false, "profile_use_background_image": true, "default_profile_image": false, "id": 129027272, "verified": false, "profile_image_url_https": "https://si0.twimg.com/profile_images/1225524657/fotwiter_normal.png", "profile_sidebar_fill_color": "DDEEF6", "profile_text_color": "333333", "followers_count": 10, "profile_sidebar_border_color": "C0DEED", "id_str": "129027272", "profile_background_color": "C0DEED", "listed_count": 0, "profile_background_image_url_https": "https://si0.twimg.com/images/themes/theme1/bg.png", "utc_offset": null, "statuses_count": 15, "description": "Je suis.", "friends_count": 27, "location": "", "profile_link_color": "0084B4", "profile_image_url": "http://a0.twimg.com/profile_images/1225524657/fotwiter_normal.png", "following": false, "geo_enabled": false, "profile_background_image_url": "http://a0.twimg.com/images/themes/theme1/bg.png", "name": "F\u00e9lix Paradis", "lang": "fr", "profile_background_tile": false, "favourites_count": 0, "screen_name": "foktwiter", "notifications": false, "url": null, "created_at": "Fri Apr 02 23:56:59 +0000 2010", "contributors_enabled": false, "time_zone": null, "protected": false, "default_profile": true, "is_translator": false}, "geo": null, "in_reply_to_user_id_str": "15858016", "source": "web", "created_at": "Thu May 27 22:58:38 +0000 2010", "retweeted": false, "coordinates": null, "id": 14864908763, "entities": {"user_mentions": [{"id": 15858016, "indices": [0, 11], "id_str": "15858016", "screen_name": "AmbrosiaSW", "name": "AmbrosiaSW"}], "hashtags": [], "urls": []}, "in_reply_to_status_id_str": "14783163275", "in_reply_to_screen_name": "AmbrosiaSW", "id_str": "14864908763", "place": null, "retweet_count": 0, "in_reply_to_user_id": 15858016}
{"favorited": false, "contributors": null, "truncated": false, "text": "AAPL is now more valuable than MSFT (higher market cap)!\nhttp://money.cnn.com/2010/05/26/technology/apple_microsoft/index.htm", "eid": "TM950", "in_reply_to_status_id": null, "user": {"follow_request_sent": false, "profile_use_background_image": true, "default_profile_image": false, "id": 20660446, "verified": false, "profile_image_url_https": "https://si0.twimg.com/profile_images/368980823/vancamps_normal.jpg", "profile_sidebar_fill_color": "DDEEF6", "profile_text_color": "333333", "followers_count": 6, "profile_sidebar_border_color": "C0DEED", "id_str": "20660446", "profile_background_color": "C0DEED", "listed_count": 0, "profile_background_image_url_https": "https://si0.twimg.com/images/themes/theme1/bg.png", "utc_offset": null, "statuses_count": 96, "description": "", "friends_count": 1, "location": "", "profile_link_color": "0084B4", "profile_image_url": "http://a0.twimg.com/profile_images/368980823/vancamps_normal.jpg", "following": false, "geo_enabled": false, "profile_background_image_url": "http://a0.twimg.com/images/themes/theme1/bg.png", "name": "HK", "lang": "en", "profile_background_tile": false, "favourites_count": 3, "screen_name": "musicalfruit", "notifications": false, "url": null, "created_at": "Thu Feb 12 07:31:30 +0000 2009", "contributors_enabled": false, "time_zone": null, "protected": false, "default_profile": true, "is_translator": false}, "geo": null, "in_reply_to_user_id_str": null, "source": "web", "created_at": "Thu May 27 06:39:50 +0000 2010", "retweeted": false, "coordinates": null, "id": 14817915925, "entities": {"user_mentions": [], "hashtags": [], "urls": []}, "in_reply_to_status_id_str": null, "in_reply_to_screen_name": null, "id_str": "14817915925", "place": null, "retweet_count": 0, "in_reply_to_user_id": null}
{"favorited": false, "contributors": null, "truncated": false, "text": "http://microsoft.kurfa.pl/bez-kategorii/apple-now-more-valuable-than-microsoft-the-big-picture.html", "eid": "TM950", "in_reply_to_status_id": null, "user": {"follow_request_sent": false, "profile_use_background_image": true, "default_profile_image": true, "id": 133664551, "verified": false, "profile_image_url_https": "https://si0.twimg.com/sticky/default_profile_images/default_profile_6_normal.png", "profile_sidebar_fill_color": "DDEEF6", "profile_text_color": "333333", "followers_count": 1188, "profile_sidebar_border_color": "C0DEED", "id_str": "133664551", "profile_background_color": "C0DEED", "listed_count": 10, "profile_background_image_url_https": "https://si0.twimg.com/images/themes/theme1/bg.png", "utc_offset": null, "statuses_count": 165449, "description": "", "friends_count": 0, "location": "", "profile_link_color": "0084B4", "profile_image_url": "http://a0.twimg.com/sticky/default_profile_images/default_profile_6_normal.png", "following": false, "geo_enabled": false, "profile_background_image_url": "http://a0.twimg.com/images/themes/theme1/bg.png", "name": "latestmp3", "lang": "en", "profile_background_tile": false, "favourites_count": 0, "screen_name": "latestmp3", "notifications": false, "url": null, "created_at": "Fri Apr 16 09:58:18 +0000 2010", "contributors_enabled": false, "time_zone": null, "protected": false, "default_profile": true, "is_translator": false}, "geo": null, "in_reply_to_user_id_str": null, "source": "<a href=\"http://dev.twitter.com/\" rel=\"nofollow\">API</a>", "created_at": "Thu May 27 03:03:52 +0000 2010", "retweeted": false, "coordinates": null, "id": 14808052554, "entities": {"user_mentions": [], "hashtags": [], "urls": []}, "in_reply_to_status_id_str": null, "in_reply_to_screen_name": null, "id_str": "14808052554", "place": null, "retweet_count": 0, "in_reply_to_user_id": null}
{"favorited": false, "contributors": null, "truncated": false, "text": "Apple tops Microsoft! http://money.cnn.com/2010/05/26/technology/apple_microsoft/index.htm?hpt=C1", "eid": "TM950", "in_reply_to_status_id": null, "user": {"follow_request_sent": false, "profile_use_background_image": true, "default_profile_image": false, "id": 25747927, "verified": false, "profile_image_url_https": "https://si0.twimg.com/profile_images/2819650465/403c04310b777c300c6e7d08b4a4f0b3_normal.jpeg", "profile_sidebar_fill_color": "EFEFEF", "profile_text_color": "333333", "followers_count": 167, "profile_sidebar_border_color": "FFFFFF", "id_str": "25747927", "profile_background_color": "131516", "listed_count": 17, "profile_background_image_url_https": "https://si0.twimg.com/images/themes/theme14/bg.gif", "utc_offset": -21600, "statuses_count": 5163, "description": "Twin Cities native. Drake University grad. West Des Moines resident. SEO guy. Mostly tweeting about Minnesota sports. I like to golf.", "friends_count": 342, "location": "West Des Moines, Iowa", "profile_link_color": "0D17D6", "profile_image_url": "http://a0.twimg.com/profile_images/2819650465/403c04310b777c300c6e7d08b4a4f0b3_normal.jpeg", "following": false, "geo_enabled": false, "profile_banner_url": "https://si0.twimg.com/profile_banners/25747927/1347979466", "profile_background_image_url": "http://a0.twimg.com/images/themes/theme14/bg.gif", "name": "Jack Thumser", "lang": "en", "profile_background_tile": true, "favourites_count": 301, "screen_name": "jackthumser", "notifications": false, "url": null, "created_at": "Sat Mar 21 23:41:04 +0000 2009", "contributors_enabled": false, "time_zone": "Central Time (US & Canada)", "protected": false, "default_profile": false, "is_translator": false}, "geo": null, "in_reply_to_user_id_str": null, "source": "web", "created_at": "Thu May 27 04:37:56 +0000 2010", "retweeted": false, "coordinates": null, "id": 14813019049, "entities": {"user_mentions": [], "hashtags": [], "urls": []}, "in_reply_to_status_id_str": null, "in_reply_to_screen_name": null, "id_str": "14813019049", "place": null, "retweet_count": 0, "in_reply_to_user_id": null}
{"favorited": false, "contributors": null, "truncated": false, "text": "Glad, apple beats microsoft as no 1 it company.  Please windows get rid of those service pack things, truly annoying.", "eid": "TM950", "in_reply_to_status_id": null, "user": {"follow_request_sent": false, "profile_use_background_image": true, "default_profile_image": false, "id": 38393770, "verified": false, "profile_image_url_https": "https://si0.twimg.com/profile_images/982018823/me2_normal.gif", "profile_sidebar_fill_color": "616161", "profile_text_color": "000000", "followers_count": 36, "profile_sidebar_border_color": "000000", "id_str": "38393770", "profile_background_color": "000000", "listed_count": 1, "profile_background_image_url_https": "https://si0.twimg.com/profile_background_images/129577077/mqnewyorkmadness.br.jpg", "utc_offset": 25200, "statuses_count": 147, "description": "Truly Lakers fan", "friends_count": 71, "location": "Surabaya, East Java, Indonesia", "profile_link_color": "B6B6B9", "profile_image_url": "http://a0.twimg.com/profile_images/982018823/me2_normal.gif", "following": false, "geo_enabled": false, "profile_background_image_url": "http://a0.twimg.com/profile_background_images/129577077/mqnewyorkmadness.br.jpg", "name": "Wahyu Yudistira", "lang": "en", "profile_background_tile": false, "favourites_count": 0, "screen_name": "wyudistira", "notifications": false, "url": null, "created_at": "Thu May 07 08:02:25 +0000 2009", "contributors_enabled": false, "time_zone": "Jakarta", "protected": false, "default_profile": false, "is_translator": false}, "geo": null, "in_reply_to_user_id_str": null, "source": "<a href=\"http://twitter.com/devices\" rel=\"nofollow\">txt</a>", "created_at": "Fri May 28 03:47:56 +0000 2010", "retweeted": false, "coordinates": null, "id": 14881514548, "entities": {"user_mentions": [], "hashtags": [], "urls": []}, "in_reply_to_status_id_str": null, "in_reply_to_screen_name": null, "id_str": "14881514548", "place": null, "retweet_count": 0, "in_reply_to_user_id": null}
{"favorited": false, "contributors": null, "truncated": false, "text": "#Apple now worth more than #Microsoft\nhttp://www.ritholtz.com/blog/2010/05/apple-now-more-valuable-than-microsoft/", "eid": "TM950", "in_reply_to_status_id": null, "user": {"follow_request_sent": false, "profile_use_background_image": false, "default_profile_image": false, "id": 3985891, "verified": false, "profile_image_url_https": "https://si0.twimg.com/profile_images/1181203781/me2-small_normal.JPG", "profile_sidebar_fill_color": "E0E0E0", "profile_text_color": "3D3D3D", "followers_count": 318, "profile_sidebar_border_color": "E0E0E0", "id_str": "3985891", "profile_background_color": "E0E0E0", "listed_count": 16, "profile_background_image_url_https": "https://si0.twimg.com/images/themes/theme14/bg.gif", "utc_offset": -18000, "statuses_count": 4269, "description": "Mnml. Geek.", "friends_count": 173, "location": "San Francisco", "profile_link_color": "088253", "profile_image_url": "http://a0.twimg.com/profile_images/1181203781/me2-small_normal.JPG", "following": false, "geo_enabled": true, "profile_banner_url": "https://si0.twimg.com/profile_banners/3985891/1352350036", "profile_background_image_url": "http://a0.twimg.com/images/themes/theme14/bg.gif", "name": "William Wolf", "lang": "en", "profile_background_tile": false, "favourites_count": 115, "screen_name": "throughnothing", "notifications": false, "url": "http://throughnothing.com", "created_at": "Tue Apr 10 05:06:33 +0000 2007", "contributors_enabled": false, "time_zone": "Eastern Time (US & Canada)", "protected": false, "default_profile": false, "is_translator": false}, "geo": null, "in_reply_to_user_id_str": null, "source": "<a href=\"http://itunes.apple.com/app/twitter/id333903271?mt=8\" rel=\"nofollow\">Twitter for iPhone</a>", "created_at": "Thu May 27 02:32:23 +0000 2010", "retweeted": false, "coordinates": null, "id": 14806214157, "entities": {"user_mentions": [], "hashtags": [{"indices": [0, 6], "text": "Apple"}, {"indices": [27, 37], "text": "Microsoft"}], "urls": []}, "in_reply_to_status_id_str": null, "in_reply_to_screen_name": null, "id_str": "14806214157", "place": null, "retweet_count": 0, "in_reply_to_user_id": null}
{"favorited": false, "contributors": null, "truncated": false, "text": "Apple's market cap tops Microsoft's.  Will it last? http://money.cnn.com/2010/05/26/technology/apple_microsoft/index.htm", "eid": "TM950", "in_reply_to_status_id": null, "user": {"follow_request_sent": false, "profile_use_background_image": true, "default_profile_image": false, "id": 14350282, "verified": false, "profile_image_url_https": "https://si0.twimg.com/profile_images/667304681/drfacebooklogo_normal.jpg", "profile_sidebar_fill_color": "DDFFCC", "profile_text_color": "333333", "followers_count": 1926, "profile_sidebar_border_color": "BDDCAD", "id_str": "14350282", "profile_background_color": "214E10", "listed_count": 143, "profile_background_image_url_https": "https://si0.twimg.com/profile_background_images/23188665/twitterbg_doughroller.gif", "utc_offset": -18000, "statuses_count": 813, "description": "", "friends_count": 159, "location": "Washington, D.C.", "profile_link_color": "0084B4", "profile_image_url": "http://a0.twimg.com/profile_images/667304681/drfacebooklogo_normal.jpg", "following": false, "geo_enabled": false, "profile_background_image_url": "http://a0.twimg.com/profile_background_images/23188665/twitterbg_doughroller.gif", "name": "Doughroller", "lang": "en", "profile_background_tile": false, "favourites_count": 2, "screen_name": "Doughroller", "notifications": false, "url": "http://www.doughroller.net", "created_at": "Thu Apr 10 11:25:34 +0000 2008", "contributors_enabled": false, "time_zone": "Quito", "protected": false, "default_profile": false, "is_translator": false}, "geo": null, "in_reply_to_user_id_str": null, "source": "<a href=\"http://www.echofon.com/\" rel=\"nofollow\">Echofon</a>", "created_at": "Thu May 27 10:34:32 +0000 2010", "retweeted": false, "coordinates": null, "id": 14825968357, "entities": {"user_mentions": [], "hashtags": [], "urls": []}, "in_reply_to_status_id_str": null, "in_reply_to_screen_name": null, "id_str": "14825968357", "place": null, "retweet_count": 0, "in_reply_to_user_id": null}
{"favorited": false, "contributors": null, "truncated": false, "text": "New king of tech: Apple ... http://telugumint.com/news-updates/general-news/5340-new-king-of-tech-apple-overtakes-microsoft.html", "eid": "TM950", "in_reply_to_status_id": null, "user": {"follow_request_sent": false, "profile_use_background_image": true, "default_profile_image": false, "id": 87375342, "verified": false, "profile_image_url_https": "https://si0.twimg.com/profile_images/761257825/logo_normal.jpg", "profile_sidebar_fill_color": "F6FFD1", "profile_text_color": "333333", "followers_count": 107, "profile_sidebar_border_color": "FFF8AD", "id_str": "87375342", "profile_background_color": "FFF04D", "listed_count": 3, "profile_background_image_url_https": "https://si0.twimg.com/images/themes/theme19/bg.gif", "utc_offset": 23400, "statuses_count": 7158, "description": "", "friends_count": 142, "location": "", "profile_link_color": "0099CC", "profile_image_url": "http://a0.twimg.com/profile_images/761257825/logo_normal.jpg", "following": false, "geo_enabled": false, "profile_background_image_url": "http://a0.twimg.com/images/themes/theme19/bg.gif", "name": "Telugumint", "lang": "en", "profile_background_tile": false, "favourites_count": 0, "screen_name": "telugumint", "notifications": false, "url": "http://www.telugumint.com", "created_at": "Wed Nov 04 05:57:47 +0000 2009", "contributors_enabled": false, "time_zone": "Rangoon", "protected": false, "default_profile": false, "is_translator": false}, "geo": null, "in_reply_to_user_id_str": null, "source": "<a href=\"http://dev.twitter.com/\" rel=\"nofollow\">API</a>", "created_at": "Fri May 28 10:38:29 +0000 2010", "retweeted": false, "coordinates": null, "id": 14897843602, "entities": {"user_mentions": [], "hashtags": [], "urls": []}, "in_reply_to_status_id_str": null, "in_reply_to_screen_name": null, "id_str": "14897843602", "place": null, "retweet_count": 0, "in_reply_to_user_id": null}
{"favorited": false, "contributors": null, "truncated": false, "text": "apple overtakes microsoft and now has highest market cap for a tech company http://bit.ly/aEmOJT", "eid": "TM950", "in_reply_to_status_id": null, "user": {"follow_request_sent": false, "profile_use_background_image": true, "default_profile_image": false, "id": 112469402, "verified": false, "profile_image_url_https": "https://si0.twimg.com/profile_images/1079760859/avatar_normal.jpg", "profile_sidebar_fill_color": "F8F8F6", "profile_text_color": "333333", "followers_count": 2504, "profile_sidebar_border_color": "F8F8F6", "id_str": "112469402", "profile_background_color": "F8F8F6", "listed_count": 78, "profile_background_image_url_https": "https://si0.twimg.com/profile_background_images/123771272/LAST.jpg", "utc_offset": null, "statuses_count": 6657, "description": "covering contemporary culture since 2002", "friends_count": 92, "location": "london", "profile_link_color": "4ED3E7", "profile_image_url": "http://a0.twimg.com/profile_images/1079760859/avatar_normal.jpg", "following": false, "geo_enabled": false, "profile_background_image_url": "http://a0.twimg.com/profile_background_images/123771272/LAST.jpg", "name": "kultureflash", "lang": "en", "profile_background_tile": false, "favourites_count": 343, "screen_name": "kultureflash", "notifications": false, "url": "http://www.kultureflash.net/", "created_at": "Mon Feb 08 16:23:01 +0000 2010", "contributors_enabled": false, "time_zone": null, "protected": false, "default_profile": false, "is_translator": false}, "geo": null, "in_reply_to_user_id_str": null, "source": "web", "created_at": "Fri May 28 11:58:31 +0000 2010", "retweeted": false, "coordinates": null, "id": 14901240650, "entities": {"user_mentions": [], "hashtags": [], "urls": []}, "in_reply_to_status_id_str": null, "in_reply_to_screen_name": null, "id_str": "14901240650", "place": null, "retweet_count": 0, "in_reply_to_user_id": null}
{"favorited": false, "contributors": null, "truncated": false, "text": "Apple the No.1 tech firm: apple beat microsoft to become the best tech-firm in the world. All this is the hard ... http://bit.ly/cgLiZc #fb", "eid": "TM950", "in_reply_to_status_id": null, "user": {"follow_request_sent": false, "profile_use_background_image": true, "default_profile_image": false, "id": 139317833, "verified": false, "profile_image_url_https": "https://si0.twimg.com/profile_images/866743903/close1_normal.jpg", "profile_sidebar_fill_color": "99CC33", "profile_text_color": "3E4415", "followers_count": 3226, "profile_sidebar_border_color": "829D5E", "id_str": "139317833", "profile_background_color": "352726", "listed_count": 55, "profile_background_image_url_https": "https://si0.twimg.com/images/themes/theme5/bg.gif", "utc_offset": null, "statuses_count": 13859, "description": "Watching the Web... I teach journalism and critique the press.", "friends_count": 3661, "location": "New York", "profile_link_color": "D02B55", "profile_image_url": "http://a0.twimg.com/profile_images/866743903/close1_normal.jpg", "following": false, "geo_enabled": false, "profile_background_image_url": "http://a0.twimg.com/images/themes/theme5/bg.gif", "name": "Peter Shankman", "lang": "en", "profile_background_tile": false, "favourites_count": 0, "screen_name": "PShankman", "notifications": false, "url": "http://twitter.com/PShankman", "created_at": "Sun May 02 06:44:16 +0000 2010", "contributors_enabled": false, "time_zone": null, "protected": false, "default_profile": false, "is_translator": false}, "geo": null, "in_reply_to_user_id_str": null, "source": "<a href=\"http://twitterfeed.com\" rel=\"nofollow\">twitterfeed</a>", "created_at": "Fri May 28 07:08:23 +0000 2010", "retweeted": false, "coordinates": null, "id": 14890472196, "entities": {"user_mentions": [], "hashtags": [{"indices": [136, 139], "text": "fb"}], "urls": []}, "in_reply_to_status_id_str": null, "in_reply_to_screen_name": null, "id_str": "14890472196", "place": null, "retweet_count": 0, "in_reply_to_user_id": null}
{"favorited": false, "contributors": null, "truncated": false, "text": "Apple overtakes Microsoft and becomes the largest tech company in the world\nhttp://dvicenews.com/apple-overtakes-microsoft.", "eid": "TM950", "in_reply_to_status_id": null, "user": {"follow_request_sent": false, "profile_use_background_image": true, "default_profile_image": false, "id": 137701798, "verified": false, "profile_image_url_https": "https://si0.twimg.com/profile_images/1509153921/52560_156374321057989_100000562674851_413490_6235834_o_normal.jpg", "profile_sidebar_fill_color": "99CC33", "profile_text_color": "3E4415", "followers_count": 49, "profile_sidebar_border_color": "829D5E", "id_str": "137701798", "profile_background_color": "352726", "listed_count": 0, "profile_background_image_url_https": "https://si0.twimg.com/images/themes/theme5/bg.gif", "utc_offset": null, "statuses_count": 16, "description": "Gaming ethusiast with interest in programming. .\r\nlove to like Java. . ", "friends_count": 74, "location": "Coimbatore, India", "profile_link_color": "D02B55", "profile_image_url": "http://a0.twimg.com/profile_images/1509153921/52560_156374321057989_100000562674851_413490_6235834_o_normal.jpg", "following": false, "geo_enabled": false, "profile_background_image_url": "http://a0.twimg.com/images/themes/theme5/bg.gif", "name": "Kishore Balaji", "lang": "en", "profile_background_tile": false, "favourites_count": 2, "screen_name": "kishoreb17", "notifications": false, "url": null, "created_at": "Tue Apr 27 13:54:43 +0000 2010", "contributors_enabled": false, "time_zone": null, "protected": false, "default_profile": false, "is_translator": false}, "geo": null, "in_reply_to_user_id_str": null, "source": "web", "created_at": "Fri May 28 01:29:30 +0000 2010", "retweeted": false, "coordinates": null, "id": 14873175210, "entities": {"user_mentions": [], "hashtags": [], "urls": []}, "in_reply_to_status_id_str": null, "in_reply_to_screen_name": null, "id_str": "14873175210", "place": null, "retweet_count": 0, "in_reply_to_user_id": null}
{"favorited": false, "contributors": null, "truncated": false, "text": "techflash: Apple tops Microsoft in value $MSFT - http://www.techflash.com/seattle/2010/05/apple_tops_microsoft_in_value.html?ana=from_rss", "eid": "TM950", "in_reply_to_status_id": null, "user": {"follow_request_sent": false, "profile_use_background_image": true, "default_profile_image": true, "id": 125666283, "verified": false, "profile_image_url_https": "https://si0.twimg.com/sticky/default_profile_images/default_profile_1_normal.png", "profile_sidebar_fill_color": "DDEEF6", "profile_text_color": "333333", "followers_count": 535, "profile_sidebar_border_color": "C0DEED", "id_str": "125666283", "profile_background_color": "C0DEED", "listed_count": 15, "profile_background_image_url_https": "https://si0.twimg.com/images/themes/theme1/bg.png", "utc_offset": null, "statuses_count": 36963, "description": "Apple News Watch lists the lastest news about everything Apple and is part of the TechWatching.com Network", "friends_count": 4, "location": "", "profile_link_color": "0084B4", "profile_image_url": "http://a0.twimg.com/sticky/default_profile_images/default_profile_1_normal.png", "following": false, "geo_enabled": false, "profile_background_image_url": "http://a0.twimg.com/images/themes/theme1/bg.png", "name": "Apple Core: News!", "lang": "en", "profile_background_tile": false, "favourites_count": 0, "screen_name": "applenewswatch", "notifications": false, "url": "http://apple.techwatching.com", "created_at": "Tue Mar 23 13:56:38 +0000 2010", "contributors_enabled": false, "time_zone": null, "protected": false, "default_profile": true, "is_translator": false}, "geo": null, "in_reply_to_user_id_str": null, "source": "<a href=\"http://dev.twitter.com/\" rel=\"nofollow\">API</a>", "created_at": "Wed May 26 21:51:07 +0000 2010", "retweeted": false, "coordinates": null, "id": 14790466511, "entities": {"user_mentions": [], "hashtags": [], "urls": []}, "in_reply_to_status_id_str": null, "in_reply_to_screen_name": null, "id_str": "14790466511", "place": null, "retweet_count": 0, "in_reply_to_user_id": null}
{"favorited": false, "contributors": null, "truncated": false, "text": "Apple over takes microsoft as biggest tech firm..apple market capitalization is $222.07 Billion where as microsoft is $219.18", "eid": "TM950", "in_reply_to_status_id": null, "user": {"follow_request_sent": false, "profile_use_background_image": true, "default_profile_image": false, "id": 48659919, "verified": false, "profile_image_url_https": "https://si0.twimg.com/profile_images/2381803944/elz7gk2x9kdvh66z2jsn_normal.jpeg", "profile_sidebar_fill_color": "EFEFEF", "profile_text_color": "333333", "followers_count": 509, "profile_sidebar_border_color": "FFFFFF", "id_str": "48659919", "profile_background_color": "BF1238", "listed_count": 9, "profile_background_image_url_https": "https://si0.twimg.com/images/themes/theme20/bg.png", "utc_offset": 19800, "statuses_count": 2890, "description": "Cheeky, wacky, cranky n Geeky...", "friends_count": 31, "location": "Hyderabad", "profile_link_color": "BF1238", "profile_image_url": "http://a0.twimg.com/profile_images/2381803944/elz7gk2x9kdvh66z2jsn_normal.jpeg", "following": false, "geo_enabled": true, "profile_background_image_url": "http://a0.twimg.com/images/themes/theme20/bg.png", "name": "Mahi Illindra", "lang": "en", "profile_background_tile": false, "favourites_count": 0, "screen_name": "mahimilli", "notifications": false, "url": null, "created_at": "Fri Jun 19 09:27:30 +0000 2009", "contributors_enabled": false, "time_zone": "Chennai", "protected": false, "default_profile": false, "is_translator": false}, "geo": null, "in_reply_to_user_id_str": null, "source": "<a href=\"http://blackberry.com/twitter\" rel=\"nofollow\">Twitter for BlackBerry\u00ae</a>", "created_at": "Fri May 28 09:09:24 +0000 2010", "retweeted": false, "coordinates": null, "id": 14894654682, "entities": {"user_mentions": [], "hashtags": [], "urls": []}, "in_reply_to_status_id_str": null, "in_reply_to_screen_name": null, "id_str": "14894654682", "place": null, "retweet_count": 0, "in_reply_to_user_id": null}
