{"favorited": false, "contributors": null, "truncated": false, "text": "Check this out: Roy Halladay throws perfect http://www.truesportscore.com/forums/mlb/36530-roy-halladay-throws-perfect-game-vs-marlins.html", "eid": "TM976", "in_reply_to_status_id": null, "user": {"follow_request_sent": false, "profile_use_background_image": true, "default_profile_image": false, "id": 82200118, "verified": false, "profile_image_url_https": "https://si0.twimg.com/profile_images/1720722232/logonew_normal.png", "profile_sidebar_fill_color": "C7C7C7", "profile_text_color": "333333", "followers_count": 1043, "profile_sidebar_border_color": "FF1212", "id_str": "82200118", "profile_background_color": "000000", "listed_count": 5, "profile_background_image_url_https": "https://si0.twimg.com/profile_background_images/53652406/TSC.gif", "utc_offset": -18000, "statuses_count": 31019, "description": "True Sports Core is an established web organization for quality MLB, NBA, NFL and NHL sports discussion and sports management challenges!", "friends_count": 1, "location": "The Internet", "profile_link_color": "4A0808", "profile_image_url": "http://a0.twimg.com/profile_images/1720722232/logonew_normal.png", "following": false, "geo_enabled": false, "profile_background_image_url": "http://a0.twimg.com/profile_background_images/53652406/TSC.gif", "name": "TrueSportsCore", "lang": "en", "profile_background_tile": true, "favourites_count": 1, "screen_name": "TrueSportsCore", "notifications": false, "url": "http://www.truesportscore.com", "created_at": "Tue Oct 13 21:44:45 +0000 2009", "contributors_enabled": false, "time_zone": "Quito", "protected": false, "default_profile": false, "is_translator": false}, "geo": null, "in_reply_to_user_id_str": null, "source": "<a href=\"http://www.truesportscore.com/forums\" rel=\"nofollow\">True Sports Core</a>", "created_at": "Sun May 30 02:56:35 +0000 2010", "retweeted": false, "coordinates": null, "id": 15015045360, "entities": {"user_mentions": [], "hashtags": [], "urls": []}, "in_reply_to_status_id_str": null, "in_reply_to_screen_name": null, "id_str": "15015045360", "place": null, "retweet_count": 0, "in_reply_to_user_id": null}
{"favorited": false, "contributors": null, "truncated": false, "text": "Fyi: roy halladay has perfect game threw 6 vs marlins", "eid": "TM976", "in_reply_to_status_id": null, "user": {"follow_request_sent": false, "profile_use_background_image": true, "default_profile_image": true, "id": 92414745, "verified": false, "profile_image_url_https": "https://si0.twimg.com/sticky/default_profile_images/default_profile_3_normal.png", "profile_sidebar_fill_color": "DDEEF6", "profile_text_color": "333333", "followers_count": 15, "profile_sidebar_border_color": "C0DEED", "id_str": "92414745", "profile_background_color": "C0DEED", "listed_count": 0, "profile_background_image_url_https": "https://si0.twimg.com/images/themes/theme1/bg.png", "utc_offset": null, "statuses_count": 376, "description": "", "friends_count": 70, "location": "", "profile_link_color": "0084B4", "profile_image_url": "http://a0.twimg.com/sticky/default_profile_images/default_profile_3_normal.png", "following": false, "geo_enabled": false, "profile_background_image_url": "http://a0.twimg.com/images/themes/theme1/bg.png", "name": "jake", "lang": "en", "profile_background_tile": false, "favourites_count": 0, "screen_name": "nba9222", "notifications": false, "url": null, "created_at": "Wed Nov 25 01:10:44 +0000 2009", "contributors_enabled": false, "time_zone": null, "protected": false, "default_profile": true, "is_translator": false}, "geo": null, "in_reply_to_user_id_str": null, "source": "<a href=\"http://twitter.com/devices\" rel=\"nofollow\">txt</a>", "created_at": "Sun May 30 00:47:53 +0000 2010", "retweeted": false, "coordinates": null, "id": 15008529927, "entities": {"user_mentions": [], "hashtags": [], "urls": []}, "in_reply_to_status_id_str": null, "in_reply_to_screen_name": null, "id_str": "15008529927", "place": null, "retweet_count": 0, "in_reply_to_user_id": null}
{"favorited": false, "contributors": null, "truncated": false, "text": "So I took the fam to marlins-phillies and halladay is perfect thru 6. He can't really do this, can he?", "eid": "TM976", "in_reply_to_status_id": null, "user": {"follow_request_sent": false, "profile_use_background_image": true, "default_profile_image": false, "id": 19273488, "verified": false, "profile_image_url_https": "https://si0.twimg.com/profile_images/3082372991/9038b323f0518b7ccea89313db992bd3_normal.jpeg", "profile_sidebar_fill_color": "252429", "profile_text_color": "666666", "followers_count": 8511, "profile_sidebar_border_color": "181A1E", "id_str": "19273488", "profile_background_color": "1A1B1F", "listed_count": 514, "profile_background_image_url_https": "https://si0.twimg.com/images/themes/theme9/bg.gif", "utc_offset": -18000, "statuses_count": 20512, "description": "Founder of http://miamisportspoll.com. Freelance sportswriter. Former sports columnist at the South Florida Sun Sentinel. Will write for food. ", "friends_count": 3881, "location": "South Florida", "profile_link_color": "2FC2EF", "profile_image_url": "http://a0.twimg.com/profile_images/3082372991/9038b323f0518b7ccea89313db992bd3_normal.jpeg", "following": false, "geo_enabled": true, "profile_background_image_url": "http://a0.twimg.com/images/themes/theme9/bg.gif", "name": "Mike Berardino", "lang": "en", "profile_background_tile": false, "favourites_count": 7, "screen_name": "MikeBerardino", "notifications": false, "url": "http://miamisportspoll.com", "created_at": "Wed Jan 21 03:16:49 +0000 2009", "contributors_enabled": false, "time_zone": "Eastern Time (US & Canada)", "protected": false, "default_profile": false, "is_translator": false}, "geo": null, "in_reply_to_user_id_str": null, "source": "<a href=\"http://twitter.com/devices\" rel=\"nofollow\">txt</a>", "created_at": "Sun May 30 00:43:21 +0000 2010", "retweeted": false, "coordinates": null, "id": 15008321025, "entities": {"user_mentions": [], "hashtags": [], "urls": []}, "in_reply_to_status_id_str": null, "in_reply_to_screen_name": null, "id_str": "15008321025", "place": null, "retweet_count": 0, "in_reply_to_user_id": null}
{"favorited": false, "contributors": null, "truncated": false, "text": "Roy halladay hace el partido perfecto en la victoria de los phillies(o-1) a los marlins.2o perfect game del a\u00f1o", "eid": "TM976", "in_reply_to_status_id": null, "user": {"follow_request_sent": false, "profile_use_background_image": true, "default_profile_image": false, "id": 114763844, "verified": false, "profile_image_url_https": "https://si0.twimg.com/profile_images/2881105871/1506c9a45d9de4f6b9c6c5ca513929ba_normal.png", "profile_sidebar_fill_color": "DDEEF6", "profile_text_color": "333333", "followers_count": 2578, "profile_sidebar_border_color": "FFFFFF", "id_str": "114763844", "profile_background_color": "C0DEED", "listed_count": 97, "profile_background_image_url_https": "https://si0.twimg.com/profile_background_images/130832085/fbgravatar.jpg", "utc_offset": 3600, "statuses_count": 21485, "description": "La \u00fanica web en castellano de los deportes americanos: NFL | College football | NBA | MLB | NHL | College basket | NASCAR | MMA | Motocross | WNBA", "friends_count": 1195, "location": "United States", "profile_link_color": "0084B4", "profile_image_url": "http://a0.twimg.com/profile_images/2881105871/1506c9a45d9de4f6b9c6c5ca513929ba_normal.png", "following": false, "geo_enabled": true, "profile_banner_url": "https://si0.twimg.com/profile_banners/114763844/1353582381", "profile_background_image_url": "http://a0.twimg.com/profile_background_images/130832085/fbgravatar.jpg", "name": "SportsmadeinUSA.com", "lang": "es", "profile_background_tile": true, "favourites_count": 939, "screen_name": "sportsmadeinusa", "notifications": false, "url": "http://sportsmadeinusa.com", "created_at": "Tue Feb 16 14:48:08 +0000 2010", "contributors_enabled": false, "time_zone": "Madrid", "protected": false, "default_profile": false, "is_translator": false}, "geo": null, "in_reply_to_user_id_str": null, "source": "<a href=\"http://blackberry.com/twitter\" rel=\"nofollow\">Twitter for BlackBerry\u00ae</a>", "created_at": "Sun May 30 06:32:00 +0000 2010", "retweeted": false, "coordinates": null, "id": 15025258624, "entities": {"user_mentions": [], "hashtags": [], "urls": []}, "in_reply_to_status_id_str": null, "in_reply_to_screen_name": null, "id_str": "15025258624", "place": null, "retweet_count": 0, "in_reply_to_user_id": null}
{"favorited": false, "contributors": null, "truncated": false, "text": "how about the fact that the marlins had over 25,000 fans at the game? i realize most are phillies fans, but that's as rare as a perfect game", "eid": "TM976", "in_reply_to_status_id": null, "user": {"follow_request_sent": false, "profile_use_background_image": true, "default_profile_image": false, "id": 41248285, "verified": false, "profile_image_url_https": "https://si0.twimg.com/profile_images/3088605361/d944d540fe404e06c2eefe2ac0fd2868_normal.jpeg", "profile_sidebar_fill_color": "DDEEF6", "profile_text_color": "333333", "followers_count": 1367, "profile_sidebar_border_color": "C0DEED", "id_str": "41248285", "profile_background_color": "C0DEED", "listed_count": 73, "profile_background_image_url_https": "https://si0.twimg.com/images/themes/theme1/bg.png", "utc_offset": -18000, "statuses_count": 133148, "description": "If I worry about perfection, then my story will never be told. -@MarkM625", "friends_count": 735, "location": "", "profile_link_color": "0084B4", "profile_image_url": "http://a0.twimg.com/profile_images/3088605361/d944d540fe404e06c2eefe2ac0fd2868_normal.jpeg", "following": false, "geo_enabled": false, "profile_background_image_url": "http://a0.twimg.com/images/themes/theme1/bg.png", "name": "dmc", "lang": "en", "profile_background_tile": false, "favourites_count": 62, "screen_name": "dmc0603", "notifications": false, "url": "http://twitter.com/dmc0603", "created_at": "Wed May 20 00:10:15 +0000 2009", "contributors_enabled": false, "time_zone": "Quito", "protected": false, "default_profile": true, "is_translator": false}, "geo": null, "in_reply_to_user_id_str": null, "source": "web", "created_at": "Sun May 30 05:49:45 +0000 2010", "retweeted": false, "coordinates": null, "id": 15023571466, "entities": {"user_mentions": [], "hashtags": [], "urls": []}, "in_reply_to_status_id_str": null, "in_reply_to_screen_name": null, "id_str": "15023571466", "place": null, "retweet_count": 0, "in_reply_to_user_id": null}
{"favorited": false, "contributors": null, "truncated": false, "text": "Just watched doc halladay throw perfect game against marlins. Dude is legit", "eid": "TM976", "in_reply_to_status_id": null, "user": {"follow_request_sent": false, "profile_use_background_image": true, "default_profile_image": false, "id": 93105959, "verified": false, "profile_image_url_https": "https://si0.twimg.com/profile_images/1838791912/cub527_normal.jpg", "profile_sidebar_fill_color": "252429", "profile_text_color": "666666", "followers_count": 177, "profile_sidebar_border_color": "181A1E", "id_str": "93105959", "profile_background_color": "1A1B1F", "listed_count": 2, "profile_background_image_url_https": "https://si0.twimg.com/images/themes/theme9/bg.gif", "utc_offset": -21600, "statuses_count": 8777, "description": "Sports fan\n\nAtlanta Braves, KC Royals, Wichita Thunder Hockey, KU Jayhawks, Sooners, KC Chiefs & my family. \nI joke a lot so dont take everything so serious", "friends_count": 317, "location": "Kansas", "profile_link_color": "2FC2EF", "profile_image_url": "http://a0.twimg.com/profile_images/1838791912/cub527_normal.jpg", "following": false, "geo_enabled": true, "profile_background_image_url": "http://a0.twimg.com/images/themes/theme9/bg.gif", "name": "Jake Norris", "lang": "en", "profile_background_tile": false, "favourites_count": 18, "screen_name": "cub527", "notifications": false, "url": null, "created_at": "Sat Nov 28 02:57:58 +0000 2009", "contributors_enabled": false, "time_zone": "Central Time (US & Canada)", "protected": false, "default_profile": false, "is_translator": false}, "geo": null, "in_reply_to_user_id_str": null, "source": "<a href=\"http://www.echofon.com/\" rel=\"nofollow\">Echofon</a>", "created_at": "Sun May 30 01:24:37 +0000 2010", "retweeted": false, "coordinates": null, "id": 15010312324, "entities": {"user_mentions": [], "hashtags": [], "urls": []}, "in_reply_to_status_id_str": null, "in_reply_to_screen_name": null, "id_str": "15010312324", "place": null, "retweet_count": 0, "in_reply_to_user_id": null}
{"favorited": false, "contributors": null, "truncated": false, "text": "Roy halladay just threw a perfect game!!!!! Best thing to happen for marlins fans in a while haha", "eid": "TM976", "in_reply_to_status_id": null, "user": {"follow_request_sent": false, "profile_use_background_image": true, "default_profile_image": false, "id": 136127572, "verified": false, "profile_image_url_https": "https://si0.twimg.com/profile_images/1182795769/39579_1287312820623_1164240015_31199141_768861_n_normal.jpg", "profile_sidebar_fill_color": "DDEEF6", "profile_text_color": "333333", "followers_count": 143, "profile_sidebar_border_color": "C0DEED", "id_str": "136127572", "profile_background_color": "C0DEED", "listed_count": 2, "profile_background_image_url_https": "https://si0.twimg.com/images/themes/theme1/bg.png", "utc_offset": -18000, "statuses_count": 5681, "description": "", "friends_count": 204, "location": "", "profile_link_color": "0084B4", "profile_image_url": "http://a0.twimg.com/profile_images/1182795769/39579_1287312820623_1164240015_31199141_768861_n_normal.jpg", "following": false, "geo_enabled": false, "profile_background_image_url": "http://a0.twimg.com/images/themes/theme1/bg.png", "name": "Sim Langa", "lang": "en", "profile_background_tile": false, "favourites_count": 5, "screen_name": "simtastic5", "notifications": false, "url": null, "created_at": "Fri Apr 23 03:01:19 +0000 2010", "contributors_enabled": false, "time_zone": "Quito", "protected": false, "default_profile": true, "is_translator": false}, "geo": null, "in_reply_to_user_id_str": null, "source": "<a href=\"http://blackberry.com/twitter\" rel=\"nofollow\">Twitter for BlackBerry\u00ae</a>", "created_at": "Sun May 30 01:26:25 +0000 2010", "retweeted": false, "coordinates": null, "id": 15010402441, "entities": {"user_mentions": [], "hashtags": [], "urls": []}, "in_reply_to_status_id_str": null, "in_reply_to_screen_name": null, "id_str": "15010402441", "place": null, "retweet_count": 0, "in_reply_to_user_id": null}
{"favorited": false, "contributors": null, "truncated": false, "text": "Was at the game for halladay's perfect game. I'm a marlins fan, but that was cool.", "eid": "TM976", "in_reply_to_status_id": null, "user": {"follow_request_sent": false, "profile_use_background_image": true, "default_profile_image": false, "id": 22513896, "verified": false, "profile_image_url_https": "https://si0.twimg.com/profile_images/1005581724/linkedinpic_normal.jpg", "profile_sidebar_fill_color": "252429", "profile_text_color": "666666", "followers_count": 750, "profile_sidebar_border_color": "181A1E", "id_str": "22513896", "profile_background_color": "1A1B1F", "listed_count": 43, "profile_background_image_url_https": "https://si0.twimg.com/images/themes/theme9/bg.gif", "utc_offset": -18000, "statuses_count": 808, "description": "Manager of Basketball Analytics for the Milwaukee Bucks", "friends_count": 475, "location": "Milwaukee, WI", "profile_link_color": "2FC2EF", "profile_image_url": "http://a0.twimg.com/profile_images/1005581724/linkedinpic_normal.jpg", "following": false, "geo_enabled": true, "profile_background_image_url": "http://a0.twimg.com/images/themes/theme9/bg.gif", "name": "Jon Nichols", "lang": "en", "profile_background_tile": false, "favourites_count": 3, "screen_name": "jon_e_nichols", "notifications": false, "url": null, "created_at": "Mon Mar 02 18:15:18 +0000 2009", "contributors_enabled": false, "time_zone": "Eastern Time (US & Canada)", "protected": false, "default_profile": false, "is_translator": false}, "geo": null, "in_reply_to_user_id_str": null, "source": "<a href=\"http://www.tweetdeck.com/\" rel=\"nofollow\">TweetDeck</a>", "created_at": "Sun May 30 01:26:25 +0000 2010", "retweeted": false, "coordinates": null, "id": 15010402510, "entities": {"user_mentions": [], "hashtags": [], "urls": []}, "in_reply_to_status_id_str": null, "in_reply_to_screen_name": null, "id_str": "15010402510", "place": null, "retweet_count": 0, "in_reply_to_user_id": null}
{"favorited": false, "contributors": null, "truncated": false, "text": "roy halladay just pitched a perfect game thats pretty cool and oh they werent playing tampa they played marlins sorry people", "eid": "TM976", "in_reply_to_status_id": null, "user": {"follow_request_sent": false, "profile_use_background_image": true, "default_profile_image": false, "id": 46259219, "verified": false, "profile_image_url_https": "https://si0.twimg.com/profile_images/3049053018/5dd2cbcc18852f1b8806e0b0dbbd5760_normal.jpeg", "profile_sidebar_fill_color": "7AC3EE", "profile_text_color": "3D1957", "followers_count": 180, "profile_sidebar_border_color": "65B0DA", "id_str": "46259219", "profile_background_color": "642D8B", "listed_count": 0, "profile_background_image_url_https": "https://si0.twimg.com/profile_background_images/312555030/tumblr_lmxaalJFUI1qfgwwmo1_500.jpg", "utc_offset": -18000, "statuses_count": 15660, "description": "Small town guy with big dreams", "friends_count": 144, "location": "Memory Lane", "profile_link_color": "000000", "profile_image_url": "http://a0.twimg.com/profile_images/3049053018/5dd2cbcc18852f1b8806e0b0dbbd5760_normal.jpeg", "following": false, "geo_enabled": false, "profile_banner_url": "https://si0.twimg.com/profile_banners/46259219/1349307243", "profile_background_image_url": "http://a0.twimg.com/profile_background_images/312555030/tumblr_lmxaalJFUI1qfgwwmo1_500.jpg", "name": "Rob Mattioli", "lang": "en", "profile_background_tile": false, "favourites_count": 1284, "screen_name": "BStrong221", "notifications": false, "url": null, "created_at": "Wed Jun 10 23:40:13 +0000 2009", "contributors_enabled": false, "time_zone": "Eastern Time (US & Canada)", "protected": false, "default_profile": false, "is_translator": false}, "geo": null, "in_reply_to_user_id_str": null, "source": "<a href=\"http://twitter.com/devices\" rel=\"nofollow\">txt</a>", "created_at": "Sun May 30 01:26:53 +0000 2010", "retweeted": false, "coordinates": null, "id": 15010425256, "entities": {"user_mentions": [], "hashtags": [], "urls": []}, "in_reply_to_status_id_str": null, "in_reply_to_screen_name": null, "id_str": "15010425256", "place": null, "retweet_count": 0, "in_reply_to_user_id": null}
{"favorited": false, "contributors": null, "truncated": false, "text": "did roy halladay really just throw a perfect game against the marlins.. smh", "eid": "TM976", "in_reply_to_status_id": null, "user": {"follow_request_sent": false, "profile_use_background_image": true, "default_profile_image": false, "id": 126350120, "verified": false, "profile_image_url_https": "https://si0.twimg.com/profile_images/2869489689/c9d50dec0eae568eb81670c2f690d96a_normal.jpeg", "profile_sidebar_fill_color": "DDEEF6", "profile_text_color": "333333", "followers_count": 222, "profile_sidebar_border_color": "C0DEED", "id_str": "126350120", "profile_background_color": "C0DEED", "listed_count": 0, "profile_background_image_url_https": "https://si0.twimg.com/profile_background_images/179343337/204847416.jpg", "utc_offset": -18000, "statuses_count": 19455, "description": "", "friends_count": 146, "location": "Miami", "profile_link_color": "0084B4", "profile_image_url": "http://a0.twimg.com/profile_images/2869489689/c9d50dec0eae568eb81670c2f690d96a_normal.jpeg", "following": false, "geo_enabled": false, "profile_background_image_url": "http://a0.twimg.com/profile_background_images/179343337/204847416.jpg", "name": "Mike Lowreyy", "lang": "en", "profile_background_tile": false, "favourites_count": 40, "screen_name": "kevrozkii", "notifications": false, "url": null, "created_at": "Thu Mar 25 15:43:16 +0000 2010", "contributors_enabled": false, "time_zone": "Eastern Time (US & Canada)", "protected": false, "default_profile": false, "is_translator": false}, "geo": null, "in_reply_to_user_id_str": null, "source": "web", "created_at": "Sun May 30 01:25:09 +0000 2010", "retweeted": false, "coordinates": null, "id": 15010338296, "entities": {"user_mentions": [], "hashtags": [], "urls": []}, "in_reply_to_status_id_str": null, "in_reply_to_screen_name": null, "id_str": "15010338296", "place": null, "retweet_count": 0, "in_reply_to_user_id": null}
{"favorited": false, "contributors": null, "truncated": false, "text": "halladay just pitched a freaking perfect effin game vs the marlins! an effin PERFECT game!", "eid": "TM976", "in_reply_to_status_id": null, "user": {"follow_request_sent": false, "profile_use_background_image": true, "default_profile_image": false, "id": 26917098, "verified": false, "profile_image_url_https": "https://si0.twimg.com/profile_images/678677609/800px-RalphEarnhardtReplica_normal.jpg", "profile_sidebar_fill_color": "DDEEF6", "profile_text_color": "333333", "followers_count": 135, "profile_sidebar_border_color": "C0DEED", "id_str": "26917098", "profile_background_color": "C0DEED", "listed_count": 9, "profile_background_image_url_https": "https://si0.twimg.com/images/themes/theme1/bg.png", "utc_offset": -18000, "statuses_count": 12256, "description": "red: as much a state of mind as a hair color. ", "friends_count": 180, "location": "outside philly PA", "profile_link_color": "0084B4", "profile_image_url": "http://a0.twimg.com/profile_images/678677609/800px-RalphEarnhardtReplica_normal.jpg", "following": false, "geo_enabled": false, "profile_background_image_url": "http://a0.twimg.com/images/themes/theme1/bg.png", "name": "red", "lang": "en", "profile_background_tile": false, "favourites_count": 0, "screen_name": "red8814", "notifications": false, "url": null, "created_at": "Fri Mar 27 01:45:23 +0000 2009", "contributors_enabled": false, "time_zone": "Eastern Time (US & Canada)", "protected": false, "default_profile": false, "is_translator": false}, "geo": null, "in_reply_to_user_id_str": null, "source": "web", "created_at": "Sun May 30 01:25:03 +0000 2010", "retweeted": false, "coordinates": null, "id": 15010333170, "entities": {"user_mentions": [], "hashtags": [], "urls": []}, "in_reply_to_status_id_str": null, "in_reply_to_screen_name": null, "id_str": "15010333170", "place": null, "retweet_count": 0, "in_reply_to_user_id": null}
{"favorited": false, "contributors": null, "truncated": false, "text": "Halladay throws a perfect game against the marlins.", "eid": "TM976", "in_reply_to_status_id": null, "user": {"follow_request_sent": false, "profile_use_background_image": false, "default_profile_image": false, "id": 5975402, "verified": false, "profile_image_url_https": "https://si0.twimg.com/profile_images/1648030481/261726cb-067c-492e-a390-2d06ffcfc273_normal.png", "profile_sidebar_fill_color": "E0FF92", "profile_text_color": "000000", "followers_count": 727, "profile_sidebar_border_color": "87BC44", "id_str": "5975402", "profile_background_color": "9AE4E8", "listed_count": 38, "profile_background_image_url_https": "https://si0.twimg.com/profile_background_images/344710923/community-3-819x1024.jpg", "utc_offset": -18000, "statuses_count": 15083, "description": "Miami Sports. Canes. Heat. Marlins. Dolphins, Music. TV.", "friends_count": 751, "location": "Plantation, FL, USA", "profile_link_color": "0000FF", "profile_image_url": "http://a0.twimg.com/profile_images/1648030481/261726cb-067c-492e-a390-2d06ffcfc273_normal.png", "following": false, "geo_enabled": true, "profile_background_image_url": "http://a0.twimg.com/profile_background_images/344710923/community-3-819x1024.jpg", "name": "Eddie Pombier", "lang": "en", "profile_background_tile": true, "favourites_count": 41403, "screen_name": "djej1", "notifications": false, "url": "http://facebook.com/djej1", "created_at": "Fri May 11 22:19:16 +0000 2007", "contributors_enabled": false, "time_zone": "Eastern Time (US & Canada)", "protected": false, "default_profile": false, "is_translator": false}, "geo": null, "in_reply_to_user_id_str": null, "source": "<a href=\"http://twitter.com/devices\" rel=\"nofollow\">txt</a>", "created_at": "Sun May 30 01:24:46 +0000 2010", "retweeted": false, "coordinates": null, "id": 15010319445, "entities": {"user_mentions": [], "hashtags": [], "urls": []}, "in_reply_to_status_id_str": null, "in_reply_to_screen_name": null, "id_str": "15010319445", "place": null, "retweet_count": 0, "in_reply_to_user_id": null}
{"favorited": false, "contributors": null, "truncated": false, "text": "Congrats roy halladay on your perfect game aganist the marlins #phillies", "eid": "TM976", "in_reply_to_status_id": null, "user": {"follow_request_sent": false, "profile_use_background_image": true, "default_profile_image": false, "id": 19268354, "verified": false, "profile_image_url_https": "https://si0.twimg.com/profile_images/72215585/024_normal.JPG", "profile_sidebar_fill_color": "DDEEF6", "profile_text_color": "333333", "followers_count": 285, "profile_sidebar_border_color": "C0DEED", "id_str": "19268354", "profile_background_color": "C0DEED", "listed_count": 5, "profile_background_image_url_https": "https://si0.twimg.com/images/themes/theme1/bg.png", "utc_offset": null, "statuses_count": 854, "description": "", "friends_count": 1850, "location": "kissimmee", "profile_link_color": "0084B4", "profile_image_url": "http://a0.twimg.com/profile_images/72215585/024_normal.JPG", "following": false, "geo_enabled": true, "profile_background_image_url": "http://a0.twimg.com/images/themes/theme1/bg.png", "name": "john benoit", "lang": "en", "profile_background_tile": false, "favourites_count": 2, "screen_name": "jbenoit37", "notifications": false, "url": null, "created_at": "Wed Jan 21 00:58:04 +0000 2009", "contributors_enabled": false, "time_zone": null, "protected": false, "default_profile": true, "is_translator": false}, "geo": null, "in_reply_to_user_id_str": null, "source": "<a href=\"http://m.twitter.com/\" rel=\"nofollow\">mobile web</a>", "created_at": "Sun May 30 01:28:45 +0000 2010", "retweeted": false, "coordinates": null, "id": 15010517652, "entities": {"user_mentions": [], "hashtags": [{"indices": [63, 72], "text": "phillies"}], "urls": []}, "in_reply_to_status_id_str": null, "in_reply_to_screen_name": null, "id_str": "15010517652", "place": null, "retweet_count": 0, "in_reply_to_user_id": null}
{"favorited": false, "contributors": null, "truncated": false, "text": "He did it he did it a perfect game for roy halladay against the florida marlins! Was great to watch! Congrats ROY HALLADAY!", "eid": "TM976", "in_reply_to_status_id": null, "user": {"follow_request_sent": false, "profile_use_background_image": true, "default_profile_image": false, "id": 31225881, "verified": false, "profile_image_url_https": "https://si0.twimg.com/profile_images/3074155260/a156a19063e8c2d275629bde3864ffb3_normal.jpeg", "profile_sidebar_fill_color": "E0D2B8", "profile_text_color": "005596", "followers_count": 704, "profile_sidebar_border_color": "C6B193", "id_str": "31225881", "profile_background_color": "FFE7C5", "listed_count": 13, "profile_background_image_url_https": "https://si0.twimg.com/profile_background_images/352378411/mlb_cubs_554_69227.jpg", "utc_offset": -21600, "statuses_count": 34021, "description": "my family and friends come 1st. i tweet about sports, television/movies, news/politics. if ya dont like what i have to say unfollow me its that simple. ", "friends_count": 1666, "location": "The Heartland", "profile_link_color": "E31937", "profile_image_url": "http://a0.twimg.com/profile_images/3074155260/a156a19063e8c2d275629bde3864ffb3_normal.jpeg", "following": false, "geo_enabled": false, "profile_banner_url": "https://si0.twimg.com/profile_banners/31225881/1357503655", "profile_background_image_url": "http://a0.twimg.com/profile_background_images/352378411/mlb_cubs_554_69227.jpg", "name": "Sports Fanatic", "lang": "en", "profile_background_tile": false, "favourites_count": 34, "screen_name": "ryan_the_great", "notifications": false, "url": null, "created_at": "Tue Apr 14 21:05:18 +0000 2009", "contributors_enabled": false, "time_zone": "Central Time (US & Canada)", "protected": false, "default_profile": false, "is_translator": false}, "geo": null, "in_reply_to_user_id_str": null, "source": "<a href=\"http://ubertwitter.com\" rel=\"nofollow\">UberTwitter</a>", "created_at": "Sun May 30 01:24:02 +0000 2010", "retweeted": false, "coordinates": null, "id": 15010282801, "entities": {"user_mentions": [], "hashtags": [], "urls": []}, "in_reply_to_status_id_str": null, "in_reply_to_screen_name": null, "id_str": "15010282801", "place": null, "retweet_count": 0, "in_reply_to_user_id": null}
{"favorited": false, "contributors": null, "truncated": false, "text": "Isnt it ironic? Dont u think? RT @ashmoney19: Ahhhhhh Roy halladay perfect game. And whats even better is it's against @Agrav82's marlins.", "eid": "TM976", "in_reply_to_status_id": null, "user": {"follow_request_sent": false, "profile_use_background_image": true, "default_profile_image": false, "id": 25086076, "verified": false, "profile_image_url_https": "https://si0.twimg.com/profile_images/2281710993/e9090m643iso59yela3s_normal.jpeg", "profile_sidebar_fill_color": "BAB6B6", "profile_text_color": "000000", "followers_count": 484, "profile_sidebar_border_color": "000000", "id_str": "25086076", "profile_background_color": "82080C", "listed_count": 12, "profile_background_image_url_https": "https://si0.twimg.com/profile_background_images/412890361/Concords.jpg", "utc_offset": -18000, "statuses_count": 18799, "description": "I put asses in seats for a living.....sneaker enthusiast...music lover.. #Caps , #Wiz , #Skins , #Nats , #Mystics , #Diamondlifer ,  #SupremeTeam ", "friends_count": 784, "location": "The 703", "profile_link_color": "1717E8", "profile_image_url": "http://a0.twimg.com/profile_images/2281710993/e9090m643iso59yela3s_normal.jpeg", "following": false, "geo_enabled": true, "profile_background_image_url": "http://a0.twimg.com/profile_background_images/412890361/Concords.jpg", "name": "Alan Fontane", "lang": "en", "profile_background_tile": true, "favourites_count": 279, "screen_name": "All_Soled_Out", "notifications": false, "url": "http://facebook.com/AlanFontane", "created_at": "Wed Mar 18 15:01:51 +0000 2009", "contributors_enabled": false, "time_zone": "Eastern Time (US & Canada)", "protected": false, "default_profile": false, "is_translator": false}, "geo": null, "in_reply_to_user_id_str": null, "source": "<a href=\"http://www.echofon.com/\" rel=\"nofollow\">Echofon</a>", "created_at": "Sun May 30 01:27:49 +0000 2010", "retweeted": false, "coordinates": null, "id": 15010471751, "entities": {"user_mentions": [{"id": 68448150, "indices": [33, 44], "id_str": "68448150", "screen_name": "ashmoney19", "name": "Ashley Miller"}, {"id": 116793779, "indices": [119, 127], "id_str": "116793779", "screen_name": "Agrav82", "name": "Adam Gravitz"}], "hashtags": [], "urls": []}, "in_reply_to_status_id_str": null, "in_reply_to_screen_name": null, "id_str": "15010471751", "place": null, "retweet_count": 0, "in_reply_to_user_id": null}
{"favorited": false, "contributors": null, "truncated": false, "text": "Watchin the phillies n marlins game .. Halladay pitcher a perfect game so far ...", "eid": "TM976", "in_reply_to_status_id": null, "user": {"follow_request_sent": false, "profile_use_background_image": true, "default_profile_image": false, "id": 24581477, "verified": false, "profile_image_url_https": "https://si0.twimg.com/profile_images/3000679646/1a825b22e5e2f68850ae00e7963db754_normal.jpeg", "profile_sidebar_fill_color": "000000", "profile_text_color": "03A6F2", "followers_count": 1924, "profile_sidebar_border_color": "FFFFFF", "id_str": "24581477", "profile_background_color": "050505", "listed_count": 26, "profile_background_image_url_https": "https://si0.twimg.com/profile_background_images/659730270/67em4d3oyn9orltxhll6.jpeg", "utc_offset": -18000, "statuses_count": 42764, "description": "That Spanish Nigga! \n  Crooks&Castles \n   SOUR.PO$$E\n    \niG. cRoOkLiFe", "friends_count": 357, "location": "By the bodega, NYC ", "profile_link_color": "1F98C7", "profile_image_url": "http://a0.twimg.com/profile_images/3000679646/1a825b22e5e2f68850ae00e7963db754_normal.jpeg", "following": false, "geo_enabled": false, "profile_background_image_url": "http://a0.twimg.com/profile_background_images/659730270/67em4d3oyn9orltxhll6.jpeg", "name": "SOUR.PO$$E\u2122", "lang": "en", "profile_background_tile": true, "favourites_count": 117, "screen_name": "cRoOkLiFe", "notifications": false, "url": "http://Sourposse.tumblr.com/", "created_at": "Sun Mar 15 20:38:29 +0000 2009", "contributors_enabled": false, "time_zone": "Quito", "protected": false, "default_profile": false, "is_translator": false}, "geo": null, "in_reply_to_user_id_str": null, "source": "<a href=\"http://ubertwitter.com\" rel=\"nofollow\">UberTwitter</a>", "created_at": "Sun May 30 01:17:07 +0000 2010", "retweeted": false, "coordinates": null, "id": 15009945044, "entities": {"user_mentions": [], "hashtags": [], "urls": []}, "in_reply_to_status_id_str": null, "in_reply_to_screen_name": null, "id_str": "15009945044", "place": null, "retweet_count": 0, "in_reply_to_user_id": null}
{"favorited": false, "contributors": null, "truncated": false, "text": "Roy Holiday of phillies just pitched a perfect game against the marlins.", "eid": "TM976", "in_reply_to_status_id": null, "user": {"follow_request_sent": false, "profile_use_background_image": true, "default_profile_image": false, "id": 16343809, "verified": false, "profile_image_url_https": "https://si0.twimg.com/profile_images/1982741679/linkedin_adjusted_1_normal.jpg", "profile_sidebar_fill_color": "C5D4A0", "profile_text_color": "0D0C0C", "followers_count": 168, "profile_sidebar_border_color": "BC8044", "id_str": "16343809", "profile_background_color": "DEECED", "listed_count": 10, "profile_background_image_url_https": "https://si0.twimg.com/profile_background_images/182557306/Twitter_Background_2.jpg", "utc_offset": -18000, "statuses_count": 1981, "description": "Everything is 90% half mental. I am a visual artist, using still images and video to document the story of life in Atlanta Georgia & The United States.", "friends_count": 283, "location": "\u00dcT: 34.005224,-84.045493", "profile_link_color": "0000FF", "profile_image_url": "http://a0.twimg.com/profile_images/1982741679/linkedin_adjusted_1_normal.jpg", "following": false, "geo_enabled": true, "profile_background_image_url": "http://a0.twimg.com/profile_background_images/182557306/Twitter_Background_2.jpg", "name": "tomsmarch", "lang": "en", "profile_background_tile": true, "favourites_count": 5, "screen_name": "tomsmarch", "notifications": false, "url": "http://www.tomsmarchphotography.com", "created_at": "Thu Sep 18 06:23:07 +0000 2008", "contributors_enabled": false, "time_zone": "Quito", "protected": false, "default_profile": false, "is_translator": false}, "geo": null, "in_reply_to_user_id_str": null, "source": "<a href=\"http://ubertwitter.com\" rel=\"nofollow\">UberTwitter</a>", "created_at": "Sun May 30 01:23:58 +0000 2010", "retweeted": false, "coordinates": null, "id": 15010279348, "entities": {"user_mentions": [], "hashtags": [], "urls": []}, "in_reply_to_status_id_str": null, "in_reply_to_screen_name": null, "id_str": "15010279348", "place": null, "retweet_count": 0, "in_reply_to_user_id": null}
{"favorited": false, "contributors": null, "truncated": false, "text": "RT @OpieRadio: RT @wwtdd: @OpieRadio perfect game for the philly crew.  halladay 1-0 over the marlins.fuck that (cont) http://tl.gd/1ihasd", "eid": "TM976", "in_reply_to_status_id": null, "user": {"follow_request_sent": false, "profile_use_background_image": true, "default_profile_image": false, "id": 48802234, "verified": false, "profile_image_url_https": "https://si0.twimg.com/profile_images/2196340279/image_normal.jpg", "profile_sidebar_fill_color": "DDEEF6", "profile_text_color": "333333", "followers_count": 27, "profile_sidebar_border_color": "C0DEED", "id_str": "48802234", "profile_background_color": "C0DEED", "listed_count": 0, "profile_background_image_url_https": "https://si0.twimg.com/profile_background_images/111314726/IMG00281.jpg", "utc_offset": -18000, "statuses_count": 92, "description": "Rodgers", "friends_count": 106, "location": "\u00dcT: 46.455815,-81.007569", "profile_link_color": "0084B4", "profile_image_url": "http://a0.twimg.com/profile_images/2196340279/image_normal.jpg", "following": false, "geo_enabled": false, "profile_background_image_url": "http://a0.twimg.com/profile_background_images/111314726/IMG00281.jpg", "name": "Daryl", "lang": "en", "profile_background_tile": true, "favourites_count": 2, "screen_name": "canucky_grasser", "notifications": false, "url": null, "created_at": "Fri Jun 19 19:30:05 +0000 2009", "contributors_enabled": false, "time_zone": "Eastern Time (US & Canada)", "protected": false, "default_profile": false, "is_translator": false}, "geo": null, "in_reply_to_user_id_str": null, "source": "<a href=\"http://ubertwitter.com\" rel=\"nofollow\">UberTwitter</a>", "created_at": "Sun May 30 02:07:24 +0000 2010", "retweeted": false, "coordinates": null, "id": 15012480157, "entities": {"user_mentions": [{"id": 19143584, "indices": [3, 13], "id_str": "19143584", "screen_name": "OpieRadio", "name": "opie radio"}, {"id": 15122553, "indices": [18, 24], "id_str": "15122553", "screen_name": "wwtdd", "name": "wwtdd"}, {"id": 19143584, "indices": [26, 36], "id_str": "19143584", "screen_name": "OpieRadio", "name": "opie radio"}], "hashtags": [], "urls": []}, "in_reply_to_status_id_str": null, "in_reply_to_screen_name": null, "id_str": "15012480157", "place": null, "retweet_count": 0, "in_reply_to_user_id": null}
{"favorited": false, "contributors": null, "truncated": false, "text": "Just found out that roy halladay pitched a perfect game today against the marlins, making that game a top event on espn scorecenter", "eid": "TM976", "in_reply_to_status_id": null, "user": {"follow_request_sent": false, "profile_use_background_image": true, "default_profile_image": false, "id": 111122764, "verified": false, "profile_image_url_https": "https://si0.twimg.com/profile_images/2870568479/6a4ec5ec6b689577479c9b75af53626c_normal.jpeg", "profile_sidebar_fill_color": "DDEEF6", "profile_text_color": "7A0707", "followers_count": 222, "profile_sidebar_border_color": "C0DEED", "id_str": "111122764", "profile_background_color": "030303", "listed_count": 1, "profile_background_image_url_https": "https://si0.twimg.com/profile_background_images/636796175/mm1oudms1ad1l08dix7s.jpeg", "utc_offset": -18000, "statuses_count": 4165, "description": "", "friends_count": 227, "location": "Beast Lansing", "profile_link_color": "0084B4", "profile_image_url": "http://a0.twimg.com/profile_images/2870568479/6a4ec5ec6b689577479c9b75af53626c_normal.jpeg", "following": false, "geo_enabled": false, "profile_banner_url": "https://si0.twimg.com/profile_banners/111122764/1353358469", "profile_background_image_url": "http://a0.twimg.com/profile_background_images/636796175/mm1oudms1ad1l08dix7s.jpeg", "name": "Adam Banchiu", "lang": "en", "profile_background_tile": true, "favourites_count": 48, "screen_name": "ADBanch24", "notifications": false, "url": null, "created_at": "Wed Feb 03 21:56:35 +0000 2010", "contributors_enabled": false, "time_zone": "Quito", "protected": false, "default_profile": false, "is_translator": false}, "geo": null, "in_reply_to_user_id_str": null, "source": "<a href=\"http://twitterrific.com\" rel=\"nofollow\">Twitterrific</a>", "created_at": "Sun May 30 02:03:27 +0000 2010", "retweeted": false, "coordinates": null, "id": 15012275895, "entities": {"user_mentions": [], "hashtags": [], "urls": []}, "in_reply_to_status_id_str": null, "in_reply_to_screen_name": null, "id_str": "15012275895", "place": null, "retweet_count": 0, "in_reply_to_user_id": null}
{"favorited": false, "contributors": null, "truncated": false, "text": "OpieRadio: RT @wwtdd: @OpieRadio perfect game for the philly crew.  halladay 1-0 over the marlins. http://url4.eu/3rPzK", "eid": "TM976", "in_reply_to_status_id": null, "user": {"follow_request_sent": false, "profile_use_background_image": true, "default_profile_image": false, "id": 119879374, "verified": false, "profile_image_url_https": "https://si0.twimg.com/profile_images/1505112947/opie-anthony_normal.jpg", "profile_sidebar_fill_color": "E6E2E1", "profile_text_color": "333333", "followers_count": 17625, "profile_sidebar_border_color": "7D7B7B", "id_str": "119879374", "profile_background_color": "D9D9D9", "listed_count": 166, "profile_background_image_url_https": "https://si0.twimg.com/profile_background_images/315790855/oandashow3.png", "utc_offset": null, "statuses_count": 23866, "description": "A merge of Anthony (@AnthonyCumia), Opie (@OpieRadio) & Jim Norton (@JimNorton) tweets in one spot. Maintained by @mattpeloquin", "friends_count": 36, "location": "New York, NY", "profile_link_color": "99870F", "profile_image_url": "http://a0.twimg.com/profile_images/1505112947/opie-anthony_normal.jpg", "following": false, "geo_enabled": false, "profile_background_image_url": "http://a0.twimg.com/profile_background_images/315790855/oandashow3.png", "name": "Opie & Anthony", "lang": "en", "profile_background_tile": true, "favourites_count": 1, "screen_name": "OandAshow", "notifications": false, "url": "http://www.facebook.com/opieandanthony", "created_at": "Thu Mar 04 21:12:41 +0000 2010", "contributors_enabled": false, "time_zone": null, "protected": false, "default_profile": false, "is_translator": false}, "geo": null, "in_reply_to_user_id_str": null, "source": "<a href=\"http://rss2twitter.com/\" rel=\"nofollow\">RSS2Twitter</a>", "created_at": "Sun May 30 02:06:22 +0000 2010", "retweeted": false, "coordinates": null, "id": 15012427662, "entities": {"user_mentions": [{"id": 15122553, "indices": [14, 20], "id_str": "15122553", "screen_name": "wwtdd", "name": "wwtdd"}, {"id": 19143584, "indices": [22, 32], "id_str": "19143584", "screen_name": "OpieRadio", "name": "opie radio"}], "hashtags": [], "urls": []}, "in_reply_to_status_id_str": null, "in_reply_to_screen_name": null, "id_str": "15012427662", "place": null, "retweet_count": 0, "in_reply_to_user_id": null}
{"favorited": false, "contributors": null, "truncated": false, "text": "Wow Roy Halladay throws a perfect game vs the marlins", "eid": "TM976", "in_reply_to_status_id": null, "user": {"follow_request_sent": false, "profile_use_background_image": true, "default_profile_image": false, "id": 18653324, "verified": false, "profile_image_url_https": "https://si0.twimg.com/profile_images/2302532910/9c3j6oh15vgkxoqh7ydo_normal.jpeg", "profile_sidebar_fill_color": "EFEFEF", "profile_text_color": "333333", "followers_count": 645, "profile_sidebar_border_color": "EEEEEE", "id_str": "18653324", "profile_background_color": "131516", "listed_count": 8, "profile_background_image_url_https": "https://si0.twimg.com/images/themes/theme14/bg.gif", "utc_offset": -18000, "statuses_count": 5693, "description": "Sophomore at Towson University, liberal from the 732. My passion is sports. Yankees. Lakers. NY Giants.", "friends_count": 567, "location": "OB, NJ", "profile_link_color": "009999", "profile_image_url": "http://a0.twimg.com/profile_images/2302532910/9c3j6oh15vgkxoqh7ydo_normal.jpeg", "following": false, "geo_enabled": true, "profile_banner_url": "https://si0.twimg.com/profile_banners/18653324/1348213708", "profile_background_image_url": "http://a0.twimg.com/images/themes/theme14/bg.gif", "name": "Payam Ghassem", "lang": "en", "profile_background_tile": true, "favourites_count": 73, "screen_name": "PayamFr", "notifications": false, "url": null, "created_at": "Tue Jan 06 00:24:49 +0000 2009", "contributors_enabled": false, "time_zone": "Eastern Time (US & Canada)", "protected": false, "default_profile": false, "is_translator": false}, "geo": null, "in_reply_to_user_id_str": null, "source": "<a href=\"http://twitterrific.com\" rel=\"nofollow\">Twitterrific</a>", "created_at": "Sun May 30 01:58:27 +0000 2010", "retweeted": false, "coordinates": null, "id": 15012014255, "entities": {"user_mentions": [], "hashtags": [], "urls": []}, "in_reply_to_status_id_str": null, "in_reply_to_screen_name": null, "id_str": "15012014255", "place": null, "retweet_count": 0, "in_reply_to_user_id": null}
{"favorited": false, "contributors": null, "truncated": false, "text": "Halladay throws perfect game, beats Marlins 1- (http://sportsnewslocal.com/utah/2010/05/30/halladay-throws-perfect-game-beats-marlins-1-0/)", "eid": "TM976", "in_reply_to_status_id": null, "user": {"follow_request_sent": false, "profile_use_background_image": true, "default_profile_image": false, "id": 100591463, "verified": false, "profile_image_url_https": "https://si0.twimg.com/profile_images/601031107/utah_normal.jpg", "profile_sidebar_fill_color": "DDFFCC", "profile_text_color": "333333", "followers_count": 432, "profile_sidebar_border_color": "BDDCAD", "id_str": "100591463", "profile_background_color": "9AE4E8", "listed_count": 14, "profile_background_image_url_https": "https://si0.twimg.com/images/themes/theme16/bg.gif", "utc_offset": -28800, "statuses_count": 18112, "description": "Utah Sports scores and news", "friends_count": 375, "location": "Utah, USA", "profile_link_color": "0084B4", "profile_image_url": "http://a0.twimg.com/profile_images/601031107/utah_normal.jpg", "following": false, "geo_enabled": true, "profile_background_image_url": "http://a0.twimg.com/images/themes/theme16/bg.gif", "name": "Utah Sports", "lang": "en", "profile_background_tile": false, "favourites_count": 0, "screen_name": "utahsportsnews", "notifications": false, "url": "http://sportsnewslocal.com/utah/", "created_at": "Wed Dec 30 20:44:18 +0000 2009", "contributors_enabled": false, "time_zone": "Pacific Time (US & Canada)", "protected": false, "default_profile": false, "is_translator": false}, "geo": null, "in_reply_to_user_id_str": null, "source": "<a href=\"http://www.joedolson.com/articles/wp-to-twitter/\" rel=\"nofollow\">WP to Twitter</a>", "created_at": "Sun May 30 09:19:12 +0000 2010", "retweeted": false, "coordinates": null, "id": 15031130516, "entities": {"user_mentions": [], "hashtags": [], "urls": []}, "in_reply_to_status_id_str": null, "in_reply_to_screen_name": null, "id_str": "15031130516", "place": null, "retweet_count": 0, "in_reply_to_user_id": null}
{"favorited": false, "contributors": null, "truncated": false, "text": "something seems REALLY fishy (no pun intended to halladay nor the marlins) about 2 perfect games in 1 year. #MLB", "eid": "TM976", "in_reply_to_status_id": null, "user": {"follow_request_sent": false, "profile_use_background_image": true, "default_profile_image": false, "id": 60723287, "verified": false, "profile_image_url_https": "https://si0.twimg.com/profile_images/2811400501/8ad632187627a6caf900e41d49c18cc2_normal.jpeg", "profile_sidebar_fill_color": "F7DA93", "profile_text_color": "000000", "followers_count": 224, "profile_sidebar_border_color": "FFFFFF", "id_str": "60723287", "profile_background_color": "000000", "listed_count": 5, "profile_background_image_url_https": "https://si0.twimg.com/profile_background_images/612816871/u8l3adbl15p25x73lhgd.jpeg", "utc_offset": -21600, "statuses_count": 13912, "description": "Controversial sports addict. Love the STL Cardinals, Evansville Aces, and the Tennessee Vols. Instagram: Peppy922", "friends_count": 778, "location": "St. Louis, Missouri", "profile_link_color": "CC3300", "profile_image_url": "http://a0.twimg.com/profile_images/2811400501/8ad632187627a6caf900e41d49c18cc2_normal.jpeg", "following": false, "geo_enabled": true, "profile_banner_url": "https://si0.twimg.com/profile_banners/60723287/1353044848", "profile_background_image_url": "http://a0.twimg.com/profile_background_images/612816871/u8l3adbl15p25x73lhgd.jpeg", "name": "Paul Eppy", "lang": "en", "profile_background_tile": true, "favourites_count": 50, "screen_name": "CardsControl12", "notifications": false, "url": null, "created_at": "Mon Jul 27 22:00:43 +0000 2009", "contributors_enabled": false, "time_zone": "Central Time (US & Canada)", "protected": false, "default_profile": false, "is_translator": false}, "geo": null, "in_reply_to_user_id_str": null, "source": "web", "created_at": "Sun May 30 03:47:32 +0000 2010", "retweeted": false, "coordinates": null, "id": 15017863145, "entities": {"user_mentions": [], "hashtags": [{"indices": [108, 112], "text": "MLB"}], "urls": []}, "in_reply_to_status_id_str": null, "in_reply_to_screen_name": null, "id_str": "15017863145", "place": null, "retweet_count": 0, "in_reply_to_user_id": null}
{"favorited": false, "contributors": null, "truncated": false, "text": "PERFECT game for \"Doc\" Halladay http://www.washingtontimes.com/news/2010/may/29/roy-halladay-throws-perfect-game-beats-marlins-1-0/", "eid": "TM976", "in_reply_to_status_id": null, "user": {"follow_request_sent": false, "profile_use_background_image": true, "default_profile_image": false, "id": 84067649, "verified": false, "profile_image_url_https": "https://si0.twimg.com/profile_images/482879135/Picture_016_normal.jpg", "profile_sidebar_fill_color": "DAECF4", "profile_text_color": "663B12", "followers_count": 50, "profile_sidebar_border_color": "C6E2EE", "id_str": "84067649", "profile_background_color": "C6E2EE", "listed_count": 1, "profile_background_image_url_https": "https://si0.twimg.com/images/themes/theme2/bg.gif", "utc_offset": -18000, "statuses_count": 164, "description": "Married, 2 grown daughters, stewardship pastor, softball, landscaping, historic tours of Phila/Lancaster, PSU, SFA, Forestry, live in Wash DC area", "friends_count": 51, "location": "Springfield, VA", "profile_link_color": "1F98C7", "profile_image_url": "http://a0.twimg.com/profile_images/482879135/Picture_016_normal.jpg", "following": false, "geo_enabled": false, "profile_background_image_url": "http://a0.twimg.com/images/themes/theme2/bg.gif", "name": "Ralph Weitz", "lang": "en", "profile_background_tile": false, "favourites_count": 0, "screen_name": "ralphweitz", "notifications": false, "url": "http://immanuelbible.net", "created_at": "Wed Oct 21 12:19:55 +0000 2009", "contributors_enabled": false, "time_zone": "Eastern Time (US & Canada)", "protected": false, "default_profile": false, "is_translator": false}, "geo": null, "in_reply_to_user_id_str": null, "source": "web", "created_at": "Sun May 30 12:25:31 +0000 2010", "retweeted": false, "coordinates": null, "id": 15037957230, "entities": {"user_mentions": [], "hashtags": [], "urls": []}, "in_reply_to_status_id_str": null, "in_reply_to_screen_name": null, "id_str": "15037957230", "place": null, "retweet_count": 0, "in_reply_to_user_id": null}
{"favorited": false, "contributors": null, "truncated": false, "text": "Saw a complete game! http://bleacherreport.com/articles/398671-philadelphia-phillies-roy-halladay-pitches-perfect-game-against-marlins", "eid": "TM976", "in_reply_to_status_id": null, "user": {"follow_request_sent": false, "profile_use_background_image": true, "default_profile_image": false, "id": 27296085, "verified": false, "profile_image_url_https": "https://si0.twimg.com/profile_images/2505644356/qx84rqn6jlctaum6nfjs_normal.jpeg", "profile_sidebar_fill_color": "DDEEF6", "profile_text_color": "333333", "followers_count": 722, "profile_sidebar_border_color": "C0DEED", "id_str": "27296085", "profile_background_color": "C0DEED", "listed_count": 36, "profile_background_image_url_https": "https://si0.twimg.com/images/themes/theme1/bg.png", "utc_offset": -18000, "statuses_count": 9515, "description": "Miami Herald freelance sports writer. 2011 http://MLB.com associate reporter. Three years w/Miami HEAT. '11 UM grad. Pop culture. Aspiring screenwriter.", "friends_count": 474, "location": "Miami", "profile_link_color": "0084B4", "profile_image_url": "http://a0.twimg.com/profile_images/2505644356/qx84rqn6jlctaum6nfjs_normal.jpeg", "following": false, "geo_enabled": true, "profile_banner_url": "https://si0.twimg.com/profile_banners/27296085/1351474866", "profile_background_image_url": "http://a0.twimg.com/images/themes/theme1/bg.png", "name": "Christina De Nicola", "lang": "en", "profile_background_tile": false, "favourites_count": 4, "screen_name": "CDeNicola13", "notifications": false, "url": "http://christinadenicola13.wordpress.com", "created_at": "Sat Mar 28 19:56:32 +0000 2009", "contributors_enabled": false, "time_zone": "Eastern Time (US & Canada)", "protected": false, "default_profile": true, "is_translator": false}, "geo": null, "in_reply_to_user_id_str": null, "source": "web", "created_at": "Sun May 30 03:34:53 +0000 2010", "retweeted": false, "coordinates": null, "id": 15017193600, "entities": {"user_mentions": [], "hashtags": [], "urls": []}, "in_reply_to_status_id_str": null, "in_reply_to_screen_name": null, "id_str": "15017193600", "place": null, "retweet_count": 0, "in_reply_to_user_id": null}
{"favorited": false, "contributors": null, "truncated": false, "text": "Saw a complete game! http://bleacherreport.com/articles/398671-philadelphia-phillies-roy-halladay-pitches-perfect-game-against-marlins", "eid": "TM976", "in_reply_to_status_id": null, "user": {"follow_request_sent": false, "profile_use_background_image": true, "default_profile_image": false, "id": 61242858, "verified": false, "profile_image_url_https": "https://si0.twimg.com/profile_images/337992601/miami_normal.jpg", "profile_sidebar_fill_color": "DDEEF6", "profile_text_color": "333333", "followers_count": 2949, "profile_sidebar_border_color": "C0DEED", "id_str": "61242858", "profile_background_color": "C0DEED", "listed_count": 124, "profile_background_image_url_https": "https://si0.twimg.com/images/themes/theme1/bg.png", "utc_offset": -18000, "statuses_count": 5791, "description": "Follow the latest news on University of Miami Hurricanes football", "friends_count": 90, "location": "University of Miami", "profile_link_color": "0084B4", "profile_image_url": "http://a0.twimg.com/profile_images/337992601/miami_normal.jpg", "following": false, "geo_enabled": true, "profile_background_image_url": "http://a0.twimg.com/images/themes/theme1/bg.png", "name": "UofM Blogger", "lang": "en", "profile_background_tile": false, "favourites_count": 0, "screen_name": "CanesCampusBlog", "notifications": false, "url": "http://representacc.com/blogs/um/", "created_at": "Wed Jul 29 17:06:56 +0000 2009", "contributors_enabled": false, "time_zone": "Eastern Time (US & Canada)", "protected": false, "default_profile": true, "is_translator": false}, "geo": null, "in_reply_to_user_id_str": null, "source": "web", "created_at": "Sun May 30 03:35:32 +0000 2010", "retweeted": false, "coordinates": null, "id": 15017228835, "entities": {"user_mentions": [], "hashtags": [], "urls": []}, "in_reply_to_status_id_str": null, "in_reply_to_screen_name": null, "id_str": "15017228835", "place": null, "retweet_count": 0, "in_reply_to_user_id": null}
{"favorited": false, "contributors": null, "truncated": false, "text": "Just saw the highlights congrats on the perfect game to halladay against my beloved marlins wish I was there", "eid": "TM976", "in_reply_to_status_id": null, "user": {"follow_request_sent": false, "profile_use_background_image": true, "default_profile_image": false, "id": 32256750, "verified": false, "profile_image_url_https": "https://si0.twimg.com/profile_images/1194985683/229056710_normal.jpg", "profile_sidebar_fill_color": "192305", "profile_text_color": "5156E6", "followers_count": 406, "profile_sidebar_border_color": "22281A", "id_str": "32256750", "profile_background_color": "02030E", "listed_count": 6, "profile_background_image_url_https": "https://si0.twimg.com/profile_background_images/13079314/eric1.jpg", "utc_offset": -18000, "statuses_count": 4271, "description": "Tweeting daily ", "friends_count": 634, "location": "Buffalo, NY", "profile_link_color": "D02B55", "profile_image_url": "http://a0.twimg.com/profile_images/1194985683/229056710_normal.jpg", "following": false, "geo_enabled": false, "profile_background_image_url": "http://a0.twimg.com/profile_background_images/13079314/eric1.jpg", "name": "Eric Balsom", "lang": "en", "profile_background_tile": true, "favourites_count": 5, "screen_name": "ebalsom", "notifications": false, "url": null, "created_at": "Fri Apr 17 02:12:56 +0000 2009", "contributors_enabled": false, "time_zone": "Quito", "protected": false, "default_profile": false, "is_translator": false}, "geo": null, "in_reply_to_user_id_str": null, "source": "<a href=\"http://ubertwitter.com\" rel=\"nofollow\">UberTwitter</a>", "created_at": "Sun May 30 04:05:17 +0000 2010", "retweeted": false, "coordinates": null, "id": 15018773663, "entities": {"user_mentions": [], "hashtags": [], "urls": []}, "in_reply_to_status_id_str": null, "in_reply_to_screen_name": null, "id_str": "15018773663", "place": null, "retweet_count": 0, "in_reply_to_user_id": null}
{"favorited": false, "contributors": null, "truncated": false, "text": "congrats to roy halladay of the phillies, throws the 20th perfect game in mlb history against the marlins", "eid": "TM976", "in_reply_to_status_id": null, "user": {"follow_request_sent": false, "profile_use_background_image": true, "default_profile_image": false, "id": 4450541, "verified": false, "profile_image_url_https": "https://si0.twimg.com/profile_images/3055838353/79f3815fb900419041c0621cf9babdf4_normal.png", "profile_sidebar_fill_color": "CFC4B0", "profile_text_color": "B87872", "followers_count": 812, "profile_sidebar_border_color": "FFFFFF", "id_str": "4450541", "profile_background_color": "FFFFFF", "listed_count": 24, "profile_background_image_url_https": "https://si0.twimg.com/profile_background_images/720818052/58d0e6eb5e359a562ae34541e8fd6ceb.jpeg", "utc_offset": -28800, "statuses_count": 64715, "description": "I hate all of you deeply and equally.", "friends_count": 1585, "location": "Lakewood, CA", "profile_link_color": "025DA4", "profile_image_url": "http://a0.twimg.com/profile_images/3055838353/79f3815fb900419041c0621cf9babdf4_normal.png", "following": false, "geo_enabled": true, "profile_banner_url": "https://si0.twimg.com/profile_banners/4450541/1357149622", "profile_background_image_url": "http://a0.twimg.com/profile_background_images/720818052/58d0e6eb5e359a562ae34541e8fd6ceb.jpeg", "name": "robert_ steburg", "lang": "en", "profile_background_tile": true, "favourites_count": 649, "screen_name": "rowast", "notifications": false, "url": "http://about.me/rowast", "created_at": "Fri Apr 13 04:09:04 +0000 2007", "contributors_enabled": false, "time_zone": "Pacific Time (US & Canada)", "protected": false, "default_profile": false, "is_translator": false}, "geo": null, "in_reply_to_user_id_str": null, "source": "<a href=\"http://www.tweetdeck.com\" rel=\"nofollow\">TweetDeck</a>", "created_at": "Sun May 30 01:30:24 +0000 2010", "retweeted": false, "coordinates": null, "id": 15010602261, "entities": {"user_mentions": [], "hashtags": [], "urls": []}, "in_reply_to_status_id_str": null, "in_reply_to_screen_name": null, "id_str": "15010602261", "place": null, "retweet_count": 0, "in_reply_to_user_id": null}
{"favorited": false, "contributors": null, "truncated": false, "text": "Almost 30k more people *would've* seen #halladay's perfect game in philly - avg marlins attendance 16,832 vs phillies avg 45,114 (via espn)", "eid": "TM976", "in_reply_to_status_id": null, "user": {"follow_request_sent": false, "profile_use_background_image": true, "default_profile_image": false, "id": 14202116, "verified": false, "profile_image_url_https": "https://si0.twimg.com/profile_images/1601171317/IMG_2004_normal.JPG", "profile_sidebar_fill_color": "FFF7CC", "profile_text_color": "0C3E53", "followers_count": 10665, "profile_sidebar_border_color": "F2E195", "id_str": "14202116", "profile_background_color": "BADFCD", "listed_count": 419, "profile_background_image_url_https": "https://si0.twimg.com/profile_background_images/552899767/chillin.jpg", "utc_offset": -18000, "statuses_count": 7655, "description": "ESPN Anchor/Reporter. Fantasy Football Now, OTL, Baseball Tonight, SportsCenter. Bright ideas? ms@michelesteelenow.com", "friends_count": 855, "location": "CT & NY & CHI", "profile_link_color": "FF0000", "profile_image_url": "http://a0.twimg.com/profile_images/1601171317/IMG_2004_normal.JPG", "following": false, "geo_enabled": false, "profile_banner_url": "https://si0.twimg.com/profile_banners/14202116/1357695012", "profile_background_image_url": "http://a0.twimg.com/profile_background_images/552899767/chillin.jpg", "name": "Michele Steele", "lang": "en", "profile_background_tile": true, "favourites_count": 46, "screen_name": "ESPNMichele", "notifications": false, "url": "http://michelesteelenow.com", "created_at": "Sun Mar 23 14:17:06 +0000 2008", "contributors_enabled": false, "time_zone": "Eastern Time (US & Canada)", "protected": false, "default_profile": false, "is_translator": false}, "geo": null, "in_reply_to_user_id_str": null, "source": "web", "created_at": "Sun May 30 01:30:49 +0000 2010", "retweeted": false, "coordinates": null, "id": 15010623430, "entities": {"user_mentions": [], "hashtags": [{"indices": [39, 48], "text": "halladay"}], "urls": []}, "in_reply_to_status_id_str": null, "in_reply_to_screen_name": null, "id_str": "15010623430", "place": null, "retweet_count": 0, "in_reply_to_user_id": null}
{"favorited": false, "contributors": null, "truncated": false, "text": "perfect game for matt halladay! 20th in history 2nd this season 2nd for the phillies & 2nd against the marlins. man, this was a game of 2s!", "eid": "TM976", "in_reply_to_status_id": null, "user": {"follow_request_sent": false, "profile_use_background_image": true, "default_profile_image": false, "id": 15936067, "verified": false, "profile_image_url_https": "https://si0.twimg.com/profile_images/2757168863/e60f0fd7a9f2ac370b56d63d8a2722e2_normal.jpeg", "profile_sidebar_fill_color": "7AC3EE", "profile_text_color": "3D1957", "followers_count": 143, "profile_sidebar_border_color": "65B0DA", "id_str": "15936067", "profile_background_color": "642D8B", "listed_count": 0, "profile_background_image_url_https": "https://si0.twimg.com/images/themes/theme10/bg.gif", "utc_offset": -18000, "statuses_count": 3959, "description": "laissez le bons temps rouler.", "friends_count": 140, "location": "northern virginia ", "profile_link_color": "FF0000", "profile_image_url": "http://a0.twimg.com/profile_images/2757168863/e60f0fd7a9f2ac370b56d63d8a2722e2_normal.jpeg", "following": false, "geo_enabled": false, "profile_background_image_url": "http://a0.twimg.com/images/themes/theme10/bg.gif", "name": "Bayley Brill", "lang": "en", "profile_background_tile": true, "favourites_count": 467, "screen_name": "bayleyrae", "notifications": false, "url": "http://facebook.com/bayfay", "created_at": "Thu Aug 21 19:59:49 +0000 2008", "contributors_enabled": false, "time_zone": "Eastern Time (US & Canada)", "protected": false, "default_profile": false, "is_translator": false}, "geo": null, "in_reply_to_user_id_str": null, "source": "<a href=\"http://www.nambu.com\" rel=\"nofollow\">Nambu</a>", "created_at": "Sun May 30 01:31:01 +0000 2010", "retweeted": false, "coordinates": null, "id": 15010633798, "entities": {"user_mentions": [], "hashtags": [], "urls": []}, "in_reply_to_status_id_str": null, "in_reply_to_screen_name": null, "id_str": "15010633798", "place": null, "retweet_count": 0, "in_reply_to_user_id": null}
{"favorited": false, "contributors": null, "truncated": false, "text": "yay...congrats to roy & the phils!! RT @cnnbrk the phillies roy halladay pitches perfect game vs. marlins http://on.cnn.com/cprZgM", "eid": "TM976", "in_reply_to_status_id": null, "user": {"follow_request_sent": false, "profile_use_background_image": true, "default_profile_image": false, "id": 7354032, "verified": false, "profile_image_url_https": "https://si0.twimg.com/profile_images/2426393432/rv30pbjxrf0mzo643fgs_normal.png", "profile_sidebar_fill_color": "B1DB18", "profile_text_color": "000000", "followers_count": 1138, "profile_sidebar_border_color": "611561", "id_str": "7354032", "profile_background_color": "FFFFFF", "listed_count": 59, "profile_background_image_url_https": "https://si0.twimg.com/profile_background_images/232957435/Picture-1.png", "utc_offset": -28800, "statuses_count": 6846, "description": "a right coaster living on the left coast. lover of fashion, magazines, interiors, architecture, paper & all things design-y", "friends_count": 682, "location": "san-fran-disco", "profile_link_color": "182BD9", "profile_image_url": "http://a0.twimg.com/profile_images/2426393432/rv30pbjxrf0mzo643fgs_normal.png", "following": false, "geo_enabled": false, "profile_banner_url": "https://si0.twimg.com/profile_banners/7354032/1352503316", "profile_background_image_url": "http://a0.twimg.com/profile_background_images/232957435/Picture-1.png", "name": "kim m.", "lang": "en", "profile_background_tile": true, "favourites_count": 167, "screen_name": "kimair", "notifications": false, "url": "http://jadorecouture.org", "created_at": "Mon Jul 09 19:46:18 +0000 2007", "contributors_enabled": false, "time_zone": "Pacific Time (US & Canada)", "protected": false, "default_profile": false, "is_translator": false}, "geo": null, "in_reply_to_user_id_str": null, "source": "web", "created_at": "Sun May 30 01:40:17 +0000 2010", "retweeted": false, "coordinates": null, "id": 15011103922, "entities": {"user_mentions": [{"id": 428333, "indices": [39, 46], "id_str": "428333", "screen_name": "cnnbrk", "name": "CNN Breaking News"}], "hashtags": [], "urls": []}, "in_reply_to_status_id_str": null, "in_reply_to_screen_name": null, "id_str": "15011103922", "place": null, "retweet_count": 0, "in_reply_to_user_id": null}
{"favorited": false, "contributors": null, "truncated": false, "text": "@OpieRadio perfect game for the philly crew.  halladay 1-0 over the marlins.", "eid": "TM976", "in_reply_to_status_id": null, "user": {"follow_request_sent": false, "profile_use_background_image": true, "default_profile_image": false, "id": 15122553, "verified": true, "profile_image_url_https": "https://si0.twimg.com/profile_images/1234521941/gym2_normal.jpg", "profile_sidebar_fill_color": "CCD0D4", "profile_text_color": "333333", "followers_count": 47858, "profile_sidebar_border_color": "C0DEED", "id_str": "15122553", "profile_background_color": "C0DEED", "listed_count": 1122, "profile_background_image_url_https": "https://si0.twimg.com/profile_background_images/43094892/wwtdd_tile.jpg", "utc_offset": -18000, "statuses_count": 4290, "description": "my name is brendon.  i write 'what would tyler durden do'.  not very well, mind you.", "friends_count": 330, "location": "atlanta", "profile_link_color": "0084B4", "profile_image_url": "http://a0.twimg.com/profile_images/1234521941/gym2_normal.jpg", "following": false, "geo_enabled": true, "profile_background_image_url": "http://a0.twimg.com/profile_background_images/43094892/wwtdd_tile.jpg", "name": "wwtdd", "lang": "en", "profile_background_tile": true, "favourites_count": 1, "screen_name": "wwtdd", "notifications": false, "url": "http://www.wwtdd.com/", "created_at": "Sun Jun 15 05:16:50 +0000 2008", "contributors_enabled": false, "time_zone": "Quito", "protected": false, "default_profile": false, "is_translator": false}, "geo": null, "in_reply_to_user_id_str": "19143584", "source": "web", "created_at": "Sun May 30 01:32:20 +0000 2010", "retweeted": false, "coordinates": null, "id": 15010699479, "entities": {"user_mentions": [{"id": 19143584, "indices": [0, 10], "id_str": "19143584", "screen_name": "OpieRadio", "name": "opie radio"}], "hashtags": [], "urls": []}, "in_reply_to_status_id_str": null, "in_reply_to_screen_name": "OpieRadio", "id_str": "15010699479", "place": null, "retweet_count": 2, "in_reply_to_user_id": 19143584}
{"favorited": false, "contributors": null, "truncated": false, "text": "Congrats to Roy halladay on his perfect game, nice one marlins...", "eid": "TM976", "in_reply_to_status_id": null, "user": {"follow_request_sent": false, "profile_use_background_image": true, "default_profile_image": false, "id": 23882869, "verified": false, "profile_image_url_https": "https://si0.twimg.com/profile_images/3123360081/d18681250ee50e814d4517e5adb67b86_normal.jpeg", "profile_sidebar_fill_color": "FA52B0", "profile_text_color": "000000", "followers_count": 555, "profile_sidebar_border_color": "FDC9FA", "id_str": "23882869", "profile_background_color": "F6468E", "listed_count": 39, "profile_background_image_url_https": "https://si0.twimg.com/profile_background_images/155624996/blue_damask.jpg", "utc_offset": -18000, "statuses_count": 12506, "description": "You can follow me on twitter but not in real life.", "friends_count": 149, "location": "Sunny, FL", "profile_link_color": "000000", "profile_image_url": "http://a0.twimg.com/profile_images/3123360081/d18681250ee50e814d4517e5adb67b86_normal.jpeg", "following": false, "geo_enabled": true, "profile_banner_url": "https://si0.twimg.com/profile_banners/23882869/1349885676", "profile_background_image_url": "http://a0.twimg.com/profile_background_images/155624996/blue_damask.jpg", "name": "Lauren Hutchinson", "lang": "en", "profile_background_tile": false, "favourites_count": 6, "screen_name": "Lauren0740", "notifications": false, "url": "http://www.facebook.com/people/Lauren-Hutchinson/624569895", "created_at": "Thu Mar 12 03:04:55 +0000 2009", "contributors_enabled": false, "time_zone": "Quito", "protected": false, "default_profile": false, "is_translator": false}, "geo": null, "in_reply_to_user_id_str": null, "source": "<a href=\"http://www.tweetdeck.com/\" rel=\"nofollow\">TweetDeck</a>", "created_at": "Sun May 30 01:32:33 +0000 2010", "retweeted": false, "coordinates": null, "id": 15010709779, "entities": {"user_mentions": [], "hashtags": [], "urls": []}, "in_reply_to_status_id_str": null, "in_reply_to_screen_name": null, "id_str": "15010709779", "place": null, "retweet_count": 0, "in_reply_to_user_id": null}
{"favorited": false, "contributors": null, "truncated": false, "text": "Are you freaking kidding me? The one marlins game I decide to skip, Roy halladay pitches a perfect game. WTF. My parents are even there! Lol", "eid": "TM976", "in_reply_to_status_id": null, "user": {"follow_request_sent": false, "profile_use_background_image": true, "default_profile_image": false, "id": 23882869, "verified": false, "profile_image_url_https": "https://si0.twimg.com/profile_images/3123360081/d18681250ee50e814d4517e5adb67b86_normal.jpeg", "profile_sidebar_fill_color": "FA52B0", "profile_text_color": "000000", "followers_count": 555, "profile_sidebar_border_color": "FDC9FA", "id_str": "23882869", "profile_background_color": "F6468E", "listed_count": 39, "profile_background_image_url_https": "https://si0.twimg.com/profile_background_images/155624996/blue_damask.jpg", "utc_offset": -18000, "statuses_count": 12506, "description": "You can follow me on twitter but not in real life.", "friends_count": 149, "location": "Sunny, FL", "profile_link_color": "000000", "profile_image_url": "http://a0.twimg.com/profile_images/3123360081/d18681250ee50e814d4517e5adb67b86_normal.jpeg", "following": false, "geo_enabled": true, "profile_banner_url": "https://si0.twimg.com/profile_banners/23882869/1349885676", "profile_background_image_url": "http://a0.twimg.com/profile_background_images/155624996/blue_damask.jpg", "name": "Lauren Hutchinson", "lang": "en", "profile_background_tile": false, "favourites_count": 6, "screen_name": "Lauren0740", "notifications": false, "url": "http://www.facebook.com/people/Lauren-Hutchinson/624569895", "created_at": "Thu Mar 12 03:04:55 +0000 2009", "contributors_enabled": false, "time_zone": "Quito", "protected": false, "default_profile": false, "is_translator": false}, "geo": null, "in_reply_to_user_id_str": null, "source": "<a href=\"http://www.tweetdeck.com/\" rel=\"nofollow\">TweetDeck</a>", "created_at": "Sun May 30 01:31:45 +0000 2010", "retweeted": false, "coordinates": null, "id": 15010669944, "entities": {"user_mentions": [], "hashtags": [], "urls": []}, "in_reply_to_status_id_str": null, "in_reply_to_screen_name": null, "id_str": "15010669944", "place": null, "retweet_count": 0, "in_reply_to_user_id": null}
{"favorited": false, "contributors": null, "truncated": false, "text": "Phillies pitcher Roy Halladay throws a perfect game http://news.yahoo.com/s/ap/20100530/ap_on_sp_ba_ga_su/bbn_phillies_marlins", "eid": "TM976", "in_reply_to_status_id": null, "user": {"follow_request_sent": false, "profile_use_background_image": true, "default_profile_image": false, "id": 44692592, "verified": false, "profile_image_url_https": "https://si0.twimg.com/profile_images/3017057942/3bcacc117ee5deb3d7f1766f3a422a74_normal.jpeg", "profile_sidebar_fill_color": "252429", "profile_text_color": "666666", "followers_count": 600, "profile_sidebar_border_color": "181A1E", "id_str": "44692592", "profile_background_color": "1A1B1F", "listed_count": 38, "profile_background_image_url_https": "https://si0.twimg.com/images/themes/theme9/bg.gif", "utc_offset": -18000, "statuses_count": 26092, "description": "Writer, customer service guy, textbook seller, film fan, seeker in a sea of humanity struggling to right itself...then again, it's all in the search sometimes.", "friends_count": 611, "location": "Rochester, NY", "profile_link_color": "2FC2EF", "profile_image_url": "http://a0.twimg.com/profile_images/3017057942/3bcacc117ee5deb3d7f1766f3a422a74_normal.jpeg", "following": false, "geo_enabled": false, "profile_background_image_url": "http://a0.twimg.com/images/themes/theme9/bg.gif", "name": "Justin Rielly", "lang": "en", "profile_background_tile": false, "favourites_count": 8, "screen_name": "JustinMR25", "notifications": false, "url": "http://jmr2minute.tumblr.com", "created_at": "Thu Jun 04 19:13:08 +0000 2009", "contributors_enabled": false, "time_zone": "Eastern Time (US & Canada)", "protected": false, "default_profile": false, "is_translator": false}, "geo": null, "in_reply_to_user_id_str": null, "source": "web", "created_at": "Sun May 30 13:24:40 +0000 2010", "retweeted": false, "coordinates": null, "id": 15040801485, "entities": {"user_mentions": [], "hashtags": [], "urls": []}, "in_reply_to_status_id_str": null, "in_reply_to_screen_name": null, "id_str": "15040801485", "place": null, "retweet_count": 0, "in_reply_to_user_id": null}
{"favorited": false, "contributors": null, "truncated": false, "text": ".: Oh boy Roy! Halladay perfect against Marlins http://www.affiliatecrunch.com/oh-boy-roy-halladay-perfect-against-marlins/topic105492.html", "eid": "TM976", "in_reply_to_status_id": null, "user": {"follow_request_sent": false, "profile_use_background_image": true, "default_profile_image": false, "id": 84258997, "verified": false, "profile_image_url_https": "https://si0.twimg.com/profile_images/2283018550/4oivb5b76l3zk2ds20ng_normal.png", "profile_sidebar_fill_color": "DDEEF6", "profile_text_color": "333333", "followers_count": 4410, "profile_sidebar_border_color": "C0DEED", "id_str": "84258997", "profile_background_color": "C0DEED", "listed_count": 87, "profile_background_image_url_https": "https://si0.twimg.com/images/themes/theme1/bg.png", "utc_offset": -28800, "statuses_count": 13157, "description": "Affiliate Marketing News", "friends_count": 4041, "location": "Philippines", "profile_link_color": "0084B4", "profile_image_url": "http://a0.twimg.com/profile_images/2283018550/4oivb5b76l3zk2ds20ng_normal.png", "following": false, "geo_enabled": false, "profile_background_image_url": "http://a0.twimg.com/images/themes/theme1/bg.png", "name": "Affiliate Crunch", "lang": "en", "profile_background_tile": false, "favourites_count": 0, "screen_name": "affiliatecrunch", "notifications": false, "url": "http://www.affiliatecrunch.com", "created_at": "Thu Oct 22 06:36:29 +0000 2009", "contributors_enabled": false, "time_zone": "Pacific Time (US & Canada)", "protected": false, "default_profile": true, "is_translator": false}, "geo": null, "in_reply_to_user_id_str": null, "source": "<a href=\"http://alexking.org/projects/wordpress\" rel=\"nofollow\">Twitter Tools</a>", "created_at": "Sun May 30 04:35:13 +0000 2010", "retweeted": false, "coordinates": null, "id": 15020247800, "entities": {"user_mentions": [], "hashtags": [], "urls": []}, "in_reply_to_status_id_str": null, "in_reply_to_screen_name": null, "id_str": "15020247800", "place": null, "retweet_count": 0, "in_reply_to_user_id": null}
{"favorited": false, "contributors": null, "truncated": false, "text": "Y did halladay have to throw a perfect game against my marlins!!!!  #cmonson. That's some shit right there, smfh", "eid": "TM976", "in_reply_to_status_id": null, "user": {"follow_request_sent": false, "profile_use_background_image": true, "default_profile_image": false, "id": 65270294, "verified": false, "profile_image_url_https": "https://si0.twimg.com/profile_images/3069494254/8e9b13c8e6c1de8d2ab419eb60bc786a_normal.jpeg", "profile_sidebar_fill_color": "DDEEF6", "profile_text_color": "333333", "followers_count": 192, "profile_sidebar_border_color": "C0DEED", "id_str": "65270294", "profile_background_color": "C0DEED", "listed_count": 1, "profile_background_image_url_https": "https://si0.twimg.com/images/themes/theme1/bg.png", "utc_offset": null, "statuses_count": 8022, "description": "", "friends_count": 578, "location": "iPhone: 43.158302,-78.668938", "profile_link_color": "0084B4", "profile_image_url": "http://a0.twimg.com/profile_images/3069494254/8e9b13c8e6c1de8d2ab419eb60bc786a_normal.jpeg", "following": false, "geo_enabled": true, "profile_background_image_url": "http://a0.twimg.com/images/themes/theme1/bg.png", "name": "John  Adams jr", "lang": "en", "profile_background_tile": false, "favourites_count": 4, "screen_name": "Bcat1569", "notifications": false, "url": null, "created_at": "Thu Aug 13 04:10:21 +0000 2009", "contributors_enabled": false, "time_zone": null, "protected": false, "default_profile": true, "is_translator": false}, "geo": null, "in_reply_to_user_id_str": null, "source": "<a href=\"http://www.echofon.com/\" rel=\"nofollow\">Echofon</a>", "created_at": "Sun May 30 03:16:30 +0000 2010", "retweeted": false, "coordinates": null, "id": 15016136075, "entities": {"user_mentions": [], "hashtags": [{"indices": [68, 76], "text": "cmonson"}], "urls": []}, "in_reply_to_status_id_str": null, "in_reply_to_screen_name": null, "id_str": "15016136075", "place": null, "retweet_count": 0, "in_reply_to_user_id": null}
{"favorited": false, "contributors": null, "truncated": false, "text": "congrats to roy halladay for the perfect game vs marlins!", "eid": "TM976", "in_reply_to_status_id": null, "user": {"follow_request_sent": false, "profile_use_background_image": true, "default_profile_image": false, "id": 61335647, "verified": false, "profile_image_url_https": "https://si0.twimg.com/profile_images/3100112397/f13347fdcf8573dfeab498b403d19c7f_normal.jpeg", "profile_sidebar_fill_color": "000000", "profile_text_color": "4D4D4D", "followers_count": 582, "profile_sidebar_border_color": "FF0000", "id_str": "61335647", "profile_background_color": "ACDED6", "listed_count": 20, "profile_background_image_url_https": "https://si0.twimg.com/profile_background_images/649460538/spw067k79jtyob9e8vwz.jpeg", "utc_offset": -18000, "statuses_count": 25486, "description": "Proud Father of 2, Free thinking/speaking,Tampa Bay Bucs loving,Obama Supporting, sports loving, Blue Collar American. All Hail!", "friends_count": 514, "location": "Pennsylvania U.S.A.", "profile_link_color": "038543", "profile_image_url": "http://a0.twimg.com/profile_images/3100112397/f13347fdcf8573dfeab498b403d19c7f_normal.jpeg", "following": false, "geo_enabled": false, "profile_background_image_url": "http://a0.twimg.com/profile_background_images/649460538/spw067k79jtyob9e8vwz.jpeg", "name": "We Want The Cup", "lang": "en", "profile_background_tile": true, "favourites_count": 47, "screen_name": "Emperor2k9", "notifications": false, "url": null, "created_at": "Thu Jul 30 00:13:39 +0000 2009", "contributors_enabled": false, "time_zone": "Eastern Time (US & Canada)", "protected": false, "default_profile": false, "is_translator": false}, "geo": null, "in_reply_to_user_id_str": null, "source": "web", "created_at": "Sun May 30 02:19:28 +0000 2010", "retweeted": false, "coordinates": null, "id": 15013091883, "entities": {"user_mentions": [], "hashtags": [], "urls": []}, "in_reply_to_status_id_str": null, "in_reply_to_screen_name": null, "id_str": "15013091883", "place": null, "retweet_count": 0, "in_reply_to_user_id": null}
{"favorited": false, "contributors": null, "truncated": false, "text": "@OpieRadio perfect game for the philly crew.  halladay 1-0 over the marlins.", "eid": "TM976", "in_reply_to_status_id": null, "user": {"follow_request_sent": false, "profile_use_background_image": true, "default_profile_image": false, "id": 15122553, "verified": true, "profile_image_url_https": "https://si0.twimg.com/profile_images/1234521941/gym2_normal.jpg", "profile_sidebar_fill_color": "CCD0D4", "profile_text_color": "333333", "followers_count": 47858, "profile_sidebar_border_color": "C0DEED", "id_str": "15122553", "profile_background_color": "C0DEED", "listed_count": 1122, "profile_background_image_url_https": "https://si0.twimg.com/profile_background_images/43094892/wwtdd_tile.jpg", "utc_offset": -18000, "statuses_count": 4290, "description": "my name is brendon.  i write 'what would tyler durden do'.  not very well, mind you.", "friends_count": 330, "location": "atlanta", "profile_link_color": "0084B4", "profile_image_url": "http://a0.twimg.com/profile_images/1234521941/gym2_normal.jpg", "following": false, "geo_enabled": true, "profile_background_image_url": "http://a0.twimg.com/profile_background_images/43094892/wwtdd_tile.jpg", "name": "wwtdd", "lang": "en", "profile_background_tile": true, "favourites_count": 1, "screen_name": "wwtdd", "notifications": false, "url": "http://www.wwtdd.com/", "created_at": "Sun Jun 15 05:16:50 +0000 2008", "contributors_enabled": false, "time_zone": "Quito", "protected": false, "default_profile": false, "is_translator": false}, "geo": null, "in_reply_to_user_id_str": "19143584", "source": "web", "created_at": "Sun May 30 01:32:20 +0000 2010", "retweeted": false, "coordinates": null, "id": 15010699479, "entities": {"user_mentions": [{"id": 19143584, "indices": [0, 10], "id_str": "19143584", "screen_name": "OpieRadio", "name": "opie radio"}], "hashtags": [], "urls": []}, "in_reply_to_status_id_str": null, "in_reply_to_screen_name": "OpieRadio", "id_str": "15010699479", "place": null, "retweet_count": 2, "in_reply_to_user_id": 19143584}
{"favorited": false, "contributors": null, "truncated": false, "text": "( http://mobiledailynews.mobi/halladay-throws-perfect-game-beats-marlins-1-0-ap/ )", "eid": "TM976", "in_reply_to_status_id": null, "user": {"follow_request_sent": false, "profile_use_background_image": true, "default_profile_image": true, "id": 118433972, "verified": false, "profile_image_url_https": "https://si0.twimg.com/sticky/default_profile_images/default_profile_6_normal.png", "profile_sidebar_fill_color": "DDEEF6", "profile_text_color": "333333", "followers_count": 151, "profile_sidebar_border_color": "C0DEED", "id_str": "118433972", "profile_background_color": "C0DEED", "listed_count": 3, "profile_background_image_url_https": "https://si0.twimg.com/images/themes/theme1/bg.png", "utc_offset": null, "statuses_count": 44486, "description": "", "friends_count": 0, "location": "", "profile_link_color": "0084B4", "profile_image_url": "http://a0.twimg.com/sticky/default_profile_images/default_profile_6_normal.png", "following": false, "geo_enabled": false, "profile_background_image_url": "http://a0.twimg.com/images/themes/theme1/bg.png", "name": "Sandy", "lang": "en", "profile_background_tile": false, "favourites_count": 0, "screen_name": "MobileDailyNews", "notifications": false, "url": null, "created_at": "Sun Feb 28 17:43:52 +0000 2010", "contributors_enabled": false, "time_zone": null, "protected": false, "default_profile": true, "is_translator": false}, "geo": null, "in_reply_to_user_id_str": null, "source": "<a href=\"http://dev.twitter.com/\" rel=\"nofollow\">API</a>", "created_at": "Sun May 30 01:42:41 +0000 2010", "retweeted": false, "coordinates": null, "id": 15011224328, "entities": {"user_mentions": [], "hashtags": [], "urls": []}, "in_reply_to_status_id_str": null, "in_reply_to_screen_name": null, "id_str": "15011224328", "place": null, "retweet_count": 0, "in_reply_to_user_id": null}
{"favorited": false, "contributors": null, "truncated": false, "text": "@OpieRadio perfect game for the philly crew.  halladay 1-0 over the marlins.", "eid": "TM976", "in_reply_to_status_id": null, "user": {"follow_request_sent": false, "profile_use_background_image": true, "default_profile_image": false, "id": 15122553, "verified": true, "profile_image_url_https": "https://si0.twimg.com/profile_images/1234521941/gym2_normal.jpg", "profile_sidebar_fill_color": "CCD0D4", "profile_text_color": "333333", "followers_count": 47858, "profile_sidebar_border_color": "C0DEED", "id_str": "15122553", "profile_background_color": "C0DEED", "listed_count": 1122, "profile_background_image_url_https": "https://si0.twimg.com/profile_background_images/43094892/wwtdd_tile.jpg", "utc_offset": -18000, "statuses_count": 4290, "description": "my name is brendon.  i write 'what would tyler durden do'.  not very well, mind you.", "friends_count": 330, "location": "atlanta", "profile_link_color": "0084B4", "profile_image_url": "http://a0.twimg.com/profile_images/1234521941/gym2_normal.jpg", "following": false, "geo_enabled": true, "profile_background_image_url": "http://a0.twimg.com/profile_background_images/43094892/wwtdd_tile.jpg", "name": "wwtdd", "lang": "en", "profile_background_tile": true, "favourites_count": 1, "screen_name": "wwtdd", "notifications": false, "url": "http://www.wwtdd.com/", "created_at": "Sun Jun 15 05:16:50 +0000 2008", "contributors_enabled": false, "time_zone": "Quito", "protected": false, "default_profile": false, "is_translator": false}, "geo": null, "in_reply_to_user_id_str": "19143584", "source": "web", "created_at": "Sun May 30 01:32:20 +0000 2010", "retweeted": false, "coordinates": null, "id": 15010699479, "entities": {"user_mentions": [{"id": 19143584, "indices": [0, 10], "id_str": "19143584", "screen_name": "OpieRadio", "name": "opie radio"}], "hashtags": [], "urls": []}, "in_reply_to_status_id_str": null, "in_reply_to_screen_name": "OpieRadio", "id_str": "15010699479", "place": null, "retweet_count": 2, "in_reply_to_user_id": 19143584}
{"favorited": false, "contributors": null, "truncated": false, "text": "@TheDalyPlanet @racepix i'll join you guys after the soccer match. still smiling from an effin perfect game from halladay vs marlins!", "eid": "TM976", "in_reply_to_status_id": 15011224609, "user": {"follow_request_sent": false, "profile_use_background_image": true, "default_profile_image": false, "id": 26917098, "verified": false, "profile_image_url_https": "https://si0.twimg.com/profile_images/678677609/800px-RalphEarnhardtReplica_normal.jpg", "profile_sidebar_fill_color": "DDEEF6", "profile_text_color": "333333", "followers_count": 135, "profile_sidebar_border_color": "C0DEED", "id_str": "26917098", "profile_background_color": "C0DEED", "listed_count": 9, "profile_background_image_url_https": "https://si0.twimg.com/images/themes/theme1/bg.png", "utc_offset": -18000, "statuses_count": 12256, "description": "red: as much a state of mind as a hair color. ", "friends_count": 180, "location": "outside philly PA", "profile_link_color": "0084B4", "profile_image_url": "http://a0.twimg.com/profile_images/678677609/800px-RalphEarnhardtReplica_normal.jpg", "following": false, "geo_enabled": false, "profile_background_image_url": "http://a0.twimg.com/images/themes/theme1/bg.png", "name": "red", "lang": "en", "profile_background_tile": false, "favourites_count": 0, "screen_name": "red8814", "notifications": false, "url": null, "created_at": "Fri Mar 27 01:45:23 +0000 2009", "contributors_enabled": false, "time_zone": "Eastern Time (US & Canada)", "protected": false, "default_profile": false, "is_translator": false}, "geo": null, "in_reply_to_user_id_str": "24449694", "source": "web", "created_at": "Sun May 30 01:44:02 +0000 2010", "retweeted": false, "coordinates": null, "id": 15011290495, "entities": {"user_mentions": [{"id": 24449694, "indices": [0, 14], "id_str": "24449694", "screen_name": "TheDalyPlanet", "name": "John Daly "}, {"id": 39840248, "indices": [15, 23], "id_str": "39840248", "screen_name": "racepix", "name": "Boyd Adams"}], "hashtags": [], "urls": []}, "in_reply_to_status_id_str": "15011224609", "in_reply_to_screen_name": "TheDalyPlanet", "id_str": "15011290495", "place": null, "retweet_count": 0, "in_reply_to_user_id": 24449694}
{"favorited": false, "contributors": null, "truncated": false, "text": "How do the phillies lose to the marlins the day after Halladay throws a perfect complete game?!", "eid": "TM976", "in_reply_to_status_id": null, "user": {"follow_request_sent": false, "profile_use_background_image": true, "default_profile_image": false, "id": 18657671, "verified": false, "profile_image_url_https": "https://si0.twimg.com/profile_images/3012875821/3f272c88e899d2999260d3a291c1c757_normal.jpeg", "profile_sidebar_fill_color": "FFFFFF", "profile_text_color": "8F2881", "followers_count": 611, "profile_sidebar_border_color": "8F2881", "id_str": "18657671", "profile_background_color": "FFFFFF", "listed_count": 10, "profile_background_image_url_https": "https://si0.twimg.com/profile_background_images/585770838/rifk77o1il5fn8x2dafv.jpeg", "utc_offset": -21600, "statuses_count": 27841, "description": "Yo. My job is cool: @slospeak", "friends_count": 200, "location": "Nashville, TN", "profile_link_color": "8F2881", "profile_image_url": "http://a0.twimg.com/profile_images/3012875821/3f272c88e899d2999260d3a291c1c757_normal.jpeg", "following": false, "geo_enabled": true, "profile_banner_url": "https://si0.twimg.com/profile_banners/18657671/1353400534", "profile_background_image_url": "http://a0.twimg.com/profile_background_images/585770838/rifk77o1il5fn8x2dafv.jpeg", "name": "Carli Marlowe", "lang": "en", "profile_background_tile": true, "favourites_count": 819, "screen_name": "carliii", "notifications": false, "url": null, "created_at": "Tue Jan 06 02:21:44 +0000 2009", "contributors_enabled": false, "time_zone": "Central Time (US & Canada)", "protected": false, "default_profile": false, "is_translator": false}, "geo": null, "in_reply_to_user_id_str": null, "source": "<a href=\"http://twitter.com/devices\" rel=\"nofollow\">txt</a>", "created_at": "Sun May 30 19:43:54 +0000 2010", "retweeted": false, "coordinates": null, "id": 15060830647, "entities": {"user_mentions": [], "hashtags": [], "urls": []}, "in_reply_to_status_id_str": null, "in_reply_to_screen_name": null, "id_str": "15060830647", "place": null, "retweet_count": 0, "in_reply_to_user_id": null}
