('photograph', 48)
('president', 42)
('obama', 35)
('show', 33)
('people', 26)
('facebook', 26)
('woman', 25)
('trump', 23)
('man', 23)
('shows', 21)
('donald', 21)
('2015', 20)
('new', 19)
('say', 19)
('order', 17)
('us', 17)
('photographs', 16)
('refugees', 15)
('video', 15)
('united', 13)
('depict', 13)
('flag', 13)
('black', 13)
('states', 13)
('said', 13)
('depicts', 13)
('muslim', 12)
('due', 12)
('banned', 11)
('users', 11)
('christmas', 11)
('first', 11)
('baby', 11)
('arrested', 11)
('confederate', 10)
('state', 10)
('american', 10)
('one', 10)
('would', 10)
('isis', 10)
('use', 10)
('women', 10)
('police', 9)
('military', 9)
('syrian', 9)
('sign', 9)
('get', 9)
('pope', 9)
('law', 9)
('free', 8)
('news', 8)
('100', 8)
('school', 8)
('found', 8)
('killed', 8)
('mother', 8)
('like', 8)
('actor', 8)
('francis', 8)
('city', 8)
('white', 8)
('using', 8)
('sex', 8)
('walmart', 8)
('fox', 8)
('died', 8)
('gay', 8)
('china', 7)
('two', 7)
('post', 7)
('issued', 7)
('child', 7)
('store', 7)
('giving', 7)
('texas', 7)
('children', 7)
('america', 7)
('chain', 7)
('world', 7)
('muslims', 7)
('dead', 7)
('named', 7)
('young', 7)
('announced', 6)
('ban', 6)
('away', 6)
('caught', 6)
('days', 6)
('make', 6)
('americans', 6)
('back', 6)
('university', 6)
('media', 6)
('mcdonald', 6)
('study', 6)
('million', 6)
('2016', 6)
('brand', 6)
('november', 6)
('shooter', 6)
