('facebook', 24)
('social', 20)
('media', 20)
('police', 18)
('viral', 18)
('controversy', 17)
('woman', 16)
('2015', 15)
('us', 15)
('president', 13)
('man', 13)
('obama', 13)
('home', 13)
('school', 12)
('death', 12)
('new', 12)
('charlie', 12)
('news', 11)
('reported', 11)
('photograph', 11)
('shooting', 10)
('marriage', 10)
('claims', 10)
('user', 10)
('died', 9)
('flag', 9)
('employee', 9)
('rumors', 9)
('kentucky', 8)
('two', 8)
('isis', 8)
('service', 8)
('hoax', 8)
('customer', 8)
('laxamana', 8)
('izabel', 8)
('claimed', 8)
('claim', 7)
('dead', 7)
('killed', 7)
('texas', 7)
('family', 7)
('walmart', 7)
('report', 7)
('said', 7)
('court', 7)
('gay', 7)
('county', 6)
('davis', 6)
('trump', 6)
('found', 6)
('kim', 6)
('photo', 6)
('jenner', 6)
('clerk', 6)
('went', 6)
('supreme', 6)
('change', 6)
('license', 6)
('may', 6)
('target', 6)
('boy', 6)
('fox', 6)
('decision', 6)
('video', 6)
('shows', 6)
('chattanooga', 6)
('york', 5)
('halloween', 5)
('state', 5)
('duggar', 5)
('wounded', 5)
('martin', 5)
('reports', 5)
('pool', 5)
('mcdonald', 5)
('challenge', 5)
('toys', 5)
('guy', 5)
('national', 5)
('men', 5)
('student', 5)
('due', 5)
('warning', 5)
('dies', 5)
('day', 5)
('children', 5)
('tv', 5)
('donald', 5)
('residents', 5)
('jersey', 5)
('jade', 4)
('confederate', 4)
('driver', 4)
('chicago', 4)
('dolezal', 4)
('account', 4)
('issued', 4)
('child', 4)
('four', 4)
